{
    "_id": "DI21110422013889",
    "name": "Magische Nachteile",
    "type": "Item",
    "sorting": "a",
    "folder": null,
    "sort": 0,
    "color": "#000000",
    "_key": "!folders!DI21110422013889"
}
