{
    "_id": "AF16311510116216",
    "name": "Affinität zu Dämonen",
    "type": "advantage",
    "img": "systems/tde5e/assets/defaultItems/advantage_magical.svg",
    "system": {
        "cid": "AFFINITAT_ZU_DAMONEN",
        "group": "arcane",
        "onlyWhenCommonOrSuggested": false,
        "purchase": {
            "cost": [
                10
            ],
            "description": "10 Abenteuerpunkte",
            "levels": 1,
            "maxTimeBuyable": 1
        },
        "requirementText": "Vorteil Zauberer, nicht Vorteil Affinität zu Elementaren",
        "sources": [
            "AVENTURISCHE_MAGIE_1"
        ],
        "variant": {
            "categories": [],
            "input": false,
            "available": [],
            "level": 1,
            "selected": null
        },
        "flavor": "",
        "notes": "",
        "gmNotes": "",
        "rule": "Der Held kann Dämonen leichter zu einem Dienst überreden, wenn er sie selbst beschworen hat. Der Dämon erfüllt ihm einen zusätzlichen Dienst (bis zu einem Maximum von 6 Diensten).",
        "parents": []
    },
    "effects": [],
    "folder": "AD18616310321886",
    "_key": "!items!AF16311510116216"
}
