{
    "_id": "BL10716213420918",
    "name": "Blutrausch",
    "type": "disadvantage",
    "img": "systems/tde5e/assets/defaultItems/disadvantage_common.svg",
    "system": {
        "cid": "BLUTRAUSCH_NACHTEIL",
        "group": "normal",
        "onlyWhenCommonOrSuggested": false,
        "purchase": {
            "cost": [
                -10
            ],
            "description": "10 Abenteuerpunkte",
            "levels": 1,
            "maxTimeBuyable": 1
        },
        "requirementText": "Nachteil Schlechte Eigenschaft (Jähzorn), nicht Nachteil Angst vor … (Blut)",
        "sources": [
            "REGELWERK"
        ],
        "variant": {
            "categories": [],
            "input": false,
            "available": [],
            "level": 1,
            "selected": null
        },
        "flavor": "",
        "notes": "",
        "gmNotes": "",
        "rule": "Der Held erhält unter speziellen Umständen den Status @UUID[Compendium.tde5e.states.Item.BL22484208230220]{Blutrausch}. Der Blutrausch wird aktiviert, wenn der Held durch einen Angriff eine Stufe des Zustands @UUID[Compendium.tde5e.conditions.Item.SC72173204142222]{Schmerz} erleidet oder ihm seine Probe auf @UUID[Compendium.tde5e.skills.Item.WI13315915718951]{Willenskraft} zur Aktivierung der Schlechten Eigenschaft Jähzorn misslingt.",
        "parents": []
    },
    "effects": [],
    "folder": "DI10215131421646",
    "_key": "!items!BL10716213420918"
}
