{
    "_id": "BL12011311420312",
    "name": "Blutzauberer",
    "type": "advantage",
    "img": "systems/tde5e/assets/defaultItems/advantage_blessed.svg",
    "system": {
        "cid": "BLUTZAUBERER",
        "group": "arcane",
        "onlyWhenCommonOrSuggested": false,
        "purchase": {
            "cost": [
                0
            ],
            "description": "0 Abenteuerpunkte",
            "levels": 1,
            "maxTimeBuyable": 1
        },
        "requirementText": "SF Zauberei mit Lebenskraft",
        "sources": [
            "AVENTURISCHE_MAGIE_3"
        ],
        "variant": {
            "categories": [],
            "input": false,
            "available": [],
            "level": 1,
            "selected": null
        },
        "flavor": "",
        "notes": "",
        "gmNotes": "",
        "rule": "Der Held wird zum Zauberer, obwohl er nicht mit der Gabe der Zauberei geboren wurde. Er verfügt nicht über einen eigenen AsP-Vorrat, sondern zaubert stattdessen mit seiner Lebensenergie. Dabei sind Lebenspunkte doppelt so viel Wert wie AsP, sodass ein Zauber, der 7 AsP kosten würde, den Helden nur 4 LeP kosten. Hat der Held einen eigenen AsP-Vorrat, kann er sich bei jedem Zauber entscheiden, ob er mit AsP oder LeP zaubern möchte.",
        "parents": []
    },
    "effects": [],
    "folder": "AD18616310321886",
    "_key": "!items!BL12011311420312"
}
