{
    "_id": "FU18823520317525",
    "name": "Fuchssinn",
    "type": "advantage",
    "img": "systems/tde5e/assets/defaultItems/advantage_common.svg",
    "system": {
        "cid": "FUCHSSINN",
        "group": "normal",
        "onlyWhenCommonOrSuggested": false,
        "purchase": {
            "cost": [
                15
            ],
            "description": "15 Abenteuerpunkte",
            "levels": 1,
            "maxTimeBuyable": 1
        },
        "requirementText": "keine",
        "sources": [
            "REGELWERK"
        ],
        "variant": {
            "categories": [],
            "input": false,
            "available": [],
            "level": 1,
            "selected": null
        },
        "flavor": "",
        "notes": "",
        "gmNotes": "",
        "parents": [
            "Compendium.tde5e.skills.Item.SI80193235230167"
        ],
        "rule": "Mit Proben auf das erweiterte Anwendungsgebiet @UUID[Compendium.tde5e.skills.Item.SI80193235230167]{Sinnesschärfe (Fuchssinn)} kann der Held Fallen erspüren, die mit den herkömmlichen Sinnen nicht entdeckt werden können."
    },
    "effects": [],
    "folder": "AD67281377383516",
    "_key": "!items!FU18823520317525"
}
