{
    "_id": "GI15919498101760",
    "name": "Gier",
    "type": "disadvantage",
    "img": "systems/tde5e/assets/defaultItems/disadvantage_common.svg",
    "system": {
        "cid": "GIER",
        "group": "normal",
        "onlyWhenCommonOrSuggested": false,
        "purchase": {
            "cost": [
                -5
            ],
            "description": "5 Abenteuerpunkte",
            "levels": 1,
            "maxTimeBuyable": 1
        },
        "requirementText": "keine",
        "sources": [
            "REGELWERK"
        ],
        "variant": {
            "categories": [],
            "input": true,
            "available": [],
            "level": 1,
            "selected": null
        },
        "flavor": "",
        "notes": "",
        "gmNotes": "",
        "rule": "Gierige Helden sind bereit beinahe alles dafür zu tun, um ihre Gier zu stillen. Auch vor Gefahr schrecken sie nicht zurück. Ein passendes Ziel muss für diese Gier ausgewählt werden, dabei kann es sich um Gegenstände wie Gold oder Kunstwerke handeln, aber auch um Taten (z.B. Streiten). Die Gier hat ihn so lange im Griff, wie er dem Auslöser ausgesetzt ist. Der Meister kann für die Probe auf @UUID[Compendium.tde5e.skills.Item.WI13315915718951]{Willenskraft} entsprechend der Stärke des Auslösers Erschwernisse oder Erleichterungen aussprechen.",
        "parents": []
    },
    "effects": [],
    "folder": "DI10215131421646",
    "_key": "!items!GI15919498101760"
}
