{
    "_id": "GU93816821016025",
    "name": "Gutaussehend",
    "type": "advantage",
    "img": "systems/tde5e/assets/defaultItems/advantage_common.svg",
    "system": {
        "cid": "GUTAUSSEHEND",
        "group": "normal",
        "onlyWhenCommonOrSuggested": false,
        "purchase": {
            "cost": [
                20,
                20
            ],
            "description": "20 Abenteuerpunkte pro Stufe",
            "levels": 2,
            "maxTimeBuyable": 1
        },
        "requirementText": "nicht Nachteil Hässlich",
        "sources": [
            "REGELWERK"
        ],
        "variant": {
            "categories": [],
            "input": false,
            "available": [],
            "level": 1,
            "selected": null
        },
        "flavor": "",
        "notes": "",
        "gmNotes": "",
        "rule": "Jede Stufe des Vorteils gibt dem Helden eine Erleichterung von 1 auf @UUID[Compendium.tde5e.skills.Item.BE22019221941182]{Betören (Anbändeln, Liebeskünste)}, @UUID[Compendium.tde5e.skills.Item.UB25018415118918]{Überreden (Aufschwatzen, Herausreden, Manipulieren, Schmeicheln)} und @UUID[Compendium.tde5e.skills.Item.HA19014124211567]{Handel (Feilschen)}.",
        "parents": []
    },
    "effects": [],
    "folder": "AD67281377383516",
    "_key": "!items!GU93816821016025"
}
