{
    "_id": "GU12111691931716",
    "name": "Gutes Namensgedächtnis",
    "type": "advantage",
    "img": "systems/tde5e/assets/defaultItems/advantage_common.svg",
    "system": {
        "cid": "GUTES_NAMENSGEDACHTNIS",
        "group": "normal",
        "onlyWhenCommonOrSuggested": false,
        "purchase": {
            "cost": [
                2
            ],
            "description": "2 Abenteuerpunkte",
            "levels": 1,
            "maxTimeBuyable": 1
        },
        "requirementText": "nicht Nachteil Schlechtes Namensgedächtnis",
        "sources": [
            "AVENTURISCHE_NAMEN"
        ],
        "variant": {
            "categories": [],
            "input": false,
            "available": [],
            "level": 1,
            "selected": null
        },
        "flavor": "",
        "notes": "",
        "gmNotes": "",
        "rule": "Die Abenteurerin kann sich an so gut wie jeden Namen (samt Titel, Ränge und Ämter) erinnern. Der Meister sollte voraussetzen, dass die Heldin Personen immer den korrekten Namen zuordnen kann, auch wenn der Spieler der Heldin sich nicht immer erinnert. Zudem kann der Meister in passenden Situationen, z. B. auf Festen oder wenn der korrekte Name eine wichtige Rolle spielt, dem Spieler eine Erleichterung von 1 bei der Teilprobe auf Klugheit bei @UUID[Compendium.tde5e.skills.Item.ET92146421911932]{Etikette (Heraldik &amp; Stammbäume, Klatsch &amp; Tratsch)} zugestehen.",
        "parents": []
    },
    "effects": [],
    "folder": "AD67281377383516",
    "_key": "!items!GU12111691931716"
}
