{
    "_id": "HE35591881565014",
    "name": "Herausragender Sinn",
    "type": "advantage",
    "img": "systems/tde5e/assets/defaultItems/advantage_common.svg",
    "system": {
        "cid": "HERAUSRAGENDER_SINN",
        "group": "normal",
        "onlyWhenCommonOrSuggested": false,
        "purchase": {
            "cost": [],
            "description": "Sicht/Gehör: 12 Abenteuerpunkte; Geruch & Geschmack: 6 Abenteuerpunkte; Tastsinn: 2 Abenteuerpunkte",
            "levels": 1,
            "maxTimeBuyable": null
        },
        "requirementText": "nicht Nachteil Eingeschränkter Sinn für den gleichen Sinn, nicht Nachteil Blind (für Sicht), nicht Nachteil Taub (für Gehör)",
        "sources": [
            "REGELWERK"
        ],
        "variant": {
            "categories": [],
            "input": false,
            "available": [
                {
                    "vid": "SICHT",
                    "name": "Sicht",
                    "purchase": {
                        "cost": [
                            12
                        ],
                        "description": "12 Abenteuerpunkte"
                    },
                    "requirementText": "nicht Nachteil Blind, nicht Nachteil Eingeschränkter Sinn (Sicht)"
                },
                {
                    "vid": "GEHOR",
                    "name": "Gehör",
                    "purchase": {
                        "cost": [
                            12
                        ],
                        "description": "12 Abenteuerpunkte"
                    },
                    "requirementText": "nicht Nachteil Eingeschränkter Sinn (Gehör), nicht Nachteil Taub"
                },
                {
                    "vid": "GERUCH_UND_GESCHMACK",
                    "name": "Geruch & Geschmack",
                    "purchase": {
                        "cost": [
                            6
                        ],
                        "description": "6 Abenteuerpunkte"
                    },
                    "requirementText": "nicht Nachteil Eingeschränkter Sinn (Geruch & Geschmack)"
                },
                {
                    "vid": "TASTSINN",
                    "name": "Tastsinn",
                    "purchase": {
                        "cost": [
                            2
                        ],
                        "description": "2 Abenteuerpunkte"
                    },
                    "requirementText": "nicht Nachteil Eingeschränkter Sinn (Tastsinn)"
                }
            ],
            "level": 1,
            "selected": null
        },
        "flavor": "",
        "notes": "",
        "gmNotes": "",
        "rule": "Wer über einen Herausragenden Sinn verfügt, dessen Proben auf @UUID[Compendium.tde5e.skills.Item.SI80193235230167]{Sinnesschärfe} sind um 1 erleichtert, wenn die Probe den entsprechenden Sinn betrifft. Folgende Sinne können gewählt werden: Sicht, Gehör, Geruch &amp; Geschmack, Tastsinn. Herausragender Sinn ist mehrfach für die verschiedenen Sinne wählbar, nicht aber für einen einzelnen.",
        "parents": []
    },
    "effects": [],
    "folder": "AD67281377383516",
    "_key": "!items!HE35591881565014"
}
