{
    "_id": "KE46238161239781",
    "name": "Keine Flugsalbe",
    "type": "disadvantage",
    "img": "systems/tde5e/assets/defaultItems/disadvantage_magical.svg",
    "system": {
        "cid": "KEINE_FLUGSALBE",
        "group": "arcane",
        "onlyWhenCommonOrSuggested": false,
        "purchase": {
            "cost": [
                -25
            ],
            "description": "25 Abenteuerpunkte",
            "levels": 1,
            "maxTimeBuyable": 1
        },
        "requirementText": "Vorteil Zauberer, Zauberertradition kann Sonderfertigkeit Flugsalbe wählen",
        "sources": [
            "REGELWERK"
        ],
        "variant": {
            "categories": [],
            "input": false,
            "available": [],
            "level": 1,
            "selected": null
        },
        "flavor": "",
        "notes": "",
        "gmNotes": "",
        "rule": "Der Held kann die Sonderfertigkeit Flugsalbe nicht erwerben. Dadurch wird die Sonderfertigkeit Tradition (Hexe) um 10 AP billiger.",
        "parents": []
    },
    "effects": [],
    "folder": "DI21110422013889",
    "_key": "!items!KE46238161239781"
}
