{
    "_id": "KR75190140153224",
    "name": "Krankheitsresistenz",
    "type": "advantage",
    "img": "systems/tde5e/assets/defaultItems/advantage_common.svg",
    "system": {
        "cid": "KRANKHEITSRESISTENZ",
        "group": "normal",
        "onlyWhenCommonOrSuggested": false,
        "purchase": {
            "cost": [
                10,
                10
            ],
            "description": "10 Abenteuerpunkte pro Stufe",
            "levels": 2,
            "maxTimeBuyable": 1
        },
        "requirementText": "nicht Nachteil Krankheitsanfällig",
        "sources": [
            "REGELWERK"
        ],
        "variant": {
            "categories": [],
            "input": false,
            "available": [],
            "level": 1,
            "selected": null
        },
        "flavor": "",
        "notes": "",
        "gmNotes": "",
        "rule": "Eine Krankheitsresistenz verbessert Zähigkeit und Seelenkraft um 1 pro Stufe, wenn es darum geht, Krankheiten zu widerstehen.",
        "parents": []
    },
    "effects": [],
    "folder": "AD67281377383516",
    "_key": "!items!KR75190140153224"
}
