{
    "_id": "NA14925511601218",
    "name": "Nachtblind",
    "type": "disadvantage",
    "img": "systems/tde5e/assets/defaultItems/disadvantage_common.svg",
    "system": {
        "cid": "NACHTBLIND",
        "group": "normal",
        "onlyWhenCommonOrSuggested": false,
        "purchase": {
            "cost": [
                -10
            ],
            "description": "10 Abenteuerpunkte",
            "levels": 1,
            "maxTimeBuyable": 1
        },
        "requirementText": "nicht Vorteil Dunkelsicht, nicht Nachteil Blind",
        "sources": [
            "REGELWERK"
        ],
        "variant": {
            "categories": [],
            "input": false,
            "available": [],
            "level": 1,
            "selected": null
        },
        "flavor": "",
        "notes": "",
        "gmNotes": "",
        "rule": "Sobald der Held mindestens eine Stufe Sichterschwernis durch Dunkelheit erleidet, wird diese Erschwernis für ihn um eine Stufe erhöht.",
        "parents": []
    },
    "effects": [],
    "folder": "DI10215131421646",
    "_key": "!items!NA14925511601218"
}
