{
    "_id": "NI13072112810623",
    "name": "Niedrige Zähigkeit",
    "type": "disadvantage",
    "img": "systems/tde5e/assets/defaultItems/disadvantage_common.svg",
    "system": {
        "cid": "NIEDRIGE_ZAHIGKEIT",
        "group": "normal",
        "onlyWhenCommonOrSuggested": false,
        "purchase": {
            "cost": [
                -25
            ],
            "description": "25 Abenteuerpunkte",
            "levels": 1,
            "maxTimeBuyable": 1
        },
        "requirementText": "nicht Vorteil Hohe Zähigkeit",
        "sources": [
            "REGELWERK"
        ],
        "variant": {
            "categories": [],
            "input": false,
            "available": [],
            "level": 1,
            "selected": null
        },
        "flavor": "",
        "notes": "",
        "gmNotes": "",
        "rule": "Der ZK-Grundwert des Helden ist um 1 schlechter.",
        "parents": []
    },
    "effects": [],
    "folder": "DI10215131421646",
    "_key": "!items!NI13072112810623"
}
