{
    "_id": "RA64261946712180",
    "name": "Raubtiergeruch",
    "type": "disadvantage",
    "img": "systems/tde5e/assets/defaultItems/disadvantage_common.svg",
    "system": {
        "cid": "RAUBTIERGERUCH",
        "group": "normal",
        "onlyWhenCommonOrSuggested": false,
        "purchase": {
            "cost": [
                -3
            ],
            "description": "3 Abenteuerpunkte",
            "levels": 1,
            "maxTimeBuyable": 1
        },
        "requirementText": "Nachteil Unfähig (Reiten), Nachteil Unfähig (Tierkunde)",
        "sources": [
            "AVENTURISCHES_BESTIARIUM_1"
        ],
        "variant": {
            "categories": [],
            "input": false,
            "available": [],
            "level": 1,
            "selected": null
        },
        "flavor": "",
        "notes": "",
        "gmNotes": "",
        "rule": "Der Meister kann immer, wenn der Held nahe genug an domestizierten Tieren ist und diese ihn wittern, mit dem W6 würfeln. Bei einer 1 versuchen sie, vor der vermeintlichen Bedrohung zu fliehen. Hunde und Katzen meiden die Nähe eines Helden mit diesem Nachteil, Pferde scheuen und selbst Schafe und Ziegen fliehen blökend, sobald er sich ihnen nähert. Bei Proben auf @UUID[Compendium.tde5e.skills.Item.TI20015091191414]{Tierkunde} und @UUID[Compendium.tde5e.skills.Item.RE23213215098822]{Reiten} im Umgang mit domestizierten Tieren kann ein Held mit Raubtiergeruch maximal 1 QS übrig behalten.",
        "parents": []
    },
    "effects": [],
    "folder": "DI10215131421646",
    "_key": "!items!RA64261946712180"
}
