{
    "_id": "RE22312915817421",
    "name": "Reich",
    "type": "advantage",
    "img": "systems/tde5e/assets/defaultItems/advantage_common.svg",
    "system": {
        "cid": "REICH",
        "group": "normal",
        "onlyWhenCommonOrSuggested": false,
        "purchase": {
            "cost": [
                1,
                1,
                1,
                1,
                1,
                1,
                1,
                1,
                1,
                1
            ],
            "description": "1 Abenteuerpunkt pro Stufe",
            "levels": 10,
            "maxTimeBuyable": 1
        },
        "requirementText": "keine",
        "sources": [
            "REGELWERK"
        ],
        "variant": {
            "categories": [],
            "input": false,
            "available": [],
            "level": 1,
            "selected": null
        },
        "flavor": "",
        "notes": "",
        "gmNotes": "",
        "rule": "Durch den Vorteil Reich erhält ein Held bei der Generierung zusätzlich 250 Silbertaler pro Stufe.",
        "parents": []
    },
    "effects": [],
    "folder": "AD67281377383516",
    "_key": "!items!RE22312915817421"
}
