{
    "_id": "SC12020019320513",
    "name": "Schlechtes Namensgedächtnis",
    "type": "disadvantage",
    "img": "systems/tde5e/assets/defaultItems/disadvantage_common.svg",
    "system": {
        "cid": "SCHLECHTES_NAMENSGEDACHTNIS",
        "group": "normal",
        "onlyWhenCommonOrSuggested": false,
        "purchase": {
            "cost": [
                -2
            ],
            "description": "2 Abenteuerpunkte",
            "levels": 1,
            "maxTimeBuyable": 1
        },
        "requirementText": "nicht Vorteil Gutes Namensgedächtnis",
        "sources": [
            "AVENTURISCHE_NAMEN"
        ],
        "variant": {
            "categories": [],
            "input": false,
            "available": [],
            "level": 1,
            "selected": null
        },
        "flavor": "",
        "notes": "",
        "gmNotes": "",
        "rule": "Der Held kann sich kaum einen Namen richtig merken, auch nicht die seiner Reisegefährten, seines Lehnsherrn, des Kontaktmanns in den Schwarzen Landen, der eigenen Kinder oder seiner Angebeteten. Entweder bringt er alles durcheinander, nennt Leute beim falschen Namen, oder aber er ändert sie aus Versehen ständig ab. Alle Teilproben auf Klugheit bei Proben auf @UUID[Compendium.tde5e.skills.Item.ET92146421911932]{Etikette (Heraldik &amp; Stammbäume, Klatsch &amp; Tratsch)} sind um 2 erschwert.",
        "parents": []
    },
    "effects": [],
    "folder": "DI10215131421646",
    "_key": "!items!SC12020019320513"
}
