{
    "_id": "SC16522617226172",
    "name": "Schlechte Eigenschaft",
    "type": "disadvantage",
    "img": "systems/tde5e/assets/defaultItems/disadvantage_common.svg",
    "system": {
        "cid": "SCHLECHTE_EIGENSCHAFT",
        "group": "normal",
        "onlyWhenCommonOrSuggested": false,
        "purchase": {
            "cost": [],
            "description": "je nach Schlechter Eigenschaft",
            "levels": 1,
            "maxTimeBuyable": 3
        },
        "requirementText": "keine",
        "sources": [
            "REGELWERK"
        ],
        "variant": {
            "categories": [],
            "input": false,
            "available": [
                {
                    "vid": "ABERGLAUBE",
                    "name": "Aberglaube",
                    "purchase": {
                        "cost": [
                            -5
                        ],
                        "description": "5 Abenteuerpunkte"
                    },
                    "rule": "<p>Der Held weicht vor schwarzen Katzen, Unglückszahlen und anderen schlechten Omen zurück.</p>"
                },
                {
                    "vid": "AUTORITATSGLAUBE",
                    "name": "Autoritätsglaube",
                    "purchase": {
                        "cost": [
                            -5
                        ],
                        "description": "5 Abenteuerpunkte"
                    },
                    "rule": "<p>Der Held zweifelt nicht an den Worten höhergestellter Personen, selbst wenn sie unlogische Befehle erteilen oder unglaubwürdig sind.</p>"
                },
                {
                    "vid": "GEIZ",
                    "name": "Geiz",
                    "purchase": {
                        "cost": [
                            -5
                        ],
                        "description": "5 Abenteuerpunkte"
                    },
                    "rule": "<p>Wenn der Held erst einmal Gold oder andere Wertgegenstände besitzt, gibt er sie nur ungerne wieder her. Lieber schränkt er sich selbst und andere finanziell ein, und er geht sogar unnötige Risiken ein, um Geld zu sparen.</p>",
                    "requirementText": "nicht Nachteil Schlechte Eigenschaft (Verschwendungssucht)"
                },
                {
                    "vid": "IMMER_IM_ZENTRUM",
                    "name": "Immer im Zentrum",
                    "purchase": {
                        "cost": [
                            -10
                        ],
                        "description": "10 Abenteuerpunkte"
                    },
                    "rule": "<p>Die Helden muss immer im Zentrum des Geschehens stehen. Aufmerksamkeit zu bekommen, egal ob positiv oder negativ ist ihr ein Zwang. Dabei unterbricht sich Unterhaltungen um sich immer wieder mit einzubeziehen und macht sich so unbeliebt.</p>"
                },
                {
                    "vid": "JAHZORN",
                    "name": "Jähzorn",
                    "purchase": {
                        "cost": [
                            -10
                        ],
                        "description": "10 Abenteuerpunkte"
                    },
                    "rule": "<p>Der Held ist sehr reizbar und neigt zu Wutausbrüchen, die meist nur kurz anhalten, aber zu gewalttätigem Verhalten führen können.</p>"
                },
                {
                    "vid": "KRANKHAFTE_REINLICHKEIT",
                    "name": "Krankhafte Reinlichkeit",
                    "purchase": {
                        "cost": [
                            -12
                        ],
                        "description": "12 Abenteuerpunkte"
                    },
                    "rule": "<p>Der Held ist sehr pingelig, wenn es um seine Sauberkeit geht. Wird der Held schmutzig (z.B. durch Schlamm, Staub oder Blut) so fällt es ihm schwer sich auf andere Dinge zu konzentrieren, bis er wieder sauber ist. Außderm muss der Held eine Willenskraft-Probe bestehen, um sich in besonders dreckige Umgebungen zu begeben (z.B. Erdgrube, Graben oder schlammige Höhlen).</p>"
                },
                {
                    "vid": "KLEPTOMANIE",
                    "name": "Kleptomanie",
                    "purchase": {
                        "cost": [
                            -10
                        ],
                        "description": "10 Abenteuerpunkte"
                    },
                    "rule": "<p>Manche Abenteurer stehlen um des Stehlens willen, egal ob das Diebesgut einen nennenswerten Wert hat oder nicht, ohne über die Konsequenzen nachzudenken.</p>"
                },
                {
                    "vid": "NAIV",
                    "name": "Naiv",
                    "purchase": {
                        "cost": [
                            -10
                        ],
                        "description": "10 Abenteuerpunkte"
                    },
                    "rule": "<p>Der Held ist gutherzig und naiv, vertraut den falschen Leuten und kann sich kaum vorstellen, dass man manche Leute es nicht gut mit ihm meinen. Er wird auch durch Enttäuschungen nicht vorsichtiger.</p>"
                },
                {
                    "vid": "NEUGIER",
                    "name": "Neugier",
                    "purchase": {
                        "cost": [
                            -5
                        ],
                        "description": "5 Abenteuerpunkte"
                    },
                    "rule": "<p>Jeder Abenteurer ist neugierig, aber einige Abenteurer werden so von ihrer Neugierde getrieben, dass sie unnötige Risiken eingehen, um sie zu befriedigen.</p>"
                },
                {
                    "vid": "RACHSUCHT",
                    "name": "Rachsucht",
                    "purchase": {
                        "cost": [
                            -5
                        ],
                        "description": "5 Abenteuerpunkte"
                    },
                    "rule": "<p>Während jähzornige Helden sofort ihrer Wut freien Lauf lassen, sind rachsüchtige besonnener und planen langfristig, wie sie sich für Kränkungen, egal wie gering, rächen können.</p>"
                },
                {
                    "vid": "SELBSTGESPRACHE",
                    "name": "Selbstgespräche",
                    "purchase": {
                        "cost": [
                            -10
                        ],
                        "description": "10 Abenteuerpunkte"
                    },
                    "rule": "<p>Die Heldin neigt dazu selbstgespräche zu führen. Die meiste Zeit ignorieren andere Leute diese Eigenheit. Gelegentlich kann es aber dazu kommen, dass sie während einer wichtigen Unterhaltung oder in Anwesenheit von betroffenen Personen Dinge laut ausplaudert, die sie eigentlich geheimhalten will.</p>"
                },
                {
                    "vid": "SPIELSUCHT",
                    "name": "Spielsucht",
                    "purchase": {
                        "cost": [
                            -5
                        ],
                        "description": "5 Abenteuerpunkte"
                    },
                    "rule": "<p>Spielsüchtige lassen sich leicht zu riskanten Glücksspielen und Wetten verleiten. Oft führt die Spielsucht zu hohen Spielschulden.</p>"
                },
                {
                    "vid": "VERSCHWENDUNGSSUCHT",
                    "name": "Verschwendungssucht",
                    "purchase": {
                        "cost": [
                            -5
                        ],
                        "description": "5 Abenteuerpunkte"
                    },
                    "rule": "<p>Geld bleibt nicht lange im Besitz des Helden. Er gibt es mit vollen Händen (für sinnlose Dinge) aus.</p>",
                    "requirementText": "nicht Nachteil Schlechte Eigenschaft (Geiz)"
                },
                {
                    "vid": "SIKARYANDURST",
                    "name": "Sikaryan-Durst",
                    "purchase": {
                        "cost": []
                    },
                    "rule": "<p>Diese Schlechte Eigenschaft sorgt dafür, dass ein Sikaryan-Räuber seinen Hunger stillen will. Je höher sein <em>Sikaryan-Verlust</em> ist, desto eindringlicher will er dem Verlangen nachgehen und ist bereit, seine Tarnung aufzugeben und sich auf den nächsten Kulturschaffenden zu stürzen.</p>"
                }
            ],
            "level": 1,
            "selected": null
        },
        "flavor": "",
        "notes": "",
        "gmNotes": "",
        "rule": "In jeder Situation, in der der Held mit einem potenziellen Auslöser seiner Schlechten Eigenschaft konfrontiert wird, muss er eine Probe auf @UUID[Compendium.tde5e.skills.Item.WI13315915718951]{Willenskraft} bestehen, um sich zu beherrschen. Gelingt ihm diese Probe, ist alles in Ordnung, ansonsten muss er entsprechend der Schlechten Eigenschaft agieren. Seine Schlechte Eigenschaft hat ihn so lange im Griff, wie er dem Auslöser ausgesetzt ist. Der Meister kann für die Probe auf Willenskraft entsprechend der Stärke des Auslösers Erschwernisse oder Erleichterungen aussprechen. Es dürfen bis zu zwei Schlechte Eigenschaften pro Held gewählt werden. Kombinationen, die sich ausschließen (z.B. Geiz und Verschwendungssucht), dürfen nicht gewählt werden. Das letzte Wort darüber hat der Spielleiter.",
        "parents": []
    },
    "effects": [],
    "folder": "DI10215131421646",
    "_key": "!items!SC16522617226172"
}
