{
    "_id": "SC41201854912442",
    "name": "Schutzgeist",
    "type": "advantage",
    "img": "systems/tde5e/assets/defaultItems/advantage_magical.svg",
    "system": {
        "cid": "SCHUTZGEIST",
        "group": "arcane",
        "onlyWhenCommonOrSuggested": false,
        "purchase": {
            "cost": [
                10
            ],
            "description": "10 Abenteuerpunkte",
            "levels": 1,
            "maxTimeBuyable": 1
        },
        "requirementText": "SF Tradition (Intuitiver Zauberer), SF Tradition (Meistertalentierte)",
        "sources": [
            "AVENTURISCHE_MAGIE_1"
        ],
        "variant": {
            "categories": [],
            "input": false,
            "available": [],
            "level": 1,
            "selected": null
        },
        "flavor": "",
        "notes": "",
        "gmNotes": "",
        "rule": "Wer über einen Schutzgeist verfügt, der kann die folgenden Optionen einsetzen. Sie kosten weder eine Aktion noch eine freie Aktion, sondern können jederzeit eingesetzt werden.<br /><br />Bei einem Patzer kann der Held einen Schip einsetzen. Das Ergebnis gilt einfach als misslungen, ist aber kein Patzer.<br /><br />Wenn der Held nur noch 5 oder weniger LeP besitzt, kann er 1 Schip einsetzen, um 1W6 LeP zurückzubekommen. Der Einsatz dieser Option ist nur einmal am Tag gestattet.",
        "parents": []
    },
    "effects": [],
    "folder": "AD18616310321886",
    "_key": "!items!SC41201854912442"
}
