{
    "_id": "SC18184200731788",
    "name": "Schwer zu verzaubern",
    "type": "advantage",
    "img": "systems/tde5e/assets/defaultItems/advantage_common.svg",
    "system": {
        "cid": "SCHWER_ZU_VERZAUBERN",
        "group": "normal",
        "onlyWhenCommonOrSuggested": true,
        "purchase": {
            "cost": [
                15
            ],
            "description": "15 Abenteuerpunkte",
            "levels": 1,
            "maxTimeBuyable": 1
        },
        "requirementText": "keine",
        "sources": [
            "REGELWERK"
        ],
        "variant": {
            "categories": [],
            "input": false,
            "available": [],
            "level": 1,
            "selected": null
        },
        "flavor": "",
        "notes": "",
        "gmNotes": "",
        "rule": "Viele Zauber, die auf den Helden gesprochen werden können, die auf ihn wirken, sind um 1 erschwert. Dies gilt für alle Zauber und magischen Effekte mit den Merkmalen Einfluss, Heilung, Hellsicht und Verwandlung sowie für solche, die durch Seelenkraft oder Zähigkeit modifiziert werden. Diese Erschwernis gilt auch dann, wenn der Held sich verzaubern lassen möchte.",
        "parents": []
    },
    "effects": [],
    "folder": "AD67281377383516",
    "_key": "!items!SC18184200731788"
}
