{
    "_id": "SC10513322420450",
    "name": "Schwacher Astralkörper",
    "type": "disadvantage",
    "img": "systems/tde5e/assets/defaultItems/disadvantage_magical.svg",
    "system": {
        "cid": "SCHWACHER_ASTRALKORPER",
        "group": "arcane",
        "onlyWhenCommonOrSuggested": false,
        "purchase": {
            "cost": [
                -15
            ],
            "description": "15 Abenteuerpunkte",
            "levels": 1,
            "maxTimeBuyable": 1
        },
        "requirementText": "Vorteil Zauberer",
        "sources": [
            "REGELWERK"
        ],
        "variant": {
            "categories": [],
            "input": false,
            "available": [],
            "level": 1,
            "selected": null
        },
        "flavor": "",
        "notes": "",
        "gmNotes": "",
        "rule": "Jedes Mal, wenn der Held Astralpunkte ausgibt, verliert er einen Astralpunkt zusätzlich.",
        "parents": []
    },
    "effects": [],
    "folder": "DI21110422013889",
    "_key": "!items!SC10513322420450"
}
