{
    "_id": "ST43149246156235",
    "name": "Stumm",
    "type": "disadvantage",
    "img": "systems/tde5e/assets/defaultItems/disadvantage_common.svg",
    "system": {
        "cid": "STUMM_NACHTEIL",
        "group": "normal",
        "onlyWhenCommonOrSuggested": false,
        "purchase": {
            "cost": [
                -40
            ],
            "description": "40 Abenteuerpunkte",
            "levels": 1,
            "maxTimeBuyable": 1
        },
        "requirementText": "nicht Vorteil Geborener Redner, nicht Vorteil Wohlklang, nicht Nachteil Schlechte Eigenschaft(Sprachfehler)",
        "sources": [
            "REGELWERK"
        ],
        "variant": {
            "categories": [],
            "input": false,
            "available": [],
            "level": 1,
            "selected": null
        },
        "flavor": "",
        "notes": "",
        "gmNotes": "",
        "rule": "Der Held kann sich in den meisten Fällen mit anderen Personen nicht verständigen (außer über Zeichensprache oder schriftlich). Der Einsatz von Zaubern und anderen Handlungen, die Sprache erfordern, ist unmöglich oder stark erschwert. Der Held erhält dauerhaft den Status @UUID[Compendium.tde5e.states.Item.ST20024286992271]{Stumm}.",
        "parents": []
    },
    "effects": [],
    "folder": "DI10215131421646",
    "_key": "!items!ST43149246156235"
}
