{
    "_id": "UN11418023664185",
    "name": "Ungebildet",
    "type": "disadvantage",
    "img": "systems/tde5e/assets/defaultItems/disadvantage_common.svg",
    "system": {
        "cid": "UNGEBILDET",
        "group": "normal",
        "onlyWhenCommonOrSuggested": false,
        "purchase": {
            "cost": [
                -10
            ],
            "description": "10 Abenteuerpunkte",
            "levels": 1,
            "maxTimeBuyable": 1
        },
        "requirementText": "keine",
        "sources": [
            "BOSPARANS_KATAKOMBEN"
        ],
        "variant": {
            "categories": [],
            "input": false,
            "available": [],
            "level": 1,
            "selected": null
        },
        "flavor": "Der Held hat sein Leben mit einfacher Arbeit verbracht und hatte wenig Zugang zu Bildung.",
        "notes": "",
        "gmNotes": "",
        "rule": "Proben auf Wissenstalente (außer @UUID[Compendium.tde5e.skills.Item.BR59227194165173]{Brett- &amp; Glücksspiel} und @UUID[Compendium.tde5e.skills.Item.ME15896164302262]{Mechanik}) sind um einen Punkt zusätzlich erschwert, wenn die Probe bereits erschwert war.",
        "parents": []
    },
    "effects": [],
    "folder": "DI10215131421646",
    "_key": "!items!UN11418023664185"
}
