{
    "_id": "WE16614311329195",
    "name": "Weitreichende Zaubermelodien",
    "type": "advantage",
    "img": "systems/tde5e/assets/defaultItems/advantage_magical.svg",
    "system": {
        "cid": "WEITREICHENDE_ZAUBERMELODIEN",
        "group": "arcane",
        "onlyWhenCommonOrSuggested": false,
        "purchase": {
            "cost": [
                5,
                5,
                5
            ],
            "description": "5 Abenteuerpunkte pro Stufe",
            "levels": 3,
            "maxTimeBuyable": 1
        },
        "requirementText": "SF Tradition (Zauberbarde), nicht Nachteil Verminderte Zaubermelodien",
        "sources": [
            "AVENTURISCHE_MAGIE_1",
            "DIE_SIEBENWINDKUSTE"
        ],
        "variant": {
            "categories": [],
            "input": false,
            "available": [],
            "level": 1,
            "selected": null
        },
        "flavor": "",
        "notes": "",
        "gmNotes": "",
        "rule": "Die Zaubermelodien des Abenteurers reichen pro Stufe des Vorteils 2 Schritt weiter als üblich.",
        "parents": []
    },
    "effects": [],
    "folder": "AD18616310321886",
    "_key": "!items!WE16614311329195"
}
