{
    "_id": "ZE23530331892422",
    "name": "Zeitgefühl",
    "type": "advantage",
    "img": "systems/tde5e/assets/defaultItems/advantage_common.svg",
    "system": {
        "cid": "ZEITGEFUHL",
        "group": "normal",
        "onlyWhenCommonOrSuggested": false,
        "purchase": {
            "cost": [
                2
            ],
            "description": "2 Abenteuerpunkte",
            "levels": 1,
            "maxTimeBuyable": 1
        },
        "requirementText": "keine",
        "sources": [
            "REGELWERK"
        ],
        "variant": {
            "categories": [],
            "input": false,
            "available": [],
            "level": 1,
            "selected": null
        },
        "flavor": "",
        "notes": "",
        "gmNotes": "",
        "rule": "Der Charakter hat ein ausgezeichnetes Zeitgefühl und kann, ohne den Stand der Sonne zu sehen oder auf andere Hilfsmittel zurückzugreifen, die Tageszeit genau bestimmen.",
        "parents": []
    },
    "effects": [],
    "folder": "AD67281377383516",
    "_key": "!items!ZE23530331892422"
}
