{
    "_id": "AL16522614812332",
    "name": "Allseits beliebt",
    "type": "commonAbility",
    "img": "systems/tde5e/assets/defaultItems/special_ability_common.svg",
    "system": {
        "cid": "ALLSEITS_BELIEBT",
        "group": "skillStyleExtended",
        "purchase": {
            "cost": [
                8
            ],
            "description": "8 Abenteuerpunkte",
            "levels": 1,
            "maxTimeBuyable": 1
        },
        "requirementText": "Weg der Bardin",
        "sources": [
            "BOSPARANS_KATAKOMBEN",
            "LIBER_INGENIORUM"
        ],
        "variant": {
            "categories": [],
            "input": false,
            "available": [],
            "level": 1,
            "selected": null
        },
        "flavor": "<p>Tanz, Gesang und Musik sind im Hochadel genauso beliebt wie im niederen Volk. Eine Bardin muss lediglich die Präferenzen ihrer Zielgruppe einschätzen können, um in nahezu jeder Gesellschaft willkommen zu sein.</p>",
        "notes": "",
        "gmNotes": "",
        "parents": [
            "Compendium.tde5e.mundaneSpecialAbilities.Item.WE24716026235223"
        ],
        "rule": "<p>Nach einer Vorstellung können alle Nachteile durch unterschiedlichen sozialen Stand ignoriert werden, solange der Unterschied nicht mehr als 2 Stufen beträgt und dem Zuhörer keine vergleichende Probe auf @UUID[Compendium.tde5e.skills.Item.ME10520624750192]{Menschenkenntnis} gegen die Probe der Darstellung gelingt. Dadurch entfallen sowohl eigene Erschwerungen als auch Erleichterungen der Ziele, aber nicht umgekehrt. Der Effekt hält so lange an, bis die Bardin durch ihr eigenes Handeln einen anderen (i.d.R. schlechten) Eindruck hinterlässt oder die Zielperson widersprüchliche Informationen über den sozialen Stand der Bardin erhält.</p>"
    },
    "effects": [],
    "folder": "TA40194134252585",
    "_key": "!items!AL16522614812332"
}
