{
    "_id": "AN18740614817562",
    "name": "Antreiben",
    "type": "commonAbility",
    "img": "systems/tde5e/assets/defaultItems/special_ability_common.svg",
    "system": {
        "cid": "ANTREIBEN",
        "group": "skillStyleExtended",
        "purchase": {
            "cost": [
                10
            ],
            "description": "10 Abenteuerpunkte",
            "levels": 1,
            "maxTimeBuyable": 1
        },
        "requirementText": "Weg des Kutschers",
        "sources": [
            "BOSPARANS_KATAKOMBEN",
            "LIBER_INGENIORUM"
        ],
        "variant": {
            "categories": [],
            "input": false,
            "available": [],
            "level": 1,
            "selected": null
        },
        "flavor": "<p>Pferde sind sehr ausdauernde Tiere, doch nur wer ihren Rhythmus versteht, kann auf kurzer Strecke davonziehen, ohne langfristig aufgerieben zu werden. Bei den diversen illegalen aventurischen Straßenrennen zeigt sich dabei schnell, wer die bessere Kontrolle über sein Fuhrwerk hat.</p>",
        "notes": "",
        "gmNotes": "",
        "parents": [
            "Compendium.tde5e.mundaneSpecialAbilities.Item.WE15701519710415"
        ],
        "rule": "<p>Bei der Sammelprobe einer Verfolgungsjagd werden die Proben des Kutschers und seines direkten Kontrahenten (der nächstbeste, falls es mehrere gibt) einzeln miteinander verglichen. Die Reihenfolge der Proben muss dabei eingehalten werden, d.h. die erste eigene Probe wird mit der ersten gegnerischen verglichen, die zweite mit der zweiten, usw. Für jeden Gleichstand erhöht sich das Gesamtergebnis des Kutschers um 1 QS. Da dieses Manöver Pferde und Material stark belastet, kann es nur einmal pro Tag eingesetzt werden.</p>"
    },
    "effects": [],
    "folder": "TA40194134252585",
    "_key": "!items!AN18740614817562"
}
