{
    "_id": "AR64452168717990",
    "name": "Archivar",
    "type": "commonAbility",
    "img": "systems/tde5e/assets/defaultItems/special_ability_common.svg",
    "system": {
        "cid": "ARCHIVAR",
        "group": "common",
        "purchase": {
            "cost": [
                3
            ],
            "description": "3 Abenteuerpunkte",
            "levels": 1,
            "maxTimeBuyable": 1
        },
        "requirementText": "nicht Nachteil Blind",
        "sources": [
            "AVENTURISCHES_KOMPENDIUM_1"
        ],
        "variant": {
            "categories": [],
            "input": false,
            "available": [],
            "level": 1,
            "selected": null
        },
        "flavor": "",
        "notes": "",
        "gmNotes": "",
        "rule": "Der Held stöbert gesuchte Schriftstücke schneller auf als andere Bibliotheksnutzer. Er benötigt bei Recherchen nur 50% der Zeit (siehe <strong>Aventurisches Kompendium</strong> Seite <strong>72</strong>). Allerdings funktioniert die Sonderfertigkeit nur, wenn der Abenteurer die Bücher der Bibliothek lesen kann und die Bibliothek einer Ordnung unterliegt.",
        "parents": []
    },
    "effects": [],
    "folder": "PA17617319621714",
    "_key": "!items!AR64452168717990"
}
