{
    "_id": "BI11121599261121",
    "name": "Bierbrauerei",
    "type": "commonAbility",
    "img": "systems/tde5e/assets/defaultItems/special_ability_common.svg",
    "system": {
        "cid": "BIERBRAUEREI",
        "group": "common",
        "purchase": {
            "cost": [
                2
            ],
            "description": "2 Abenteuerpunkte",
            "levels": 1,
            "maxTimeBuyable": 1
        },
        "requirementText": "Pflanzenkunde 4, Lebensmittelbearbeitung 4",
        "sources": [
            "AVENTURISCHES_KOMPENDIUM_2"
        ],
        "variant": {
            "categories": [],
            "input": false,
            "available": [],
            "level": 1,
            "selected": null
        },
        "flavor": "",
        "notes": "",
        "gmNotes": "",
        "parents": [
            "Compendium.tde5e.skills.Item.LE21912211415814"
        ],
        "rule": "Mit Proben auf das erweiterte Anwendungsgebiet @UUID[Compendium.tde5e.skills.Item.LE21912211415814]{Lebensmittelbearbeitung (Bierbrauen)} ist die Heldin in der Lage, Bier zu brauen."
    },
    "effects": [],
    "folder": "PA17617319621714",
    "_key": "!items!BI11121599261121"
}
