{
    "_id": "BL19922016919619",
    "name": "Blutdurst der Fledermaus",
    "type": "commonAbility",
    "img": "systems/tde5e/assets/defaultItems/special_ability_common.svg",
    "system": {
        "cid": "BLUTDURST_DER_FLEDERMAUS",
        "group": "vampirism",
        "purchase": {
            "cost": [
                0
            ],
            "description": "0 Abenteuerpunkte",
            "levels": 1,
            "maxTimeBuyable": 1
        },
        "requirementText": "Status <em>Kind der Finsternis</em>",
        "sources": [
            "AVENTURISCHES_BESTIARIUM_2"
        ],
        "variant": {
            "categories": [],
            "input": false,
            "available": [],
            "level": 1,
            "selected": null
        },
        "flavor": "",
        "notes": "",
        "gmNotes": "",
        "rule": "Der Vampir besitzt einziehbare Fangzähne, mit denen er sein Opfer beißen kann, um einen Sikaryan-Raub durchzuführen.",
        "parents": []
    },
    "effects": [],
    "folder": "VA10619125127158",
    "_key": "!items!BL19922016919619"
}
