{
    "_id": "DO92115654732053",
    "name": "Dokumentfälscher",
    "type": "commonAbility",
    "img": "systems/tde5e/assets/defaultItems/special_ability_common.svg",
    "system": {
        "cid": "DOKUMENTFALSCHER",
        "group": "common",
        "purchase": {
            "cost": [
                5
            ],
            "description": "5 Abenteuerpunkte",
            "levels": 1,
            "maxTimeBuyable": 1
        },
        "requirementText": "nicht Nachteil Blind, Malen & Zeichnen 8",
        "sources": [
            "REGELWERK"
        ],
        "variant": {
            "categories": [],
            "input": false,
            "available": [],
            "level": 1,
            "selected": null
        },
        "flavor": "",
        "notes": "",
        "gmNotes": "",
        "parents": [
            "Compendium.tde5e.skills.Item.MA17821721188237"
        ],
        "rule": "Mit Proben auf das erweiterte Anwendungsgebiet @UUID[Compendium.tde5e.skills.Item.MA17821721188237]{Malen &amp; Zeichnen (Dokumente fälschen)} ist der Held in der Lage, Schriftstücke und Urkunden zu fälschen."
    },
    "effects": [],
    "folder": "PA17617319621714",
    "_key": "!items!DO92115654732053"
}
