{
    "_id": "EI22625156331932",
    "name": "Einfluss erkennen",
    "type": "commonAbility",
    "img": "systems/tde5e/assets/defaultItems/special_ability_common.svg",
    "system": {
        "cid": "EINFLUSS_ERKENNEN",
        "group": "skillStyleExtended",
        "purchase": {
            "cost": [
                20
            ],
            "description": "20 Abenteuerpunkte",
            "levels": 1,
            "maxTimeBuyable": 1
        },
        "requirementText": "Weg der Zofe, Menschenkenntnis 6",
        "sources": [
            "BOSPARANS_KATAKOMBEN",
            "LIBER_INGENIORUM"
        ],
        "variant": {
            "categories": [],
            "input": false,
            "available": [],
            "level": 1,
            "selected": null
        },
        "flavor": "<p>Nachdem einige n Jahre n im Dienst ihres Herren fallen der Zofe selbst die kleinsten Verhaltens änderungen auf. Das kann im Ernstfall Leben retten, wenn die Änderung z.B. durch Gifte hervor gerufen wurde. Dann ist schnelles Handeln notwendig, was nicht immer der Etikette des Hofes entspricht. Die meisten Adligen sind jedoch eher nachsichtig, wenn es um ihr eigenes Leben geht.</p>",
        "notes": "",
        "gmNotes": "",
        "parents": [
            "Compendium.tde5e.mundaneSpecialAbilities.Item.WE92731521591251"
        ],
        "rule": "<p>Mit einer Probe auf @UUID[Compendium.tde5e.skills.Item.ME10520624750192]{Menschenkenntnis} kann die Zofe Gifte, Krankheiten, Zauber oder ähnliche Einflüsse frühzeitig erkennen. Die Probe ist bei einem Zauber um dessen QS und bei einem Gift bzw. einer Krankheit um 6 - deren Stufe erschwert. Außerdem muss der Zofe die Zielperson gut bekannt sein. Gelingt die Probe, kann der Typ des Einflusses bestimmt werden, nicht aber dessen genaue Auswirkungen (also z.B. die Tatsache dass es sich um Gift handelt, aber nicht die Art des Giftes). Wird direkt danach eine einfache Behandlung durchgeführt (keine Probe, ca. 5 Minuten Dauer), kann das erste Viertel der Wirkung von nicht-magischen Einflüssen aufgehoben werden. Das bedeutet, dass die Wirkungsdauer um 25% verkürzt und entsprechend verzögert wird. Hat der profane Einfluss keine feste Dauer, wird der Beginn stattdessen um 50% verzögert.</p>"
    },
    "effects": [],
    "folder": "TA40194134252585",
    "_key": "!items!EI22625156331932"
}
