{
    "_id": "EI73531272141372",
    "name": "Eiserner Wille",
    "type": "commonAbility",
    "img": "systems/tde5e/assets/defaultItems/special_ability_common.svg",
    "system": {
        "cid": "EISERNER_WILLE",
        "group": "common",
        "purchase": {
            "cost": [
                15,
                15
            ],
            "description": "15 Abenteuerpunkte pro Stufe",
            "levels": 2,
            "maxTimeBuyable": 1
        },
        "requirementText": "keine",
        "sources": [
            "REGELWERK"
        ],
        "variant": {
            "categories": [],
            "input": false,
            "available": [],
            "level": 1,
            "selected": null
        },
        "flavor": "",
        "notes": "",
        "gmNotes": "",
        "parents": [
            "Compendium.tde5e.skills.Item.SE24510070128212"
        ],
        "rule": "<p>So lange der Held sich entsprechend darauf fokussiert, wird seine Seelenkraft willentlich um 1 pro Stufe verbessert. Durch die nötige Fokussierung sind währenddessen alle weiteren Proben für den Helden um die Stufe der SF erschwert. Der Eiserne Wille hält solange an, wie der Held sich konzentrieren kann. Im Zweifelsfall muss er eine Probe auf @UUID[Compendium.tde5e.skills.Item.SE24510070128212]{Selbstbeherrschung} ablegen.</p><p>Wenn er schläft, den Zustand @UUID[Compendium.tde5e.states.Item.BE13017111120101]{Bewusstlos} erhält oder freiwillig aufhört sich zu konzentrieren, hört der Eiserne Wille auf. Am Ende der Wirkungszeit erhält der Held eine Stufe @UUID[Compendium.tde5e.conditions.Item.BE91425088509929]{Betäubung}.</p>"
    },
    "effects": [],
    "folder": "PA17617319621714",
    "_key": "!items!EI73531272141372"
}
