{
    "_id": "FE25319624343120",
    "name": "Feldreparatur",
    "type": "commonAbility",
    "img": "systems/tde5e/assets/defaultItems/special_ability_common.svg",
    "system": {
        "cid": "FELDREPARATUR",
        "group": "skillStyleExtended",
        "purchase": {
            "cost": [
                12
            ],
            "description": "12 Abenteuerpunkte",
            "levels": 1,
            "maxTimeBuyable": 1
        },
        "requirementText": "Weg des Stammeskriegers oder Weg des Söldners",
        "sources": [
            "BOSPARANS_KATAKOMBEN",
            "LIBER_INGENIORUM"
        ],
        "variant": {
            "categories": [],
            "input": false,
            "available": [],
            "level": 1,
            "selected": null
        },
        "flavor": "<p>Ob in Sümpfen oder Gebirgen, Steppen oder Wüsten: Wenn das Schwert bricht, hat man ein Problem. Um dies zu verhindern kümmern sich erfahrene Kämpfer ständig um ihre Waffen und können problemlos kleinere Schäden reparieren.</p>",
        "notes": "",
        "gmNotes": "",
        "parents": [
            "Compendium.tde5e.mundaneSpecialAbilities.Item.WE55647713118722",
            "Compendium.tde5e.mundaneSpecialAbilities.Item.WE18925211245202"
        ],
        "rule": "<p>Solange eine Waffe oder Rüstung nur eine Stufe Beschädigung erhalten hat, kann der Kämpfer sie mit primitivsten Werkzeugen und Materialien wieder reparieren, ohne dafür eine Probe ablegen zu müssen.</p>"
    },
    "effects": [],
    "folder": "TA40194134252585",
    "_key": "!items!FE25319624343120"
}
