{
    "_id": "FE22611510513060",
    "name": "Fertigkeit verbessern",
    "type": "commonAbility",
    "img": "systems/tde5e/assets/defaultItems/special_ability_common.svg",
    "system": {
        "cid": "FERTIGKEIT_VERBESSERN",
        "group": "fate",
        "purchase": {
            "cost": [
                10
            ],
            "description": "10 Abenteuerpunkte",
            "levels": 1,
            "maxTimeBuyable": 1
        },
        "requirementText": "keine",
        "sources": [
            "REGELWERK"
        ],
        "variant": {
            "categories": [],
            "input": false,
            "available": [],
            "level": 1,
            "selected": null
        },
        "flavor": "",
        "notes": "",
        "gmNotes": "",
        "rule": "Der Held kann einen Schicksalspunkt einsetzen, um den Fertigkeitswert für eine beliebige Probe um 3 zu erhöhen. Dies kann nach dem Ermitteln des Ergebnisses verwendet werden, um einen Fehlschlag zu verhindern oder die QS zu erhöhen.",
        "parents": []
    },
    "effects": [],
    "folder": "SC23423524222759",
    "_key": "!items!FE22611510513060"
}
