{
    "_id": "GE21925191198110",
    "name": "Geheimversteck",
    "type": "commonAbility",
    "img": "systems/tde5e/assets/defaultItems/special_ability_common.svg",
    "system": {
        "cid": "GEHEIMVERSTECK",
        "group": "skillStyleExtended",
        "purchase": {
            "cost": [
                5
            ],
            "description": "5 Abenteuerpunkte",
            "levels": 1,
            "maxTimeBuyable": 1
        },
        "requirementText": "Weg des Zimmermanns, Mechanik 4",
        "sources": [
            "BOSPARANS_KATAKOMBEN",
            "LIBER_INGENIORUM"
        ],
        "variant": {
            "categories": [],
            "input": false,
            "available": [],
            "level": 1,
            "selected": null
        },
        "flavor": "<p>Auch ehrliche Menschen haben Dinge zu verstecken. Für Steuereintreiber, Zollwächter und Geweihte diverser Gottheiten stellt das natürlich ein signifikantes Problem dar. Entsprechend hoch ist die Nachfrage für unauffindbare Verstecke in Schränken, Kutschen oder Kisten. Mechanisch begabte Handwerker helfen hier aus, indem das Geheimfach nicht nur schwer zu finden, sondern auch noch schwer zu öffnen ist.</p>",
        "notes": "",
        "gmNotes": "",
        "parents": [
            "Compendium.tde5e.mundaneSpecialAbilities.Item.WE20615390142231"
        ],
        "rule": "<p>Baut der Zimmermann ein geheimes Versteck, müssen den danach suchenden Personen zwei Proben gelingen, um das eigentlich geschützte Gut zu finden. Gelingt ihnen nur eine der Proben, finden sie zwar ein Geheimfach, aber nicht den versteckten Inhalt.</p><p>Die exakte Form des zweiten Verstecks hängt vom Gegenstand ab (z.B. ein doppelter Boden oder ein offensichtlicheres Versteck zur Ablenkung). Der Einbau kann i.d.R. auch nachträglich durchgeführt werden und erfordert eine passende Probe auf ein Handwerkstalent.</p>"
    },
    "effects": [],
    "folder": "TA40194134252585",
    "_key": "!items!GE21925191198110"
}
