{
    "_id": "GE23911397352472",
    "name": "Geschmack des Leidens",
    "type": "commonAbility",
    "img": "systems/tde5e/assets/defaultItems/special_ability_common.svg",
    "system": {
        "cid": "GESCHMACK_DES_LEIDENS",
        "group": "skillStyleExtended",
        "purchase": {
            "cost": [
                10
            ],
            "description": "10 Abenteuerpunkte",
            "levels": 1,
            "maxTimeBuyable": 1
        },
        "requirementText": "Weg des Fleischers, Tierkunde 6",
        "sources": [
            "BOSPARANS_KATAKOMBEN",
            "LIBER_INGENIORUM"
        ],
        "variant": {
            "categories": [],
            "input": false,
            "available": [],
            "level": 1,
            "selected": null
        },
        "flavor": "<p>Nicht nur gesunde Tiere werden zum Schlachter gebracht. Ein krankes Tier auf einem Hof muss schnellstmöglich entsorgt werden, bevor es alle anderen ansteckt. Und auch ein unerfahrener Jäger erwischt am ehesten das bereits lahmende Tier des Packs. Der Fleischer muss nun entscheiden, ob das Tier gefahrlos verarbeitet oder verspeist werden kann und entsprechende Maßnahmen ergreifen.</p>",
        "notes": "",
        "gmNotes": "",
        "parents": [
            "Compendium.tde5e.mundaneSpecialAbilities.Item.WE22115121915201"
        ],
        "rule": "<p>Der Fleischer kann beim Ausnehmen eine um 2 Punkte erschwerte Probe auf @UUID[Compendium.tde5e.skills.Item.TI20015091191414]{Tierkunde} werfen, mit welcher er den körperlichen und geistigen Zustand des Tieres zu einem Zeitpunkt kurz vor dem Ableben einschätzt. Damit erkennt er beispielsweise Krankheiten, Gifte oder extremen Stress. Schlägt die Probe fehl, erhält er zunächst keine Informationen. Er kann sich dann entscheiden, ein Stück des Fleisches zu verzehren, um die Probe unerschwert zu wiederholen. Misslingt auch diese, ist keine weitere Wiederholung möglich. Durch den Verzehr können ggf. Gifte oder Krankheiten übertragen werden.</p>"
    },
    "effects": [],
    "folder": "TA40194134252585",
    "_key": "!items!GE23911397352472"
}
