{
    "_id": "GE22265179115591",
    "name": "Gesunde Kräuter",
    "type": "commonAbility",
    "img": "systems/tde5e/assets/defaultItems/special_ability_common.svg",
    "system": {
        "cid": "GESUNDE_KRAUTER",
        "group": "skillStyleExtended",
        "purchase": {
            "cost": [
                12
            ],
            "description": "12 Abenteuerpunkte",
            "levels": 1,
            "maxTimeBuyable": 1
        },
        "requirementText": "Weg des Apothekers",
        "sources": [
            "BOSPARANS_KATAKOMBEN",
            "LIBER_INGENIORUM"
        ],
        "variant": {
            "categories": [],
            "input": false,
            "available": [],
            "level": 1,
            "selected": null
        },
        "flavor": "<p>Auch wenn es viele Abenteurer nicht wahrhaben wollen: Es gibt sehr gesunde Kräuter, die nicht Wirselkraut heißen. Denn auch präventiv kann man sich vor Giften und Krankheiten schützen oder die Heilung fördern. Nur die richtigen Zutaten muss man dafür natürlich kennen.</p>",
        "notes": "",
        "gmNotes": "",
        "parents": [
            "Compendium.tde5e.mundaneSpecialAbilities.Item.WE18114424920873"
        ],
        "rule": "<p>Nachdem ein Ziel mit einer vom Apotheker zubereiteten Kräutermischung behandelt wurde, ist die nächste Probe auf @UUID[Compendium.tde5e.skills.Item.WU20148128101311]{Wundbehandlung} oder @UUID[Compendium.tde5e.skills.Item.GI10061193216729]{Gifte &amp; Krankheiten} innerhalb von 24 Stunden um 1 erleichtert. Dies gilt auch, wenn nicht er selbst die Behandlung beim Ziel durchführt.</p>"
    },
    "effects": [],
    "folder": "TA40194134252585",
    "_key": "!items!GE22265179115591"
}
