{
    "_id": "GI18491548722888",
    "name": "Gift melken",
    "type": "commonAbility",
    "img": "systems/tde5e/assets/defaultItems/special_ability_common.svg",
    "system": {
        "cid": "GIFT_MELKEN",
        "group": "common",
        "purchase": {
            "cost": [
                10
            ],
            "description": "10 Abenteuerpunkte",
            "levels": 1,
            "maxTimeBuyable": 1
        },
        "requirementText": "Tierkunde 8, Heilkunde Gift 4",
        "sources": [
            "AVENTURISCHES_BESTIARIUM_1"
        ],
        "variant": {
            "categories": [],
            "input": false,
            "available": [],
            "level": 1,
            "selected": null
        },
        "flavor": "",
        "notes": "",
        "gmNotes": "",
        "parents": [
            "Compendium.tde5e.skills.Item.TI20015091191414"
        ],
        "rule": "<p>Mit Proben auf das erweiterte Anwendungsgebiet @UUID[Compendium.tde5e.skills.Item.TI20015091191414]{Tierkunde (Gift melken)} kann der Held aus giftigen Tieren und Ungeheuern das Gift extrahieren. Für exotische oder regional spezifischen Wesen sollte der Spielleiter entscheiden, ob dem Charakter der Vorgang bekannt ist.</p>"
    },
    "effects": [],
    "folder": "PA17617319621714",
    "_key": "!items!GI18491548722888"
}
