{
    "_id": "GR11220516722425",
    "name": "Grenzen ausreizen",
    "type": "commonAbility",
    "img": "systems/tde5e/assets/defaultItems/special_ability_common.svg",
    "system": {
        "cid": "GRENZEN_AUSREIZEN",
        "group": "skillStyleExtended",
        "purchase": {
            "cost": [
                12
            ],
            "description": "12 Abenteuerpunkte",
            "levels": 1,
            "maxTimeBuyable": 1
        },
        "requirementText": "Weg des Prostituierten",
        "sources": [
            "BOSPARANS_KATAKOMBEN",
            "LIBER_INGENIORUM"
        ],
        "variant": {
            "categories": [],
            "input": false,
            "available": [],
            "level": 1,
            "selected": null
        },
        "flavor": "<p>Mit gefährlichen Personen zu flirten ist sehr riskant, kann sich aber deutlich schneller auszahlen als Bauern an der Straßenecke zu vögeln. Abgesehen vom Adrenalin während des Aktes, zeigen sich solche Kunden zukünftig meist kooperativer und lassen sich leichter beeinflussen. Nur, wenn man es zu weit treibt, sollte man besser die Beine in die Hand nehmen und Verluste minimieren.</p>",
        "notes": "",
        "gmNotes": "",
        "parents": [
            "Compendium.tde5e.mundaneSpecialAbilities.Item.WE78922201115425"
        ],
        "rule": "<p>Der Prostituierte sucht sich bei der Anwendung dieser Fähigkeit gezielt gefährliche, gewaltbereite oder einfach nur besonders schlecht gelaunte Kunden. Seine Proben auf @UUID[Compendium.tde5e.skills.Item.BE22019221941182]{Betören} sind um einen vom Meister festgelegten Wert zwischen 1 und 5 erschwert. Fehlschläge können entsprechend schwerwiegende Konsequenzen (z.B. Gewalt oder Involvieren der Wachen) haben. Schafft der Prostituierte es, das Ziel trotzdem zu befriedigen oder zu besänftigen, kann er die zweifache Erschwerung innerhalb des nächsten Tages als Erleichterung auf vergleichende Proben gegen den Kunden verteilen.</p>"
    },
    "effects": [],
    "folder": "TA40194134252585",
    "_key": "!items!GR11220516722425"
}
