{
    "_id": "HE17981036658174",
    "name": "Heilsame Massage",
    "type": "commonAbility",
    "img": "systems/tde5e/assets/defaultItems/special_ability_common.svg",
    "system": {
        "cid": "HEILSAME_MASSAGE",
        "group": "skillStyleExtended",
        "purchase": {
            "cost": [
                5
            ],
            "description": "5 Abenteuerpunkte",
            "levels": 1,
            "maxTimeBuyable": 1
        },
        "requirementText": "Weg der Baderin, SF Masseur",
        "sources": [
            "BOSPARANS_KATAKOMBEN",
            "LIBER_INGENIORUM"
        ],
        "variant": {
            "categories": [],
            "input": false,
            "available": [],
            "level": 1,
            "selected": null
        },
        "flavor": "<p>Das Geheimnis der Amal Shadija, oft ihren magischen Händen zugeordnet, ist weit profaner als es sich die meisten ihrer Kunden vorstellen. Es stellt sich heraus, dass man mit Geschick und einfachen Kräutern nahezu jede Art von Unwohlsein behandeln kann.</p>",
        "notes": "",
        "gmNotes": "",
        "parents": [
            "Compendium.tde5e.mundaneSpecialAbilities.Item.WE19224727225841"
        ],
        "rule": "<p>Bei einer Massage mit @UUID[Compendium.tde5e.mundaneSpecialAbilities.Item.MA15816123720953]{Masseur} können mit dieser Fertigkeit bis zu QS Stufen beliebiger Zustände entfernt werden (statt immer QS/2 Betäubung). Es ist dabei auch möglich, mehrere verschiedene Zustände zu wählen und die QS aufzuteilen.</p>"
    },
    "effects": [],
    "folder": "TA40194134252585",
    "_key": "!items!HE17981036658174"
}
