{
    "_id": "KA23010233491652",
    "name": "Kalligraphie",
    "type": "commonAbility",
    "img": "systems/tde5e/assets/defaultItems/special_ability_common.svg",
    "system": {
        "cid": "KALLIGRAPHIE",
        "group": "common",
        "purchase": {
            "cost": [
                2
            ],
            "description": "2 Abenteuerpunkte",
            "levels": 1,
            "maxTimeBuyable": 1
        },
        "requirementText": "Malen & Zeichnen 4",
        "sources": [
            "AVENTURISCHES_KOMPENDIUM_1"
        ],
        "variant": {
            "categories": [],
            "input": false,
            "available": [],
            "level": 1,
            "selected": null
        },
        "flavor": "",
        "notes": "",
        "gmNotes": "",
        "parents": [
            "Compendium.tde5e.skills.Item.MA17821721188237"
        ],
        "rule": "Mit Proben auf das erweiterte Anwendungsgebiet @UUID[Compendium.tde5e.skills.Item.MA17821721188237]{Malen &amp; Zeichnen (Kalligraphie)} kann der Abenteurer gleichmäßige Schriftzeichen setzen und sie ästhetisch verzieren, ohne die Lesbarkeit zu beeinträchtigen."
    },
    "effects": [],
    "folder": "PA17617319621714",
    "_key": "!items!KA23010233491652"
}
