{
    "_id": "KO11412814524471",
    "name": "Körperliches Geschick",
    "type": "commonAbility",
    "img": "systems/tde5e/assets/defaultItems/special_ability_common.svg",
    "system": {
        "cid": "KORPERLICHES_GESCHICK",
        "group": "skillStyleExtended",
        "purchase": {
            "cost": [
                12
            ],
            "description": "12 Abenteuerpunkte",
            "levels": 1,
            "maxTimeBuyable": 1
        },
        "requirementText": "Weg der Gauklerin, Körperbeherrschung 4",
        "sources": [
            "BOSPARANS_KATAKOMBEN",
            "LIBER_INGENIORUM"
        ],
        "variant": {
            "categories": [],
            "input": false,
            "available": [],
            "level": 1,
            "selected": null
        },
        "flavor": "<p>Auch gefährliche Spielchen gehören ins Repertoire einer Gauklerin. Seiltänze und ähnlich waghalsige Manöver benötigen ein Reaktionsvermögen schneller als der bewusste Teil des Verstandes. Wer dies nicht hat, findet sich oft vor Ende der Vorstellung am Boden wieder – gegebenenfalls mit weniger Bewegungsfreiheit als vorher.</p>",
        "notes": "",
        "gmNotes": "",
        "parents": [
            "Compendium.tde5e.mundaneSpecialAbilities.Item.WE13115117102692"
        ],
        "rule": "<p>Wenn eine Probe auf @UUID[Compendium.tde5e.skills.Item.AK92342342043211]{Akrobatik} scheitert, kann diese sofort wiederholt werden. Dabei wirft die Gauklerin alle 3 Teilproben neu – das neue Ergebnis ist bindend, kann aber nicht zu einem Patzer oder kritischen Erfolg führen. Nach der Probe (bzw. der Durchführung der damit verbundenen Aktion) erhält sie 1 Stufe @UUID[Compendium.tde5e.conditions.Item.PA39138278624750]{Paralyse}.</p>"
    },
    "effects": [],
    "folder": "TA40194134252585",
    "_key": "!items!KO11412814524471"
}
