{
    "_id": "LA26100250907515",
    "name": "Lautschrift",
    "type": "commonAbility",
    "img": "systems/tde5e/assets/defaultItems/special_ability_common.svg",
    "system": {
        "cid": "LAUTSCHRIFT",
        "group": "skillStyleExtended",
        "purchase": {
            "cost": [
                10
            ],
            "description": "10 Abenteuerpunkte",
            "levels": 1,
            "maxTimeBuyable": 1
        },
        "requirementText": "Weg der Spitzelin, Sinnesschärfe 4",
        "sources": [
            "BOSPARANS_KATAKOMBEN",
            "LIBER_INGENIORUM"
        ],
        "variant": {
            "categories": [],
            "input": false,
            "available": [],
            "level": 1,
            "selected": null
        },
        "flavor": "<p>Lautschrift, das ist nicht die Kunst des besonders lauten Schreibens, sondern die Fähigkeit zur sprachunabhängigen Abschrift. Auf diese Weise können Spitzel jede Konversation festhalten, auch wenn sie nichts davon verstehen. Selbst Geheimsprachen können mit den Symbolen für Laute und Silben niedergeschrieben und zu einem späteren Zeitpunkt entschlüsselt werden.</p>",
        "notes": "",
        "gmNotes": "",
        "parents": [
            "Compendium.tde5e.mundaneSpecialAbilities.Item.WE20963144158146"
        ],
        "rule": "<p>Die Spitzelin kann mit Hilfe von Silben und Lauten auch fremde bzw. ihr gänzlich unbekannte Sprachen schriftlich festhalten. Dies ist auch beim @UUID[Compendium.tde5e.mundaneSpecialAbilities.Item.LI11051682502307]{Lippenlesen} möglich. Mit der Abschrift kann später der ursprüngliche Wortlaut reproduziert und übersetzt werden.</p>"
    },
    "effects": [],
    "folder": "TA40194134252585",
    "_key": "!items!LA26100250907515"
}
