{
    "_id": "LO14324810223140",
    "name": "Lockruf",
    "type": "commonAbility",
    "img": "systems/tde5e/assets/defaultItems/special_ability_common.svg",
    "system": {
        "cid": "LOCKRUF_SF",
        "group": "skillStyleExtended",
        "purchase": {
            "cost": [
                10
            ],
            "description": "10 Abenteuerpunkte",
            "levels": 1,
            "maxTimeBuyable": 1
        },
        "requirementText": "Weg des Räubers, Überreden 6",
        "sources": [
            "BOSPARANS_KATAKOMBEN",
            "LIBER_INGENIORUM"
        ],
        "variant": {
            "categories": [],
            "input": false,
            "available": [],
            "level": 1,
            "selected": null
        },
        "flavor": "<p>Eine spannende Geschichte, das Versprechen von Ruhm und Reichtum oder ein falscher Hilferuf – es gibt viele Wege, nichtsahnende Personen von der befestigten Straße oder aus der Taverne wegzulocken. Für einen Räuber ist jeder, der darauf hereinfällt, ein potenzielles Opfer für einen Überfall fernab von jedem Schutz.</p>",
        "notes": "",
        "gmNotes": "",
        "parents": [
            "Compendium.tde5e.mundaneSpecialAbilities.Item.WE98165128317111"
        ],
        "rule": "<p>Mit einer Probe auf @UUID[Compendium.tde5e.skills.Item.UB25018415118918]{Überreden (Aufschwatzen)} erhalten die Zuhörer eine @UUID[Compendium.tde5e.advantagesDisadvantages.Item.GI15919498101760]{Gier}, zu einem vom Räuber bestimmten Ort innerhalb einer Tagesreise zu gehen. Die Probe auf @UUID[Compendium.tde5e.skills.Item.WI13315915718951]{Willenskraft} zum Widerstehen der Gier ist um 1 erschwert und muss QS/2 Mal im Abstand von 3 Stunden wiederholt werden.</p>"
    },
    "effects": [],
    "folder": "TA40194134252585",
    "_key": "!items!LO14324810223140"
}
