{
    "_id": "NA11483111285922",
    "name": "Namensschmeichler",
    "type": "commonAbility",
    "img": "systems/tde5e/assets/defaultItems/special_ability_common.svg",
    "system": {
        "cid": "NAMENSSCHMEICHLER",
        "group": "common",
        "purchase": {
            "cost": [
                8
            ],
            "description": "8 Abenteuerpunkte",
            "levels": 1,
            "maxTimeBuyable": 1
        },
        "requirementText": "keine",
        "sources": [
            "AVENTURISCHE_NAMEN",
            "AVENTURISCHES_KOMPENDIUM_2"
        ],
        "variant": {
            "categories": [],
            "input": false,
            "available": [],
            "level": 1,
            "selected": null
        },
        "flavor": "",
        "notes": "",
        "gmNotes": "",
        "rule": "Der Held hat sich intensiv mit berühmten Namensträgern beschäftigt und kann zu jedem Namen eine passende Geschichte wiedergeben. Dies kann ihm nach Meisterentscheid eine Erleichterung von 1 bei Teilproben auf Charisma bei Gesellschaftstalenten und bei @UUID[Compendium.tde5e.skills.Item.HA19014124211567]{Handel (Feilschen)} einbringen, wenn sich das Gegenüber von dem Wissen des Helden geschmeichelt fühlt. Ausgenommen hiervon sind @UUID[Compendium.tde5e.skills.Item.ME10520624750192]{Menschenkenntnis} und @UUID[Compendium.tde5e.skills.Item.WI13315915718951]{Willenskraft}.",
        "parents": []
    },
    "effects": [],
    "folder": "PA17617319621714",
    "_key": "!items!NA11483111285922"
}
