{
    "_id": "NE21915411120224",
    "name": "Nebelgestalt",
    "type": "commonAbility",
    "img": "systems/tde5e/assets/defaultItems/special_ability_common.svg",
    "system": {
        "cid": "NEBELGESTALT",
        "group": "vampirism",
        "purchase": {
            "cost": [
                25
            ],
            "description": "25 Abenteuerpunkte",
            "levels": 1,
            "maxTimeBuyable": 1
        },
        "requirementText": "Status <em>Kind der Finsternis</em> oder Status <em>Lamijah</em>",
        "sources": [
            "AVENTURISCHES_BESTIARIUM_2",
            "LUSTSCHLOSSER_UND_ZAUBERWESEN"
        ],
        "variant": {
            "categories": [],
            "input": false,
            "available": [],
            "level": 1,
            "selected": null
        },
        "flavor": "",
        "notes": "",
        "gmNotes": "",
        "rule": "Der Vampir kann sich in Nebel verwandeln. Dazu muss er 2 Aktionen aufwenden und ihm muss eine Probe auf @UUID[Compendium.tde5e.skills.Item.WI13315915718951]{Willenskraft} gelingen. Seine Kleidung und Gegenstände, die er am Körper trug, werden mitverwandelt. Der Nebel kann keinen Schaden erleiden. Zauber mit dem Merkmal Verwandlung können nicht gegen den Nebel eingesetzt werden. Der Nebel besitzt eine GS von 6 und kann sich selbst bei Gegenwind ohne Geschwindigkeitsverlust bewegen. Der Vampir kann seine Umgebung mit allen fünf Sinnen wahrnehmen. Der Vampir bleibt so lange ein Nebel, bis die Wirkungsdauer vorüber ist. Der Nebel verfügt nicht über die Fähigkeit der Regeneration (siehe <strong>Aventurisches Bestiarium II</strong> Seite <strong>119</strong>), kann aber nicht verletzt werden (siehe <strong>Aventurisches Bestiarium II</strong> Seite <strong>119</strong>), außer bei sinnvollem Einsatz von Verwundbarkeiten (siehe <strong>Aventurisches Bestiarium II</strong> Seite <strong>122</strong>). Die Wirkungsdauer beträgt QS Minuten, aber der Vampir kann die Verwandlung jederzeit rückgängig machen. Die Rückverwandlung dauert 2 Aktionen, in der der Vampir ansonsten @UUID[Compendium.tde5e.states.Item.HA24618251831622]{Handlungsunfähig} ist. Am Ende der Rückverwandlung erleidet der Vampir 1 Stufe @UUID[Compendium.tde5e.conditions.Item.BE91425088509929]{Betäubung}.",
        "parents": []
    },
    "effects": [],
    "folder": "VA10619125127158",
    "_key": "!items!NE21915411120224"
}
