{
    "_id": "OR18262045412116",
    "name": "Ortskenntnis",
    "type": "commonAbility",
    "img": "systems/tde5e/assets/defaultItems/special_ability_common.svg",
    "system": {
        "cid": "ORTSKENNTNIS",
        "group": "common",
        "purchase": {
            "cost": [
                2
            ],
            "description": "2 Abenteuerpunkte",
            "levels": 1,
            "maxTimeBuyable": null
        },
        "requirementText": "6 Monate lang an diesem Ort gelebt oder Weg dutzendfach bereist haben",
        "sources": [
            "REGELWERK"
        ],
        "variant": {
            "categories": [],
            "input": true,
            "available": [],
            "level": 1,
            "selected": null
        },
        "flavor": "",
        "notes": "",
        "gmNotes": "",
        "parents": [
            "Compendium.tde5e.skills.Item.OR16411752231342",
            "Compendium.tde5e.skills.Item.GA11115740140204"
        ],
        "rule": "<p>Eine Ortskenntnis gewährt eine Erleichterung von 1 bei Proben auf @UUID[Compendium.tde5e.skills.Item.GA11115740140204]{Gassenwissen} und @UUID[Compendium.tde5e.skills.Item.OR16411752231342]{Orientierung}, wenn sie sich auf den entsprechenden Ort beziehen.</p><p>Ortskenntnis muss jeweils für einen bestimmten Ort erworben werden. Dieser Ort kann ein Dorf mit Umgebung, eine kleine Stadt, ein Stadtteil einer Großstadt oder ein Weg, ein Pfad oder eine Straße sein.</p>"
    },
    "effects": [],
    "folder": "PA17617319621714",
    "_key": "!items!OR18262045412116"
}
