{
    "_id": "RA17527981641162",
    "name": "Rationierung",
    "type": "commonAbility",
    "img": "systems/tde5e/assets/defaultItems/special_ability_common.svg",
    "system": {
        "cid": "RATIONIERUNG",
        "group": "skillStyleExtended",
        "purchase": {
            "cost": [
                8
            ],
            "description": "8 Abenteuerpunkte",
            "levels": 1,
            "maxTimeBuyable": 1
        },
        "requirementText": "Weg des Kochs",
        "sources": [
            "BOSPARANS_KATAKOMBEN",
            "LIBER_INGENIORUM"
        ],
        "variant": {
            "categories": [],
            "input": false,
            "available": [],
            "level": 1,
            "selected": null
        },
        "flavor": "<p>Nicht immer geht es beim Kochen nur um den Geschmack. Auch der Erhalt der eigenen Vorräte oder das Strecken von erjagten Lebensmitteln kann wichtig sein, um die eigene Gruppe in spärlichen Zeiten am Leben zu halten.</p>",
        "notes": "",
        "gmNotes": "",
        "parents": [
            "Compendium.tde5e.mundaneSpecialAbilities.Item.WE17923121317714"
        ],
        "rule": "<p>Der Koch kann zubereitete Mahlzeiten und Rationen strecken, so dass diese für 2 Tage füllend sind. Der Effekt von besonderem Essen (z.B. @UUID[Compendium.tde5e.mundaneSpecialAbilities.Item.FR15681015421917]{Frische Zutaten}) wird dadurch verlängert, sofern er noch nicht benutzt wurde.</p>"
    },
    "effects": [],
    "folder": "TA40194134252585",
    "_key": "!items!RA17527981641162"
}
