{
    "_id": "RI23821920212020",
    "name": "Riesenfledermaus des Schreckens",
    "type": "commonAbility",
    "img": "systems/tde5e/assets/defaultItems/special_ability_common.svg",
    "system": {
        "cid": "RIESENFLEDERMAUS_DES_SCHRECKENS",
        "group": "vampirism",
        "purchase": {
            "cost": [
                20
            ],
            "description": "20 Abenteuerpunkte",
            "levels": 1,
            "maxTimeBuyable": 1
        },
        "requirementText": "Status <em>Kind der Finsternis</em>",
        "sources": [
            "AVENTURISCHES_BESTIARIUM_2"
        ],
        "variant": {
            "categories": [],
            "input": false,
            "available": [],
            "level": 1,
            "selected": null
        },
        "flavor": "",
        "notes": "",
        "gmNotes": "",
        "rule": "Der Vampir verwandelt sich innerhalb von 2 Aktionen in eine Riesenfledermaus (Werte siehe <strong>Aventurisches Bestiarium II</strong> Seite <strong>124</strong>). Der neue Körper des Vampirs weist den Schaden auf, den er vor der Verwandlung erlitten hatte. Schaden während der Verwandlung wird bei der Rückverwandlung übernommen. Dies gilt auch für Zustände, Status und andere Energien. Der Vampir kann weder Zauber oder andere Vampirische Gaben in Riesenfledermausgestalt wirken, noch kann er sprechen.<p></p><br /><br /><p>Zuschauer, die die Verwandlung sehen, müssen sofort eine Vergleichsprobe auf @UUID[Compendium.tde5e.skills.Item.WI13315915718951]{Willenskraft (Einschüchtern widerstehen)} erschwert um 2 gegen @UUID[Compendium.tde5e.skills.Item.EI23914229134172]{Einschüchtern} des Vampirs ablegen. Bei Misslingen erleiden sie 2 Stufen @UUID[Compendium.tde5e.conditions.Item.FU13915517420459]{Furcht} für 13 Stunden. Die Riesenfledermaus verfügt über die Fähigkeit der Regeneration (siehe <strong>Aventurisches Bestiarium II</strong> Seite <strong>119</strong>) und es gelten die gleichen Verletzbarkeiten (siehe <strong>Aventurisches Bestiarium II</strong> Seite <strong>119</strong>) und Verwundbarkeiten (siehe <strong>Aventurisches Bestiarium II</strong> Seite <strong>122</strong>) wie in der Vampirgestalt. Die Wirkungsdauer beträgt maximal 13 Stunden, aber der Vampir kann die Verwandlung jederzeit rückgängig machen. Die Rückverwandlung dauert 2 Aktionen, in der der Vampir ansonsten @UUID[Compendium.tde5e.states.Item.HA24618251831622]{Handlungsunfähig} ist. Am Ende der Rückverwandlung erleidet der Vampir 1 Stufe @UUID[Compendium.tde5e.conditions.Item.BE91425088509929]{Betäubung}.</p>",
        "parents": []
    },
    "effects": [],
    "folder": "VA10619125127158",
    "_key": "!items!RI23821920212020"
}
