{
    "_id": "SC43183208115139",
    "name": "Schiffsbauer",
    "type": "commonAbility",
    "img": "systems/tde5e/assets/defaultItems/special_ability_common.svg",
    "system": {
        "cid": "SCHIFFSBAUER",
        "group": "common",
        "purchase": {
            "cost": [
                10
            ],
            "description": "10 Abenteuerpunkte",
            "levels": 1,
            "maxTimeBuyable": 1
        },
        "requirementText": "Seefahrt 6, Holzbearbeitung 8",
        "sources": [
            "AVENTURISCHES_KOMPENDIUM_1"
        ],
        "variant": {
            "categories": [],
            "input": false,
            "available": [],
            "level": 1,
            "selected": null
        },
        "flavor": "",
        "notes": "",
        "gmNotes": "",
        "parents": [
            "Compendium.tde5e.skills.Item.HO17697115856124"
        ],
        "rule": "Mit Proben auf das erweiterte Anwendungsgebiet @UUID[Compendium.tde5e.skills.Item.HO17697115856124]{Holzbearbeitung (Schiffe bauen)} ist der Held in der Lage, das richtige Holz für Schiffe auszuwählen, Boote und Schiffe zu entwerfen und zu bauen. Für komplexe oder regional spezifische Modelle sollte der Spielleiter entscheiden, ob sie dem Charakter ausreichend bekannt sind."
    },
    "effects": [],
    "folder": "PA17617319621714",
    "_key": "!items!SC43183208115139"
}
