{
    "_id": "SC56835910810924",
    "name": "Schnapsbrennerei",
    "type": "commonAbility",
    "img": "systems/tde5e/assets/defaultItems/special_ability_common.svg",
    "system": {
        "cid": "SCHNAPSBRENNEREI",
        "group": "common",
        "purchase": {
            "cost": [
                2
            ],
            "description": "2 Abenteuerpunkte",
            "levels": 1,
            "maxTimeBuyable": 1
        },
        "requirementText": "Alchimie 4, Lebensmittelbearbeitung 4",
        "sources": [
            "REGELWERK"
        ],
        "variant": {
            "categories": [],
            "input": false,
            "available": [],
            "level": 1,
            "selected": null
        },
        "flavor": "",
        "notes": "",
        "gmNotes": "",
        "parents": [
            "Compendium.tde5e.skills.Item.LE21912211415814"
        ],
        "rule": "Mit Proben auf das erweiterte Anwendungsgebiet @UUID[Compendium.tde5e.skills.Item.LE21912211415814]{Lebensmittelbearbeitung (Schnapsbrennen)} ist der Held in der Lage, Schnaps zu destillieren."
    },
    "effects": [],
    "folder": "PA17617319621714",
    "_key": "!items!SC56835910810924"
}
