{
    "_id": "SC21312516813212",
    "name": "Schon mal gelesen",
    "type": "commonAbility",
    "img": "systems/tde5e/assets/defaultItems/special_ability_common.svg",
    "system": {
        "cid": "SCHON_MAL_GELESEN",
        "group": "skillStyleExtended",
        "purchase": {
            "cost": [
                20
            ],
            "description": "20 Abenteuerpunkte",
            "levels": 1,
            "maxTimeBuyable": 1
        },
        "requirementText": "Weg der Schreiberin",
        "sources": [
            "BOSPARANS_KATAKOMBEN",
            "LIBER_INGENIORUM"
        ],
        "variant": {
            "categories": [],
            "input": false,
            "available": [],
            "level": 1,
            "selected": null
        },
        "flavor": "<p>Wer den größten Teil seiner Lebzeit mit Büchern verbringt, stößt unweigerlich auf Themen, über die man irgendwo schon mal etwas gelesen hat. Dieses Wissen ist zwar etwas unzuverlässig, kann aber mit etwas Glück zum richtigen Zeitpunkt die richtigen Anhaltspunkte liefern.</p>",
        "notes": "",
        "gmNotes": "",
        "parents": [
            "Compendium.tde5e.mundaneSpecialAbilities.Item.WE13620225071511"
        ],
        "rule": "<p>Bei Proben auf Wissenstalente, deren Thema schriftlich erfasst ist, hat die Schreiberin eine Chance (1-2 auf W6), das dazugehörige Werk zumindest abschnittsweise schon einmal gelesen zu haben. Die Probe erhält in diesem Fall 3 FW zusätzlich.</p>"
    },
    "effects": [],
    "folder": "TA40194134252585",
    "_key": "!items!SC21312516813212"
}
