{
    "_id": "SI17311215661751",
    "name": "Silberkatze",
    "type": "commonAbility",
    "img": "systems/tde5e/assets/defaultItems/special_ability_common.svg",
    "system": {
        "cid": "SILBERKATZE",
        "group": "skillStyleExtended",
        "purchase": {
            "cost": [
                10
            ],
            "description": "10 Abenteuerpunkte",
            "levels": 1,
            "maxTimeBuyable": 1
        },
        "requirementText": "Weg des Meuchelmörders",
        "sources": [
            "BOSPARANS_KATAKOMBEN",
            "LIBER_INGENIORUM"
        ],
        "variant": {
            "categories": [],
            "input": false,
            "available": [],
            "level": 1,
            "selected": null
        },
        "flavor": "<p>Im Zeitalter der Götter, oder möglicherweise auch danach, erzählt man sich von einer alten Katze, welche die Sprache der Menschen spricht, mit der Stimme einer alten Frau und dem Körper einer phantasiereichen Unsterblichen. Legenden besagen, dass alten Katzen eine besondere Kraft innewohnt und sie als etwas Neues geboren werden.</p>",
        "notes": "",
        "gmNotes": "",
        "parents": [
            "Compendium.tde5e.mundaneSpecialAbilities.Item.WE22821221811015"
        ],
        "rule": "<p>Der Assassine kann bis zu 4 Schritt Fallschaden ignorieren. Dieser Effekt wird vor der Berechnung und allen sonstigen Modifikatoren des Fallschadens angewendet und ist dazu kumulativ.</p>"
    },
    "effects": [],
    "folder": "TA40194134252585",
    "_key": "!items!SI17311215661751"
}
