{
    "_id": "SP14041209174717",
    "name": "Spinnenmann",
    "type": "commonAbility",
    "img": "systems/tde5e/assets/defaultItems/special_ability_common.svg",
    "system": {
        "cid": "SPINNENMANN",
        "group": "skillStyleExtended",
        "purchase": {
            "cost": [
                10
            ],
            "description": "10 Abenteuerpunkte",
            "levels": 1,
            "maxTimeBuyable": 1
        },
        "requirementText": "Weg der Spitzelin, Klettern 4",
        "sources": [
            "BOSPARANS_KATAKOMBEN",
            "LIBER_INGENIORUM"
        ],
        "variant": {
            "categories": [],
            "input": false,
            "available": [],
            "level": 1,
            "selected": null
        },
        "flavor": "<p>Manchmal ist es weit schwieriger, Zugang zum Haus des Ziels zu erhalten, als sich einfach an die Außenwand zu hängen und von dort zuzuhören. Mit etwas Übung und schlanken Fingern findet die Spitzelin auch an den glattesten Oberflächen halt. Wie eine Spinne hängt sie sich an das Fensterbrett und wartet auf ihr Ziel.</p>",
        "notes": "",
        "gmNotes": "",
        "parents": [
            "Compendium.tde5e.mundaneSpecialAbilities.Item.WE20963144158146"
        ],
        "rule": "<p>Erschwerungen auf @UUID[Compendium.tde5e.skills.Item.KL21110615875233]{Klettern (Fassaden klettern)} sind um 2 Punkte reduziert. Dadurch können keine Erleichterungen entstehen.</p>"
    },
    "effects": [],
    "folder": "TA40194134252585",
    "_key": "!items!SP14041209174717"
}
