{
    "_id": "TR43230141129172",
    "name": "Treues Werkzeug",
    "type": "commonAbility",
    "img": "systems/tde5e/assets/defaultItems/special_ability_common.svg",
    "system": {
        "cid": "TREUES_WERKZEUG",
        "group": "skillStyleExtended",
        "purchase": {
            "cost": [
                12
            ],
            "description": "12 Abenteuerpunkte",
            "levels": 1,
            "maxTimeBuyable": 1
        },
        "requirementText": "Weg des Stammeskriegers, Kampftechnik der gewählten Waffe 8",
        "sources": [
            "BOSPARANS_KATAKOMBEN",
            "LIBER_INGENIORUM"
        ],
        "variant": {
            "categories": [],
            "input": false,
            "available": [],
            "level": 1,
            "selected": null
        },
        "flavor": "<p>Für die eher grobschlächtigen Gesellen des Stammes ist es selten sinnvoll, eine Vielzahl von Werkzeugen mit sich zu führen und mit feinsten Instrumenten zu hantieren. Da macht es mehr Sinn, einfach das zu verwenden, was sowieso griffbereit ist – und Waffen mit Klingen sind generell vielseitig einsetzbar.</p>",
        "notes": "",
        "gmNotes": "",
        "parents": [
            "Compendium.tde5e.mundaneSpecialAbilities.Item.WE55647713118722"
        ],
        "rule": "<p>Verwendet der Krieger seine rituelle Waffe zur Ausübung von handwerklichen Tätigkeiten, kann er die Fingerfertigkeit der Probe einmal neu würfeln. Das zweite Ergebnis ist bindend. Das Anwendungsgebiet muss dafür Teil eines Handwerks- oder Naturtalentes sein, welches mindestens eine Teilprobe auf die Eigenschaft FF enthält. Zudem muss der Spieler erläutern können, wie die Waffe sinnvoll als Werkzeug verwendet wird (z.B. kann eine Axt nicht brauchbar zur Stoffbearbeitung genutzt werden, ein Messer hingegen schon). Der Meister entscheidet, ob dies angemessen ist. Der Krieger kann nicht gleichzeitig mehrere rituelle Waffen unterschiedlicher Art besitzen. Geht die beim Erwerb dieser Fähigkeit gewählte Waffe permanent verloren, kann er allerdings eine neue wählen.</p>"
    },
    "effects": [],
    "folder": "TA40194134252585",
    "_key": "!items!TR43230141129172"
}
