{
    "_id": "UN21237613524624",
    "name": "Unfaires Trinkspiel",
    "type": "commonAbility",
    "img": "systems/tde5e/assets/defaultItems/special_ability_common.svg",
    "system": {
        "cid": "UNFAIRES_TRINKSPIEL",
        "group": "skillStyleExtended",
        "purchase": {
            "cost": [
                5
            ],
            "description": "5 Abenteuerpunkte",
            "levels": 1,
            "maxTimeBuyable": 1
        },
        "requirementText": "Weg des Räubers, Selbstbeherrschung 6",
        "sources": [
            "BOSPARANS_KATAKOMBEN",
            "LIBER_INGENIORUM"
        ],
        "variant": {
            "categories": [],
            "input": false,
            "available": [],
            "level": 1,
            "selected": null
        },
        "flavor": "<p>Abendliche Wetten sind am Stammtisch von Halunken gang und gäbe. Dabei gilt grundsätzlich, dass jeder unfaire Vorteil akzeptabel ist, solange man dabei nicht erwischt wird. Besonders beim Trinken mit „Kunden“ zahlt sich die Erfahrung im Betrügen dann aus.</p>",
        "notes": "",
        "gmNotes": "",
        "parents": [
            "Compendium.tde5e.mundaneSpecialAbilities.Item.WE98165128317111"
        ],
        "rule": "<p>Proben auf @UUID[Compendium.tde5e.skills.Item.SE24510070128212]{Selbstbeherrschung (Zechen)} sind um 1 erleichtert. Immer wenn seinem Gegner eine Probe auf @UUID[Compendium.tde5e.skills.Item.SE24510070128212]{Selbstbeherrschung (Zechen)} gelingt, kann der Räube dagegen eine Probe eine Probe auf @UUID[Compendium.tde5e.skills.Item.TA33101101635723]{Taschendiebstahl (Zustecken)} ablegen. Diese ist erschwert um die Anzahl der bereits durchgeführten Zustecken-Proben gegen dasselbe Ziel. Schlägt die Probe fehl, erkennt sein Gegenüber den Betrugsversuch. Übertrifft er die gegnerischen QS, gilt dessen Probe als fehlgeschlagen. Ist die Probe erfolgreich, aber mit einer gleichen oder niedrigeren QS, geschieht nichts.</p><p>Das Verstärken des Getränks geschieht mit Haushaltsmitteln, die auch bei Entdeckung keine schwerwiegenden Konsequenzen nach sich ziehen.</p>"
    },
    "effects": [],
    "folder": "TA40194134252585",
    "_key": "!items!UN21237613524624"
}
