{
    "_id": "UN19720810725343",
    "name": "Untertauchen",
    "type": "commonAbility",
    "img": "systems/tde5e/assets/defaultItems/special_ability_common.svg",
    "system": {
        "cid": "UNTERTAUCHEN",
        "group": "skillStyleExtended",
        "purchase": {
            "cost": [
                8
            ],
            "description": "8 Abenteuerpunkte",
            "levels": 1,
            "maxTimeBuyable": 1
        },
        "requirementText": "Weg der Spitzelin, Verkleiden 6",
        "sources": [
            "BOSPARANS_KATAKOMBEN",
            "LIBER_INGENIORUM"
        ],
        "variant": {
            "categories": [],
            "input": false,
            "available": [],
            "level": 1,
            "selected": null
        },
        "flavor": "<p>Fluchend huscht Jamal um die Straßenecke, zwei Wachen dicht auf seinen Versen. Mit einem geschickten Handgriff dreht er seinen Mantel von der schwarzen auf die hellbraune Seite um und kommt schlitternd in einer Gruppe von Mönchen zum stehen. Verdutzt starren ihn die Mönche an. <em>„Entschuldigt Brüder, ich habe den Morgenappell verpasst“</em>, keucht Jamal. Einen Moment später rennen die Wachen um die Ecke, direkt hinter seinem Rücken vorbei.</p>",
        "notes": "",
        "gmNotes": "",
        "parents": [
            "Compendium.tde5e.mundaneSpecialAbilities.Item.WE20963144158146"
        ],
        "rule": "<p>Durch eine gelungene Probe auf @UUID[Compendium.tde5e.skills.Item.VE16625179947199]{Verkleiden} taucht die Spitzelin quasi sofort ab und kann somit beispielsweise eine Verfolgung beenden, sobald der Sichtkontakt für einen Moment unterbrochen ist. Die Probe ist abhängig davon erschwert, wie gut die Kleidung der Spitzelin in die Umgebung passt.</p>"
    },
    "effects": [],
    "folder": "TA40194134252585",
    "_key": "!items!UN19720810725343"
}
