{
    "_id": "VE23513083732663",
    "name": "Verdeckendes Tattoo",
    "type": "commonAbility",
    "img": "systems/tde5e/assets/defaultItems/special_ability_common.svg",
    "system": {
        "cid": "VERDECKENDES_TATTOO",
        "group": "skillStyleExtended",
        "purchase": {
            "cost": [
                12
            ],
            "description": "12 Abenteuerpunkte",
            "levels": 1,
            "maxTimeBuyable": 1
        },
        "requirementText": "Weg der Tätowiererin",
        "sources": [
            "BOSPARANS_KATAKOMBEN",
            "LIBER_INGENIORUM"
        ],
        "variant": {
            "categories": [],
            "input": false,
            "available": [],
            "level": 1,
            "selected": null
        },
        "flavor": "<p>Während man in Brabak jede Narbe aus dem Kampf stolz präsentiert, halten andere Kulturen solche Verschandelungen des Körpers eher für unansehnlich oder sogar abschreckend. Um dem entgegenzuwirken, kann man lange Kleidung tragen, was in der Hitze des Südens aber auch eher unangenehm ist. Also haben sich findige Künstler dazu entschieden, das Problem einfach zu übermalen (und in manchen Fällen sogar die Narbe in das Kunstwerk einzubauen).</p>",
        "notes": "",
        "gmNotes": "",
        "parents": [
            "Compendium.tde5e.mundaneSpecialAbilities.Item.WE18056205951162"
        ],
        "rule": "<p>Stigmata auf der Haut (z.B. Narben) können mit einem geschickt platzierten Tattoo versteckt werden, wodurch deren Erkennung um die QS des Tätowierens erschwert ist. Eine solche Tätowierung hält nur eine Woche und muss danach ggf. erneuert werden.</p>"
    },
    "effects": [],
    "folder": "TA40194134252585",
    "_key": "!items!VE23513083732663"
}
