{
    "_id": "VE22159471418016",
    "name": "Vertrauen",
    "type": "commonAbility",
    "img": "systems/tde5e/assets/defaultItems/special_ability_common.svg",
    "system": {
        "cid": "VERTRAUEN",
        "group": "skillStyleExtended",
        "purchase": {
            "cost": [
                15
            ],
            "description": "15 Abenteuerpunkte",
            "levels": 1,
            "maxTimeBuyable": 1
        },
        "requirementText": "Weg des Adligen",
        "sources": [
            "BOSPARANS_KATAKOMBEN",
            "LIBER_INGENIORUM"
        ],
        "variant": {
            "categories": [],
            "input": false,
            "available": [],
            "level": 1,
            "selected": null
        },
        "flavor": "<p>Nicht alle Mächtigen herrschen mit der Peitsche. Auch mit Zucker und aufrichtigen Worten kann man Menschen davon überzeugen, ihre Freiheit abzugeben. Das Versprechen von Sicherheit und Wohlstand überzeugt schnell die weniger Skeptischen.</p>",
        "notes": "",
        "gmNotes": "",
        "parents": [
            "Compendium.tde5e.mundaneSpecialAbilities.Item.WE12912819762951"
        ],
        "rule": "<p>Bei vergleichenden Proben auf Gesellschaftstalente würfelt der Gegner immer zuerst und gibt seine QS bekannt. Der Adlige kann sich dann entscheiden, eine freiwillige Erschwerung in Kauf zu nehmen. Für jeden Punkt Erschwerung erhält er bei Erfolg 2 FP zusätzlich.</p>"
    },
    "effects": [],
    "folder": "TA40194134252585",
    "_key": "!items!VE22159471418016"
}
