{
    "_id": "VI09715620320214",
    "name": "Vision der Gottheit",
    "type": "karmaAbility",
    "img": "systems/tde5e/assets/defaultItems/special_ability_blessed.svg",
    "system": {
        "aspect": "",
        "cid": "VISION_DER_GOTTHEIT",
        "cost": {
            "text": "",
            "constant": 0,
            "recurring": null
        },
        "group": "visions",
        "purchase": {
            "cost": [
                20
            ],
            "description": "20 Abenteuerpunkte",
            "levels": 1,
            "maxTimeBuyable": 1
        },
        "requirementText": "Vorteil Geweihter, Vorteil Visionär",
        "sources": [
            "AVENTURISCHES_GOTTERWIRKEN_1"
        ],
        "styleAbilities": [],
        "variant": {
            "categories": [],
            "input": false,
            "available": [],
            "level": 1,
            "selected": null
        },
        "flavor": "Die Heldin empfängt Träume und Zeichen ihrer Gottheit. Sie ist zuversichtlich und glaubt, die Pläne der Götter zu kennen.",
        "notes": "",
        "gmNotes": "",
        "parents": [
            "Compendium.tde5e.advantagesDisadvantages.Item.VI86189115137251"
        ],
        "rule": "<p>Gelingt der Heldin eine Probe auf @UUID[Compendium.tde5e.skills.Item.GO56118173851518]{Götter &amp; Kulte (eigene Gottheit)}, kann sie bis zur nächsten Regenerationsphase QS/2 Proben auf wohlgefällige Talente noch einmal würfeln und sich für das bessere Ergebnis entscheiden.</p><p>Die Heldin muss für die Vision 1 Schip einsetzen und kann sie nur einmal alle 24 Stunden einsetzen.</p>"
    },
    "effects": [],
    "folder": "PR15522219021414",
    "_key": "!items!VI09715620320214"
}
