{
    "_id": "WA10019613216816",
    "name": "Wachsames Auge",
    "type": "commonAbility",
    "img": "systems/tde5e/assets/defaultItems/special_ability_common.svg",
    "system": {
        "cid": "WACHSAMES_AUGE",
        "group": "skillStyleExtended",
        "purchase": {
            "cost": [
                15
            ],
            "description": "15 Abenteuerpunkte",
            "levels": 1,
            "maxTimeBuyable": 1
        },
        "requirementText": "Weg des Leibwächters, Sinnesschärfe 6",
        "sources": [
            "BOSPARANS_KATAKOMBEN",
            "LIBER_INGENIORUM"
        ],
        "variant": {
            "categories": [],
            "input": false,
            "available": [],
            "level": 1,
            "selected": null
        },
        "flavor": "<p>Der Begriff der Falkenaugen sagt vielen Aventuriern etwas. Selten werden damit Wächter in Verbindung gebracht, obwohl diese den Begriff erst geprägt haben. Das Ziel zu verlieren ist nicht nur beschämend, sondern gefährlich und führt meist zur Wahl einer anderen Profession.</p>",
        "notes": "",
        "gmNotes": "",
        "parents": [
            "Compendium.tde5e.mundaneSpecialAbilities.Item.WE24546352422610"
        ],
        "rule": "<p>Proben auf @UUID[Compendium.tde5e.skills.Item.SI80193235230167]{Sinnesschärfe} sind für den Wächter um 2 erleichtert, wenn damit Gefahren für seinen Schützling erkannt werden sollen.</p><p>Wer sein Schützling ist, muss vor der aktuellen Situation geklärt werden. Es ist nicht möglich, während einer Szene den Schützling zu ändern. Er kann nicht sein eigener Schützling sein.</p>"
    },
    "effects": [],
    "folder": "TA40194134252585",
    "_key": "!items!WA10019613216816"
}
