{
    "_id": "WE18925211245202",
    "name": "Weg des Söldners",
    "type": "commonAbility",
    "img": "systems/tde5e/assets/defaultItems/special_ability_common.svg",
    "system": {
        "cid": "WEG_DES_SOLDNERS",
        "group": "skillStyle",
        "purchase": {
            "cost": [
                15
            ],
            "description": "15 Abenteuerpunkte",
            "levels": 1,
            "maxTimeBuyable": 1
        },
        "requirementText": "Kriegskunst 8",
        "sources": [
            "BOSPARANS_KATAKOMBEN",
            "LIBER_INGENIORUM"
        ],
        "variant": {
            "categories": [],
            "input": false,
            "available": [],
            "level": 1,
            "selected": null
        },
        "flavor": "Söldner folgen nur einem einzigen Herrn: Dem Geld. Ruhm und Ehre sind für Trottel und Selbstmörder, nur bare Münze ist ehrlich. Zwar haben die meisten Söldner einen eigenen Kodex, doch letztendlich gewinnt Kriege immer die Partei, die am besten zahlt.",
        "notes": "",
        "gmNotes": "",
        "rule": "Die Dauer von @UUID[Compendium.tde5e.conditions.Item.SC72173204142222]{Schmerz} und @UUID[Compendium.tde5e.conditions.Item.BE91425088509929]{Betäubung} wird halbiert, so dass die Stufen dieser Zustände nur die Hälfte der Zeit benötigen, um sich passiv abzubauen.",
        "parents": []
    },
    "effects": [],
    "folder": "TA26189121720241",
    "_key": "!items!WE18925211245202"
}
