{
    "_id": "WE58198631201291",
    "name": "Weg der Künstlerin",
    "type": "commonAbility",
    "img": "systems/tde5e/assets/defaultItems/special_ability_common.svg",
    "system": {
        "cid": "WEG_DER_KUNSTLERIN",
        "group": "skillStyle",
        "purchase": {
            "cost": [
                2,
                4,
                6,
                8
            ],
            "description": "A-/B-/C-/D-Talent: 2/4/6/8 Abenteuerpunkte",
            "levels": 1,
            "maxTimeBuyable": 1
        },
        "requirementText": "Gewähltes Talent 8",
        "sources": [
            "BOSPARANS_KATAKOMBEN",
            "LIBER_INGENIORUM"
        ],
        "variant": {
            "categories": [],
            "input": false,
            "available": [],
            "level": 1,
            "selected": null
        },
        "flavor": "<em>„Brotlose Kunst, haben sie gesagt. Werde doch ein Doktor, haben sie gesagt. Jetzt ist der Heiler an der vordersten Linie des Krieges und ich schwelge im Reichtum des Erfolges.“</em> – Elvina, horasische Malerin, nachdem sie sich ihr erstes Bad in zwei Monden leisten konnte.",
        "notes": "",
        "gmNotes": "",
        "rule": "Ein beim Erwerb dieser Fertigkeit ausgewähltes Talent, das zur Anwendung der Kunst verwendet wird, erzielt beim Geld verdienen die zehnfache Summe.",
        "parents": []
    },
    "effects": [],
    "folder": "TA26189121720241",
    "_key": "!items!WE58198631201291"
}
