{
    "_id": "WE19224727225841",
    "name": "Weg der Baderin",
    "type": "commonAbility",
    "img": "systems/tde5e/assets/defaultItems/special_ability_common.svg",
    "system": {
        "cid": "WEG_DER_BADERIN",
        "group": "skillStyle",
        "purchase": {
            "cost": [
                15
            ],
            "description": "15 Abenteuerpunkte",
            "levels": 1,
            "maxTimeBuyable": 1
        },
        "requirementText": "Wundbehandlung 6",
        "sources": [
            "BOSPARANS_KATAKOMBEN",
            "LIBER_INGENIORUM"
        ],
        "variant": {
            "categories": [],
            "input": false,
            "available": [],
            "level": 1,
            "selected": null
        },
        "flavor": "<p>Ruhe, Entspannung und äsotherische Mittel sind die Werkzeuge der Baderin, mit denen sie selbst den ausgelaugtesten Söldner wieder auf die Beine bringt. Warmes Wasser, Kräuter und gezielte Berührungen vermögen es, weit mehr zu bewirken als ein einfaches Bad.</p>",
        "notes": "",
        "gmNotes": "",
        "parents": [
            "Compendium.tde5e.skills.Item.WU20148128101311"
        ],
        "rule": "<p>Die Baderin kann mit einer um 2 erleichterten Probe auf @UUID[Compendium.tde5e.skills.Item.WU20148128101311]{Wundbehandlung (Heilung fördern)} ein erholsames Bad vorbereiten. Dies benötigt pro Person 15 Minuten und Kräuter im Wert von 5 Silbertalern. Die exakten Zutaten können sich je nach Region unterscheiden und gegebenenfalls mit @UUID[Compendium.tde5e.skills.Item.PF16158106247128]{Pflanzenkunde} selbst gesucht werden.</p><p>Jeder, der mindestens 15 Minuten im Bad verbringt, erhält in der nächsten Regenerationsphase einen Lebenspunkt zusätzlich. Außerdem kann derjenige einen W6 werfen - ist der Wert kleiner oder gleich der QS des Bades, erhält die Person für die nächsten 24 Stunden einen maximalen Lebenspunkt. Die aktuellen Lebenspunkte ändern sich dadurch nicht. Jede Person kann nur einmal pro Tag von den Effekten betroffen sein.</p>"
    },
    "effects": [],
    "folder": "TA26189121720241",
    "_key": "!items!WE19224727225841"
}
