{
    "_id": "WE86181751831811",
    "name": "Weg des Boten",
    "type": "commonAbility",
    "img": "systems/tde5e/assets/defaultItems/special_ability_common.svg",
    "system": {
        "cid": "WEG_DES_BOTEN",
        "group": "skillStyle",
        "purchase": {
            "cost": [
                8
            ],
            "description": "8 Abenteuerpunkte",
            "levels": 1,
            "maxTimeBuyable": 1
        },
        "requirementText": "Orientierung 8",
        "sources": [
            "BOSPARANS_KATAKOMBEN",
            "LIBER_INGENIORUM"
        ],
        "variant": {
            "categories": [],
            "input": false,
            "available": [],
            "level": 1,
            "selected": null
        },
        "flavor": "<p>Schnell wie der Wind, sind die Boten das Rückgrat aventurischer Kommunikation. Auf ihren üblichen Strecken kennen sie sich aus wie kein anderer und machen sich schnell Freunde in den Dörfern auf dem Weg. Doch nicht immer begegnet man Boten mit Achtung und Respekt. Auch für politische Gegner und Banditen sind die Nachrichten überbringer lohnende Ziele.</p>",
        "notes": "",
        "gmNotes": "",
        "parents": [
            "Compendium.tde5e.mundaneSpecialAbilities.Item.OR18262045412116"
        ],
        "rule": "<p>Zum Entkommen in Verfolgungsjagden sind alle Proben um 1 erleichtert. Die Vorteile von @UUID[Compendium.tde5e.mundaneSpecialAbilities.Item.OR18262045412116]{Ortskenntnis} gelten auch für @UUID[Compendium.tde5e.skills.Item.HA19014124211567]{Handel}. Die Vorteile von @UUID[Compendium.tde5e.mundaneSpecialAbilities.Item.GE68056138432073]{Geländekunde} gelten auch für @UUID[Compendium.tde5e.skills.Item.RE23213215098822]{Reiten} und @UUID[Compendium.tde5e.skills.Item.FA63117563323454]{Fahrzeuge}.</p>"
    },
    "effects": [],
    "folder": "TA26189121720241",
    "_key": "!items!WE86181751831811"
}
