{
    "_id": "WE78922201115425",
    "name": "Weg des Prostituierten",
    "type": "commonAbility",
    "img": "systems/tde5e/assets/defaultItems/special_ability_common.svg",
    "system": {
        "cid": "WEG_DES_PROSTITUIERTEN",
        "group": "skillStyle",
        "purchase": {
            "cost": [
                8
            ],
            "description": "8 Abenteuerpunkte",
            "levels": 1,
            "maxTimeBuyable": 1
        },
        "requirementText": "Betören 8, Überreden 4",
        "sources": [
            "BOSPARANS_KATAKOMBEN",
            "LIBER_INGENIORUM"
        ],
        "variant": {
            "categories": [],
            "input": false,
            "available": [],
            "level": 1,
            "selected": null
        },
        "flavor": "<p>Käufliche Liebe ist vor Allem in den Kulturen der Menschen ebenso verpönt wie unersetzbar. Die Möglichkeit, sich jederzeit mit etwas Geld Befriedigung kaufen zu können, wird von allen Ständen, Geschlechtern und Berufen genutzt. Für die Prostituierten ist der Verkauf des eigenen Fleisches eine durchaus profitable Angelegenheit, wenn auch mit einigen Risiken verbunden. Krankheiten, eifersüchtige Liebhaber und viele andere Dinge können den besonderen Dienst leistern gefährlich werden. Auf der anderen Seite lohnt es sich gerade in hohen gesell schaftlichen Kreisen, die eigenen Kunden mehr oder weniger subtil beeinflussen zu können.</p>",
        "notes": "",
        "gmNotes": "",
        "parents": [
            "Compendium.tde5e.skills.Item.BE22019221941182"
        ],
        "rule": "<p>Nach einer vergleichenden Probe auf @UUID[Compendium.tde5e.skills.Item.BE22019221941182]{Betören} gegen die @UUID[Compendium.tde5e.skills.Item.WI13315915718951]{Willenskraft} des Ziels erhalten alle unmittelbar folgenden Proben auf @UUID[Compendium.tde5e.skills.Item.UB25018415118918]{Überreden} die QS-Differenz der Vergleichsprobe als Bonus auf den Fertigkeitswert.</p>"
    },
    "effects": [],
    "folder": "TA26189121720241",
    "_key": "!items!WE78922201115425"
}
