{
    "_id": "WE36234112175130",
    "name": "Weg der Karawanenführerin",
    "type": "commonAbility",
    "img": "systems/tde5e/assets/defaultItems/special_ability_common.svg",
    "system": {
        "cid": "WEG_DER_KARAWANENFUHRERIN",
        "group": "skillStyle",
        "purchase": {
            "cost": [
                10
            ],
            "description": "10 Abenteuerpunkte",
            "levels": 1,
            "maxTimeBuyable": 1
        },
        "requirementText": "Wildnisleben 8, SF Geländekunde",
        "sources": [
            "BOSPARANS_KATAKOMBEN",
            "LIBER_INGENIORUM"
        ],
        "variant": {
            "categories": [],
            "input": true,
            "available": [],
            "level": 1,
            "selected": null
        },
        "flavor": "<p>Anführer, die hinten im Pulk mitgetragen werden, sind den Kulturen von weniger zugänglichen Landschaften Aventuriens fremd. Die Hitze der Wüste oder die Undurchdringlichkeit des Dschungels machen es notwendig, dass jeder mit Hand anpackt – die Leiterin ganz vorne an der Spitze der Truppe.</p>",
        "notes": "",
        "gmNotes": "",
        "parents": [
            "Compendium.tde5e.mundaneSpecialAbilities.Item.GE68056138432073"
        ],
        "rule": "<p>Die Erleichterungen von einer beim Erwerb dieser Fähigkeit ausgewählten @UUID[Compendium.tde5e.mundaneSpecialAbilities.Item.GE68056138432073]{Geländekunde} erhöhen sich um 1 (d.h. üblicherweise 2 statt 1).</p>"
    },
    "effects": [],
    "folder": "TA26189121720241",
    "_key": "!items!WE36234112175130"
}
