{
    "_id": "WE20615390142231",
    "name": "Weg des Zimmermanns",
    "type": "commonAbility",
    "img": "systems/tde5e/assets/defaultItems/special_ability_common.svg",
    "system": {
        "cid": "WEG_DES_ZIMMERMANNS",
        "group": "skillStyle",
        "purchase": {
            "cost": [
                10
            ],
            "description": "10 Abenteuerpunkte",
            "levels": 1,
            "maxTimeBuyable": 1
        },
        "requirementText": "Holzbearbeitung 8",
        "sources": [
            "BOSPARANS_KATAKOMBEN",
            "LIBER_INGENIORUM"
        ],
        "variant": {
            "categories": [],
            "input": false,
            "available": [],
            "level": 1,
            "selected": null
        },
        "flavor": "<p><em>„Hier im Sägewerk zersägen wir alles, was unsere Holzfäller so anschleppen. Und aus den Scheiben bauen wir dann alles, was unsere Kunden so haben wollen. Früher nannten wir das mal Tischlerei, aber wir bauen ja mehr als nur Tische. Fußböden, Dachstühle, gelegentlich auch mal Schiff- oder Wagenteile. Zeug aus Holz eben. “</em> – Wesemir <s>Neunfinger</s> Achtfinger, Zimmermann.</p>",
        "notes": "",
        "gmNotes": "",
        "parents": [
            "Compendium.tde5e.skills.Item.HO17697115856124"
        ],
        "rule": "<p>Schlägt während einer Sammelprobe mit @UUID[Compendium.tde5e.skills.Item.HO17697115856124]{Holzbearbeitung} eine Teilprobe fehl, wird die darauffolgende Teilprobe um 3 Punkte erleichtert. Dies kann auch für die erste Teilprobe der nächsten Probe gelten, wenn die dritte Teilprobe der vorherigen fehlgeschlagen ist. Bei einem Patzer gilt dieser Effekt nicht, dafür verhindert diese Fähigkeit stattdessen den Verfall der bisher angesammelten QS.</p>"
    },
    "effects": [],
    "folder": "TA26189121720241",
    "_key": "!items!WE20615390142231"
}
