{
    "_id": "WE55647713118722",
    "name": "Weg des Stammeskriegers",
    "type": "commonAbility",
    "img": "systems/tde5e/assets/defaultItems/special_ability_common.svg",
    "system": {
        "cid": "WEG_DES_STAMMESKRIEGERS",
        "group": "skillStyle",
        "purchase": {
            "cost": [
                4,
                8,
                12,
                16
            ],
            "description": "A-/B-/C-/D-Talent: 4/8/12/16 Abenteuerpunkte",
            "levels": 1,
            "maxTimeBuyable": 1
        },
        "requirementText": "Götter & Kulte 8",
        "sources": [
            "BOSPARANS_KATAKOMBEN",
            "LIBER_INGENIORUM"
        ],
        "variant": {
            "categories": [],
            "input": false,
            "available": [],
            "level": 1,
            "selected": null
        },
        "flavor": "<p>Einem festen Stamm angehörige Krieger sind nie allein. Wenn nicht ihre Kameraden, dann zumindest doch durch ihre Götter begleitet, stellen sie sich furchtlos jeder Herausforderung. Selbst wenn sie nur mit einer Waffe und einem Lendenschurz ausgerüstet sind, vermögen es die Verteidiger ihres Volkes, erstaunliche Taten zu vollbringen.</p>",
        "notes": "",
        "gmNotes": "",
        "rule": "<p>Beim Erwerb dieser Fähigkeit wählt der Stammeskrieger ein Talent aus, welches eine besondere Bedeutung für seinen Glauben oder seine Kultur hat (der Meister entscheidet, ob dies angemessen ist). Einmal pro Tag kann der Krieger für dieses Talent eine Schicksalspunkte-Fertigkeit einsetzen, ohne einen Schicksalspunkt zu verwenden.</p>",
        "parents": []
    },
    "effects": [],
    "folder": "TA26189121720241",
    "_key": "!items!WE55647713118722"
}
