{
    "_id": "WE94209161224116",
    "name": "Weg des Streuners",
    "type": "commonAbility",
    "img": "systems/tde5e/assets/defaultItems/special_ability_common.svg",
    "system": {
        "cid": "WEG_DES_STREUNERS",
        "group": "skillStyle",
        "purchase": {
            "cost": [
                12
            ],
            "description": "12 Abenteuerpunkte",
            "levels": 1,
            "maxTimeBuyable": 1
        },
        "requirementText": "Gassenwissen 6",
        "sources": [
            "BOSPARANS_KATAKOMBEN",
            "LIBER_INGENIORUM"
        ],
        "variant": {
            "categories": [],
            "input": false,
            "available": [],
            "level": 1,
            "selected": null
        },
        "flavor": "Einfach nur den aktuellen Tag überleben. Das ist das Lebensmantra des Streuners. Ohne Vermögen, Freunde oder Familie ist das keine triviale Angelegenheit. Kaum ein Bürger ist bereit, sich mit ihm abzugeben oder ihm gar zu helfen. So bleibt ihm nur das Betteln und die Hoffnung auf ein besseres Leben.",
        "notes": "",
        "gmNotes": "",
        "rule": "Einmal pro Tag kann der Streuer den Vorteil Begabung auf @UUID[Compendium.tde5e.skills.Item.GA11115740140204]{Gassenwissen}, @UUID[Compendium.tde5e.skills.Item.UB25018415118918]{Überreden} oder @UUID[Compendium.tde5e.skills.Item.VE22425218425144]{Verbergen} nutzen.",
        "parents": []
    },
    "effects": [],
    "folder": "TA26189121720241",
    "_key": "!items!WE94209161224116"
}
