{
    "_id": "WE13620225071511",
    "name": "Weg der Schreiberin",
    "type": "commonAbility",
    "img": "systems/tde5e/assets/defaultItems/special_ability_common.svg",
    "system": {
        "cid": "WEG_DER_SCHREIBERIN",
        "group": "skillStyle",
        "purchase": {
            "cost": [
                15
            ],
            "description": "15 Abenteuerpunkte",
            "levels": 1,
            "maxTimeBuyable": 1
        },
        "requirementText": "Etikette 6, passende Schrift und Sprache",
        "sources": [
            "BOSPARANS_KATAKOMBEN",
            "LIBER_INGENIORUM"
        ],
        "variant": {
            "categories": [],
            "input": false,
            "available": [],
            "level": 1,
            "selected": null
        },
        "flavor": "<p>Von manchen wird es als Kunst verstanden, andere sehen es als ein nützliches Werkzeug, wieder andere fragen sich, wofür man so etwas braucht. Die Schreiberin muss mit allen drei Einstellungen zurechtkommen, denn ihre Kunden stammen aus den verschiedensten Bildungskreisen. Ob nun ein Bauer, der gar nicht schreiben kann, oder ein Adliger, der es mit Worten einfach nicht so hat – auf die Expertise der Schreiber muss man sich verlassen können.</p>",
        "notes": "",
        "gmNotes": "",
        "parents": [
            "Compendium.tde5e.skills.Item.ET92146421911932"
        ],
        "rule": "<p>Mit einer Probe auf @UUID[Compendium.tde5e.skills.Item.ET92146421911932]{Etikette} hilft die Schreiberin einem Kunden beim Verfassen eines Briefes oder Dokuments. Die vorher designierten Empfänger (was bis zu 5 Personen sein können) haben nach dem Lesen eine um QS / 2 verbesserte Einstellung gegenüber dem Kunden (siehe @UUID[Compendium.tde5e.magic.Item.BA14143252202204]{Bannbaladin}). Jedes Ziel kann von diesem Effekt nur einmal zur gleichen Zeit beeinflusst werden und auch nur einmal pro Schreiben. Der Effekt sinkt alle 24 Stunden um 1, bis die Einstellung wieder der ursprünglichen entspricht.</p>"
    },
    "effects": [],
    "folder": "TA26189121720241",
    "_key": "!items!WE13620225071511"
}
