{
    "_id": "WE23123713352142",
    "name": "Weg des Jägers",
    "type": "commonAbility",
    "img": "systems/tde5e/assets/defaultItems/special_ability_common.svg",
    "system": {
        "cid": "WEG_DES_JAGERS",
        "group": "skillStyle",
        "purchase": {
            "cost": [
                5
            ],
            "description": "5 Abenteuerpunkte",
            "levels": 1,
            "maxTimeBuyable": 1
        },
        "requirementText": "Sinnesschärfe 6",
        "sources": [
            "BOSPARANS_KATAKOMBEN",
            "LIBER_INGENIORUM"
        ],
        "variant": {
            "categories": [],
            "input": false,
            "available": [],
            "level": 1,
            "selected": null
        },
        "flavor": "Die Aufgabe des Jägers liegt primär in der Beschaffung von Nahrungsmitteln für sein Dorf, seinen Stamm oder seine Gruppe. Meist alleine streift er durch den Wald und erlegt alles, was genügend Rationen hergibt. Weil er auf dem Rückweg wesentlich mehr zu tragen hat, muss er i.d.R. leicht reisen. Mit nur einem kleinen Köcher empfiehlt es sich daher, nicht zu viele Pfeile zu verschießen.",
        "notes": "",
        "gmNotes": "",
        "rule": "Bei der Wiederverwendung von Pfeilen und Bolzen sind diese bereits ab 4 auf einem W6 in brauchbarem Zustand. Bei 2 und 3 ist das Geschoss nicht direkt verwendbar, aber auch nicht zerstört und es können 50% der Materialien wiederverwendet werden. Bei einer 1 ist das Projektil unwiederbringlich zerstört.",
        "parents": []
    },
    "effects": [],
    "folder": "TA26189121720241",
    "_key": "!items!WE23123713352142"
}
