{
    "_id": "WE20214936226145",
    "name": "Weg des Höflings",
    "type": "commonAbility",
    "img": "systems/tde5e/assets/defaultItems/special_ability_common.svg",
    "system": {
        "cid": "WEG_DES_HOFLINGS",
        "group": "skillStyle",
        "purchase": {
            "cost": [
                10
            ],
            "description": "10 Abenteuerpunkte",
            "levels": 1,
            "maxTimeBuyable": 1
        },
        "requirementText": "Etikette 8",
        "sources": [
            "BOSPARANS_KATAKOMBEN",
            "LIBER_INGENIORUM"
        ],
        "variant": {
            "categories": [],
            "input": false,
            "available": [],
            "level": 1,
            "selected": null
        },
        "flavor": "<p>Im horasischen Adel finden sich viele Menschen, die gerne wichtiger wären, als sie es eigentlich sind. Und in dem ständigen Wetteifern um Auf mer ksamkeit und Ansehen (möglichst ohne Verantwortung übernehmen zu müssen) bieten sich viele Gelegenheiten, dem einen oder anderen Würdenträger Dinge ins Ohr zu flüstern. Seinen eigenen Worten Gewicht zu verleihen ist lediglich eine Frage des Auftritts.</p>",
        "notes": "",
        "gmNotes": "",
        "rule": "<p>Der Höfling kann mit Probe auf @UUID[Compendium.tde5e.skills.Item.VE16625179947199]{Verkleiden (Aussehen imitieren)} seinen effektiven sozialen Stand um 1 erhöhen oder senken. Er benötigt dafür 6 - QS Minuten Vorbereitungszeit. Der veränderte Stand wirkt nicht gegen Ziele, die seinen eigentlichen Stand bereits kennen. Die Fähigkeit kann nicht mehrfach zur selben Zeit aktiv sein, aber jederzeit beendet werden.</p>",
        "parents": []
    },
    "effects": [],
    "folder": "TA26189121720241",
    "_key": "!items!WE20214936226145"
}
