{
    "_id": "WE17914116711883",
    "name": "Wegkenntnis",
    "type": "commonAbility",
    "img": "systems/tde5e/assets/defaultItems/special_ability_common.svg",
    "system": {
        "cid": "WEGKENNTNIS",
        "group": "common",
        "purchase": {
            "cost": [
                5
            ],
            "description": "5 Abenteuerpunkte",
            "levels": 1,
            "maxTimeBuyable": 1
        },
        "requirementText": "Wildnisleben 6 oder Gassenwissen 6, Orientierung 8",
        "sources": [
            "AVENTURISCHES_KOMPENDIUM_2"
        ],
        "variant": {
            "categories": [],
            "input": false,
            "available": [],
            "level": 1,
            "selected": null
        },
        "flavor": "",
        "notes": "",
        "gmNotes": "",
        "parents": [
            "Compendium.tde5e.mundaneSpecialAbilities.Item.OR18262045412116"
        ],
        "rule": "<p>Der Held kann bei Verfolgungsjagden (siehe <strong>Regelwerk</strong> Seite <strong>349</strong>) eine einzelne Probe durch einen anderen Weg ersetzen (z.B. @UUID[Compendium.tde5e.skills.Item.KL21110615875233]{Klettern} statt @UUID[Compendium.tde5e.skills.Item.AT01742720744548]{Athletik}, @UUID[Compendium.tde5e.skills.Item.SE18516924155745]{Seefahrt} statt @UUID[Compendium.tde5e.skills.Item.SC13286236249101]{Schwimmen}, etc.). Der Spielleiter entscheidet, ob der Ersatz in der näheren Umgebung möglich ist. Verfügt der Held über eine passende @UUID[Compendium.tde5e.mundaneSpecialAbilities.Item.GE68056138432073]{Geländekunde} oder @UUID[Compendium.tde5e.mundaneSpecialAbilities.Item.OR18262045412116]{Ortskenntnis}, kann er eine zweite Probe innerhalb derselben Verfolgungsjagd ersetzen.</p><p>Diese Fähigkeit kann auch außerhalb von Verfolgungsjagden eingesetzt werden, um Zeit zu sparen. Jede ersetzte Probe spart etwa 5 Minuten (je nach Umgebung und Länge des Weges).</p>"
    },
    "effects": [],
    "folder": "PA17617319621714",
    "_key": "!items!WE17914116711883"
}
