{
    "_id": "ZU65024852431411",
    "name": "Zutaten strecken",
    "type": "commonAbility",
    "img": "systems/tde5e/assets/defaultItems/special_ability_common.svg",
    "system": {
        "cid": "ZUTATEN_STRECKEN",
        "group": "skillStyleExtended",
        "purchase": {
            "cost": [
                12
            ],
            "description": "12 Abenteuerpunkte",
            "levels": 1,
            "maxTimeBuyable": 1
        },
        "requirementText": "Weg des Alchimisten",
        "sources": [
            "BOSPARANS_KATAKOMBEN",
            "LIBER_INGENIORUM"
        ],
        "variant": {
            "categories": [],
            "input": false,
            "available": [],
            "level": 1,
            "selected": null
        },
        "flavor": "<p>Manchmal muss man einfach mit dem leben, was man hat. Gerade seltenere Zutaten sind es einfach nicht wert, wenn man alles in einen Trank gießt. Findige Brauer sind darauf gekommen, wie man den Trank verdünnt, ohne die Mischung unwirksam zu machen.</p>",
        "notes": "",
        "gmNotes": "",
        "parents": [
            "Compendium.tde5e.mundaneSpecialAbilities.Item.WE17810112724825"
        ],
        "rule": "<p>Der Alchimist kann statt eines einzelnen Trankes mit der gewürfelten Stufe zwei Tränke in geringerer Dosierung herstellen. Er kann dabei die QS der Herstellung frei aufteilen (z.B. Stufe 4 und 2 statt Stufe 6).</p>"
    },
    "effects": [],
    "folder": "TA40194134252585",
    "_key": "!items!ZU65024852431411"
}
