{
    "_id": "FU13915517420459",
    "name": "Furcht",
    "type": "condition",
    "img": "systems/tde5e/assets/conditions/fear.svg",
    "system": {
        "cid": "FURCHT",
        "duration": "Ist der Auslöser nicht mehr vorhanden, baut sich die Furcht alle 5 Minuten um 1 Stufe ab, so nichts anderes angegeben ist.",
        "isDefault": true,
        "levelEffects": [
            "beunruhigt, alle Proben –1",
            "verängstigt, alle Proben –2",
            "in Panik, alle Proben –3",
            "katatonisch, <em>handlungsunfähig</em>"
        ],
        "levelEffectsShort": [
            "Proben -1",
            "Proben -2",
            "Proben -3",
            "<em>handlungsunfähig</em>"
        ],
        "maxLevel": 4,
        "removal": "-",
        "sources": [
            "REGELWERK"
        ],
        "notes": "",
        "gmNotes": "",
        "flavor": "",
        "value": 0,
        "rule": "",
        "parents": []
    },
    "effects": [],
    "folder": null,
    "_key": "!items!FU13915517420459"
}
