{
    "_id": "WI78214125171111",
    "name": "Wissenstalente",
    "type": "Item",
    "sorting": "m",
    "folder": null,
    "sort": 1,
    "color": "#000000",
    "_key": "!folders!WI78214125171111"
}
