{
    "_id": "KO82262407011868",
    "name": "Körpertalente",
    "type": "Item",
    "sorting": "m",
    "folder": null,
    "sort": 0,
    "color": "#000000",
    "_key": "!folders!KO82262407011868"
}
