{
    "_id": "BR59227194165173",
    "name": "Brett- & Glücksspiel",
    "type": "skill",
    "img": "systems/tde5e/assets/defaultItems/skill_knowledge.svg",
    "system": {
        "applications": "Würfelspiele, Brettspiele, Kartenspiele, Wettspiele",
        "check": {
            "affectedByEncumbrance": false,
            "attributes": [
                "sagacity",
                "sagacity",
                "intuition"
            ],
            "hideValue": false
        },
        "cid": "BRETT_UND_GLUCKSSPIEL",
        "group": "knowledge",
        "isDefault": true,
        "sources": [],
        "improvement": {
            "column": "A",
            "value": 0
        },
        "flavor": "",
        "notes": "",
        "gmNotes": "",
        "rule": "<p><strong>Qualität:</strong> Der Held hat einen guten Spielzug gemacht.</p><p><strong>Fehlschlag:</strong> Der Held verliert.</p><p><strong>Kritischer Erfolg:</strong> Der Held gewinnt auf spektakuläre Art und Weise. Wurde um Geld gespielt, verdoppelt sich sein Gewinn.</p><p><strong>Kritischer Fehlschlag:</strong> Der Held wird fälschlicherweise des Falschspiels verdächtigt oder hat eine Pechsträne. Wird um Geld gespielt, verliert er mindestens den kompletten Einsatz (oder mehr).</p>",
        "parents": []
    },
    "effects": [],
    "folder": "WI78214125171111",
    "_key": "!items!BR59227194165173"
}
