{
    "_id": "FA85208238570222",
    "name": "Fährtensuchen",
    "type": "skill",
    "img": "systems/tde5e/assets/defaultItems/skill_nature.svg",
    "system": {
        "applications": "Verwischen eigener Fährte, Humanoide Spuren, Tierische Spuren",
        "check": {
            "affectedByEncumbrance": true,
            "attributes": [
                "courage",
                "intuition",
                "agility"
            ],
            "hideResult": true
        },
        "cid": "FAHRTENSUCHEN",
        "group": "nature",
        "isDefault": true,
        "sources": [],
        "improvement": {
            "column": "C",
            "value": 0
        },
        "flavor": "",
        "notes": "",
        "gmNotes": "",
        "rule": "<p><strong>Qualität:</strong> über die Qualitätsstufe kann der Held mehr Details in der Fährte erkennen.</p><p><strong>Fehlschlag:</strong> Der Held findet keine Spur oder kann keine neuen Erkenntnisse gewinnen.</p><p><strong>Kritischer Erfolg:</strong> Sofern die Spur nicht komplett zerstört wurde, kann der Held ihr zielsicher bis zum Ende folgen. Er erhält mehr Informationen als üblich. Täuschungsmanöver wie das Verwischen der Spuren durchschaut er sofort.</p><p><strong>Kritischer Fehlschlag:</strong> Der Held verwechselt die Spur und folgt einer falschen Fährte. So trifft er vielleicht auf eine gefährliche Kreatur oder jagt den falschen Leuten hinterher.</p>",
        "parents": []
    },
    "effects": [],
    "folder": "NA17215242531382",
    "_key": "!items!FA85208238570222"
}
