{
    "_id": "FE63961132001614",
    "name": "Fesseln",
    "type": "skill",
    "img": "systems/tde5e/assets/defaultItems/skill_nature.svg",
    "system": {
        "applications": "Fesselungen, Knotenkunde, Netze knüpfen, Seile herstellen",
        "check": {
            "affectedByEncumbrance": null,
            "attributes": [
                "sagacity",
                "dexterity",
                "strength"
            ],
            "hideResult": true
        },
        "cid": "FESSELN",
        "group": "nature",
        "isDefault": true,
        "sources": [],
        "improvement": {
            "column": "A",
            "value": 0
        },
        "flavor": "",
        "notes": "",
        "gmNotes": "",
        "rule": "<p><strong>Qualität:</strong> Die Fessel hält länger und kann gegebenenfalls schwerer geöffnet werden.</p><p><strong>Fehlschlag:</strong> Dem Held gelingt nur ein Knoten von schlechter Qualität. Das Befreien daraus ist leichter als üblich.</p><p><strong>Kritischer Erfolg:</strong> Der Held hat einen stabilen Knoten gemacht. Für Qualitätsstufen, Vergleichs- und Sammelproben gilt: FP = doppelter FW.</p><p><strong>Kritischer Fehlschlag:</strong> Der Held hat einen Knoten gemacht, der sich in jeder Lage löst - oder der denkbar ungünstigsten.</p>",
        "parents": []
    },
    "effects": [],
    "folder": "NA17215242531382",
    "_key": "!items!FE63961132001614"
}
