{
    "_id": "GO56118173851518",
    "name": "Götter & Kulte",
    "type": "skill",
    "img": "systems/tde5e/assets/defaultItems/skill_knowledge.svg",
    "system": {
        "applications": "je nach Gottheit",
        "check": {
            "affectedByEncumbrance": false,
            "attributes": [
                "sagacity",
                "sagacity",
                "intuition"
            ]
        },
        "cid": "GOTTER_UND_KULTE",
        "group": "knowledge",
        "isDefault": true,
        "sources": [],
        "improvement": {
            "column": "B",
            "value": 0
        },
        "flavor": "",
        "notes": "",
        "gmNotes": "",
        "rule": "<p><strong>Qualität:</strong> mehr Details zu Kulten, Göttern und Priestern</p><p><strong>Fehlschlag:</strong> Der Held hat keine Ahnung.</p><p><strong>Kritischer Erfolg:</strong> Der Held hat detaillierte Einsichten in das Thema und kennt selbst spezielle Rituale, Gebetstexte oder philosophische Grundlagen.</p><p><strong>Kritischer Fehlschlag:</strong> Der Held verwechselt kultische Handlungen und Ansichten dieser Kirche mit einer anderen.</p>",
        "parents": []
    },
    "effects": [],
    "folder": "WI78214125171111",
    "_key": "!items!GO56118173851518"
}
