{
    "_id": "MA73963218615382",
    "name": "Magiekunde",
    "type": "skill",
    "img": "systems/tde5e/assets/defaultItems/skill_knowledge.svg",
    "system": {
        "applications": "Artefakte, Magische Wesen, Rituale, Zaubersprüche",
        "check": {
            "affectedByEncumbrance": false,
            "attributes": [
                "sagacity",
                "sagacity",
                "intuition"
            ]
        },
        "cid": "MAGIEKUNDE",
        "group": "knowledge",
        "isDefault": true,
        "sources": [],
        "improvement": {
            "column": "C",
            "value": 0
        },
        "flavor": "",
        "notes": "",
        "gmNotes": "",
        "rule": "<p><strong>Qualität:</strong> mehr Details zu Zaubern, magischen Wesen oder exotischer Magieanwendung</p><p><strong>Fehlschlag:</strong> Der Held hat keine Ahnung.</p><p><strong>Kritischer Erfolg:</strong> Der Held kennt Herkunft, wirkenden Zauber und Auslöser eines alten Artefaktes.</p><p><strong>Kritischer Fehlschlag:</strong> Der Held hat falsche Vorstellungen und irrt sich, sodass es zu einem gravierenden Fehlurteil kommt.</p>",
        "parents": []
    },
    "effects": [],
    "folder": "WI78214125171111",
    "_key": "!items!MA73963218615382"
}
