{
    "_id": "MA17821721188237",
    "name": "Malen & Zeichnen",
    "type": "skill",
    "img": "systems/tde5e/assets/defaultItems/skill_craft.svg",
    "system": {
        "applications": "Malen, Ritzen, Zeichnen",
        "check": {
            "affectedByEncumbrance": true,
            "attributes": [
                "intuition",
                "dexterity",
                "dexterity"
            ],
            "hideValue": false
        },
        "cid": "MALEN_UND_ZEICHNEN",
        "group": "craft",
        "isDefault": true,
        "sources": [],
        "improvement": {
            "column": "A",
            "value": 0
        },
        "flavor": "",
        "notes": "",
        "gmNotes": "",
        "rule": "<p><strong>Qualität:</strong> Die Qualität der Zeichnung ist besser als üblich.</p><p><strong>Fehlschlag:</strong> Dem Held gelingt eine mit Phantasie erkennbare, aber wenig schöne Zeichnung.</p><p><strong>Kritischer Erfolg:</strong> Das Bild ist so gut, dass der Held für einen berühmten Maler gehalten wird.</p><p><strong>Kritischer Fehlschlag:</strong> schreckliches, unmöglich erkennbares Gekrakel</p>",
        "parents": []
    },
    "effects": [],
    "folder": "HA13641894459853",
    "_key": "!items!MA17821721188237"
}
