{
    "_id": "SE14121889129156",
    "name": "Seelsorge",
    "type": "skill",
    "img": "systems/tde5e/assets/defaultItems/skill_craft.svg",
    "system": {
        "applications": "Ängste, Persönlichkeitsschwächen, Schlechten Eigenschaften",
        "check": {
            "affectedByEncumbrance": false,
            "attributes": [
                "intuition",
                "charisma",
                "constitution"
            ],
            "hideValue": false
        },
        "cid": "SEELSORGE",
        "group": "craft",
        "isDefault": true,
        "sources": [],
        "improvement": {
            "column": "B",
            "value": 0
        },
        "flavor": "",
        "notes": "",
        "gmNotes": "",
        "rule": "<p><strong>Qualität:</strong> Die Unterdrückung des Nachteils hält länger an.</p><p><strong>Fehlschlag:</strong> Der Held hat keine Ahnung, wie er dem Patienten helfen kann.</p><p><strong>Kritischer Erfolg:</strong> Der Patient kann einen Nachteil (Angst, Persönlichkeitsschwäche oder Schlechte Eigenschaft) für einen ganzen Tag unterdrücken.</p><p><strong>Kritischer Fehlschlag:</strong> Der Held hat den Patienten bei der Behandlung verstört oder seinem Geist anderweitig geschadet. Der Patient erhält für einen Tag eine Stufe des Zustands @UUID[Compendium.tde5e.conditions.Item.FU13915517420459]{Furcht} oder @UUID[Compendium.tde5e.conditions.Item.VE73175641105112]{Verwirrung}.</p>",
        "parents": []
    },
    "effects": [],
    "folder": "HA13641894459853",
    "_key": "!items!SE14121889129156"
}
