{
    "_id": "SI13425148507115",
    "name": "Singen",
    "type": "skill",
    "img": "systems/tde5e/assets/defaultItems/skill_physical.svg",
    "system": {
        "applications": "Bardenballade, Choral, Chorgesang, Sprechgesang, Operngesang",
        "check": {
            "affectedByEncumbrance": null,
            "attributes": [
                "sagacity",
                "charisma",
                "constitution"
            ],
            "hideValue": false
        },
        "cid": "SINGEN",
        "group": "physical",
        "isDefault": true,
        "sources": [],
        "improvement": {
            "column": "A",
            "value": 0
        },
        "flavor": "",
        "notes": "",
        "gmNotes": "",
        "rule": "<p><strong>Qualität:</strong> Der Gesang ist so gut, dass der Held mehr Applaus durch die Zuhörer erhält.</p><p><strong>Fehlschlag:</strong> Der Held vergisst den Text oder sein Auftritt gerät eher schlecht als recht.</p><p><strong>Kritischer Erfolg:</strong> Der Gesang des Helden ist noch in vielen Wochen Thema seiner Zuhörer. Hat der Held sich um Geld bemüht, dann nimmt er mindestens das Doppelte ein als üblich. Für Qualitätsstufen, Vergleichs- und Sammelproben gilt: FP = doppelter FW.</p><p><strong>Kritischer Fehlschlag:</strong> Der Held liegt mehrere Halbtöne daneben oder vergeigt den Rhythmus. Das Lied ist eine Qual für jeden Zuhörer, der Held wird ausgebuht.</p>",
        "parents": []
    },
    "effects": [],
    "folder": "KO82262407011868",
    "_key": "!items!SI13425148507115"
}
