{
    "_id": "SI80193235230167",
    "name": "Sinnesschärfe",
    "type": "skill",
    "img": "systems/tde5e/assets/defaultItems/skill_physical.svg",
    "system": {
        "applications": "Hinterhalt entdecken, Suchen, Wahrnehmen, Magiegespür",
        "check": {
            "affectedByEncumbrance": null,
            "attributes": [
                "sagacity",
                "intuition",
                "intuition"
            ],
            "hideResult": true
        },
        "cid": "SINNESSCHARFE",
        "group": "physical",
        "isDefault": true,
        "sources": [],
        "improvement": {
            "column": "D",
            "value": 0
        },
        "flavor": "",
        "notes": "",
        "gmNotes": "",
        "rule": "<p><strong>Qualität:</strong> Der Held bemerkt weitere Details.</p><p><strong>Fehlschlag:</strong> Der Held bemerkt nichts.</p><p><strong>Kritischer Erfolg:</strong> Der Held nimmt sogar kaum bemerkbare Details wahr. Für Qualitätsstufen, Vergleichs- und Sammelproben gilt: FP = doppelter FW.</p><p><strong>Kritischer Fehlschlag:</strong> Der Held nimmt etwas anderes wahr, als das, was wirklich wichtig wäre. Er könnte zum Beispiel die in der Nähe befindlichen Blumen riechen, dafür aber nicht den auffällig stinkenden Oger, der an ihn heranschleicht.</p>",
        "parents": []
    },
    "effects": [],
    "folder": "KO82262407011868",
    "_key": "!items!SI80193235230167"
}
