{
    "_id": "SP19452301331538",
    "name": "Sphärenkunde",
    "type": "skill",
    "img": "systems/tde5e/assets/defaultItems/skill_knowledge.svg",
    "system": {
        "applications": "je nach Sphäre, Astrologie, Limbus, Sphärenwesen",
        "check": {
            "affectedByEncumbrance": false,
            "attributes": [
                "sagacity",
                "sagacity",
                "intuition"
            ]
        },
        "cid": "SPHARENKUNDE",
        "group": "knowledge",
        "isDefault": true,
        "sources": [],
        "improvement": {
            "column": "B",
            "value": 0
        },
        "flavor": "",
        "notes": "",
        "gmNotes": "",
        "rule": "<p><strong>Qualität:</strong> mehr Details zu Sphären oder dem Limbus</p><p><strong>Fehlschlag:</strong> Der Held weiß nichts über das spezielle Thema.</p><p><strong>Kritischer Erfolg:</strong> Der Held erinnert sich an bemerkenswerte Details über einen einzelnen Dämon oder den Weg in eine verborgene Globule.</p><p><strong>Kritischer Fehlschlag:</strong> Der Held unterliegt einer gefährlichen Fehleinschätzung.</p>",
        "parents": []
    },
    "effects": [],
    "folder": "WI78214125171111",
    "_key": "!items!SP19452301331538"
}
