{
    "_id": "ST51512085844735",
    "name": "Stangenwaffen",
    "type": "combatTechnique",
    "img": "systems/tde5e/assets/defaultItems/combat_technique.svg",
    "system": {
        "check": {
            "attributes": [
                "intuition",
                "agility",
                "constitution"
            ]
        },
        "applications": "Glefen, Spieße, Stäbe",
        "cid": "STANGENWAFFEN",
        "isDefault": true,
        "sources": [
            "BOSPARANS_KATAKOMBEN"
        ],
        "improvement": {
            "column": "C",
            "value": 0
        },
        "notes": "",
        "gmNotes": "",
        "flavor": "",
        "rule": "",
        "parents": []
    },
    "effects": [],
    "folder": "KA55819300439236",
    "_key": "!items!ST51512085844735"
}
