{
    "_id": "ST18887227775891",
    "name": "Stoffbearbeitung",
    "type": "skill",
    "img": "systems/tde5e/assets/defaultItems/skill_craft.svg",
    "system": {
        "applications": "Färben, Filzen, Gerben, Kürschnern, Schneidern, Spinnen, Weben, Rüstungsherstellung",
        "check": {
            "affectedByEncumbrance": true,
            "attributes": [
                "sagacity",
                "dexterity",
                "dexterity"
            ],
            "hideValue": false
        },
        "cid": "STOFFBEARBEITUNG",
        "group": "craft",
        "isDefault": true,
        "sources": [],
        "improvement": {
            "column": "B",
            "value": 0
        },
        "flavor": "",
        "notes": "",
        "gmNotes": "",
        "rule": "<p><strong>Qualität:</strong> Das Werkstück ist schneller fertig oder es wird eine bessere Qualität erzielt.</p><p><strong>Fehlschlag:</strong> Der Held kommt mit der Arbeit an dem Werkstück nicht voran.</p><p><strong>Kritischer Erfolg:</strong> Die Zahl der FP bei dieser Probe verdoppelt sich, der Held erhält aber mindestens 5 FP. Erschwernisse, die durch misslungene Sammelproben aufgebaut wurden, werden komplett abgebaut.</p><p><strong>Kritischer Fehlschlag:</strong> Ein Patzer sorgt dafür, dass die angesammelten QS auf 0 sinken und keine weitere Probe für dieses Vorhaben angewandt werden kann.</p>",
        "parents": []
    },
    "effects": [],
    "folder": "HA13641894459853",
    "_key": "!items!ST18887227775891"
}
