{
    "_id": "VE22425218425144",
    "name": "Verbergen",
    "type": "skill",
    "img": "systems/tde5e/assets/defaultItems/skill_physical.svg",
    "system": {
        "applications": "Gegenstände verbergen, Schleichen, Sich verstecken",
        "check": {
            "affectedByEncumbrance": true,
            "attributes": [
                "courage",
                "intuition",
                "agility"
            ],
            "hideValue": false
        },
        "cid": "VERBERGEN",
        "group": "physical",
        "isDefault": true,
        "sources": [],
        "improvement": {
            "column": "C",
            "value": 0
        },
        "flavor": "",
        "notes": "",
        "gmNotes": "",
        "rule": "<p><strong>Qualität:</strong> Der Held kann schwieriger entdeckt werden oder findet schneller ein Versteck.</p><p><strong>Fehlschlag:</strong> Der Held hat sich nur dürftig versteckt oder Geräusche beim Schleichen verursacht.</p><p><strong>Kritischer Erfolg:</strong> Der Held hat ein perfektes Versteck gefunden oder ist lautlos wie eine Katze. Für Qualitätsstufen, Vergleichs- und Sammelproben gilt: FP = doppelter FW.</p><p><strong>Kritischer Fehlschlag:</strong> Irgendetwas (Teller, ein Möbelstück) ist umgefallen.</p>",
        "parents": []
    },
    "effects": [],
    "folder": "KO82262407011868",
    "_key": "!items!VE22425218425144"
}
