{
    "_id": "WU20148128101311",
    "name": "Wundbehandlung",
    "type": "skill",
    "img": "systems/tde5e/assets/defaultItems/skill_craft.svg",
    "system": {
        "applications": "Heilung fördern, Schmerzen nehmen, Stabilisieren",
        "check": {
            "affectedByEncumbrance": true,
            "attributes": [
                "sagacity",
                "dexterity",
                "dexterity"
            ],
            "hideValue": false
        },
        "cid": "WUNDBEHANDLUNG",
        "group": "craft",
        "isDefault": true,
        "sources": [],
        "improvement": {
            "column": "D",
            "value": 0
        },
        "flavor": "",
        "notes": "",
        "gmNotes": "",
        "rule": "<p><strong>Qualität:</strong> Der Held verbraucht weniger Heilkräuter oder kann die Verletzung schneller versorgen.</p><p><strong>Fehlschlag:</strong> Der Held kann dem Patienten nicht helfen.</p><p><strong>Kritischer Erfolg:</strong> Die vollen Fertigkeitspunkte werden bei der nächsten Regenerationsphase zusätzlich zur normalen Regeneration zu den Lebenspunkten des Patienten hinzuaddiert.</p><p><strong>Kritischer Fehlschlag:</strong> Der Held hat den Patienten bei der Behandlung verletzt (1W6 SP).</p>",
        "parents": []
    },
    "effects": [],
    "folder": "HA13641894459853",
    "_key": "!items!WU20148128101311"
}
