{
    "_id": "PL13458148121243",
    "name": "Plattenrüstung",
    "type": "Item",
    "sorting": "a",
    "folder": "RU18260182436316",
    "sort": 0,
    "color": "#000000",
    "_key": "!folders!PL13458148121243"
}
