{
    "_id": "SC21325521619162",
    "name": "Schleudern",
    "type": "Item",
    "sorting": "a",
    "folder": "FE66135145179180",
    "sort": 0,
    "color": "#000000",
    "_key": "!folders!SC21325521619162"
}
