{
    "_id": "GR24115014442892",
    "name": "Großschwerter",
    "type": "Item",
    "sorting": "a",
    "folder": "ME71171180236745",
    "sort": 0,
    "color": "#000000",
    "_key": "!folders!GR24115014442892"
}
