{
    "_id": "PE94401599212811",
    "name": "Peitschen",
    "type": "Item",
    "sorting": "a",
    "folder": "ME71171180236745",
    "sort": 0,
    "color": "#000000",
    "_key": "!folders!PE94401599212811"
}
