{
    "_id": "ME71171180236745",
    "name": "Nahkampfwaffen",
    "type": "Item",
    "sorting": "a",
    "folder": null,
    "sort": 0,
    "color": "#000000",
    "_key": "!folders!ME71171180236745"
}
