{
    "_id": "AB12030210135455",
    "name": "Abblendlaterne",
    "type": "inventoryItem",
    "img": "systems/tde5e/assets/defaultItems/inventory_item.svg",
    "system": {
        "cid": "ABBLENDLATERNE",
        "light": {
            "level": 4,
            "falloff": 2
        },
        "price": 150,
        "quantity": 1,
        "sources": [
            "REGELWERK",
            "UNENDLICHKEIT_UND_TIEFENRAUSCH"
        ],
        "weight": 60,
        "flavor": "",
        "notes": "",
        "gmNotes": "",
        "rarity": "common",
        "traits": [
            "profane"
        ],
        "region": {
            "codes": [
                "common"
            ]
        },
        "rule": "",
        "parents": [],
        "container": "DEFAULT"
    },
    "flags": {
        "tde5e": {
            "tags": [
                "Beleuchtung"
            ]
        }
    },
    "effects": [],
    "folder": "GE77890307091706",
    "_key": "!items!AB12030210135455"
}
