{
    "_id": "AL13520614210228",
    "name": "Alchimistensäure",
    "type": "inventoryItem",
    "img": "systems/tde5e/assets/defaultItems/inventory_item.svg",
    "system": {
        "cid": "ALCHIMISTENSAURE",
        "light": {
            "level": 0,
            "falloff": 0
        },
        "price": 1000,
        "quantity": 1,
        "sources": [
            "AVENTURISCHE_MAGIE_2"
        ],
        "weight": 1,
        "flavor": "",
        "notes": "",
        "gmNotes": "",
        "rarity": "common",
        "traits": [
            "profane"
        ],
        "region": {
            "codes": [
                "common"
            ]
        },
        "rule": "",
        "parents": [],
        "container": "DEFAULT"
    },
    "flags": {
        "tde5e": {
            "tags": [
                "Alchimica"
            ]
        }
    },
    "effects": [],
    "folder": "GE77890307091706",
    "_key": "!items!AL13520614210228"
}
