{
    "_id": "AM67192422101052",
    "name": "Amazonenrüstung",
    "type": "armor",
    "img": "modules/tde5e-assets/assets/equipment/armor/plate/Amazonenrüstung.png",
    "system": {
        "cid": "AMAZONENRUSTUNG",
        "group": "plate",
        "price": 60000,
        "weight": 320,
        "protection": {
            "blunt": 5,
            "pierce": 6,
            "slash": 7,
            "mod": 0
        },
        "encumbrance": 3,
        "adrenaline": 1,
        "breakingPointRating": 11,
        "isUnbreakable": false,
        "region": {
            "codes": [
                "tob",
                "ara",
                "mha",
                "kho",
                "tha",
                "ach"
            ],
            "note": "auch in den Schattenlanden und Tulamidenlanden - nur bei Amazonen"
        },
        "sources": [
            "AVENTURISCHES_GOTTERWIRKEN_1"
        ],
        "flavor": "",
        "notes": "",
        "gmNotes": "",
        "quantity": 1,
        "rarity": "common",
        "traits": [
            "profane"
        ],
        "prefix": null,
        "wear": 0,
        "variant": {
            "level": 1,
            "selected": null,
            "available": null,
            "input": false,
            "categories": null
        },
        "isSelected": false,
        "rule": "Der Abzug durch Belastung ist bei Proben auf @UUID[Compendium.tde5e.skills.Item.RE23213215098822]{Reiten} um 1 reduziert.",
        "parents": [],
        "container": "DEFAULT"
    },
    "folder": "PL13458148121243",
    "effects": [],
    "_key": "!items!AM67192422101052"
}
