{
    "_id": "AR66140206110157",
    "name": "Armillarsphäre",
    "type": "inventoryItem",
    "img": "systems/tde5e/assets/defaultItems/inventory_item.svg",
    "system": {
        "cid": "ARMILLARSPHARE",
        "light": {
            "level": 0,
            "falloff": 0
        },
        "price": 1500,
        "quantity": 1,
        "sources": [
            "AVENTURISCHE_RUSTKAMMER_1"
        ],
        "weight": 140,
        "flavor": "",
        "notes": "",
        "gmNotes": "",
        "rarity": "common",
        "traits": [
            "profane"
        ],
        "region": {
            "codes": [
                "common"
            ]
        },
        "rule": "Bei einer gelungenen Probe auf <em>Sternkunde</em> steigen die FP um 1 (bis zu einem Maximum von 18). Voraussetzung für diesen Bonus ist ein FW von 6 in <em>Sternkunde</em>. Der Held kann mit einer Armillarsphäre die Zeit bis auf 5 Minuten genau bestimmen.",
        "parents": [],
        "container": "DEFAULT"
    },
    "flags": {
        "tde5e": {
            "tags": [
                "Orientierungshilfen"
            ]
        }
    },
    "effects": [],
    "folder": "GE77890307091706",
    "_key": "!items!AR66140206110157"
}
