{
    "_id": "BE34253474519222",
    "name": "Beil/Handaxt",
    "type": "inventoryItem",
    "img": "systems/tde5e/assets/defaultItems/inventory_item.svg",
    "system": {
        "cid": "BEIL_ODER_HANDAXT",
        "light": {
            "level": 0,
            "falloff": 0
        },
        "price": 200,
        "quantity": 1,
        "sources": [
            "REGELWERK",
            "AVENTURISCHES_KOMPENDIUM_1",
            "AVENTURISCHE_RUSTKAMMER_1",
            "UNENDLICHKEIT_UND_TIEFENRAUSCH"
        ],
        "weight": 30,
        "flavor": "",
        "notes": "",
        "gmNotes": "",
        "rarity": "common",
        "traits": [
            "profane"
        ],
        "region": {
            "codes": [
                "common"
            ]
        },
        "rule": "Fingerfertigkeit erhält bei der ersten Teilprobe auf <em>Holzbearbeitung (Bäume schlagen)</em> bei Verwendung eines Beils einen Bonus von +1.<br /><br />Ein Beil lässt sich als improvisierte Waffe verwenden (siehe <strong>Aventurische Rüstkammer</strong> Seite <strong>138</strong>).<br />Gegen Pflanzen richten ein Beil oder eine Handaxt +1 TP an und der Schaden gegen hölzerne Gegenstände steigt um 2 TP.<br />Gegen Rüstungen mit RS 3 oder höher richten Beil und Handaxt –2 TP an.",
        "parents": [],
        "container": "DEFAULT"
    },
    "flags": {
        "tde5e": {
            "tags": [
                "Reisebedarf und Werkzeuge"
            ]
        }
    },
    "effects": [],
    "folder": "GE77890307091706",
    "_key": "!items!BE34253474519222"
}
