{
    "_id": "BL23510922613545",
    "name": "Blasrohr",
    "type": "inventoryItem",
    "img": "modules/tde5e-assets/assets/equipment/rangedWeapon/Blasrohre/Blasrohr.png",
    "system": {
        "cid": "BLASROHR",
        "light": {
            "level": 0,
            "falloff": 0
        },
        "price": 4000,
        "quantity": 1,
        "weight": 20,
        "region": {
            "codes": [
                "ala",
                "ara",
                "mar",
                "shi",
                "skr",
                "men",
                "wal",
                "bra",
                "cha",
                "ach",
                "tha",
                "kho",
                "mha"
            ],
            "note": ""
        },
        "sources": [
            "AVENTURISCHE_RUSTKAMMER_1"
        ],
        "flavor": "",
        "notes": "",
        "gmNotes": "",
        "rarity": "common",
        "traits": [
            "profane"
        ],
        "rule": "Ein Schuss mit dem Blasrohr wird mit der Kampftechnik @UUID[Compendium.tde5e.skills.Item.SC02156587103424]{Schusswaffen (Schleudern)} durchgeführt und richtet 1W2 Trefferpunkte an. Wird damit Schaden verursacht, kann das Opfer vergiftet werden.",
        "parents": [],
        "container": "DEFAULT"
    },
    "effects": [],
    "folder": "GE77890307091706",
    "_key": "!items!BL23510922613545"
}
