{
    "_id": "BO17214901274059",
    "name": "Boltankartenset, Stoff, gezinkt",
    "type": "inventoryItem",
    "img": "systems/tde5e/assets/defaultItems/inventory_item.svg",
    "system": {
        "cid": "BOLTANKARTENSET_STOFF_GEZINKT",
        "light": {
            "level": 0,
            "falloff": 0
        },
        "price": 100,
        "quantity": 1,
        "sources": [
            "AVENTURISCHE_RUSTKAMMER_1"
        ],
        "weight": 10,
        "flavor": "",
        "notes": "",
        "gmNotes": "",
        "rarity": "common",
        "traits": [
            "profane"
        ],
        "region": {
            "codes": [
                "common"
            ]
        },
        "rule": "Mit gezinkten Boltankarten erhält ein Held eine Erleichterung von 1 auf Proben auf <em>Brett- und Glücksspiel (Kartenspiele)</em>, wenn er über die Sonderfertigkeit Falschspielen verfügt. Allerdings gilt diese Erleichterung nur für die Probe, die nach der ersten, gescheiterten Probe abgelegt wird (siehe <strong>Regelwerk</strong> Seite <strong>216</strong>).",
        "parents": [],
        "container": "DEFAULT"
    },
    "flags": {
        "tde5e": {
            "tags": [
                "Genussmittel und Luxus"
            ]
        }
    },
    "effects": [],
    "folder": "GE77890307091706",
    "_key": "!items!BO17214901274059"
}
