{
    "_id": "BO23523715815571",
    "name": "Boronsichel",
    "type": "meleeWeapon",
    "img": "modules/tde5e-assets/assets/equipment/meleeWeapon/Zweihandschwerter/Boronsichel.png",
    "system": {
        "cid": "BORONSICHEL",
        "group": "Compendium.tde5e.skills.Item.WU54681613748829",
        "price": 8000,
        "weight": 160,
        "length": 180,
        "damage": {
            "diceNumber": 2,
            "diceSides": 5,
            "flat": 0,
            "range": [
                10,
                15
            ],
            "types": [
                "slash"
            ]
        },
        "adrenaline": 1,
        "hands": 2,
        "breakingPointRating": 12,
        "isUnbreakable": false,
        "region": {
            "codes": [
                "alm",
                "ara",
                "mha",
                "tha",
                "kho",
                "ach"
            ],
            "note": "auch in den Tulamidenlanden"
        },
        "sources": [
            "AVENTURISCHE_RUSTKAMMER_2"
        ],
        "variant": {
            "available": [
                {
                    "vid": "DOPPELKHUNCHOMER",
                    "name": "Doppelkhunchomer",
                    "img": "modules/tde5e-assets/assets/equipment/meleeWeapon/Zweihandschwerter/Doppelkhunchomer.png",
                    "sources": [
                        "REGELWERK",
                        "AVENTURISCHE_RUSTKAMMER_1"
                    ],
                    "region": {
                        "codes": [
                            "ara",
                            "mha",
                            "kho",
                            "tha",
                            "ach"
                        ],
                        "note": "in den Tulamidenlanden"
                    },
                    "price": 32000,
                    "weight": 80,
                    "length": 130
                },
                {
                    "vid": "GROSSER_SKLAVENTOD",
                    "name": "Großer Sklaventod",
                    "img": "modules/tde5e-assets/assets/equipment/meleeWeapon/Zweihandschwerter/Großer Sklaventod.png",
                    "sources": [
                        "REGELWERK",
                        "AVENTURISCHE_RUSTKAMMER_1"
                    ],
                    "region": {
                        "codes": [
                            "ala",
                            "mha",
                            "kho",
                            "tha",
                            "ach"
                        ],
                        "note": "im Tiefen Süden"
                    },
                    "price": 32000,
                    "weight": 80,
                    "length": 140
                },
                {
                    "vid": "TUZAKMESSER",
                    "name": "Tuzakmesser",
                    "img": "modules/tde5e-assets/assets/equipment/meleeWeapon/Zweihandschwerter/Tuzakmesser.png",
                    "sources": [
                        "REGELWERK",
                        "AVENTURISCHE_RUSTKAMMER_1"
                    ],
                    "region": {
                        "codes": [
                            "shi",
                            "skre",
                            "mar"
                        ],
                        "note": ""
                    },
                    "price": 36000,
                    "weight": 70,
                    "length": 130
                }
            ],
            "level": 1,
            "selected": null,
            "input": false,
            "categories": null
        },
        "flavor": "",
        "notes": "",
        "gmNotes": "",
        "quantity": 1,
        "rarity": "common",
        "traits": [
            "profane"
        ],
        "prefix": null,
        "wear": 0,
        "application": "Großschwerter",
        "rule": "",
        "parents": [],
        "container": "DEFAULT"
    },
    "folder": "GR24115014442892",
    "effects": [],
    "_key": "!items!BO23523715815571"
}
