{
    "_id": "BR23849118207201",
    "name": "Brecheisen",
    "type": "inventoryItem",
    "img": "systems/tde5e/assets/defaultItems/inventory_item.svg",
    "system": {
        "cid": "BRECHEISEN",
        "light": {
            "level": 0,
            "falloff": 0
        },
        "price": 260,
        "quantity": 1,
        "sources": [
            "REGELWERK",
            "AVENTURISCHE_RUSTKAMMER_1"
        ],
        "weight": 200,
        "flavor": "",
        "notes": "",
        "gmNotes": "",
        "rarity": "common",
        "traits": [
            "profane"
        ],
        "region": {
            "codes": [
                "common"
            ]
        },
        "rule": "Körperkraft erhält bei <em>Kraftakt (Drücken &amp; Verbiegen</em> oder <em>Stemmen &amp; Heben)</em> bei Verwendung eines Brecheisens einen Bonus von +1, wenn es darum geht, eine Tür, ein Fenster oder ähnliches aufzubrechen oder ein Gewicht zu bewegen.<br /><br />Ein Brecheisen lässt sich als improvisierte Waffen verwenden (siehe <strong>Aventurische Rüstkammer</strong> Seite <strong>138</strong>).<br />Wurde mit dem Brecheisen erfolgreich pariert, würfle mit 1W6. Bei einer 1 hat sich die Waffe des Gegners kurz am gebogenen Ende des Brecheisens verhakt, was zu einer Erschwernis von 1 auf AT für den Gegner in der nächsten KR führt. Diese Regel gilt nicht für Angriffe von Unbewaffneten.<br />Wurde mit dem Brecheisen erfolgreich pariert, würfle mit 1W6. Bei einer 6 hat sich die Waffe des Gegners kurz am gebogenen Ende des Brecheisens verhakt, was zu einer Erschwernis von 1 auf AT für den Helden in der nächsten KR führt. Diese Regel gilt nicht für Angriffe von Unbewaffneten.",
        "parents": [],
        "container": "DEFAULT"
    },
    "flags": {
        "tde5e": {
            "tags": [
                "Diebeswerkzeug"
            ]
        }
    },
    "effects": [],
    "folder": "GE77890307091706",
    "_key": "!items!BR23849118207201"
}
