{
    "_id": "DE11371244158250",
    "name": "Deichgabel",
    "type": "meleeWeapon",
    "img": "modules/tde5e-assets/assets/equipment/meleeWeapon/Hiebwaffen/Deichgabel.png",
    "system": {
        "cid": "DEICHGABEL",
        "group": "Compendium.tde5e.skills.Item.KL58162193144590",
        "price": 3000,
        "weight": 20,
        "length": 60,
        "damage": {
            "diceNumber": 1,
            "diceSides": 6,
            "flat": 2,
            "range": [
                10,
                15
            ],
            "types": [
                "pierce",
                "blunt"
            ]
        },
        "adrenaline": 1,
        "hands": 1,
        "breakingPointRating": 12,
        "isUnbreakable": false,
        "region": {
            "codes": [
                "alb",
                "and",
                "gar",
                "alm"
            ],
            "note": ""
        },
        "sources": [
            "DIE_STREITENDEN_KONIGREICHE",
            "RUSTKAMMER_DER_STREITENDEN_KONIGREICHE"
        ],
        "flavor": "",
        "notes": "",
        "gmNotes": "",
        "quantity": 1,
        "rarity": "common",
        "traits": [
            "profane"
        ],
        "prefix": null,
        "wear": 0,
        "variant": {
            "level": 1,
            "selected": null,
            "available": null,
            "input": false,
            "categories": null
        },
        "application": "Dolche",
        "rule": "",
        "parents": [],
        "container": "DEFAULT"
    },
    "folder": "DO16822206411017",
    "effects": [],
    "_key": "!items!DE11371244158250"
}
