{
    "_id": "DO16112723733412",
    "name": "Dolch",
    "type": "meleeWeapon",
    "img": "modules/tde5e-assets/assets/equipment/meleeWeapon/Dolche/Dolch.png",
    "system": {
        "cid": "DOLCH",
        "group": "Compendium.tde5e.skills.Item.KL58162193144590",
        "price": 4500,
        "weight": 20,
        "length": 30,
        "damage": {
            "diceNumber": 1,
            "diceSides": 6,
            "flat": 1,
            "range": [
                11,
                12
            ],
            "types": [
                "pierce"
            ]
        },
        "adrenaline": 3,
        "hands": 1,
        "breakingPointRating": 14,
        "isUnbreakable": false,
        "region": {
            "codes": [
                "common"
            ],
            "note": ""
        },
        "sources": [
            "REGELWERK",
            "AVENTURISCHE_RUSTKAMMER_1",
            "UNENDLICHKEIT_UND_TIEFENRAUSCH"
        ],
        "variant": {
            "available": [
                {
                    "vid": "HAKENDOLCH",
                    "name": "Hakendolch",
                    "img": "modules/tde5e-assets/assets/equipment/meleeWeapon/Dolche/Hakendolch.png",
                    "sources": [
                        "AVENTURISCHE_RUSTKAMMER_1"
                    ],
                    "region": {
                        "codes": [
                            "common"
                        ],
                        "note": ""
                    },
                    "price": 8000,
                    "weight": 50,
                    "length": 60
                },
                {
                    "vid": "LINKHAND",
                    "name": "Linkhand",
                    "img": "modules/tde5e-assets/assets/equipment/meleeWeapon/Dolche/LINKHAND.png",
                    "sources": [
                        "REGELWERK",
                        "AVENTURISCHE_RUSTKAMMER_1"
                    ],
                    "region": {
                        "codes": [
                            "common"
                        ],
                        "note": ""
                    },
                    "price": 9000,
                    "weight": 30,
                    "length": 30
                },
                {
                    "vid": "SCHEIBENDOLCH",
                    "name": "Scheibendolch",
                    "img": "modules/tde5e-assets/assets/equipment/meleeWeapon/Dolche/Scheibendolch.png",
                    "sources": [
                        "AVENTURISCHE_RUSTKAMMER_2"
                    ],
                    "region": {
                        "codes": [
                            "alm",
                            "gar",
                            "ala",
                            "and",
                            "ara",
                            "hor"
                        ],
                        "note": ""
                    },
                    "price": 6000,
                    "weight": 40,
                    "length": 45
                }
            ],
            "level": 1,
            "selected": null,
            "input": false,
            "categories": null
        },
        "flavor": "",
        "notes": "",
        "gmNotes": "",
        "quantity": 1,
        "rarity": "common",
        "traits": [
            "profane"
        ],
        "prefix": null,
        "wear": 0,
        "application": "Dolche",
        "rule": "",
        "parents": [],
        "container": "DEFAULT"
    },
    "folder": "DO16822206411017",
    "effects": [],
    "_key": "!items!DO16112723733412"
}
