{
    "_id": "DR21115512481712",
    "name": "Dreschflegel",
    "type": "meleeWeapon",
    "img": "systems/tde5e/assets/defaultItems/inventory_item.svg",
    "system": {
        "cid": "DRESCHFLEGEL",
        "group": "Compendium.tde5e.skills.Item.GE50277356812673",
        "price": 150,
        "weight": 60,
        "length": 180,
        "damage": {
            "diceNumber": 2,
            "diceSides": 8,
            "flat": -3,
            "range": [
                8,
                16
            ],
            "types": [
                "blunt"
            ]
        },
        "adrenaline": 0,
        "hands": 2,
        "breakingPointRating": 4,
        "isUnbreakable": false,
        "region": {
            "codes": [
                "common"
            ],
            "note": ""
        },
        "sources": [
            "REGELWERK",
            "AVENTURISCHES_KOMPENDIUM_1"
        ],
        "flavor": "",
        "notes": "",
        "gmNotes": "",
        "quantity": 1,
        "rarity": "common",
        "traits": [
            "profane"
        ],
        "prefix": null,
        "wear": 0,
        "variant": {
            "level": 1,
            "selected": null,
            "available": null,
            "input": false,
            "categories": null
        },
        "application": "Flegel",
        "rule": "",
        "parents": [],
        "container": "DEFAULT"
    },
    "flags": {
        "tde5e": {
            "tags": [
                "Reisebedarf und Werkzeuge"
            ]
        }
    },
    "folder": "FL61029488226396",
    "effects": [],
    "_key": "!items!DR21115512481712"
}
