{
    "_id": "EI11625113920336",
    "name": "Eisenschild",
    "type": "shield",
    "img": "systems/tde5e/assets/defaultItems/shield.svg",
    "system": {
        "cid": "EISENSCHILD",
        "damage": {
            "diceNumber": 1,
            "diceSides": 6,
            "flat": 3,
            "types": [
                "blunt"
            ],
            "range": [
                1,
                20
            ]
        },
        "diameter": 45,
        "isUnbreakable": false,
        "adrenaline": 0,
        "price": 7500,
        "region": {
            "codes": [
                "gar",
                "wei",
                "tob",
                "bor"
            ],
            "note": ""
        },
        "sources": [
            "BOSPARANS_KATAKOMBEN"
        ],
        "weight": 220,
        "flavor": "",
        "notes": "",
        "gmNotes": "",
        "quantity": 1,
        "rarity": "common",
        "traits": [
            "profane"
        ],
        "prefix": null,
        "variant": {
            "level": 1,
            "selected": null,
            "available": null,
            "input": false,
            "categories": null
        },
        "rule": "",
        "parents": [],
        "container": "DEFAULT",
        "breakingPointRating": 10,
        "wear": 0
    },
    "effects": [],
    "folder": "SH16622636192326",
    "_key": "!items!EI11625113920336"
}
