{
    "_id": "EI82198190311761",
    "name": "Eisenwalder",
    "type": "rangedWeapon",
    "img": "modules/tde5e-assets/assets/equipment/rangedWeapon/Armbruste/Eisenwalder.png",
    "system": {
        "cid": "EISENWALDER",
        "group": "Compendium.tde5e.skills.Item.SC02156587103424",
        "price": 50000,
        "weight": 150,
        "length": 90,
        "damage": {
            "diceNumber": 1,
            "diceSides": 4,
            "flat": 6,
            "range": [
                12,
                13
            ],
            "types": [
                "pierce"
            ]
        },
        "adrenaline": 2,
        "range": [
            15,
            30,
            60
        ],
        "reloadTime": 1,
        "ammunitionType": "bolts",
        "hands": 1,
        "breakingPointRating": 6,
        "isUnbreakable": false,
        "region": {
            "codes": [
                "zwe"
            ],
            "note": ""
        },
        "sources": [
            "REGELWERK",
            "AVENTURISCHE_RUSTKAMMER_1"
        ],
        "variant": {
            "available": [
                {
                    "vid": "ANGBARER_MAUERWEHR",
                    "name": "Angbarer Mauerwehr",
                    "img": "modules/tde5e-assets/assets/equipment/rangedWeapon/Armbruste/Angbarer Mauerwehr.png",
                    "sources": [
                        "DIE_FLUSSLANDE",
                        "RUSTKAMMER_DER_FLUSSLANDE"
                    ],
                    "region": {
                        "codes": [
                            "gar"
                        ],
                        "note": ""
                    },
                    "price": 35000,
                    "weight": 120,
                    "length": 70
                }
            ],
            "level": 1,
            "selected": null,
            "input": false,
            "categories": null
        },
        "flavor": "",
        "notes": "",
        "gmNotes": "",
        "quantity": 1,
        "rarity": "common",
        "traits": [
            "profane"
        ],
        "prefix": null,
        "wear": 0,
        "application": "Armbrüste",
        "rule": "Magazin (für 8 Schuss); Der Wechsel des Magazins benötigt 10 Aktionspunkte.",
        "parents": [],
        "container": "DEFAULT"
    },
    "folder": "AR10516323682250",
    "effects": [],
    "_key": "!items!EI82198190311761"
}
