{
    "_id": "FA74145129526711",
    "name": "Fass, 60l",
    "type": "inventoryItem",
    "img": "systems/tde5e/assets/defaultItems/inventory_item.svg",
    "system": {
        "cid": "FASS_60L",
        "light": {
            "level": 0,
            "falloff": 0
        },
        "price": 40,
        "quantity": 1,
        "sources": [
            "RUSTKAMMER_DER_FLUSSLANDE"
        ],
        "weight": 200,
        "flavor": "",
        "notes": "",
        "gmNotes": "",
        "rarity": "common",
        "traits": [
            "profane"
        ],
        "region": {
            "codes": [
                "common"
            ]
        },
        "rule": "",
        "parents": [],
        "container": "DEFAULT"
    },
    "flags": {
        "tde5e": {
            "tags": [
                "Behältnisse"
            ]
        }
    },
    "effects": [],
    "folder": "GE77890307091706",
    "_key": "!items!FA74145129526711"
}
