{
    "_id": "FA14496210105510",
    "name": "Faustschild",
    "type": "shield",
    "img": "modules/tde5e-assets/assets/equipment/shield/Faustschild.png",
    "system": {
        "cid": "FAUSTSCHILD",
        "damage": {
            "diceNumber": 1,
            "diceSides": 6,
            "flat": 0,
            "types": [
                "blunt"
            ],
            "range": [
                1,
                20
            ]
        },
        "diameter": 15,
        "isUnbreakable": false,
        "adrenaline": 2,
        "price": 2000,
        "region": {
            "codes": [
                "hor",
                "alm"
            ],
            "note": ""
        },
        "sources": [
            "BOSPARANS_KATAKOMBEN"
        ],
        "weight": 60,
        "flavor": "",
        "notes": "",
        "gmNotes": "",
        "quantity": 1,
        "rarity": "common",
        "traits": [
            "profane"
        ],
        "prefix": null,
        "variant": {
            "level": 1,
            "selected": null,
            "available": null,
            "input": false,
            "categories": null
        },
        "rule": "",
        "parents": [],
        "container": "DEFAULT",
        "breakingPointRating": 6,
        "wear": 0
    },
    "effects": [],
    "folder": "SH16622636192326",
    "_key": "!items!FA14496210105510"
}
