{
    "_id": "FE19437155233224",
    "name": "Federkiel, Storch",
    "type": "inventoryItem",
    "img": "systems/tde5e/assets/defaultItems/inventory_item.svg",
    "system": {
        "cid": "FEDERKIEL_STORCH",
        "light": {
            "level": 0,
            "falloff": 0
        },
        "price": 2,
        "quantity": 1,
        "sources": [
            "AVENTURISCHE_RUSTKAMMER_2"
        ],
        "weight": 3,
        "flavor": "",
        "notes": "",
        "gmNotes": "",
        "rarity": "common",
        "traits": [
            "profane"
        ],
        "region": {
            "codes": [
                "common"
            ]
        },
        "rule": "Durch die Kombination von Federkiel &amp; Tinte kann der Held Texte auf geeignetes Material wie Papier niederschreiben. Ansonsten hat der Gegenstand keine regeltechnische Funktion.",
        "parents": [],
        "container": "DEFAULT"
    },
    "flags": {
        "tde5e": {
            "tags": [
                "Schreibwaren"
            ]
        }
    },
    "effects": [],
    "folder": "GE77890307091706",
    "_key": "!items!FE19437155233224"
}
