{
    "_id": "FI12722719117712",
    "name": "Firunsmesser",
    "type": "meleeWeapon",
    "img": "modules/tde5e-assets/assets/equipment/meleeWeapon/Dolche/Firunsmesser.png",
    "system": {
        "cid": "FIRUNSMESSER",
        "group": "Compendium.tde5e.skills.Item.KL58162193144590",
        "price": 6000,
        "weight": 20,
        "length": 35,
        "damage": {
            "diceNumber": 1,
            "diceSides": 6,
            "flat": 0,
            "range": [
                10,
                13
            ],
            "types": [
                "pierce"
            ]
        },
        "adrenaline": 4,
        "hands": 1,
        "breakingPointRating": 14,
        "isUnbreakable": false,
        "region": {
            "codes": [
                "common"
            ],
            "note": ""
        },
        "sources": [
            "AVENTURISCHES_GOTTERWIRKEN_1"
        ],
        "flavor": "",
        "notes": "",
        "gmNotes": "",
        "quantity": 1,
        "rarity": "common",
        "traits": [
            "profane"
        ],
        "prefix": null,
        "wear": 0,
        "variant": {
            "level": 1,
            "selected": null,
            "available": null,
            "input": false,
            "categories": null
        },
        "application": "Dolche",
        "rule": "Geweiht (@UUID[Compendium.tde5e.karma.Item.TR16914674421017]{Firun}), nur von Firungeweihten erwerbbar.",
        "parents": [],
        "container": "DEFAULT"
    },
    "folder": "DO16822206411017",
    "effects": [],
    "_key": "!items!FI12722719117712"
}
