{
    "_id": "GE63144190651135",
    "name": "Geißel",
    "type": "meleeWeapon",
    "img": "modules/tde5e-assets/assets/equipment/meleeWeapon/Kettenwaffen/Geißel.png",
    "system": {
        "cid": "GEISSEL",
        "group": "Compendium.tde5e.skills.Item.GE50277356812673",
        "price": 1400,
        "weight": 60,
        "length": 140,
        "damage": {
            "diceNumber": 1,
            "diceSides": 8,
            "flat": 0,
            "range": [
                10,
                14
            ],
            "types": [
                "blunt"
            ]
        },
        "adrenaline": 4,
        "hands": 1,
        "breakingPointRating": 10,
        "isUnbreakable": false,
        "region": {
            "codes": [
                "common"
            ],
            "note": ""
        },
        "sources": [
            "AVENTURISCHE_RUSTKAMMER_2"
        ],
        "flavor": "",
        "notes": "",
        "gmNotes": "",
        "quantity": 1,
        "rarity": "common",
        "traits": [
            "profane"
        ],
        "prefix": null,
        "wear": 0,
        "variant": {
            "level": 1,
            "selected": null,
            "available": null,
            "input": false,
            "categories": null
        },
        "application": "Kettenwaffen",
        "rule": "",
        "parents": [],
        "container": "DEFAULT"
    },
    "folder": "KE23010450621631",
    "effects": [],
    "_key": "!items!GE63144190651135"
}
