{
    "_id": "GE68642510214411",
    "name": "Gestechrüstung",
    "type": "armor",
    "img": "modules/tde5e-assets/assets/equipment/armor/plate/Gestechrüstung.png",
    "system": {
        "cid": "GESTECHRUSTUNG",
        "group": "plate",
        "price": 250000,
        "weight": 1400,
        "protection": {
            "blunt": 7,
            "pierce": 7,
            "slash": 7,
            "mod": 0
        },
        "encumbrance": 3,
        "adrenaline": 0,
        "breakingPointRating": 10,
        "isUnbreakable": false,
        "region": {
            "codes": [
                "alb",
                "alm",
                "gar",
                "tob",
                "wei",
                "and",
                "born",
                "hor"
            ],
            "note": ""
        },
        "sources": [
            "AVENTURISCHE_RUSTKAMMER_2"
        ],
        "flavor": "",
        "notes": "",
        "gmNotes": "",
        "quantity": 1,
        "rarity": "common",
        "traits": [
            "profane"
        ],
        "prefix": null,
        "wear": 0,
        "variant": {
            "level": 1,
            "selected": null,
            "available": null,
            "input": false,
            "categories": null
        },
        "isSelected": false,
        "rule": "",
        "parents": [],
        "container": "DEFAULT"
    },
    "folder": "PL13458148121243",
    "effects": [],
    "_key": "!items!GE68642510214411"
}
