{
    "_id": "GE22698160164136",
    "name": "Gesundheitssteigernde Essenzen, 1 Anwendung",
    "type": "inventoryItem",
    "img": "systems/tde5e/assets/defaultItems/inventory_item.svg",
    "system": {
        "cid": "GESUNDHEITSSTEIGERNDE_ESSENZEN_1_ANWENDUNG",
        "light": {
            "level": 0,
            "falloff": 0
        },
        "price": 50,
        "quantity": 1,
        "sources": [
            "AVENTURISCHE_RUSTKAMMER_2"
        ],
        "weight": 10,
        "flavor": "",
        "notes": "",
        "gmNotes": "",
        "rarity": "common",
        "traits": [
            "profane"
        ],
        "region": {
            "codes": [
                "common"
            ]
        },
        "rule": "Bei der Pflege und dem Kontakt mit einem Kranken sinkt die Ansteckungswahrscheinlichkeit für den Träger der Storchenmaske mit Gesundheitssteigernden Essenzen um 10 % (bis zu einem Minimum von 5 %). Eine Anwendung reicht für 12 Stunden.",
        "parents": [],
        "container": "DEFAULT"
    },
    "flags": {
        "tde5e": {
            "tags": [
                "Verbandzeug und Heilmittel"
            ]
        }
    },
    "effects": [],
    "folder": "GE77890307091706",
    "_key": "!items!GE22698160164136"
}
