{
    "_id": "GO35227341076693",
    "name": "Götterfigürchen",
    "type": "inventoryItem",
    "img": "systems/tde5e/assets/defaultItems/inventory_item.svg",
    "system": {
        "cid": "GOTTERFIGURCHEN",
        "light": {
            "level": 0,
            "falloff": 0
        },
        "price": 30,
        "quantity": 1,
        "sources": [
            "REGELWERK",
            "AVENTURISCHE_RUSTKAMMER_1"
        ],
        "weight": 8,
        "flavor": "",
        "notes": "",
        "gmNotes": "",
        "rarity": "common",
        "traits": [
            "profane"
        ],
        "region": {
            "codes": [
                "common"
            ]
        },
        "rule": "Wer ein Götterfigürchen (oder ein vergleichbares Amulett, etc.) seiner angebeteten Gottheit mit sich führt und es täglich beim Gebet aufstellt, der kann einmal während eines Abenteuers den Zustand <em>Furcht</em> für 2 KR ignorieren. Danach muss der Held der Gottheit des Figürchens eine größere Spende zukommen lassen (etwa 10 Dukaten), damit das Götterfigürchen erneut diese Wirkung entfalten kann.",
        "parents": [],
        "container": "DEFAULT"
    },
    "flags": {
        "tde5e": {
            "tags": [
                "Genussmittel und Luxus"
            ]
        }
    },
    "effects": [],
    "folder": "GE77890307091706",
    "_key": "!items!GO35227341076693"
}
