{
    "_id": "GW24813333225119",
    "name": "Gwen-Petryl-Stein, gerstenkorngroß",
    "type": "inventoryItem",
    "img": "systems/tde5e/assets/defaultItems/inventory_item.svg",
    "system": {
        "cid": "GWENPETRYLSTEIN_GERSTENKORNGROSS",
        "light": {
            "level": 4,
            "falloff": 0.2
        },
        "price": 100,
        "quantity": 1,
        "sources": [
            "HAVENA_VERSUNKENE_GEHEIMNISSE"
        ],
        "weight": 1,
        "flavor": "",
        "notes": "",
        "gmNotes": "",
        "rarity": "common",
        "traits": [
            "profane"
        ],
        "region": {
            "codes": [
                "common"
            ]
        },
        "rule": "Die Brenndauer des Steins ist unbegrenzt. Sichtmodifikatoren durch Dunkelheit werden im Schein des faustgroßen Steins pro 0,2 Schritt Radius wie folgt reduziert: –4/–3/–2/–1 Stufe(n).",
        "parents": [],
        "container": "DEFAULT"
    },
    "flags": {
        "tde5e": {
            "tags": [
                "Beleuchtung"
            ]
        }
    },
    "effects": [],
    "folder": "GE77890307091706",
    "_key": "!items!GW24813333225119"
}
