{
    "_id": "GW50106184121218",
    "name": "Gwen-Petryl-Stein, kopfgroß",
    "type": "inventoryItem",
    "img": "systems/tde5e/assets/defaultItems/inventory_item.svg",
    "system": {
        "cid": "GWENPETRYLSTEIN_KOPFGROSS",
        "light": {
            "level": 4,
            "falloff": 3
        },
        "price": 100000,
        "quantity": 1,
        "sources": [
            "AVENTURISCHE_RUSTKAMMER_1",
            "HAVENA_VERSUNKENE_GEHEIMNISSE",
            "KATAKOMBEN_UND_RUINEN"
        ],
        "weight": 300,
        "flavor": "",
        "notes": "",
        "gmNotes": "",
        "rarity": "common",
        "traits": [
            "profane"
        ],
        "region": {
            "codes": [
                "common"
            ]
        },
        "rule": "Die Brenndauer des Steins ist unbegrenzt. Sichtmodifikatoren durch Dunkelheit werden im Schein des kopfgroßen Steins pro 3 Schritt Radius wie folgt reduziert: –4/–3/–2/–1 Stufe(n).",
        "parents": [],
        "container": "DEFAULT"
    },
    "flags": {
        "tde5e": {
            "tags": [
                "Beleuchtung"
            ]
        }
    },
    "effects": [],
    "folder": "GE77890307091706",
    "_key": "!items!GW50106184121218"
}
