{
    "_id": "HO14720123520718",
    "name": "Holzhammer",
    "type": "inventoryItem",
    "img": "systems/tde5e/assets/defaultItems/inventory_item.svg",
    "system": {
        "cid": "HOLZHAMMER",
        "light": {
            "level": 0,
            "falloff": 0
        },
        "price": 30,
        "quantity": 1,
        "sources": [
            "DIE_FLUSSLANDE",
            "RUSTKAMMER_DER_FLUSSLANDE"
        ],
        "weight": 20,
        "flavor": "",
        "notes": "",
        "gmNotes": "",
        "rarity": "common",
        "traits": [
            "profane"
        ],
        "region": {
            "codes": [
                "common"
            ]
        },
        "rule": "Das Manöver Betäubungsschlag (siehe <strong>Aventurisches Kompendium</strong> Seite <strong>152</strong>) richtet 1W3+1 statt nur 1W3 TP an.<br />Unterläuft dem Träger des Holzhammers ein Patzer, zerbricht seine Waffe. Dies geschieht zusätzlich den üblichen Auswirkungen eines Patzers, solange dessen Resultat nicht ebenfalls ein Zerbrechen der Waffe ist.",
        "parents": [],
        "container": "DEFAULT"
    },
    "flags": {
        "tde5e": {
            "tags": [
                "Reisebedarf und Werkzeuge"
            ]
        }
    },
    "effects": [],
    "folder": "GE77890307091706",
    "_key": "!items!HO14720123520718"
}
