{
    "_id": "KI12530186169210",
    "name": "Kirschblüten",
    "type": "inventoryItem",
    "img": "systems/tde5e/assets/defaultItems/inventory_item.svg",
    "system": {
        "cid": "KIRSCHBLUTEN",
        "light": {
            "level": 0,
            "falloff": 0
        },
        "price": 0,
        "quantity": 1,
        "sources": [
            "AVENTURISCHES_GOTTERWIRKEN_1"
        ],
        "weight": 1,
        "flavor": "",
        "notes": "",
        "gmNotes": "",
        "rarity": "common",
        "traits": [
            "profane"
        ],
        "region": {
            "codes": [
                "common"
            ]
        },
        "rule": "",
        "parents": [],
        "container": "DEFAULT"
    },
    "flags": {
        "tde5e": {
            "tags": [
                "Ausrüstung der Geweihtenschaft"
            ]
        }
    },
    "effects": [],
    "folder": "GE77890307091706",
    "_key": "!items!KI12530186169210"
}
