{
    "_id": "KN23350142921811",
    "name": "Knaster",
    "type": "inventoryItem",
    "img": "systems/tde5e/assets/defaultItems/inventory_item.svg",
    "system": {
        "cid": "KNASTER",
        "light": {
            "level": 0,
            "falloff": 0
        },
        "price": 0,
        "quantity": 1,
        "sources": [
            "AVENTURISCHE_RUSTKAMMER_2"
        ],
        "weight": 4,
        "flavor": "",
        "notes": "",
        "gmNotes": "",
        "rarity": "common",
        "traits": [
            "profane"
        ],
        "region": {
            "codes": [
                "common"
            ]
        },
        "rule": "Tabak hat keine regeltechnische Funktion",
        "parents": [],
        "container": "DEFAULT"
    },
    "flags": {
        "tde5e": {
            "tags": [
                "Genussmittel und Luxus"
            ]
        }
    },
    "effects": [],
    "folder": "GE77890307091706",
    "_key": "!items!KN23350142921811"
}
