{
    "_id": "KO12722198138411",
    "name": "Kompass (Südweiser)",
    "type": "inventoryItem",
    "img": "systems/tde5e/assets/defaultItems/inventory_item.svg",
    "system": {
        "cid": "KOMPASS_SUDWEISER",
        "light": {
            "level": 0,
            "falloff": 0
        },
        "price": 60,
        "quantity": 1,
        "sources": [
            "REGELWERK",
            "AVENTURISCHE_RUSTKAMMER_1",
            "KATAKOMBEN_UND_RUINEN",
            "UNENDLICHKEIT_UND_TIEFENRAUSCH"
        ],
        "weight": 10,
        "flavor": "",
        "notes": "",
        "gmNotes": "",
        "rarity": "common",
        "traits": [
            "profane"
        ],
        "region": {
            "codes": [
                "common"
            ]
        },
        "rule": "Mit einem Südweiser erhält ein Held eine Erleichterung von 5 auf Proben auf <em>Orientierung</em>, wenn es darum geht, die Himmelrichtung zu bestimmen. Andere Proben auf das Talent können durch den Kompass auch eine geringere Erleichterung erhalten.",
        "parents": [],
        "container": "DEFAULT"
    },
    "flags": {
        "tde5e": {
            "tags": [
                "Orientierungshilfen"
            ]
        }
    },
    "effects": [],
    "folder": "GE77890307091706",
    "_key": "!items!KO12722198138411"
}
