{
    "_id": "KR90172533135217",
    "name": "Kreide",
    "type": "inventoryItem",
    "img": "systems/tde5e/assets/defaultItems/inventory_item.svg",
    "system": {
        "cid": "KREIDE",
        "light": {
            "level": 0,
            "falloff": 0
        },
        "price": 2,
        "quantity": 1,
        "sources": [
            "REGELWERK",
            "AVENTURISCHE_RUSTKAMMER_1"
        ],
        "weight": 2,
        "flavor": "",
        "notes": "",
        "gmNotes": "",
        "rarity": "common",
        "traits": [
            "profane"
        ],
        "region": {
            "codes": [
                "common"
            ]
        },
        "rule": "Ein Stück Kreide reicht für 20 Bilder oder größere Zeichnungen wie Pentagramme o.Ä..",
        "parents": [],
        "container": "DEFAULT"
    },
    "flags": {
        "tde5e": {
            "tags": [
                "Schreibwaren"
            ]
        }
    },
    "effects": [],
    "folder": "GE77890307091706",
    "_key": "!items!KR90172533135217"
}
