{
    "_id": "KU68504788514753",
    "name": "Küchenmesser",
    "type": "meleeWeapon",
    "img": "systems/tde5e/assets/defaultItems/inventory_item.svg",
    "system": {
        "cid": "KUCHENMESSER",
        "group": "Compendium.tde5e.skills.Item.KL58162193144590",
        "price": 900,
        "weight": 20,
        "length": 30,
        "damage": {
            "diceNumber": 1,
            "diceSides": 6,
            "flat": -1,
            "range": [
                9,
                13
            ],
            "types": [
                "pierce"
            ]
        },
        "adrenaline": 3,
        "hands": 1,
        "breakingPointRating": 8,
        "isUnbreakable": false,
        "region": {
            "codes": [
                "common"
            ],
            "note": ""
        },
        "sources": [],
        "flavor": "",
        "notes": "",
        "gmNotes": "",
        "quantity": 1,
        "rarity": "common",
        "traits": [
            "profane"
        ],
        "prefix": null,
        "wear": 0,
        "variant": {
            "level": 1,
            "selected": null,
            "available": null,
            "input": false,
            "categories": null
        },
        "application": "Dolche",
        "rule": "",
        "parents": [],
        "container": "DEFAULT"
    },
    "folder": "DO16822206411017",
    "effects": [],
    "_key": "!items!KU68504788514753"
}
