{
    "_id": "FL80306754990795",
    "name": "Kugelflegel",
    "type": "meleeWeapon",
    "img": "systems/tde5e/assets/defaultItems/melee_weapon.svg",
    "system": {
        "cid": "KUGELFLEGEL",
        "group": "Compendium.tde5e.skills.Item.GE50277356812673",
        "price": 4000,
        "weight": 80,
        "length": 170,
        "damage": {
            "diceNumber": 2,
            "diceSides": 8,
            "flat": -2,
            "range": [
                9,
                16
            ],
            "types": [
                "blunt"
            ]
        },
        "adrenaline": 1,
        "hands": 2,
        "breakingPointRating": 10,
        "isUnbreakable": false,
        "region": {
            "codes": [
                "alb",
                "gar",
                "and",
                "bor"
            ],
            "note": ""
        },
        "sources": [
            "AVENTURISCHES_KOMPENDIUM_1",
            "DIE_STREITENDEN_KONIGREICHE",
            "RUSTKAMMER_DER_STREITENDEN_KONIGREICHE"
        ],
        "flavor": "",
        "notes": "",
        "gmNotes": "",
        "quantity": 1,
        "rarity": "common",
        "traits": [
            "profane"
        ],
        "prefix": null,
        "wear": 0,
        "variant": {
            "level": 1,
            "selected": null,
            "available": null,
            "input": false,
            "categories": null
        },
        "application": "Flegel",
        "rule": "",
        "parents": [],
        "container": "DEFAULT"
    },
    "folder": "FL61029488226396",
    "effects": [],
    "_key": "!items!FL80306754990795"
}
