{
    "_id": "KU12755234184103",
    "name": "Kurzschwert",
    "type": "meleeWeapon",
    "img": "modules/tde5e-assets/assets/equipment/meleeWeapon/Schwerter/Kurzschwert.png",
    "system": {
        "cid": "KURZSCHWERT",
        "group": "Compendium.tde5e.skills.Item.KL58162193144590",
        "price": 14000,
        "weight": 30,
        "length": 60,
        "damage": {
            "diceNumber": 1,
            "diceSides": 5,
            "flat": 2,
            "range": [
                9,
                13
            ],
            "types": [
                "pierce",
                "slash"
            ]
        },
        "adrenaline": 0,
        "hands": 1,
        "breakingPointRating": 13,
        "isUnbreakable": false,
        "region": {
            "codes": [
                "common"
            ],
            "note": ""
        },
        "sources": [
            "REGELWERK",
            "AVENTURISCHE_RUSTKAMMER_1",
            "UNENDLICHKEIT_UND_TIEFENRAUSCH"
        ],
        "variant": {
            "available": [
                {
                    "vid": "BRILLANTZWERGISCHES_KURZSCHWERT",
                    "name": "Brillantzwergisches Kurzschwert",
                    "img": "systems/tde5e/assets/defaultItems/melee_weapon.svg",
                    "flavor": "Eine Waffe der Zwerge.",
                    "sources": [
                        "AVENTURISCHES_KOMPENDIUM_2"
                    ],
                    "region": {
                        "codes": [
                            "zwe"
                        ],
                        "note": ""
                    },
                    "price": 10000,
                    "weight": 40,
                    "length": 70
                },
                {
                    "vid": "HUGELZWERGISCHES_KURZSCHWERT",
                    "name": "Hügelzwergisches Kurzschwert",
                    "img": "modules/tde5e-assets/assets/equipment/meleeWeapon/Schwerter/Hügelzwergisches Kurzschwert.png",
                    "flavor": "Eine Waffe der Hügel-Zwerge im Kosch.",
                    "sources": [
                        "DIE_FLUSSLANDE",
                        "RUSTKAMMER_DER_FLUSSLANDE"
                    ],
                    "region": {
                        "codes": [
                            "zwe"
                        ],
                        "note": "ausschließlich im Kosch"
                    },
                    "length": 50,
                    "price": 14000,
                    "weight": 30
                },
                {
                    "vid": "KUSLIKER_SABEL",
                    "name": "Kusliker Säbel",
                    "img": "modules/tde5e-assets/assets/equipment/meleeWeapon/Schwerter/Kusliker Säbel.png",
                    "sources": [
                        "AVENTURISCHE_RUSTKAMMER_2"
                    ],
                    "region": {
                        "codes": [
                            "alb",
                            "ala",
                            "bor",
                            "hor",
                            "elf",
                            "sve",
                            "tho",
                            "wal",
                            "men",
                            "bra"
                        ],
                        "note": "auch im Tiefen Süden"
                    },
                    "price": 16000,
                    "weight": 70,
                    "length": 80
                }
            ],
            "level": 1,
            "selected": null,
            "input": false,
            "categories": null
        },
        "flavor": "",
        "notes": "",
        "gmNotes": "",
        "quantity": 1,
        "rarity": "common",
        "traits": [
            "profane"
        ],
        "prefix": null,
        "wear": 0,
        "application": "Schwerter",
        "rule": "",
        "parents": [],
        "container": "DEFAULT"
    },
    "folder": "SC33209226171113",
    "effects": [],
    "_key": "!items!KU12755234184103"
}
