{
    "_id": "LA77236126863191",
    "name": "Lapislazuli",
    "type": "inventoryItem",
    "img": "systems/tde5e/assets/defaultItems/inventory_item.svg",
    "system": {
        "cid": "LAPISLAZULI",
        "light": {
            "level": 0,
            "falloff": 0
        },
        "price": 170,
        "quantity": 1,
        "sources": [
            "REGELWERK"
        ],
        "weight": 1,
        "flavor": "",
        "notes": "",
        "gmNotes": "",
        "rarity": "common",
        "traits": [
            "profane"
        ],
        "region": {
            "codes": [
                "common"
            ]
        },
        "rule": "",
        "parents": [],
        "container": "DEFAULT"
    },
    "flags": {
        "tde5e": {
            "tags": [
                "Edelsteine und Feingestein"
            ]
        }
    },
    "effects": [],
    "folder": "GE77890307091706",
    "_key": "!items!LA77236126863191"
}
