{
    "_id": "LE10114317324123",
    "name": "Lederrüstung",
    "type": "armor",
    "img": "modules/tde5e-assets/assets/equipment/armor/leather/Lederrüstung.png",
    "system": {
        "cid": "LEDERRUSTUNG",
        "group": "leather",
        "price": 15000,
        "weight": 240,
        "protection": {
            "blunt": 3,
            "pierce": 3,
            "slash": 4,
            "mod": 0
        },
        "encumbrance": 1,
        "adrenaline": 0,
        "breakingPointRating": 8,
        "isUnbreakable": false,
        "region": {
            "codes": [
                "common"
            ],
            "note": ""
        },
        "sources": [
            "REGELWERK"
        ],
        "flavor": "",
        "notes": "",
        "gmNotes": "",
        "quantity": 1,
        "rarity": "common",
        "traits": [
            "profane"
        ],
        "prefix": null,
        "wear": 0,
        "variant": {
            "level": 1,
            "selected": null,
            "available": null,
            "input": false,
            "categories": null
        },
        "isSelected": false,
        "rule": "",
        "parents": [],
        "container": "DEFAULT"
    },
    "folder": "LE14910459134131",
    "effects": [],
    "_key": "!items!LE10114317324123"
}
