{
    "_id": "LE51879131701952",
    "name": "Leichte Armbrust",
    "type": "rangedWeapon",
    "img": "modules/tde5e-assets/assets/equipment/rangedWeapon/Armbruste/Leichte Armbrust.png",
    "system": {
        "cid": "LEICHTE_ARMBRUST",
        "group": "Compendium.tde5e.skills.Item.SC02156587103424",
        "price": 18000,
        "weight": 130,
        "length": 110,
        "damage": {
            "diceNumber": 1,
            "diceSides": 4,
            "flat": 7,
            "range": [
                10,
                13
            ],
            "types": [
                "pierce"
            ]
        },
        "adrenaline": 3,
        "range": [
            15,
            30,
            60
        ],
        "reloadTime": 2,
        "ammunitionType": "bolts",
        "hands": 1,
        "breakingPointRating": 6,
        "isUnbreakable": false,
        "region": {
            "codes": [
                "common"
            ],
            "note": ""
        },
        "sources": [
            "REGELWERK",
            "AVENTURISCHE_RUSTKAMMER_1",
            "UNENDLICHKEIT_UND_TIEFENRAUSCH"
        ],
        "variant": {
            "available": [
                {
                    "vid": "ISENHAGER_ARMBRUST",
                    "name": "Isenhager Armbrust",
                    "img": "modules/tde5e-assets/assets/equipment/rangedWeapon/Armbruste/Isenhager Armbrust.png",
                    "sources": [
                        "DIE_FLUSSLANDE",
                        "RUSTKAMMER_DER_FLUSSLANDE"
                    ],
                    "region": {
                        "codes": [
                            "gar"
                        ],
                        "note": ""
                    },
                    "price": 27000,
                    "weight": 210,
                    "length": 95
                }
            ],
            "level": 1,
            "selected": null,
            "input": false,
            "categories": null
        },
        "flavor": "",
        "notes": "",
        "gmNotes": "",
        "quantity": 1,
        "rarity": "common",
        "traits": [
            "profane"
        ],
        "prefix": null,
        "wear": 0,
        "application": "Armbrüste",
        "rule": "",
        "parents": [],
        "container": "DEFAULT"
    },
    "folder": "AR10516323682250",
    "effects": [],
    "_key": "!items!LE51879131701952"
}
