{
    "_id": "MA79291633425233",
    "name": "Mantel",
    "type": "inventoryItem",
    "img": "systems/tde5e/assets/defaultItems/inventory_item.svg",
    "system": {
        "cid": "MANTEL",
        "light": {
            "level": 0,
            "falloff": 0
        },
        "price": 70,
        "quantity": 1,
        "sources": [
            "REGELWERK",
            "AVENTURISCHE_RUSTKAMMER_1"
        ],
        "weight": 60,
        "flavor": "",
        "notes": "",
        "gmNotes": "",
        "rarity": "common",
        "traits": [
            "profane"
        ],
        "region": {
            "codes": [
                "common"
            ]
        },
        "rule": "Intuition erhält bei <em>Verbergen (Gegenstände verbergen)</em> einen Bonus von +1, wenn der Gegenstand unter dem Mantel oder in einer Tasche des Mantels verborgen werden kann.",
        "parents": [],
        "container": "DEFAULT"
    },
    "flags": {
        "tde5e": {
            "tags": [
                "Kleidung"
            ]
        }
    },
    "effects": [],
    "folder": "GE77890307091706",
    "_key": "!items!MA79291633425233"
}
