{
    "_id": "MA20567201156141",
    "name": "Matrosenkleidung",
    "type": "armor",
    "img": "modules/tde5e-assets/assets/equipment/armor/fabric/Matrosenkleidung.png",
    "system": {
        "cid": "MATROSENKLEIDUNG",
        "group": "fabric",
        "price": 2500,
        "weight": 80,
        "protection": {
            "blunt": 1,
            "pierce": 1,
            "slash": 1,
            "mod": 0
        },
        "encumbrance": 0,
        "adrenaline": 0,
        "breakingPointRating": 5,
        "isUnbreakable": false,
        "region": {
            "codes": [
                "alb",
                "hor",
                "tho"
            ],
            "note": ""
        },
        "sources": [
            "DIE_SIEBENWINDKUSTE",
            "RUSTKAMMER_DER_SIEBENWINDKUSTE"
        ],
        "flavor": "",
        "notes": "",
        "gmNotes": "",
        "quantity": 1,
        "rarity": "common",
        "traits": [
            "profane"
        ],
        "prefix": null,
        "wear": 0,
        "variant": {
            "level": 1,
            "selected": null,
            "available": null,
            "input": false,
            "categories": null
        },
        "isSelected": false,
        "rule": "<p>Wind erhöht die Kältestufe gegenüber einem Träger der Matrosenkleidung nicht (siehe <strong>Regelwerk</strong> Seite <strong>346</strong>).</p><p>Gegen einen Treffer mit 10+ TP bietet die Matrosenkleidung keinen RS.</p>",
        "parents": [],
        "container": "DEFAULT"
    },
    "folder": "ST97341361282071",
    "effects": [],
    "_key": "!items!MA20567201156141"
}
