{
    "_id": "NE15616212525510",
    "name": "Neunschwänzige mit Metalldornen",
    "type": "meleeWeapon",
    "img": "systems/tde5e/assets/defaultItems/melee_weapon.svg",
    "system": {
        "cid": "NEUNSCHWANZIGE_MIT_METALLSTUCKEN_ODER_DORNEN",
        "group": "Compendium.tde5e.skills.Item.GE50277356812673",
        "price": 2500,
        "weight": 84,
        "length": 90,
        "damage": {
            "diceNumber": 1,
            "diceSides": 8,
            "flat": 3,
            "range": [
                14,
                14
            ],
            "types": [
                "slash"
            ]
        },
        "adrenaline": 4,
        "hands": 1,
        "breakingPointRating": 4,
        "isUnbreakable": false,
        "region": {
            "codes": [
                "common"
            ],
            "note": ""
        },
        "sources": [
            "AVENTURISCHE_RUSTKAMMER_2"
        ],
        "flavor": "",
        "notes": "",
        "gmNotes": "",
        "quantity": 1,
        "rarity": "common",
        "traits": [
            "profane"
        ],
        "prefix": null,
        "wear": 0,
        "variant": {
            "level": 1,
            "selected": null,
            "available": null,
            "input": false,
            "categories": null
        },
        "application": "Peitschen",
        "rule": "",
        "parents": [],
        "container": "DEFAULT"
    },
    "folder": "PE94401599212811",
    "effects": [],
    "_key": "!items!NE15616212525510"
}
