{
    "_id": "NI71142503717020",
    "name": "Nipauka-Axt",
    "type": "meleeWeapon",
    "img": "modules/tde5e-assets/assets/equipment/meleeWeapon/Hiebwaffen/Nipaukaaxt.webp",
    "system": {
        "cid": "NIPAUKAAXT",
        "group": "Compendium.tde5e.skills.Item.SC43947299610730",
        "price": 14000,
        "weight": 40,
        "length": 60,
        "damage": {
            "diceNumber": 1,
            "diceSides": 6,
            "flat": 2,
            "range": [
                8,
                14
            ],
            "types": [
                "slash"
            ]
        },
        "adrenaline": 1,
        "hands": 1,
        "breakingPointRating": 12,
        "isUnbreakable": false,
        "region": {
            "codes": [
                "wal",
                "men",
                "ala",
                "bra"
            ],
            "note": ""
        },
        "sources": [
            "AVENTURISCHE_MAGIE_3"
        ],
        "flavor": "",
        "notes": "",
        "gmNotes": "",
        "quantity": 1,
        "rarity": "common",
        "traits": [
            "profane"
        ],
        "prefix": null,
        "wear": 0,
        "variant": {
            "level": 1,
            "selected": null,
            "available": null,
            "input": false,
            "categories": null
        },
        "application": "Äxte",
        "rule": "Traditionsartefakt @UUID[Compendium.tde5e.magic.Item.TR22473791851201]{(Animisten)}, nur von Animisten der Moas erwerbbar.",
        "parents": [
            "Compendium.tde5e.magic.Item.TR22473791851201"
        ],
        "container": "DEFAULT"
    },
    "folder": "AX31939700983319",
    "effects": [],
    "_key": "!items!NI71142503717020"
}
