{
    "_id": "NI46123721760332",
    "name": "Nivesischer Wolfsspeer",
    "type": "meleeWeapon",
    "img": "systems/tde5e/assets/defaultItems/melee_weapon.svg",
    "system": {
        "cid": "NIVESISCHER_WOLFSSPEER_2H",
        "group": "Compendium.tde5e.skills.Item.ST51512085844735",
        "price": 14000,
        "weight": 40,
        "length": 150,
        "damage": {
            "diceNumber": 2,
            "diceSides": 4,
            "flat": 1,
            "range": [
                9,
                15
            ],
            "types": [
                "pierce"
            ]
        },
        "adrenaline": 2,
        "hands": 2,
        "breakingPointRating": 10,
        "isUnbreakable": false,
        "region": {
            "codes": [
                "niv"
            ],
            "note": ""
        },
        "sources": [
            "AVENTURISCHE_MAGIE_3"
        ],
        "flavor": "",
        "notes": "",
        "gmNotes": "",
        "quantity": 1,
        "rarity": "common",
        "traits": [
            "profane"
        ],
        "prefix": null,
        "wear": 0,
        "variant": {
            "level": 1,
            "selected": null,
            "available": null,
            "input": false,
            "categories": null
        },
        "application": "Stabwaffen",
        "rule": "Traditionsartefakt (@UUID[Compendium.tde5e.magic.Item.TR22473791851201]{Animisten}), nur von Animisten der Nivesen erwerbbar.",
        "parents": [
            "Compendium.tde5e.magic.Item.TR22473791851201"
        ],
        "container": "DEFAULT"
    },
    "folder": "ST11620585136272",
    "effects": [],
    "_key": "!items!NI46123721760332"
}
