{
    "_id": "NO51251082221719",
    "name": "Nordmärker Ritterrüstung",
    "type": "armor",
    "img": "modules/tde5e-assets/assets/equipment/armor/plate/Nordmärker Ritterrüstung.png",
    "system": {
        "cid": "NORDMARKER_RITTERRUSTUNG",
        "group": "plate",
        "price": 220000,
        "weight": 1520,
        "protection": {
            "blunt": 7,
            "pierce": 8,
            "slash": 8,
            "mod": 0
        },
        "encumbrance": 4,
        "adrenaline": 3,
        "breakingPointRating": 10,
        "isUnbreakable": false,
        "region": {
            "codes": [
                "gar"
            ],
            "note": ""
        },
        "sources": [
            "DIE_FLUSSLANDE",
            "RUSTKAMMER_DER_FLUSSLANDE"
        ],
        "flavor": "",
        "notes": "",
        "gmNotes": "",
        "quantity": 1,
        "rarity": "common",
        "traits": [
            "profane"
        ],
        "prefix": null,
        "wear": 0,
        "variant": {
            "level": 1,
            "selected": null,
            "available": null,
            "input": false,
            "categories": null
        },
        "isSelected": false,
        "rule": "Als Fußkämpfer erleidet der Träger einer Nordmärker Ritterrüstung zusätzliche Abzüge von jeweils –1 auf GS und kINI.",
        "parents": [],
        "container": "DEFAULT"
    },
    "folder": "PL13458148121243",
    "effects": [],
    "_key": "!items!NO51251082221719"
}
