{
    "_id": "NO33225831461051",
    "name": "Normale Kleidung",
    "type": "armor",
    "img": "modules/tde5e-assets/assets/equipment/armor/fabric/Ungerüstet.png",
    "system": {
        "cid": "NORMALE_KLEIDUNG",
        "group": "fabric",
        "price": 0,
        "weight": 40,
        "protection": {
            "blunt": 1,
            "pierce": 0,
            "slash": 1,
            "mod": 0
        },
        "encumbrance": 0,
        "adrenaline": 1,
        "breakingPointRating": 4,
        "isUnbreakable": false,
        "region": {
            "codes": [
                "common"
            ],
            "note": ""
        },
        "sources": [
            "REGELWERK"
        ],
        "flavor": "",
        "notes": "",
        "gmNotes": "",
        "quantity": 1,
        "rarity": "common",
        "traits": [
            "profane"
        ],
        "prefix": null,
        "wear": 0,
        "variant": {
            "level": 1,
            "selected": null,
            "available": null,
            "input": false,
            "categories": null
        },
        "isSelected": false,
        "rule": "",
        "parents": [],
        "container": "DEFAULT"
    },
    "folder": "ST97341361282071",
    "effects": [],
    "_key": "!items!NO33225831461051"
}
