{
    "_id": "PA19322223795272",
    "name": "Papier, 1 Blatt",
    "type": "inventoryItem",
    "img": "systems/tde5e/assets/defaultItems/inventory_item.svg",
    "system": {
        "cid": "PAPIER_1_BLATT",
        "light": {
            "level": 0,
            "falloff": 0
        },
        "price": 1,
        "quantity": 1,
        "sources": [
            "REGELWERK",
            "AVENTURISCHE_RUSTKAMMER_1",
            "UNENDLICHKEIT_UND_TIEFENRAUSCH"
        ],
        "weight": 2,
        "flavor": "",
        "notes": "",
        "gmNotes": "",
        "rarity": "common",
        "traits": [
            "profane"
        ],
        "region": {
            "codes": [
                "common"
            ]
        },
        "rule": "Bei einer gelungenen Probe auf <em>Malen &amp; Zeichnen (Malen</em> oder <em>Zeichnen)</em> steigen die FP um 1 (bis zu einem Maximum von 18).",
        "parents": [],
        "container": "DEFAULT"
    },
    "flags": {
        "tde5e": {
            "tags": [
                "Schreibwaren"
            ]
        }
    },
    "effects": [],
    "folder": "GE77890307091706",
    "_key": "!items!PA19322223795272"
}
