{
    "_id": "PR23174105842071",
    "name": "Proviant für 1 Tag",
    "type": "inventoryItem",
    "img": "systems/tde5e/assets/defaultItems/inventory_item.svg",
    "system": {
        "cid": "PROVIANT_FUR_1_TAG",
        "light": {
            "level": 0,
            "falloff": 0
        },
        "price": 5,
        "quantity": 1,
        "sources": [
            "REGELWERK",
            "AVENTURISCHE_RUSTKAMMER_1"
        ],
        "weight": 60,
        "flavor": "",
        "notes": "",
        "gmNotes": "",
        "rarity": "common",
        "traits": [
            "profane"
        ],
        "region": {
            "codes": [
                "common"
            ]
        },
        "rule": "Proviant sättigt pro Ration einen Menschen für einen Tag.",
        "parents": [],
        "container": "DEFAULT"
    },
    "flags": {
        "tde5e": {
            "tags": [
                "Reisebedarf und Werkzeuge"
            ]
        }
    },
    "effects": [],
    "folder": "GE77890307091706",
    "_key": "!items!PR23174105842071"
}
