{
    "_id": "RA15017811193122",
    "name": "Rabenschnabel",
    "type": "meleeWeapon",
    "img": "modules/tde5e-assets/assets/equipment/meleeWeapon/Hiebwaffen/Rabenschnabel.png",
    "system": {
        "cid": "RABENSCHNABEL",
        "group": "Compendium.tde5e.skills.Item.SC43947299610730",
        "price": 9000,
        "weight": 60,
        "length": 110,
        "damage": {
            "diceNumber": 1,
            "diceSides": 10,
            "flat": 3,
            "range": [
                13,
                14
            ],
            "types": [
                "pierce",
                "blunt"
            ]
        },
        "adrenaline": 1,
        "hands": 1,
        "breakingPointRating": 12,
        "isUnbreakable": false,
        "region": {
            "codes": [
                "common"
            ],
            "note": ""
        },
        "sources": [
            "REGELWERK",
            "AVENTURISCHE_RUSTKAMMER_1"
        ],
        "variant": {
            "available": [
                {
                    "vid": "ELENVINER_REITERHAMMER",
                    "name": "Elenviner Reiterhammer",
                    "img": "modules/tde5e-assets/assets/equipment/meleeWeapon/Hiebwaffen/Elenviner Reiterhammer.png",
                    "sources": [
                        "DIE_FLUSSLANDE",
                        "RUSTKAMMER_DER_FLUSSLANDE"
                    ],
                    "region": {
                        "codes": [
                            "gar"
                        ],
                        "note": ""
                    },
                    "price": 10000,
                    "weight": 80,
                    "length": 120
                }
            ],
            "level": 1,
            "selected": null,
            "input": false,
            "categories": null
        },
        "flavor": "",
        "notes": "",
        "gmNotes": "",
        "quantity": 1,
        "rarity": "common",
        "traits": [
            "profane"
        ],
        "prefix": null,
        "wear": 0,
        "application": "Hämmer",
        "rule": "",
        "parents": [],
        "container": "DEFAULT"
    },
    "folder": "HA07835617087924",
    "effects": [],
    "_key": "!items!RA15017811193122"
}
