{
    "_id": "RI16611924122221",
    "name": "Richtschwert",
    "type": "meleeWeapon",
    "img": "modules/tde5e-assets/assets/equipment/meleeWeapon/Zweihandschwerter/Richtschwert.png",
    "system": {
        "cid": "RICHTSCHWERT",
        "group": "Compendium.tde5e.skills.Item.WU54681613748829",
        "price": 60000,
        "weight": 200,
        "length": 130,
        "damage": {
            "diceNumber": 2,
            "diceSides": 5,
            "flat": 0,
            "range": [
                10,
                15
            ],
            "types": [
                "slash"
            ]
        },
        "adrenaline": 1,
        "hands": 2,
        "breakingPointRating": 12,
        "isUnbreakable": false,
        "region": {
            "codes": [
                "common"
            ],
            "note": "in Städten"
        },
        "sources": [
            "AVENTURISCHE_RUSTKAMMER_1"
        ],
        "flavor": "",
        "notes": "",
        "gmNotes": "",
        "quantity": 1,
        "rarity": "common",
        "traits": [
            "profane"
        ],
        "prefix": null,
        "wear": 0,
        "variant": {
            "level": 1,
            "selected": null,
            "available": null,
            "input": false,
            "categories": null
        },
        "application": "Großschwerter",
        "rule": "Standessymbol, nur von Richtern oder hohen Adligen erwerbbar.",
        "parents": [],
        "container": "DEFAULT"
    },
    "folder": "GR24115014442892",
    "effects": [],
    "_key": "!items!RI16611924122221"
}
