{
    "_id": "SA24112141114820",
    "name": "Säbel",
    "type": "meleeWeapon",
    "img": "modules/tde5e-assets/assets/equipment/meleeWeapon/Schwerter/Säbel.png",
    "system": {
        "cid": "SABEL",
        "group": "Compendium.tde5e.skills.Item.KL58162193144590",
        "price": 18000,
        "weight": 30,
        "length": 90,
        "damage": {
            "diceNumber": 1,
            "diceSides": 5,
            "flat": 3,
            "range": [
                12,
                13
            ],
            "types": [
                "pierce",
                "slash"
            ]
        },
        "adrenaline": 1,
        "hands": 1,
        "breakingPointRating": 13,
        "isUnbreakable": false,
        "region": {
            "codes": [
                "common"
            ],
            "note": ""
        },
        "sources": [
            "REGELWERK",
            "AVENTURISCHE_RUSTKAMMER_1",
            "UNENDLICHKEIT_UND_TIEFENRAUSCH"
        ],
        "variant": {
            "available": [
                {
                    "vid": "ALBERNISCHES_ENTERMESSER",
                    "name": "Albernisches Entermesser",
                    "img": "modules/tde5e-assets/assets/equipment/meleeWeapon/Schwerter/Albernisches Entermesser.png",
                    "sources": [
                        "DIE_SIEBENWINDKUSTE",
                        "RUSTKAMMER_DER_SIEBENWINDKUSTE"
                    ],
                    "region": {
                        "codes": [
                            "alb"
                        ],
                        "note": ""
                    },
                    "price": 12000,
                    "length": 75,
                    "weight": 30
                },
                {
                    "vid": "AMAZONENSABEL",
                    "name": "Amazonensäbel",
                    "img": "modules/tde5e-assets/assets/equipment/meleeWeapon/Schwerter/Amazonensäbel.png",
                    "flavor": "Eine Waffe der Amazonen.",
                    "sources": [
                        "AVENTURISCHE_RUSTKAMMER_1"
                    ],
                    "region": {
                        "codes": [
                            "common"
                        ],
                        "note": ""
                    },
                    "price": 20000,
                    "weight": 80,
                    "length": 100
                },
                {
                    "vid": "ENTERMESSER",
                    "name": "Entermesser",
                    "img": "modules/tde5e-assets/assets/equipment/meleeWeapon/Schwerter/Entermesser.png",
                    "region": {
                        "codes": [
                            "common"
                        ],
                        "note": ""
                    },
                    "price": 18000,
                    "weight": 30,
                    "length": 90
                },
                {
                    "vid": "HAVENER_MESSER",
                    "name": "Havener Messer",
                    "img": "modules/tde5e-assets/assets/equipment/meleeWeapon/Schwerter/Havener Messer.png",
                    "sources": [
                        "DIE_SIEBENWINDKUSTE",
                        "HAVENA_VERSUNKENE_GEHEIMNISSE",
                        "RUSTKAMMER_DER_SIEBENWINDKUSTE"
                    ],
                    "region": {
                        "codes": [
                            "alb"
                        ],
                        "note": ""
                    },
                    "price": 20000,
                    "weight": 20,
                    "length": 75
                },
                {
                    "vid": "KHUNCHOMER",
                    "name": "Khunchomer",
                    "img": "modules/tde5e-assets/assets/equipment/meleeWeapon/Schwerter/Khunchomer.png",
                    "sources": [
                        "REGELWERK",
                        "AVENTURISCHE_RUSTKAMMER_1"
                    ],
                    "region": {
                        "codes": [
                            "ara",
                            "mha",
                            "tha",
                            "kho",
                            "ach"
                        ],
                        "note": "auch in den Tulamidenlanden und im Kalifat"
                    },
                    "price": 21000,
                    "weight": 50,
                    "length": 80
                },
                {
                    "vid": "TULAMIDISCHES_KURZSCHWERT",
                    "name": "Tulamidisches Kurzschwert",
                    "img": "systems/tde5e/assets/defaultItems/melee_weapon.svg",
                    "sources": [
                        "AVENTURISCHES_KOMPENDIUM_1",
                        "AVENTURISCHE_RUSTKAMMER_1"
                    ],
                    "flavor": "Name in der lokalen Sprache: Scimshar",
                    "region": {
                        "codes": [
                            "ara",
                            "mha",
                            "tha",
                            "kho",
                            "ach"
                        ],
                        "note": "auch in den Tulamidenlanden"
                    },
                    "price": 14000,
                    "length": 60,
                    "weight": 30
                },
                {
                    "vid": "SEESABEL",
                    "name": "Seesäbel",
                    "img": "modules/tde5e-assets/assets/equipment/meleeWeapon/Schwerter/Seesäbel.png",
                    "sources": [
                        "DIE_SIEBENWINDKUSTE",
                        "RUSTKAMMER_DER_SIEBENWINDKUSTE"
                    ],
                    "region": {
                        "codes": [
                            "alb"
                        ],
                        "note": ""
                    },
                    "price": 18000,
                    "weight": 30,
                    "length": 90
                }
            ],
            "level": 1,
            "selected": null,
            "input": false,
            "categories": null
        },
        "flavor": "",
        "notes": "",
        "gmNotes": "",
        "quantity": 1,
        "rarity": "common",
        "traits": [
            "profane"
        ],
        "prefix": null,
        "wear": 0,
        "application": "Schwerter",
        "rule": "",
        "parents": [],
        "container": "DEFAULT"
    },
    "folder": "SC33209226171113",
    "effects": [],
    "_key": "!items!SA24112141114820"
}
