{
    "_id": "SA11512012617884",
    "name": "Sandalen",
    "type": "inventoryItem",
    "img": "systems/tde5e/assets/defaultItems/inventory_item.svg",
    "system": {
        "cid": "SANDALEN",
        "light": {
            "level": 0,
            "falloff": 0
        },
        "price": 20,
        "quantity": 1,
        "sources": [
            "REGELWERK"
        ],
        "weight": 30,
        "flavor": "",
        "notes": "",
        "gmNotes": "",
        "rarity": "common",
        "traits": [
            "profane"
        ],
        "region": {
            "codes": [
                "common"
            ]
        },
        "rule": "",
        "parents": [],
        "container": "DEFAULT"
    },
    "flags": {
        "tde5e": {
            "tags": [
                "Kleidung"
            ]
        }
    },
    "effects": [],
    "folder": "GE77890307091706",
    "_key": "!items!SA11512012617884"
}
