{
    "_id": "SC14813436725579",
    "name": "Schlagring",
    "type": "meleeWeapon",
    "img": "modules/tde5e-assets/assets/equipment/meleeWeapon/Raufen/Schlagring.png",
    "system": {
        "cid": "SCHLAGRING",
        "group": "Compendium.tde5e.skills.Item.SC43947299610730",
        "price": 2500,
        "weight": 10,
        "length": 10,
        "damage": {
            "diceNumber": 2,
            "diceSides": 3,
            "flat": 1,
            "range": [
                10,
                13
            ],
            "types": [
                "blunt"
            ]
        },
        "adrenaline": 4,
        "hands": 1.5,
        "breakingPointRating": 12,
        "isUnbreakable": false,
        "region": {
            "codes": [
                "common"
            ],
            "note": "in Städten"
        },
        "sources": [
            "REGELWERK",
            "AVENTURISCHE_RUSTKAMMER_1"
        ],
        "flavor": "",
        "notes": "",
        "gmNotes": "",
        "quantity": 1,
        "rarity": "common",
        "traits": [
            "profane"
        ],
        "prefix": null,
        "wear": 0,
        "variant": {
            "level": 1,
            "selected": null,
            "available": null,
            "input": false,
            "categories": null
        },
        "application": "Raufen",
        "rule": "",
        "parents": [],
        "container": "DEFAULT"
    },
    "folder": "RA23718229474011",
    "effects": [],
    "_key": "!items!SC14813436725579"
}
