{
    "_id": "SC33119442166918",
    "name": "Schneiderschere",
    "type": "inventoryItem",
    "img": "systems/tde5e/assets/defaultItems/inventory_item.svg",
    "system": {
        "cid": "SCHNEIDERSCHERE",
        "light": {
            "level": 0,
            "falloff": 0
        },
        "price": 70,
        "quantity": 1,
        "sources": [
            "AVENTURISCHE_RUSTKAMMER_2"
        ],
        "weight": 12,
        "flavor": "",
        "notes": "",
        "gmNotes": "",
        "rarity": "common",
        "traits": [
            "profane"
        ],
        "region": {
            "codes": [
                "common"
            ]
        },
        "rule": "Fingerfertigkeit erhält bei der ersten Teilprobe auf <em>Stoffbearbeitung (Schneidern)</em> bei Verwendung einer Schere einen Bonus von +1.<br /><br />Eine Schneiderschere lässt sich als improvisierte Waffe verwenden (siehe <strong>Aventurische Rüstkammer II</strong> Seite <strong>137</strong>).",
        "parents": [],
        "container": "DEFAULT"
    },
    "flags": {
        "tde5e": {
            "tags": [
                "Reisebedarf und Werkzeuge"
            ]
        }
    },
    "effects": [],
    "folder": "GE77890307091706",
    "_key": "!items!SC33119442166918"
}
