{
    "_id": "SC89312321292003",
    "name": "Schokolade",
    "type": "inventoryItem",
    "img": "systems/tde5e/assets/defaultItems/inventory_item.svg",
    "system": {
        "cid": "SCHOKOLADE",
        "light": {
            "level": 0,
            "falloff": 0
        },
        "price": 50,
        "quantity": 1,
        "sources": [
            "REGELWERK"
        ],
        "weight": 4,
        "flavor": "",
        "notes": "",
        "gmNotes": "",
        "rarity": "common",
        "traits": [
            "profane"
        ],
        "region": {
            "codes": [
                "common"
            ]
        },
        "rule": "",
        "parents": [],
        "container": "DEFAULT"
    },
    "flags": {
        "tde5e": {
            "tags": [
                "Genussmittel und Luxus"
            ]
        }
    },
    "effects": [],
    "folder": "GE77890307091706",
    "_key": "!items!SC89312321292003"
}
