{
    "_id": "SC97154916010780",
    "name": "Schuppenpanzer",
    "type": "armor",
    "img": "modules/tde5e-assets/assets/equipment/armor/chainOrScale/Schuppenpanzer.png",
    "system": {
        "cid": "SCHUPPENPANZER",
        "group": "chainOrScale",
        "price": 40000,
        "weight": 720,
        "protection": {
            "blunt": 5,
            "pierce": 3,
            "slash": 6,
            "mod": 0
        },
        "encumbrance": 2,
        "adrenaline": 1,
        "breakingPointRating": 12,
        "isUnbreakable": false,
        "region": {
            "codes": [
                "common"
            ],
            "note": ""
        },
        "sources": [
            "AVENTURISCHE_RUSTKAMMER_1"
        ],
        "flavor": "",
        "notes": "",
        "gmNotes": "",
        "quantity": 1,
        "rarity": "common",
        "traits": [
            "profane"
        ],
        "prefix": null,
        "wear": 0,
        "variant": {
            "level": 1,
            "selected": null,
            "available": null,
            "input": false,
            "categories": null
        },
        "isSelected": false,
        "rule": "",
        "parents": [],
        "container": "DEFAULT"
    },
    "folder": "KE24222810797571",
    "effects": [],
    "_key": "!items!SC97154916010780"
}
