{
    "_id": "SC25414918748832",
    "name": "Schuppenrüstung",
    "type": "armor",
    "img": "modules/tde5e-assets/assets/equipment/armor/chainOrScale/Schuppenpanzer_2.png",
    "system": {
        "cid": "SCHUPPENRUSTUNG",
        "group": "chainOrScale",
        "price": 40000,
        "weight": 720,
        "protection": {
            "blunt": 5,
            "pierce": 5,
            "slash": 5,
            "mod": 0
        },
        "encumbrance": 2,
        "adrenaline": 0,
        "breakingPointRating": 12,
        "isUnbreakable": false,
        "region": {
            "codes": [
                "gar",
                "bor",
                "ara",
                "alb",
                "and",
                "alm",
                "tob",
                "hor"
            ],
            "note": ""
        },
        "sources": [
            "REGELWERK"
        ],
        "flavor": "",
        "notes": "",
        "gmNotes": "",
        "quantity": 1,
        "rarity": "common",
        "traits": [
            "profane"
        ],
        "prefix": null,
        "wear": 0,
        "variant": {
            "level": 1,
            "selected": null,
            "available": null,
            "input": false,
            "categories": null
        },
        "isSelected": false,
        "rule": "",
        "parents": [],
        "container": "DEFAULT"
    },
    "folder": "KE24222810797571",
    "effects": [],
    "_key": "!items!SC25414918748832"
}
