{
    "_id": "SC99311332384687",
    "name": "Schuppengewand",
    "type": "armor",
    "img": "modules/tde5e-assets/assets/equipment/armor/fabric/Schuppengewand.png",
    "system": {
        "cid": "SCHUPPENGEWAND",
        "group": "fabric",
        "price": 5000,
        "weight": 40,
        "protection": {
            "blunt": 1,
            "pierce": 2,
            "slash": 1,
            "mod": 0
        },
        "encumbrance": 0,
        "adrenaline": 0,
        "breakingPointRating": 5,
        "isUnbreakable": false,
        "region": {
            "codes": [
                "common"
            ],
            "note": ""
        },
        "sources": [
            "AVENTURISCHES_GOTTERWIRKEN_1",
            "HAVENA_VERSUNKENE_GEHEIMNISSE"
        ],
        "flavor": "",
        "notes": "",
        "gmNotes": "",
        "quantity": 1,
        "rarity": "common",
        "traits": [
            "profane"
        ],
        "prefix": null,
        "wear": 0,
        "variant": {
            "level": 1,
            "selected": null,
            "available": null,
            "input": false,
            "categories": null
        },
        "isSelected": false,
        "rule": "Die GE-Teilprobe beim @UUID[Compendium.tde5e.skills.Item.SC13286236249101]{Schwimmen} ist beim Tragen eines Schuppengewands um 1 erleichtert. Rüstung ist nur von Efferdgeweihten erwerbbar.",
        "parents": [],
        "container": "DEFAULT"
    },
    "folder": "ST97341361282071",
    "effects": [],
    "_key": "!items!SC99311332384687"
}
