{
    "_id": "SC47154251584922",
    "name": "Schwere Platte",
    "type": "armor",
    "img": "modules/tde5e-assets/assets/equipment/armor/plate/Schwere Platte.png",
    "system": {
        "cid": "SCHWERE_PLATTE",
        "group": "plate",
        "price": 220000,
        "weight": 1280,
        "protection": {
            "blunt": 7,
            "pierce": 9,
            "slash": 5,
            "mod": 0
        },
        "encumbrance": 3,
        "adrenaline": 0,
        "breakingPointRating": 10,
        "isUnbreakable": false,
        "region": {
            "codes": [
                "common"
            ],
            "note": ""
        },
        "sources": [
            "AVENTURISCHE_RUSTKAMMER_2"
        ],
        "flavor": "",
        "notes": "",
        "gmNotes": "",
        "quantity": 1,
        "rarity": "common",
        "traits": [
            "profane"
        ],
        "prefix": null,
        "wear": 0,
        "variant": {
            "level": 1,
            "selected": null,
            "available": null,
            "input": false,
            "categories": null
        },
        "isSelected": false,
        "rule": "",
        "parents": [],
        "container": "DEFAULT"
    },
    "folder": "PL13458148121243",
    "effects": [],
    "_key": "!items!SC47154251584922"
}
