{
    "_id": "SO10836159209735",
    "name": "Sonnenzepter",
    "type": "meleeWeapon",
    "img": "modules/tde5e-assets/assets/equipment/meleeWeapon/Hiebwaffen/Sonnenzepter.png",
    "system": {
        "cid": "SONNENZEPTER",
        "group": "Compendium.tde5e.skills.Item.SC43947299610730",
        "price": 25000,
        "weight": 50,
        "length": 70,
        "damage": {
            "diceNumber": 1,
            "diceSides": 8,
            "flat": 2,
            "range": [
                10,
                14
            ],
            "types": [
                "blunt"
            ]
        },
        "adrenaline": 2,
        "hands": 1,
        "breakingPointRating": 12,
        "isUnbreakable": false,
        "region": {
            "codes": [
                "common"
            ],
            "note": ""
        },
        "sources": [
            "REGELWERK",
            "AVENTURISCHE_RUSTKAMMER_1"
        ],
        "flavor": "",
        "notes": "",
        "gmNotes": "",
        "quantity": 1,
        "rarity": "common",
        "traits": [
            "profane"
        ],
        "prefix": null,
        "wear": 0,
        "variant": {
            "level": 1,
            "selected": null,
            "available": null,
            "input": false,
            "categories": null
        },
        "application": "Hämmer",
        "rule": "Geweiht (@UUID[Compendium.tde5e.karma.Item.TR21011142168121]{Praios}), nur von Praiosgeweihten erwerbbar.",
        "parents": [],
        "container": "DEFAULT"
    },
    "folder": "HA07835617087924",
    "effects": [],
    "_key": "!items!SO10836159209735"
}
