{
    "_id": "SP18126107691682",
    "name": "Spitzhacke",
    "type": "inventoryItem",
    "img": "systems/tde5e/assets/defaultItems/inventory_item.svg",
    "system": {
        "cid": "SPITZHACKE",
        "light": {
            "level": 0,
            "falloff": 0
        },
        "price": 200,
        "quantity": 1,
        "sources": [
            "REGELWERK",
            "AVENTURISCHE_RUSTKAMMER_1"
        ],
        "weight": 110,
        "flavor": "",
        "notes": "",
        "gmNotes": "",
        "rarity": "common",
        "traits": [
            "profane"
        ],
        "region": {
            "codes": [
                "common"
            ]
        },
        "rule": "Körperkraft erhält bei der dritten Teilprobe auf <em>Steinbearbeitung (Steine brechen)</em> bei Verwendung einer Spitzhacke einen Bonus von +1.<br /><br />Eine Spitzhacke lässt sich als improvisierte Waffe verwenden (siehe <strong>Aventurische Rüstkammer</strong> Seite <strong>139</strong>).<br />Rüstungen mit RS 4 und mehr erleiden einen Malus von –1 RS gegen die Spitzhacke.<br />Bei einer misslungenen Attacke mit der Spitzhacke muss mit 1W6 gewürfelt werden. Bei 5-6 hat sich die Spitzhacke verkeilt und steckt irgendwo fest. Der Held muss eine Probe auf <em>Kraftakt (Ziehen &amp; Zerren)</em> bestehen, um sie wieder herauszulösen. Vorher kann er nicht mit der Waffe weiterkämpfen. Der Versuch des Herausziehens kostet 1 Aktion.",
        "parents": [],
        "container": "DEFAULT"
    },
    "flags": {
        "tde5e": {
            "tags": [
                "Reisebedarf und Werkzeuge"
            ]
        }
    },
    "effects": [],
    "folder": "GE77890307091706",
    "_key": "!items!SP18126107691682"
}
