{
    "_id": "ST15212121511216",
    "name": "Stein",
    "type": "rangedWeapon",
    "img": "modules/tde5e-assets/assets/equipment/rangedWeapon/Wurfwaffen/Stein.png",
    "system": {
        "cid": "STEIN",
        "group": "Compendium.tde5e.skills.Item.WU08526535226251",
        "price": 0,
        "weight": 40,
        "length": 45,
        "damage": {
            "diceNumber": 1,
            "diceSides": 8,
            "flat": 0,
            "range": [
                10,
                14
            ],
            "types": [
                "pierce"
            ]
        },
        "adrenaline": 2,
        "range": [
            5,
            10,
            20
        ],
        "reloadTime": 0,
        "ammunitionType": "self",
        "hands": 1,
        "breakingPointRating": 4,
        "isUnbreakable": false,
        "region": {
            "codes": [
                "common"
            ],
            "note": ""
        },
        "sources": [
            "REGELWERK"
        ],
        "flavor": "",
        "notes": "",
        "gmNotes": "",
        "quantity": 1,
        "rarity": "common",
        "traits": [
            "profane"
        ],
        "prefix": null,
        "wear": 0,
        "variant": {
            "level": 1,
            "selected": null,
            "available": null,
            "input": false,
            "categories": null
        },
        "application": "Gewichte",
        "rule": "",
        "parents": [],
        "container": "DEFAULT"
    },
    "folder": "WU13997139219351",
    "effects": [],
    "_key": "!items!ST15212121511216"
}
