{
    "_id": "ST16474104175196",
    "name": "Storchenmaske",
    "type": "inventoryItem",
    "img": "systems/tde5e/assets/defaultItems/inventory_item.svg",
    "system": {
        "cid": "STORCHENMASKE",
        "light": {
            "level": 0,
            "falloff": 0
        },
        "price": 80,
        "quantity": 1,
        "sources": [
            "AVENTURISCHE_RUSTKAMMER_2"
        ],
        "weight": 20,
        "flavor": "",
        "notes": "",
        "gmNotes": "",
        "rarity": "common",
        "traits": [
            "profane"
        ],
        "region": {
            "codes": [
                "common"
            ]
        },
        "rule": "Bei der Pflege und dem Kontakt mit einem Kranken sinkt die Ansteckungswahrscheinlichkeit für den Träger der Storchenmaske um 5 % (bis zu einem Minimum von 5 %).",
        "parents": [],
        "container": "DEFAULT"
    },
    "flags": {
        "tde5e": {
            "tags": [
                "Verbandzeug und Heilmittel"
            ]
        }
    },
    "effects": [],
    "folder": "GE77890307091706",
    "_key": "!items!ST16474104175196"
}
