{
    "_id": "ST13814014137232",
    "name": "Streitaxt",
    "type": "meleeWeapon",
    "img": "modules/tde5e-assets/assets/equipment/meleeWeapon/Hiebwaffen/Streitaxt.png",
    "system": {
        "cid": "STREITAXT",
        "group": "Compendium.tde5e.skills.Item.SC43947299610730",
        "price": 10500,
        "weight": 60,
        "length": 100,
        "damage": {
            "diceNumber": 1,
            "diceSides": 6,
            "flat": 3,
            "range": [
                11,
                14
            ],
            "types": [
                "slash"
            ]
        },
        "adrenaline": 2,
        "hands": 1,
        "breakingPointRating": 12,
        "isUnbreakable": false,
        "region": {
            "codes": [
                "common"
            ],
            "note": ""
        },
        "sources": [
            "REGELWERK",
            "AVENTURISCHE_RUSTKAMMER_1"
        ],
        "variant": {
            "available": [
                {
                    "vid": "LINDWURMSCHLAGER",
                    "name": "Lindwurmschläger",
                    "flavor": "Eine Waffe der Zwerge.",
                    "img": "modules/tde5e-assets/assets/equipment/meleeWeapon/Hiebwaffen/Lindwurmschläger.png",
                    "region": {
                        "codes": [
                            "zwe"
                        ],
                        "note": ""
                    },
                    "price": 9000,
                    "weight": 40,
                    "length": 50
                },
                {
                    "vid": "LURER_LINDWURMSCHLAGER",
                    "name": "Lûrer Lindwurmschläger",
                    "img": "modules/tde5e-assets/assets/equipment/meleeWeapon/Hiebwaffen/Lurer Lindwurmschläger.png",
                    "flavor": "Eine Waffe der Zwerge.",
                    "sources": [
                        "DIE_FLUSSLANDE",
                        "RUSTKAMMER_DER_FLUSSLANDE"
                    ],
                    "region": {
                        "codes": [
                            "zwe"
                        ],
                        "note": ""
                    },
                    "price": 9000,
                    "weight": 40,
                    "length": 50
                },
                {
                    "vid": "MOLOKDESCHNAJA",
                    "name": "Molokdeschnaja",
                    "flavor": "Eine Waffe der Zwerge.",
                    "img": "modules/tde5e-assets/assets/equipment/meleeWeapon/Hiebwaffen/Molokdeschnaja.png",
                    "region": {
                        "codes": [
                            "bor"
                        ],
                        "note": ""
                    },
                    "price": 9500,
                    "weight": 50,
                    "length": 100
                },
                {
                    "vid": "ORKNASE",
                    "name": "Orknase",
                    "img": "modules/tde5e-assets/assets/equipment/meleeWeapon/Hiebwaffen/Orknase.png",
                    "region": {
                        "codes": [
                            "tho"
                        ],
                        "note": ""
                    },
                    "price": 12000,
                    "weight": 70,
                    "length": 110
                },
                {
                    "vid": "STREITAXT_DER_STREITENDEN_KONIGREICHE",
                    "name": "Streitaxt der Streitenden Königreiche",
                    "img": "modules/tde5e-assets/assets/equipment/meleeWeapon/Hiebwaffen/Streitaxt_3.png",
                    "sources": [
                        "RUSTKAMMER_DER_STREITENDEN_KONIGREICHE"
                    ],
                    "region": {
                        "codes": [
                            "alb"
                        ],
                        "note": ""
                    },
                    "price": 10500,
                    "weight": 60,
                    "length": 100
                }
            ],
            "level": 1,
            "selected": null,
            "input": false,
            "categories": null
        },
        "flavor": "",
        "notes": "",
        "gmNotes": "",
        "quantity": 1,
        "rarity": "common",
        "traits": [
            "profane"
        ],
        "prefix": null,
        "wear": 0,
        "application": "Äxte",
        "rule": "",
        "parents": [],
        "container": "DEFAULT"
    },
    "folder": "AX31939700983319",
    "effects": [],
    "_key": "!items!ST13814014137232"
}
