{
    "_id": "TU90572531131477",
    "name": "Turmschild",
    "type": "shield",
    "img": "modules/tde5e-assets/assets/equipment/shield/Turmschild.png",
    "system": {
        "cid": "TURMSCHILD",
        "damage": {
            "diceNumber": 1,
            "diceSides": 6,
            "flat": 3,
            "types": [
                "blunt"
            ],
            "range": [
                1,
                20
            ]
        },
        "diameter": 120,
        "isUnbreakable": false,
        "adrenaline": 0,
        "price": 18000,
        "region": {
            "codes": [
                "gar",
                "alb",
                "and",
                "alm",
                "wei",
                "ara",
                "tob",
                "bor"
            ],
            "note": ""
        },
        "sources": [
            "BOSPARANS_KATAKOMBEN"
        ],
        "weight": 340,
        "flavor": "",
        "notes": "",
        "gmNotes": "",
        "quantity": 1,
        "rarity": "common",
        "traits": [
            "profane"
        ],
        "prefix": null,
        "variant": {
            "level": 1,
            "selected": null,
            "available": null,
            "input": false,
            "categories": null
        },
        "rule": "",
        "parents": [],
        "container": "DEFAULT",
        "breakingPointRating": 12,
        "wear": 0
    },
    "effects": [],
    "folder": "SH16622636192326",
    "_key": "!items!TU90572531131477"
}
