{
    "_id": "TU15411112116321",
    "name": "Turnierrüstung",
    "type": "armor",
    "img": "modules/tde5e-assets/assets/equipment/armor/plate/Turnierrüstung.png",
    "system": {
        "cid": "TURNIERRUSTUNG",
        "group": "plate",
        "price": 300000,
        "weight": 1600,
        "protection": {
            "blunt": 8,
            "pierce": 8,
            "slash": 8,
            "mod": 0
        },
        "encumbrance": 4,
        "adrenaline": 3,
        "breakingPointRating": 10,
        "isUnbreakable": false,
        "region": {
            "codes": [
                "alb",
                "alm",
                "gar",
                "bor",
                "hor"
            ],
            "note": ""
        },
        "sources": [
            "AVENTURISCHES_KOMPENDIUM_1",
            "DIE_STREITENDEN_KONIGREICHE",
            "RUSTKAMMER_DER_STREITENDEN_KONIGREICHE"
        ],
        "flavor": "",
        "notes": "",
        "gmNotes": "",
        "quantity": 1,
        "rarity": "common",
        "traits": [
            "profane"
        ],
        "prefix": null,
        "wear": 0,
        "variant": {
            "level": 1,
            "selected": null,
            "available": null,
            "input": false,
            "categories": null
        },
        "isSelected": false,
        "rule": "<p>Die GS des Trägers wird halbiert.</p><p>Um auf ein Reittier aufzusteigen, benötigt der Träger Hilfe durch eine andere Person oder eine Aufsatzhilfe und mindestens 10 KR Zeit.</p><p>Proben auf @UUID[Compendium.tde5e.skills.Item.SI80193235230167]{Sinnesschärfe (Suchen oder Wahrnehmen)}, bei denen der Hör- oder Sehsinn eine Rolle spielen, sind um 2 erschwert.</p><p></p>",
        "parents": [],
        "container": "DEFAULT"
    },
    "folder": "PL13458148121243",
    "effects": [],
    "_key": "!items!TU15411112116321"
}
