{
    "_id": "UM39246142221226",
    "name": "Umhängetasche",
    "type": "inventoryItem",
    "img": "systems/tde5e/assets/defaultItems/inventory_item.svg",
    "system": {
        "cid": "UMHANGETASCHE",
        "light": {
            "level": 0,
            "falloff": 0
        },
        "price": 85,
        "quantity": 1,
        "sources": [
            "REGELWERK",
            "AVENTURISCHE_RUSTKAMMER_1",
            "UNENDLICHKEIT_UND_TIEFENRAUSCH"
        ],
        "weight": 20,
        "flavor": "",
        "notes": "",
        "gmNotes": "",
        "rarity": "common",
        "traits": [
            "profane"
        ],
        "region": {
            "codes": [
                "common"
            ]
        },
        "rule": "Eine Umhängetasche kann bis zu 20 Stein Gewicht an Gegenständen aufnehmen.",
        "parents": [],
        "container": "DEFAULT"
    },
    "flags": {
        "tde5e": {
            "tags": [
                "Behältnisse"
            ]
        }
    },
    "effects": [],
    "folder": "GE77890307091706",
    "_key": "!items!UM39246142221226"
}
