{
    "_id": "WO14417222323517",
    "name": "Wolfsmesser",
    "type": "meleeWeapon",
    "img": "modules/tde5e-assets/assets/equipment/meleeWeapon/Fechtwaffen/Wolfsmesser.png",
    "system": {
        "cid": "WOLFSMESSER",
        "group": "Compendium.tde5e.skills.Item.KL58162193144590",
        "price": 30000,
        "weight": 20,
        "length": 100,
        "damage": {
            "diceNumber": 1,
            "diceSides": 4,
            "flat": 5,
            "range": [
                14,
                14
            ],
            "types": [
                "pierce"
            ]
        },
        "adrenaline": 3,
        "hands": 1,
        "breakingPointRating": 8,
        "isUnbreakable": false,
        "region": {
            "codes": [
                "elf"
            ],
            "note": ""
        },
        "sources": [
            "REGELWERK",
            "AVENTURISCHE_RUSTKAMMER_1"
        ],
        "flavor": "",
        "notes": "",
        "gmNotes": "",
        "quantity": 1,
        "rarity": "common",
        "traits": [
            "profane"
        ],
        "prefix": null,
        "wear": 0,
        "variant": {
            "level": 1,
            "selected": null,
            "available": null,
            "input": false,
            "categories": null
        },
        "application": "Fechtwaffen",
        "rule": "Um das Wolfsmesser bei der Heldenerschaffung zu erwerben, muss der Held der auelfischen oder waldelfischen Kultur angehören.",
        "parents": [],
        "container": "DEFAULT"
    },
    "folder": "FE21917517123916",
    "effects": [],
    "_key": "!items!WO14417222323517"
}
