{
    "_id": "WU16617411510267",
    "name": "Wurfkeule",
    "type": "rangedWeapon",
    "img": "modules/tde5e-assets/assets/equipment/rangedWeapon/Wurfwaffen/Wurfkeule.png",
    "system": {
        "cid": "WURFKEULE",
        "group": "Compendium.tde5e.skills.Item.WU08526535226251",
        "price": 500,
        "weight": 40,
        "length": 50,
        "damage": {
            "diceNumber": 1,
            "diceSides": 6,
            "flat": 2,
            "range": [
                10,
                20
            ],
            "types": [
                "blunt"
            ]
        },
        "adrenaline": 2,
        "range": [
            2,
            10,
            15
        ],
        "reloadTime": 1,
        "ammunitionType": "self",
        "hands": 1,
        "breakingPointRating": 10,
        "isUnbreakable": false,
        "region": {
            "codes": [
                "fir",
                "niv",
                "paa"
            ],
            "note": "im Hohen Norden"
        },
        "sources": [
            "REGELWERK",
            "AVENTURISCHE_RUSTKAMMER_1"
        ],
        "flavor": "",
        "notes": "",
        "gmNotes": "",
        "quantity": 1,
        "rarity": "common",
        "traits": [
            "profane"
        ],
        "prefix": null,
        "wear": 0,
        "variant": {
            "level": 1,
            "selected": null,
            "available": null,
            "input": false,
            "categories": null
        },
        "application": "Gewichte",
        "rule": "",
        "parents": [],
        "container": "DEFAULT"
    },
    "folder": "WU13997139219351",
    "effects": [],
    "_key": "!items!WU16617411510267"
}
