{
    "_id": "WU30302124218616",
    "name": "Würfel, sechsseitig",
    "type": "inventoryItem",
    "img": "systems/tde5e/assets/defaultItems/inventory_item.svg",
    "system": {
        "cid": "WURFEL_SECHSSEITIG",
        "light": {
            "level": 0,
            "falloff": 0
        },
        "price": 5,
        "quantity": 1,
        "sources": [
            "REGELWERK",
            "AVENTURISCHE_RUSTKAMMER_1"
        ],
        "weight": 2,
        "flavor": "",
        "notes": "",
        "gmNotes": "",
        "rarity": "common",
        "traits": [
            "profane"
        ],
        "region": {
            "codes": [
                "common"
            ]
        },
        "rule": "",
        "parents": [],
        "container": "DEFAULT"
    },
    "flags": {
        "tde5e": {
            "tags": [
                "Genussmittel und Luxus"
            ]
        }
    },
    "effects": [],
    "folder": "GE77890307091706",
    "_key": "!items!WU30302124218616"
}
