{
    "_id": "YE12410104562357",
    "name": "Yeti-Keule",
    "type": "meleeWeapon",
    "img": "systems/tde5e/assets/defaultItems/melee_weapon.svg",
    "system": {
        "cid": "YETIKEULE",
        "group": "Compendium.tde5e.skills.Item.SC43947299610730",
        "price": 900,
        "weight": 220,
        "length": 190,
        "damage": {
            "diceNumber": 2,
            "diceSides": 6,
            "flat": 7,
            "range": [
                16,
                18
            ],
            "types": [
                "blunt"
            ]
        },
        "adrenaline": 0,
        "hands": 1,
        "breakingPointRating": 12,
        "isUnbreakable": false,
        "region": {
            "codes": [
                "fir",
                "paa",
                "niv"
            ],
            "note": ""
        },
        "sources": [
            "AVENTURISCHE_RUSTKAMMER_2"
        ],
        "flavor": "",
        "notes": "",
        "gmNotes": "",
        "quantity": 1,
        "rarity": "common",
        "traits": [
            "profane"
        ],
        "prefix": null,
        "wear": 0,
        "variant": {
            "level": 1,
            "selected": null,
            "available": null,
            "input": false,
            "categories": null
        },
        "application": "Hämmer",
        "rule": "Waffe kann nur von großen und riesigen Humanoiden geführt werden.",
        "parents": [],
        "container": "DEFAULT"
    },
    "folder": "HA07835617087924",
    "effects": [],
    "_key": "!items!YE12410104562357"
}
