{
    "_id": "ZA62224301812336",
    "name": "Zauberkerze, 1 Stück",
    "type": "inventoryItem",
    "img": "systems/tde5e/assets/defaultItems/inventory_item.svg",
    "system": {
        "cid": "ZAUBERKERZE_1_STUCK",
        "light": {
            "level": 4,
            "falloff": 1
        },
        "price": 100,
        "quantity": 1,
        "sources": [
            "AVENTURISCHE_RUSTKAMMER_1"
        ],
        "weight": 4,
        "flavor": "",
        "notes": "",
        "gmNotes": "",
        "rarity": "common",
        "traits": [
            "profane"
        ],
        "region": {
            "codes": [
                "common"
            ]
        },
        "rule": "Die Brenndauer einer Kerze beträgt 10 Stunden. Sichtmodifikatoren durch Dunkelheit werden durch Kerzenschein pro 1 Schritt Radius wie folgt reduziert: –4/–3/–2/–1 Stufe(n). Die jeweilige Eigenschaft erhält bei der ersten Teilprobe auf das jeweilige Ritual zum Be- oder Entschwören eines Dämons, Elementars oder Geistes einen Bonus von +1, wenn genug Zauberkerzen eingesetzt werden (bei Dämonen/Elementaren/Geistern 7/6/5 Zauberkerzen).",
        "parents": [],
        "container": "DEFAULT"
    },
    "flags": {
        "tde5e": {
            "tags": [
                "Beleuchtung"
            ]
        }
    },
    "effects": [],
    "folder": "GE77890307091706",
    "_key": "!items!ZA62224301812336"
}
