{
    "_id": "ZI25451821415235",
    "name": "Zinsspindel",
    "type": "inventoryItem",
    "img": "systems/tde5e/assets/defaultItems/inventory_item.svg",
    "system": {
        "cid": "ZINSSPINDEL",
        "light": {
            "level": 0,
            "falloff": 0
        },
        "price": 60000,
        "quantity": 1,
        "sources": [
            "RUSTKAMMER_DER_FLUSSLANDE"
        ],
        "weight": 160,
        "flavor": "",
        "notes": "",
        "gmNotes": "",
        "rarity": "common",
        "traits": [
            "profane"
        ],
        "region": {
            "codes": [
                "common"
            ]
        },
        "rule": "",
        "parents": [],
        "container": "DEFAULT"
    },
    "flags": {
        "tde5e": {
            "tags": [
                "Genussmittel und Luxus"
            ]
        }
    },
    "effects": [],
    "folder": "GE77890307091706",
    "_key": "!items!ZI25451821415235"
}
