{
    "_id": "FI49243782439243",
    "name": "Fixiert",
    "type": "state",
    "img": "systems/tde5e/assets/states/bound.svg",
    "system": {
        "cid": "FIXIERT",
        "isDefault": true,
        "sources": [
            "REGELWERK"
        ],
        "notes": "",
        "gmNotes": "",
        "flavor": "",
        "active": false,
        "rule": "Wenn eine Person am Boden festklebt oder von Ranken oder Fallen an Ort und Stelle gehalten wird, gilt sie als <em>Fixiert</em>. Ihre GS fällt auf 0.",
        "parents": []
    },
    "effects": [],
    "folder": null,
    "_key": "!items!FI49243782439243"
}
