{
    "_id": "KI18318018615234",
    "name": "Kind der Finsternis",
    "type": "state",
    "img": "systems/tde5e/assets/states/child_of_the_dark.svg",
    "system": {
        "cid": "KIND_DER_FINSTERNIS",
        "isDefault": false,
        "sources": [
            "AVENTURISCHES_BESTIARIUM_2"
        ],
        "notes": "",
        "gmNotes": "",
        "flavor": "",
        "active": false,
        "rule": "<ul><br /><li>Ein Kind der Finsternis zählt als Untoter (siehe <strong>Regelwerk</strong> Seite <strong>255</strong>).</li><br /><li>Es ist vom <em>Ewigen Fluch der Götter</em> (siehe <strong>Aventurisches Bestiarium II</strong> Seite <strong>122</strong>) betroffen.</li><br /></ul><br /><br /><p></p><figure><br />  <figcaption>Werte:</figcaption><br />  <dl><br />    <dt>MU</dt><br />    <dd>+5</dd><br />    <dt>CH</dt><br />    <dd>+5</dd><br />    <dt>GE</dt><br />    <dd>+5</dd><br />    <dt>KO</dt><br />    <dd>+5</dd><br />    <dt>KK</dt><br />    <dd>+5</dd><br />    <dt>GS</dt><br />    <dd>+2</dd><br />    <dt>SK</dt><br />    <dd>+2 (die volle SK ist nun eine Erschwernis für alle Zauber, die gegen das Kind der Finsternis wirken, es sei denn, der Vampir ist ein freiwilliges Ziel)</dd><br />    <dt>TP</dt><br />    <dd>+1 (bei waffenlosen Angriffen durch Raufen)</dd><br />    <dt>RS</dt><br />    <dd>+5 (natürlicher RS, kombinierbar mit Rüstungen)</dd><br />  </dl><br /></figure><br /><figure><br />  <figcaption>Talent-Boni:</figcaption><br />  FW Kraftakt +2, FW Verbergen +2<br /></figure><br /><figure><br />  <figcaption>Zusätzliche Vorteile (sofern nicht bereits vorhanden):</figcaption><br />  Altersresistenz, Dämmerungssicht, Herausragender Sinn (Geruch und Gehör), Immunität gegen alle Krankheiten, Immunität gegen alle Gifte<br /></figure><br /><figure><figcaption>Zusätzliche Nachteile:</figcaption>Lichtempfindlich, Schlechte Eigenschaft Jähzorn oder Rachsucht (falls schon vorhanden, ist die Probe auf <em>Willenskraft</em> um die Schlechte Eigenschaft zu unterdrücken um 1 erschwert), Stigma (kein Schatten und kein Spiegelbild)</figure><br /><figure><br />  <figcaption>Magische Begabung:</figcaption><br />  - Ein Kind der Finsternis kann sich mit AP den Vorteil <em>Zauberer</em> holen. Welche Tradition am besten passt, entscheidet der Meister.<br />  - Ein Kind der Finsternis ist durch Zauber und Liturgien als magisches Wesen erkennbar.<br /></figure><br /><figure><br />  <figcaption>Vampirische Sonderfertigkeiten:</figcaption><br />  - Ein Kind der Finsternis hat Zugriff auf eine Reihe von speziellen Sonderfertigkeiten, die Vampirische Gaben (siehe <strong>Aventurisches Bestiarium II</strong> Seite <strong>120</strong>) genannt werden. Er muss dafür jeweils AP ausgeben. Zu Beginn seiner Erhebung kann er bis zu 20 AP investieren. Wie schnell er danach weitere Vampirische Gaben erlangen kann, entscheidet der Meister.<br />  - Alle Kinder der Finsternis verfügen bei ihrer Erhebung kostenlos über die Sikaryan-Raub-Sonderfertigkeiten <em>Blutdurst der Fledermaus</em> (siehe <strong>Aventurisches Bestiarium II</strong> Seite <strong>120</strong>), können diese aber gegen eine andere Sikaryan-Raub-Sonderfertigkeit tauschen.<br /></figure><br /><figure><br />  <figcaption>Regeneration:</figcaption><br />  - Jede KR regeneriert ein Kind der Finsternis 2W6 LeP (bis zu seinem Maximum an LeP).<br />  - Ausgenommen hiervon sind Verletzungen, die durch die besonderen Verwundbarkeiten des Vampirs zustande gekommen sind. Durch diese Ursachen erlittene SP heilen regulär über Regenerationsphasen, Zauber usw.<br />  Sollten die LeP unter den negativen Wert in KO fallen, zerfällt ein Kind der Finsternis zu Staub. Zwischen 0 LeP und dem negativen Wert in KO, bleibt die Regenerationsfähigkeit erhalten.<br /></figure><br /><figure><br />  <figcaption>Verletzbarkeit:</figcaption><br />  - Profane, magische und geweihte Waffen richten nur halben Schaden an. Die Trefferpunkte werden ausgewürfelt, dann halbiert, anschließend der Rüstungsschutz abgezogen.<br /></figure><br /><figure><br />  <figcaption>Besonderheiten:</figcaption><br />  - Ein Kind der Finsternis braucht zum Leben keine Nahrung, kein Wasser und keine Luft.<br />  - Sie können keine Nachkommen zeugen oder empfangen.<br />  - Domestizierte Tiere und Vertraute fühlen sich in der Nähe eines Kinds der Finsternis unwohl. In einem Radius von 13 Schritt um den Vampir verhalten sie sich unruhig, wiehern, winseln oder versuchen sich zu verstecken.<br />  - Ein Kind der Finsternis ist nicht den allgemeinen Untoten-Regeln unterworfen, es sei denn, es ist explizit erwähnt.<br />  Geweihte, die zu einem Kind der Finsternis werden, verlieren den Vorteil <em>Geweihter</em>, bekommen aber die AP des Vorteils wieder gutgeschrieben. Ebenso verlieren sie ihr gesamtes Karma und können den Vorteil Geweihter nicht mehr erhalten. Geweihte des Namenlosen sind davon nicht betroffen und können weiterhin ihren Vorteil nutzen und Karmaenergie einsetzen. Ein Kind der Nacht kann im späteren Verlauf seiner Existenz ein Geweihter des Namenlosen werden.<br />  Zauberer verlieren nicht ihren Vorteil <em>Zauberer</em> und können weiterhin als Kind der Nacht Magie wirken.<br /></figure><br /><figure><br />  <figcaption>Sikaryan-Einbußen:</figcaption><br />  - Jede Woche, den das Kind der Finsternis aktiv ist, erleidet es 1 Stufe Sikaryan-Verlust. Es muss wie jeder Kulturschaffende täglich schlafen.<br />  - Ein Kind der Finsternis kann sich lange schlafen legen und so die Sikaryan-Einbußen für Monate hinauszögern. Ein lange schlafendes Kind der Finsternis verliert alle 3 Monate 1 Stufe <em>Sikaryan-Verlust</em> und kann entscheiden, nach jeweils 3 Monaten aufzuwachen.<br />  - Ein Kind der Finsternis kann sich aber auch entscheiden, in einen Tiefschlaf zu fallen und so die Sikaryan-Einbußen für Jahre hinauszögern. Ein Kind der Finsternis in Tiefschlaf verliert alle 12 Monate 1 Stufe <em>Sikaryan-Verlust</em> und kann entscheiden, nach jeweils 12 Monaten aufzuwachen.<br />  Gleich in welchen Schlafzustand sich ein Kind der Finsternis versetzt hat, es wacht auf, wenn es Stufe III von <em>Sikaryan-Verlust</em> erreicht hat oder sich ein Kulturschaffender bis auf 13 Schritt seinem Schlafplatz nähert.<br />  - Bei Stufe IV verliert der Vampir den Status <em>Kind der Finsternis</em> und erhält stattdessen den Status <em>Minderer Vampir</em> (siehe <strong>Aventurisches Bestiarium II</strong> Seite <strong>120</strong>).<br /></figure>",
        "parents": []
    },
    "effects": [],
    "folder": null,
    "_key": "!items!KI18318018615234"
}
