{
    "_id": "ST20024286992271",
    "name": "Stumm",
    "type": "state",
    "img": "systems/tde5e/assets/states/mute.svg",
    "system": {
        "cid": "STUMM",
        "isDefault": true,
        "sources": [
            "REGELWERK"
        ],
        "notes": "",
        "gmNotes": "",
        "flavor": "",
        "active": false,
        "rule": "Die Person kann nicht sprechen, was die Kommunikation mit ihr deutlich einschränkt. Personen mit diesem Status können Probleme bei Zaubern haben.",
        "parents": []
    },
    "effects": [],
    "folder": null,
    "_key": "!items!ST20024286992271"
}
