{
    "_id": "TA24725415965165",
    "name": "Taub",
    "type": "state",
    "img": "systems/tde5e/assets/states/deaf.svg",
    "system": {
        "cid": "TAUB",
        "isDefault": true,
        "sources": [
            "REGELWERK"
        ],
        "notes": "",
        "gmNotes": "",
        "flavor": "",
        "active": false,
        "rule": "Die Person kann nichts hören, was die Kommunikation mit ihr deutlich einschränkt. Personen mit diesem Status können keine Proben auf <em>Sinnesschärfe</em> ablegen, die sich nur auf den Hörsinn beziehen. Proben auf <em>Sinnesschärfe (Hinterhalte entdecken)</em> sind um 3 erschwert.",
        "parents": []
    },
    "effects": [],
    "folder": null,
    "_key": "!items!TA24725415965165"
}
