{
    "_id": "SC17321712817524",
    "name": "Scharlatanische Zauberkugel",
    "type": "Item",
    "sorting": "a",
    "folder": "TR64736261821523",
    "sort": 0,
    "color": "#000000",
    "_key": "!folders!SC17321712817524"
}
