{
    "_id": "AH17023945891721",
    "name": "Ahnenzeichen",
    "type": "Item",
    "sorting": "a",
    "folder": "ZA00980478853696",
    "sort": 0,
    "color": "#000000",
    "_key": "!folders!AH17023945891721"
}
