{
    "_id": "GI21114247636140",
    "name": "Gildenmagischer Zauberstab",
    "type": "Item",
    "sorting": "a",
    "folder": "TR64736261821523",
    "sort": 0,
    "color": "#000000",
    "_key": "!folders!GI21114247636140"
}
