{
    "_id": "AL21288187214213",
    "name": "Alhanische Zauberzeichen",
    "type": "Item",
    "sorting": "a",
    "folder": "ZA00980478853696",
    "sort": 0,
    "color": "#000000",
    "_key": "!folders!AL21288187214213"
}
