{
    "_id": "SP21814224631382",
    "name": "Verzerrte Elfenlieder",
    "type": "Item",
    "sorting": "a",
    "folder": "ZA00980478853696",
    "sort": 0,
    "color": "#000000",
    "_key": "!folders!SP21814224631382"
}
