{
    "_id": "GO33132696188521",
    "name": "Goblinrituale",
    "type": "Item",
    "sorting": "a",
    "folder": "ZA00980478853696",
    "sort": 0,
    "color": "#000000",
    "_key": "!folders!GO33132696188521"
}
