{
    "_id": "PA20111051426896",
    "name": "Passive Sonderfertigkeiten",
    "type": "Item",
    "sorting": "a",
    "folder": null,
    "sort": 0,
    "color": "#000000",
    "_key": "!folders!PA20111051426896"
}
