{
    "_id": "SP45861142482726",
    "name": "Zaubertricks",
    "type": "Item",
    "sorting": "a",
    "folder": "ZA00980478853696",
    "sort": 0,
    "color": "#000000",
    "_key": "!folders!SP45861142482726"
}
