{
    "_id": "TR64736261821523",
    "name": "Traditionsartefakte",
    "type": "Item",
    "sorting": "a",
    "folder": null,
    "sort": 0,
    "color": "#000000",
    "_key": "!folders!TR64736261821523"
}
