{
    "_id": "SP86247228901671",
    "name": "Animistenkräfte",
    "type": "Item",
    "sorting": "a",
    "folder": "ZA00980478853696",
    "sort": 0,
    "color": "#000000",
    "_key": "!folders!SP86247228901671"
}
