{
    "_id": "AB70142662116660",
    "name": "Abnehmbare Magierkugel",
    "type": "magicalAbility",
    "img": "systems/tde5e/assets/defaultItems/special_ability_magical.svg",
    "system": {
        "cid": "ABNEHMBARE_MAGIERKUGEL",
        "cost": {
            "text": "",
            "constant": 0,
            "recurring": null
        },
        "group": "magical",
        "property": "",
        "purchase": {
            "cost": [
                5
            ],
            "description": "5 Abenteuerpunkte",
            "levels": 1,
            "maxTimeBuyable": 1
        },
        "requirementText": "SF Tradition (Gildenmagier), SF Bindung des Stabes, SF Bindung der Magierkugel",
        "sources": [
            "AVENTURISCHE_MAGIE_2"
        ],
        "styleAbilities": [],
        "variant": {
            "categories": [],
            "input": false,
            "available": [],
            "level": 1,
            "selected": null
        },
        "flavor": "",
        "notes": "",
        "gmNotes": "",
        "parents": [
            "Compendium.tde5e.magic.Item.BI10670202777232",
            "Compendium.tde5e.magic.Item.BI19021382232232"
        ],
        "rule": "<p>Eine in einen Magierstab eingebaute Magierkugel kann in 1 Aktion wieder aus dem Stab getrennt werden. Soll die Magierkugel wieder mit dem Stab zusammengefügt werden, ist dazu ebenfalls 1 Aktion notwendig.</p>"
    },
    "effects": [],
    "folder": "PA20111051426896",
    "_key": "!items!AB70142662116660"
}
