{
    "_id": "AC19441864135767",
    "name": "Accuratum",
    "type": "spell",
    "img": "systems/tde5e/assets/defaultItems/spell.svg",
    "system": {
        "castingTime": "5 M",
        "castingTimeLong": "5 Minuten",
        "check": {
            "resistedBySpirit": false,
            "resistedByToughness": false,
            "resistanceIsHalfed": false,
            "attributes": [
                "sagacity",
                "charisma",
                "dexterity"
            ]
        },
        "checkedSkill": null,
        "cid": "ACCURATUM",
        "cost": {
            "text": "4 AsP",
            "textLong": "4 AsP",
            "constant": 4,
            "recurring": null
        },
        "duration": "QS x 3 ST",
        "durationLong": "QS x 3 Stunden",
        "enhancements": [
            {
                "name": "Stofftausch",
                "effect": "Der Zauberer kann das Material eines Stofffetzens mit der Kleidung tauschen. Dadurch nimmt die Kleidung alle Eigenschaften des Fetzens an und umgekehrt. Nach dem Ende der Wirkungsdauer verwandelt sich beides zurück.",
                "skillPoints": 8,
                "owned": false
            },
            {
                "name": "Kulturelle Anpassung",
                "effect": "Der Zauberer erschafft zum Anlass passende Kleidung. Er erhält eine Erleichterung von 1 wahlweise auf @UUID[Compendium.tde5e.skills.Item.GA21320742225217]{Gaukeleien}, @UUID[Compendium.tde5e.skills.Item.ET92146421911932]{Etikette} oder @UUID[Compendium.tde5e.skills.Item.GA11115740140204]{Gassenwissen}.",
                "skillPoints": 11,
                "owned": false
            },
            {
                "name": "Reparatur",
                "effect": "Kleinere Schäden an Kleidung oder Stoffrüstungen werden permanent repariert.",
                "skillPoints": 14,
                "owned": false
            }
        ],
        "group": "ritual",
        "modifications": {
            "canModCastingTime": true,
            "canModCost": true,
            "canModRange": true
        },
        "property": "object",
        "range": "Berührung",
        "rangeLong": "Berührung",
        "requirementText": "keine",
        "sources": [
            "BOSPARANS_KATAKOMBEN",
            "LIBER_EXTENSIONUM"
        ],
        "subTraditions": "",
        "targetCategory": "Objekte",
        "traditions": {
            "all": false,
            "values": [
                "Compendium.tde5e.magic.Item.TR18517324589268"
            ]
        },
        "improvement": {
            "column": "A",
            "value": 0
        },
        "notes": "",
        "gmNotes": "",
        "flavor": "",
        "rule": "Ein Satz Kleidung wird nach Wünschen des Zauberers abgeändert. Dies betrifft Schnitt und Farbe, nicht jedoch Menge und Art des Materials. Auf diesem Wege sind sowohl das simple Flicken zerrissener Hosen wie auch die Umwandlung eines Stoffballens oder einer schlichten Kutte in eine deutlich prächtigere Robe möglich. Die Kleidung kann nach Meisterentscheid Erschwernisse bei Gesellschaftstalenten ausgleichen, beispielsweise bei @UUID[Compendium.tde5e.skills.Item.ET92146421911932]{Etikette (Benehmen)} oder @UUID[Compendium.tde5e.skills.Item.BE22019221941182]{Betören (Aufhübschen)}.",
        "parents": []
    },
    "effects": [],
    "folder": "SP18396136219154",
    "_key": "!items!AC19441864135767"
}
