{
    "_id": "AD23118314020246",
    "name": "Adaption",
    "type": "magicalAbility",
    "img": "systems/tde5e/assets/defaultItems/special_ability_magical.svg",
    "system": {
        "cid": "ADAPTION_ZAUBER",
        "cost": {
            "text": "",
            "constant": 0,
            "recurring": null
        },
        "group": "magical",
        "property": "",
        "purchase": {
            "cost": [
                5,
                10,
                15,
                20
            ],
            "description": "A-/B-/C-/D-Zauber: 5/10/15/20 Abenteuerpunkte",
            "levels": 1,
            "maxTimeBuyable": 2
        },
        "requirementText": "Vorteil Zauberer, FW des adaptierten Zaubers 10+",
        "sources": [
            "AVENTURISCHE_MAGIE_1"
        ],
        "styleAbilities": [],
        "variant": {
            "categories": [
                {
                    "scope": "item",
                    "type": "spell",
                    "groups": [
                        "incantation",
                        "ritual"
                    ]
                }
            ],
            "input": false,
            "available": [],
            "level": 1,
            "selected": null
        },
        "flavor": "",
        "notes": "",
        "gmNotes": "",
        "rule": "Der Zauberer hat sich an einen Fremdzauber so gewöhnt, dass dessen Wirken nur noch um 1 statt um 2 erschwert ist. Maximal können zwei Zauber mit dieser Sonderfertigkeit ausgestattet werden. Für jeden Zauber muss die Sonderfertig einzeln erworben werden.",
        "parents": []
    },
    "effects": [],
    "folder": "PA20111051426896",
    "_key": "!items!AD23118314020246"
}
