{
    "_id": "AL60198786423232",
    "name": "Alchimieanalytiker",
    "type": "magicalAbility",
    "img": "systems/tde5e/assets/defaultItems/special_ability_magical.svg",
    "system": {
        "cid": "ALCHIMIEANALYTIKER",
        "cost": {
            "text": "",
            "constant": 0,
            "recurring": null
        },
        "group": "spellStyleExtended",
        "property": "",
        "purchase": {
            "cost": [
                5
            ],
            "description": "5 Abenteuerpunkte",
            "levels": 1,
            "maxTimeBuyable": 1
        },
        "requirementText": "Alchimie 8",
        "sources": [
            "AVENTURISCHE_MAGIE_2"
        ],
        "styleAbilities": [],
        "variant": {
            "categories": [],
            "input": false,
            "available": [],
            "level": 1,
            "selected": null
        },
        "flavor": "",
        "notes": "",
        "gmNotes": "",
        "rule": "Bei der Analyse von Elixieren durch @UUID[Compendium.tde5e.skills.Item.AL25553758184166]{Alchimie} kann, wie beim Brauen alchimistischer Elixiere (siehe <strong>Regelwerk</strong> Seite <strong>271</strong>), für je 4 AsP eine Erleichterung von 1 eingerechnet werden. Maximal lässt sich so eine Erleichterung von 2 erzielen.",
        "parents": []
    },
    "effects": [],
    "folder": "ZA17820398219817",
    "_key": "!items!AL60198786423232"
}
