{
    "_id": "AL12195371161692",
    "name": "Allegorische Analyse",
    "type": "artifactAbility",
    "img": "systems/tde5e/assets/defaultItems/artifact_ability.svg",
    "system": {
        "aspects": [],
        "binding": {
            "cost": "",
            "volume": "3 Punkte"
        },
        "brewType": null,
        "cid": "ALLEGORISCHE_ANALYSE",
        "cost": {
            "text": "1 AsP",
            "constant": 1,
            "recurring": null
        },
        "group": "alchemistBowl",
        "property": "clairvoyance",
        "purchase": {
            "cost": [
                5
            ],
            "description": "5 Abenteuerpunkte",
            "levels": 1,
            "maxTimeBuyable": 1
        },
        "requirementText": "keine",
        "sources": [
            "BOSPARANS_KATAKOMBEN",
            "LIBER_EXTENSIONUM"
        ],
        "tradition": "Compendium.tde5e.magic.Item.TR21232425518411",
        "variant": {
            "categories": [],
            "input": false,
            "level": 1,
            "selected": null,
            "available": null
        },
        "flavor": "",
        "notes": "",
        "gmNotes": "",
        "parents": [
            "Compendium.tde5e.magic.Item.BI22131281721611"
        ],
        "rule": "<p>Mit dieser Sonderfertigkeit kann ein Zauberalchimist bei Elixieren und Giften deren Stufe bestimmen. Bei Elixieren erhält er Informationen über die QS, bei Giften über deren Giftstufe. Durch den Einsatz dieser SF kann es aber geschehen, dass der Gegenstand der Untersuchung eine Stufe verliert. Der Zauberalchimist würfelt mit 1W6. Ist das Ergebnis eine 1, wird ein Stufenpunkt des Elixiers oder Giftes verbraucht.</p>"
    },
    "effects": [],
    "folder": "ZA20922218743141",
    "_key": "!items!AL12195371161692"
}
