{
    "_id": "AL22122111032161",
    "name": "Alterslosigkeit",
    "type": "magicalAbility",
    "img": "systems/tde5e/assets/defaultItems/special_ability_magical.svg",
    "system": {
        "cid": "ALTERSLOSIGKEIT",
        "cost": {
            "text": "",
            "constant": 0,
            "recurring": null
        },
        "group": "pactGift",
        "property": "",
        "purchase": {
            "cost": [
                10
            ],
            "description": "10 Abenteuerpunkte",
            "levels": 1,
            "maxTimeBuyable": 1
        },
        "requirementText": "Dämonenpakt Stufe 4",
        "sources": [
            "AVENTURISCHE_MAGIE_3"
        ],
        "styleAbilities": [],
        "variant": {
            "categories": [],
            "input": false,
            "available": [],
            "level": 1,
            "selected": null
        },
        "flavor": "",
        "notes": "",
        "gmNotes": "",
        "rule": "Der Paktierer altert nicht mehr. Sein Körper bleibt in dem Zustand, in dem er sich befand, als er das Paktgeschenk erhielt. Die Wirkungsdauer der Alterslosigkeit ist permanent und erfordert keine Handlungen. Diese Fähigkeit sorgt dafür, dass der Paktierer 1 permanente Stufe @UUID[Compendium.tde5e.conditions.Item.DA21528191859282]{Dämonische Auszehrung} erhält.",
        "parents": []
    },
    "effects": [],
    "folder": "DA42487918618480",
    "_key": "!items!AL22122111032161"
}
