{
    "_id": "AN11552161442053",
    "name": "Ängste mehren",
    "type": "spell",
    "img": "systems/tde5e/assets/defaultItems/spell.svg",
    "system": {
        "castingTime": "1 Akt",
        "castingTimeLong": "1 Aktion",
        "check": {
            "resistedBySpirit": true,
            "resistedByToughness": false,
            "resistanceIsHalfed": false,
            "attributes": [
                "courage",
                "intuition",
                "charisma"
            ]
        },
        "checkedSkill": null,
        "cid": "ANGSTE_MEHREN",
        "cost": {
            "text": "14 AsP",
            "textLong": "14 AsP",
            "constant": 14,
            "recurring": null
        },
        "duration": "QS x 3 T",
        "durationLong": "QS x 3 Tage",
        "enhancements": [],
        "group": "curse",
        "modifications": {
            "canModCastingTime": false,
            "canModCost": false,
            "canModRange": false
        },
        "property": "influence",
        "range": "64 m",
        "rangeLong": "64 Schritt",
        "requirementText": "keine",
        "sources": [
            "BOSPARANS_KATAKOMBEN",
            "LIBER_EXTENSIONUM"
        ],
        "subTraditions": "",
        "targetCategory": "",
        "traditions": {
            "all": false,
            "values": [
                "Compendium.tde5e.magic.Item.TR60602241216130"
            ]
        },
        "improvement": {
            "column": "B",
            "value": 0
        },
        "notes": "",
        "gmNotes": "",
        "flavor": "",
        "rule": "Die Hexe kann mit diesem Fluch ihrem Opfer den Nachteil UUID[Compendium.tde5e.advantagesDisadvantages.Item.AN22963184228632]{Angst vor ... I} anhexen. Sie kann dabei wählen, wovor das Opfer Angst haben soll. Sollte das Opfer bereits über diese Angst verfügen, erhöht sich die Stufe des Nachteils um 1. Bei einer Stufe, die über III liegt, erhält das Opfer bis zum Ende der Wirkung den Status @UUID[Compendium.tde5e.states.Item.HA24618251831622]{Handlungsunfähig}.",
        "parents": []
    },
    "effects": [],
    "folder": "SP58654619110814",
    "_key": "!items!AN11552161442053"
}
