{
    "_id": "AP42531841831282",
    "name": "Applicatus",
    "type": "spell",
    "img": "systems/tde5e/assets/defaultItems/spell.svg",
    "system": {
        "castingTime": "5 M",
        "castingTimeLong": "5 Minuten",
        "check": {
            "resistedBySpirit": false,
            "resistedByToughness": false,
            "resistanceIsHalfed": false,
            "attributes": [
                "sagacity",
                "intuition",
                "dexterity"
            ]
        },
        "checkedSkill": null,
        "cid": "APPLICATUS",
        "cost": {
            "text": "8 AsP + fixierter Zauber",
            "textLong": "8 AsP + Kosten des fixierten Zaubers",
            "constant": 8,
            "recurring": null
        },
        "duration": "max QS x 5 ST",
        "durationLong": "maximal QS x 5 Stunden",
        "enhancements": [
            {
                "name": "Längere Wirkungsdauer",
                "effect": "Die Wirkungsdauer kann auf bis zu QS x 5 Tage ausgeweitet werden.",
                "skillPoints": 8,
                "owned": false
            },
            {
                "name": "Zauberstapel",
                "effect": "E in weiterer Zauber kann fixiert werden. Dies e Erweiterung kann bis zu 3 Mal angewendet werden. Die Zauber müssen in der selben Reihenfolge ausgelöst werden, mit der sie auf das Objekt gesprochen worden sind.",
                "skillPoints": 11,
                "owned": false
            },
            {
                "name": "Komplexer Auslöser",
                "effect": "Beim Binden eines Zaubers kann eine einfache Bedingung (nach Meisterentscheid) formuliert werden, bei dessen Eintreten der Zauber ohne Zutun des Zauberers ausgelöst wird.",
                "skillPoints": 14,
                "owned": false
            }
        ],
        "group": "ritual",
        "modifications": {
            "canModCastingTime": true,
            "canModCost": true,
            "canModRange": true
        },
        "property": "object",
        "range": "Berührung",
        "rangeLong": "Berührung",
        "requirementText": "keine",
        "sources": [
            "BOSPARANS_KATAKOMBEN",
            "LIBER_EXTENSIONUM"
        ],
        "subTraditions": "",
        "targetCategory": "profane Objekte",
        "traditions": {
            "all": true,
            "values": []
        },
        "improvement": {
            "column": "B",
            "value": 0
        },
        "notes": "",
        "gmNotes": "",
        "flavor": "",
        "rule": "Mithilfe dieses Zauber s kann man einen Zauberspruch (kein Ritual) an ein Objekt binden, sodass er einmalig ausgelöst werden kann. Der Zauberer muss das Objekt berühren und ein vorher festgelegtes Wort aussprechen, um den Zauber zu aktivieren. Ansonsten gelten die Regeln zum Auslösen von Zauberspeichern.",
        "parents": []
    },
    "effects": [],
    "folder": "SP18396136219154",
    "_key": "!items!AP42531841831282"
}
