{
    "_id": "AR21226691431626",
    "name": "Archofaxius",
    "type": "spell",
    "img": "systems/tde5e/assets/defaultItems/spell.svg",
    "system": {
        "castingTime": "2 Akt",
        "castingTimeLong": "2 Aktion",
        "check": {
            "resistedBySpirit": false,
            "resistedByToughness": false,
            "resistanceIsHalfed": false,
            "attributes": [
                "courage",
                "sagacity",
                "charisma"
            ]
        },
        "cid": "ARCHOFAXIUS",
        "cost": {
            "text": "8 AsP",
            "textLong": "8 AsP",
            "constant": 8,
            "recurring": null
        },
        "duration": "sofort",
        "durationLong": "sofort",
        "enhancements": [
            {
                "name": "Intensiver Strahl",
                "effect": "Der Wertebereich, bei dem das Ziel den Zustanderhält, ist um 1 erhöht (1-4 auf 1W6). Diese Erweiterung kann bis zu 3 Mal angewendet werden.",
                "skillPoints": 8,
                "owned": false
            },
            {
                "name": "Windender Strahl",
                "effect": "Wird auf diesen Zauber eine Verteidigung als Reaktion eingesetzt, sinkt die Qualität dieser um 1. Diese Erweiterung kann bis zu 3 Mal angewendet werden.",
                "skillPoints": 11,
                "owned": false
            },
            {
                "name": "Zwei Ziele",
                "effect": "Der Zauberer kann bis zu 2 Ziele gleichzeitig treffen. Die AsP-Kosten des Zaubers verdoppeln sich.",
                "skillPoints": 14,
                "owned": false
            }
        ],
        "group": "incantation",
        "modifications": {
            "canModCastingTime": true,
            "canModCost": false,
            "canModRange": true
        },
        "property": "elemental",
        "range": "16 m",
        "rangeLong": "16 Schritt",
        "requirementText": "keine",
        "sources": [
            "BOSPARANS_KATAKOMBEN"
        ],
        "targetCategory": "alle",
        "traditions": {
            "all": false,
            "values": [
                "Compendium.tde5e.magic.Item.TR10415123625209",
                "Compendium.tde5e.magic.Item.TR93186147562399",
                "Compendium.tde5e.magic.Item.TR20562116246223",
                "Compendium.tde5e.magic.Item.TR98672441157616"
            ]
        },
        "improvement": {
            "column": "C",
            "value": 0
        },
        "notes": "",
        "gmNotes": "",
        "flavor": "",
        "checkedSkill": null,
        "rule": "Aus den Fingern des Zaubernden schießt ein Erzstrahl, der in gerader Linie sein Ziel trifft. Das Zielen, Schießen und Treffen ist in der Zauberdauer inbegriffen. Das getroffene Ziel erleidet 2W6 + (QS x 2) Trefferpunkte Schaden. Der Erzstrahl zählt als Fernkampfangriff mit einer Schusswaffe und kann entsprechend geblockt werden, und auch ein Ausweichen ist möglich. An Schilden erzeugt er Strukturschaden, wenn er auf sie trifft. Der Strahl trifft automatisch, wenn man sich nicht verteidigt. Trifft der Erzstrahl sein Ziel, werden die TP durch den RS des Ziels vermindert. Ziele erhalten bei 1-3 auf 1W6 den Zustand @UUID[Compendium.tde5e.conditions.Item.BE46206219376213]{belastung}. Der Zustand endet nach 5 Minuten.",
        "parents": []
    },
    "effects": [],
    "folder": "SP15718021520213",
    "_key": "!items!AR21226691431626"
}
