{
    "_id": "AR15246351826422",
    "name": "Armatrutz",
    "type": "spell",
    "img": "systems/tde5e/assets/defaultItems/spell.svg",
    "system": {
        "castingTime": "1 Akt",
        "castingTimeLong": "1 Aktion",
        "check": {
            "resistedBySpirit": false,
            "resistedByToughness": false,
            "resistanceIsHalfed": false,
            "attributes": [
                "sagacity",
                "intuition",
                "dexterity"
            ]
        },
        "checkedSkill": null,
        "cid": "ARMATRUTZ",
        "cost": {
            "text": "4 / 1/1/1 RS",
            "textLong": "4 AsP pro 1/1/1 RS",
            "constant": 0,
            "recurring": {
                "interval": 4,
                "unit": "1/1/1 RS"
            }
        },
        "duration": "QS x 3 M",
        "durationLong": "QS x 3 Minuten",
        "enhancements": [
            {
                "name": "Reichweite Berührung",
                "effect": "Als Reichweite gilt Berührung. Der Zauberspruch kann nur auf Kulturschaffende übertragen werden. Die Kosten steigen dabei um 4 AsP.",
                "skillPoints": 8,
                "owned": false
            },
            {
                "name": "Harte Haut",
                "effect": "Der Zauber kostet 2 AsP und gibt keinen Rüstschutz, verleiht aber Immunität gegen Insektenstiche, Messergras, Scherben etc. Mit Reichweite Berührung kostet diese Variante nur einen zusätzlichen AsP.",
                "skillPoints": 11,
                "owned": false
            },
            {
                "name": "Schutz gegen Elemente",
                "effect": "Der Rüstschutz des Zaubers wirkt auch gegen Feuer- und Säureschaden underhöht sich um 3 gegen Zauber mit dem Merkmal Elementar.",
                "skillPoints": 14,
                "owned": false
            }
        ],
        "group": "incantation",
        "modifications": {
            "canModCastingTime": true,
            "canModCost": false,
            "canModRange": true
        },
        "property": "healing",
        "range": "selbst",
        "rangeLong": "selbst",
        "requirementText": "keine",
        "sources": [
            "BOSPARANS_KATAKOMBEN",
            "LIBER_EXTENSIONUM"
        ],
        "subTraditions": "",
        "targetCategory": "Wesen",
        "traditions": {
            "all": true,
            "values": []
        },
        "improvement": {
            "column": "C",
            "value": 0
        },
        "notes": "",
        "gmNotes": "",
        "flavor": "",
        "rule": "Die Haut des Zaubernden verhärtet sich, ohne ihre Flexibilität zu verlieren. So erhält er einen natürlichen Rüstungsschutz, der sich auf getragene Rüstung aufaddiert, ohne die Belastung zu erhöhen. Die Höhe des gewünschten zusätzlichen Rüstungsschutzes muss der Zaubernde vor der Probe festlegen. Maximal ist ein zusätzlicher RS von 3 möglich.",
        "parents": []
    },
    "effects": [],
    "folder": "SP15718021520213",
    "_key": "!items!AR15246351826422"
}
