{
    "_id": "AS15910072233221",
    "name": "Astraltransfer",
    "type": "artifactAbility",
    "img": "systems/tde5e/assets/defaultItems/artifact_ability.svg",
    "system": {
        "aspects": [],
        "binding": {
            "cost": "",
            "volume": "3 Punkte"
        },
        "brewType": null,
        "cid": "ASTRALTRANSFER",
        "cost": {
            "text": "1 AsP + 3 AsP pro übertragenem Punkt",
            "constant": 1,
            "recurring": null
        },
        "group": "guildmageStaff",
        "property": "healing",
        "purchase": {
            "cost": [
                10
            ],
            "description": "10 Abenteuerpunkte",
            "levels": 1,
            "maxTimeBuyable": 1
        },
        "requirementText": "keine",
        "sources": [
            "BOSPARANS_KATAKOMBEN",
            "LIBER_EXTENSIONUM"
        ],
        "tradition": "Compendium.tde5e.magic.Item.TR20562116246223",
        "variant": {
            "categories": [],
            "input": false,
            "level": 1,
            "selected": null,
            "available": null
        },
        "flavor": "",
        "notes": "",
        "gmNotes": "",
        "parents": [
            "Compendium.tde5e.magic.Item.BI19021382232232"
        ],
        "rule": "<p>Der Zauberer kann einen anderen Zauberkundigen mit dem Stab berühren und ihm pro 2 KR 1 AsP übertragen. Die Übertragung erfolgt aus dem eigenen Vorrat des Zauberers im Verhältnis 3 zu 1.</p>"
    },
    "effects": [],
    "folder": "GI21114247636140",
    "_key": "!items!AS15910072233221"
}
