{
    "_id": "AS20214216165198",
    "name": "Astralmanifestation",
    "type": "cantrip",
    "img": "systems/tde5e/assets/defaultItems/spell.svg",
    "system": {
        "cid": "ASTRALMANIFESTATION",
        "duration": "1 M",
        "durationLong": "1 Minute",
        "property": "illusion",
        "range": "Berührung",
        "rangeLong": "Berührung",
        "requirementText": "keine",
        "sources": [
            "GRIMORUM_CANTIONES"
        ],
        "targetCategory": "Kulturschaffende",
        "traditions": {
            "all": false,
            "values": [
                "Compendium.tde5e.magic.Item.TR20562116246223",
                "Compendium.tde5e.magic.Item.TR18517324589268"
            ]
        },
        "notes": "",
        "gmNotes": "",
        "flavor": "",
        "rule": "Zwischen den Fingern einer oder beider Hände formen sich kleine Blitze, die den Anwender als Zauberer identifizieren. Die Meisterin kann festlegen, dass diese Machtdemonstration eine (Teil-)Erleichterung bei Proben auf Einschüchtern einbringt.",
        "parents": []
    },
    "effects": [],
    "folder": "SP45861142482726",
    "_key": "!items!AS20214216165198"
}
