{
    "_id": "AT22213425518214",
    "name": "Attributo (Konstitution)",
    "type": "spell",
    "img": "systems/tde5e/assets/defaultItems/spell.svg",
    "system": {
        "castingTime": "8 Akt",
        "castingTimeLong": "8 Aktionen",
        "check": {
            "resistedBySpirit": false,
            "resistedByToughness": false,
            "resistanceIsHalfed": false,
            "attributes": [
                "sagacity",
                "intuition",
                "constitution"
            ]
        },
        "cid": "ATTRIBUTO_KONSTITUTION",
        "cost": {
            "text": "8 + 4 / 10M",
            "textLong": "8 AsP (Aktivierung) + 4 AsP pro 10 Minuten",
            "constant": 8,
            "recurring": {
                "interval": 4,
                "unit": "10 Minuten"
            }
        },
        "duration": "aufrechterhaltend",
        "durationLong": "aufrechterhaltend",
        "enhancements": [
            {
                "name": "Zielkategorie Lebewesen",
                "effect": "Der Zauber umfasst auch die Zielkategorie Lebewesen. Es entstehen zusätzliche Kosten in Höhe von 2 AsP.",
                "skillPoints": 8,
                "owned": false
            },
            {
                "name": "Schnellsteigerung",
                "effect": "Die Eigenschaft steigt bei QS 1-3 um 1, bei QS 4-6 um 2. D er sekundäre Wert steigt hingegen gar nicht, dafür dauert der Zauber nur 1 Aktion.",
                "skillPoints": 11,
                "owned": false
            },
            {
                "name": "Fokussierung",
                "effect": "Anstelle des sekundären Effektes (QS 2, 4 und 6) wird das Attribut weiter erhöht (insgesamt um QS).",
                "skillPoints": 14,
                "owned": false
            }
        ],
        "group": "incantation",
        "modifications": {
            "canModCastingTime": true,
            "canModCost": true,
            "canModRange": true
        },
        "property": "healing",
        "range": "Berührung",
        "rangeLong": "Berührung",
        "requirementText": "keine",
        "sources": [
            "BOSPARANS_KATAKOMBEN"
        ],
        "targetCategory": "Kulturschaffende",
        "traditions": {
            "all": false,
            "values": [
                "Compendium.tde5e.magic.Item.TR37561943665255"
            ]
        },
        "improvement": {
            "column": "B",
            "value": 0
        },
        "notes": "",
        "gmNotes": "",
        "flavor": "",
        "checkedSkill": null,
        "rule": "Durch den Zauber wird das Ziel mutiger und entscheidungsfreudiger. Für jede erreichte QS bekommt der Verzauberte einen Bonus. Die Boni sind kumulativ, das heißt, bei QS 3 hat der Träger insgesamt KO +2 und ZK +1<br /><b>QS 1:</b> +1 KO <br /><b>QS 2:</b> +1 ZK <br /><b>QS 3:</b> +1 KO <br /><b>QS 4:</b> +1 ZK <br /><b>QS 5:</b> +1 KO <br /><b>QS 6:</b> +1 ZK.",
        "parents": []
    },
    "effects": [],
    "folder": "SP15718021520213",
    "_key": "!items!AT22213425518214"
}
