{
    "_id": "AU14747188150243",
    "name": "Auf Wasser gehen",
    "type": "magicalAbility",
    "img": "systems/tde5e/assets/defaultItems/special_ability_magical.svg",
    "system": {
        "cid": "AUF_WASSER_GEHEN",
        "cost": {
            "text": "",
            "constant": 0,
            "recurring": null
        },
        "group": "pactGift",
        "property": "",
        "purchase": {
            "cost": [
                12
            ],
            "description": "12 Abenteuerpunkte",
            "levels": 1,
            "maxTimeBuyable": 1
        },
        "requirementText": "Dämonenpakt Stufe 1 (Charyptoroth)",
        "sources": [
            "UNENDLICHKEIT_UND_TIEFENRAUSCH",
            "AVENTURISCHE_MAGIE_3"
        ],
        "styleAbilities": [],
        "variant": {
            "categories": [],
            "input": false,
            "available": [],
            "level": 1,
            "selected": null
        },
        "flavor": "",
        "notes": "",
        "gmNotes": "",
        "rule": "Unter dem Einfluss dieser Fähigkeit kann die Paktiererin für KdV Stunden über Wasser laufen, ganz so, als ob sie über Erde gehen würde. Bei starkem Wellengang kann der Meister entscheiden, dass die GS der Paktiererin sinkt. Der Einsatz dieser Fähigkeit verursacht 1 Stufe @UUID[Compendium.tde5e.conditions.Item.DA21528191859282]{Dämonische Auszehrung}.",
        "parents": []
    },
    "effects": [],
    "folder": "DA30309060912592",
    "_key": "!items!AU14747188150243"
}
