{
    "_id": "AU12411118311472",
    "name": "Aufladung",
    "type": "magicalAbility",
    "img": "systems/tde5e/assets/defaultItems/special_ability_magical.svg",
    "system": {
        "cid": "AUFLADUNG",
        "cost": {
            "text": "",
            "constant": 0,
            "recurring": null
        },
        "group": "spellStyleExtended",
        "property": "",
        "purchase": {
            "cost": [
                10
            ],
            "description": "10 Abenteuerpunkte",
            "levels": 1,
            "maxTimeBuyable": 1
        },
        "requirementText": "keine",
        "sources": [
            "AVENTURISCHE_MAGIE_1"
        ],
        "styleAbilities": [],
        "variant": {
            "categories": [],
            "input": false,
            "available": [],
            "level": 1,
            "selected": null
        },
        "flavor": "",
        "notes": "",
        "gmNotes": "",
        "rule": "Ein Zauber der Reichweite Berührung kann bis zu 5 Kampfrunden lang im Körper des Anwenders gespeichert werden. Das Ziel muss während der Zauberdauer nicht berührt werden. Die Auslösung erfolgt stattdessen, sobald ein zulässiges Ziel mit den Händen berührt wird. Soll dies im Kampf geschehen, muss dem Zauberer eine unverteidigte Raufen-AT +2 gelingen. Alternativ kann er hierzu auch die Kampftechnik seines Traditionsartefakts einsetzen (ebenfalls +2 auf AT).<br /><br />Der Zauber wird auch dann ausgelöst, wenn die Berührung der Hände von einem zulässigen Ziel ausgeht, kann also auch gegen den Willen des Zauberers geschehen.<br /><br />Erfolgt keine Berührung innerhalb von 5 Kampfrunden, verpufft der Zauber wirkungslos. Es ist einem Zauberer nicht möglich, mehr als einen Zauber gleichzeitig in sich aufzunehmen.",
        "parents": []
    },
    "effects": [],
    "folder": "ZA17820398219817",
    "_key": "!items!AU12411118311472"
}
