{
    "_id": "AU59144102571032",
    "name": "Auge des Limbus",
    "type": "spell",
    "img": "systems/tde5e/assets/defaultItems/spell.svg",
    "system": {
        "castingTime": "16 Akt",
        "castingTimeLong": "16 Aktionen",
        "check": {
            "resistedBySpirit": false,
            "resistedByToughness": false,
            "resistanceIsHalfed": false,
            "attributes": [
                "courage",
                "intuition",
                "strength"
            ]
        },
        "checkedSkill": null,
        "cid": "AUGE_DES_LIMBUS",
        "cost": {
            "text": "32 AsP",
            "textLong": "32 AsP",
            "constant": 32,
            "recurring": null
        },
        "duration": "1 + QS/2 KR",
        "durationLong": "1 + QS /2 Kampfrunden",
        "enhancements": [
            {
                "name": "Aus dem Limbus",
                "effect": "Der Zauber kann auch im Limbus gewirkt werden, sodass man stattdessen aus dem Limbus in die Dritte Sphäre gesogen wird.",
                "skillPoints": 8,
                "owned": false
            },
            {
                "name": "Stärkerer Sog",
                "effect": "Die @UUID[Compendium.tde5e.skills.Item.KR28631591116621]{Kraftakt} - Proben sind zusätzlich um 1 erschwert. Diese Erweiterung kann mehrfach angewendet werden.",
                "skillPoints": 11,
                "owned": false
            },
            {
                "name": "Größerer Radius",
                "effect": "Der Radius des Zaubers wird verdoppelt.",
                "skillPoints": 14,
                "owned": false
            }
        ],
        "group": "incantation",
        "modifications": {
            "canModCastingTime": true,
            "canModCost": false,
            "canModRange": true
        },
        "property": "spheres",
        "range": "32 m",
        "rangeLong": "32 Schritt",
        "requirementText": "keine",
        "sources": [
            "BOSPARANS_KATAKOMBEN",
            "LIBER_EXTENSIONUM"
        ],
        "subTraditions": "",
        "targetCategory": "Zone",
        "traditions": {
            "all": false,
            "values": [
                "Compendium.tde5e.magic.Item.TR20562116246223"
            ]
        },
        "improvement": {
            "column": "D",
            "value": 0
        },
        "notes": "",
        "gmNotes": "",
        "flavor": "",
        "rule": "Der Spruch erschafft einen Strudel in den angrenzenden Limbus. Der Zauberer muss einen Mittelpunkt innerhalb der Reichweite des Zauberspruchs benennen, um den herum sich die Zone mit einem Radius von QS Schritt ausbreitet. Alle darin befindlichen Wesen und unbefestigte Objekte werden in den Limbus gezogen. Jede KR muss eine Probe auf @UUID[Compendium.tde5e.skills.Item.KR28631591116621]{Kraftakt (Ziehen &amp; Zerren)} gelingen, ansonsten wird man 2 Schritt näher zum Zentrum gesogen. Sucht man Halt an einem befestigten Gegenstand, ist die @UUID[Compendium.tde5e.skills.Item.KR28631591116621]{Kraftakt} -Probe um 1 erleichtert. Wer bei der Öffnung des Strudels direkt im Zentrum steht, kann eine Probe auf @UUID[Compendium.tde5e.skills.Item.SI80193235230167]{Sinnesschärfe (Wahrnehmen)} erschwert um 3 ablegen. Bei Gelingen hat man sich intuitiv 2 Schritt vom Zentrum wegbewegt. Wer sich im Radius des Sogs befindet, kann sich nicht normal von dessen Zentrum wegbewegen.",
        "parents": []
    },
    "effects": [],
    "folder": "SP15718021520213",
    "_key": "!items!AU59144102571032"
}
