{
    "_id": "AU18495921872191",
    "name": "Auge der Fee",
    "type": "magicalAbility",
    "img": "systems/tde5e/assets/defaultItems/special_ability_magical.svg",
    "system": {
        "cid": "AUGE_DER_FEE",
        "cost": {
            "text": "",
            "constant": 0,
            "recurring": null
        },
        "group": "pactGift",
        "property": "",
        "purchase": {
            "cost": [
                8
            ],
            "description": "8 Abenteuerpunkte",
            "levels": 1,
            "maxTimeBuyable": 1
        },
        "requirementText": "Feenpakt Stufe I",
        "sources": [
            "DIE_SIEBENWINDKUSTE"
        ],
        "styleAbilities": [],
        "variant": {
            "categories": [],
            "input": false,
            "available": [],
            "level": 1,
            "selected": null
        },
        "flavor": "",
        "notes": "",
        "gmNotes": "",
        "rule": "Proben auf @UUID[Compendium.tde5e.skills.Item.SI80193235230167]{Sinnesschärfe}, um Illusionen zu durchschauen, sind für den Helden um 2 erleichtert zu durschauen. Die Wirkung hält 10 Minuten an. Danach erleidet der Held 1 Stufe @UUID[Compendium.tde5e.conditions.Item.BE91425088509929]{Betäubung}.",
        "parents": []
    },
    "effects": [],
    "folder": "FE49286526430609",
    "_key": "!items!AU18495921872191"
}
