{
    "_id": "AU48190202161298",
    "name": "Ausdruckstänzer",
    "type": "magicalAbility",
    "img": "systems/tde5e/assets/defaultItems/tradition_imprint.svg",
    "system": {
        "cid": "AUSDRUCKSTANZER",
        "group": "spellStyle",
        "requirementText": "Tradition (Zaubertänzer)",
        "sources": [
            "GLAUBE_MACHT_UND_HELDENMUT_DAS_DORNENREICH"
        ],
        "notes": "",
        "gmNotes": "",
        "flavor": "",
        "parents": [
            "Compendium.tde5e.magic.Item.TR24231133849412"
        ],
        "rule": "<p>Lässt ein Zaubertänzer seine Emotionen besonders frei in seine Tanzbewegungen einfließen, fällt es ihm damit leichter, ähnliche Gefühle bei seinem Publikum auszulösen. Sein impulsiver und wandlungsfähiger Stil ist recht anstrengend, wenn die Wirkung seiner Tänze eher nach innen gerichtet ist.</p><ul><li><strong>Gefühlvolle Darbietung:</strong> Für Proben auf Zaubertänze mit dem Merkmal Einfluss erhält der Tänzer eine Erleichterung von +1.</li><li><strong>Impulsiver Tanz:</strong> Magische Handlungen und Gewandzauber, die darauf abzielen, positive Effekte beim Tänzer selbst auszulösen, kosten 2 AsP zusätzlich.</li></ul>",
        "cost": {
            "text": "",
            "constant": 0,
            "recurring": null
        }
    },
    "effects": [],
    "folder": "PR19518380103617",
    "_key": "!items!AU48190202161298",
    "property": "",
    "purchase": {
        "cost": [
            10
        ],
        "description": "10 Abenteuerpunkte",
        "levels": 1,
        "maxTimeBuyable": 1
    },
    "styleAbilities": [],
    "variant": {
        "categories": [],
        "input": false,
        "available": [],
        "level": 1,
        "selected": null
    }
}
