{
    "_id": "BA80641095020261",
    "name": "Band und Fessel",
    "type": "spell",
    "img": "systems/tde5e/assets/defaultItems/spell.svg",
    "system": {
        "castingTime": "16 Akt",
        "castingTimeLong": "16 Aktionen",
        "check": {
            "resistedBySpirit": true,
            "resistedByToughness": false,
            "resistanceIsHalfed": false,
            "attributes": [
                "sagacity",
                "charisma",
                "strength"
            ]
        },
        "checkedSkill": null,
        "cid": "BAND_UND_FESSEL",
        "cost": {
            "text": "8 AsP",
            "textLong": "8 AsP",
            "constant": 8,
            "recurring": null
        },
        "duration": "QS x 2 ST",
        "durationLong": "QS x 2 Stunden",
        "enhancements": [
            {
                "name": "Mentale Fesseln",
                "effect": "Anstelle von @UUID[Compendium.tde5e.conditions.Item.SC72173204142222]{Schmerz} erhält das Ziel 1 Stufe @UUID[Compendium.tde5e.conditions.Item.VE73175641105112]{Verwirrung}.",
                "skillPoints": 8,
                "owned": false
            },
            {
                "name": "Paralysierender Schmerz",
                "effect": "Die GS der beeinflussten Ziele wird halbiert, sobald sie die erste Stufe @UUID[Compendium.tde5e.conditions.Item.SC72173204142222]{Schmerz} erleiden.",
                "skillPoints": 11,
                "owned": false
            },
            {
                "name": "Zielkategorie Zone",
                "effect": "Als Zielkategorie gilt Zone, deren Ränder beim Zaubern abgelaufen werden müssen und beliebige Formen bilden können. Alle Lebewesen, die sich nach dem erfolgreichen Wirken des Zaubers aus der Zone entfernen, erhalten die beschriebenen Effekte. Die Fläche muss innerhalb von 8 Schritt vom Startpunkt liegen. Die Kosten steigen um 8 AsP und sind nicht mehr modifizierbar.",
                "skillPoints": 14,
                "owned": false
            }
        ],
        "group": "incantation",
        "modifications": {
            "canModCastingTime": true,
            "canModCost": true,
            "canModRange": true
        },
        "property": "influence",
        "range": "8 m",
        "rangeLong": "8 Schritt",
        "requirementText": "keine",
        "sources": [
            "BOSPARANS_KATAKOMBEN",
            "LIBER_EXTENSIONUM"
        ],
        "subTraditions": "",
        "targetCategory": "Lebewesen",
        "traditions": {
            "all": false,
            "values": [
                "Compendium.tde5e.magic.Item.TR10415123625209",
                "Compendium.tde5e.magic.Item.TR37561943665255",
                "Compendium.tde5e.magic.Item.TR52194209152352",
                "Compendium.tde5e.magic.Item.TR60602241216130",
                "Compendium.tde5e.magic.Item.TR98672441157616"
            ]
        },
        "improvement": {
            "column": "B",
            "value": 0
        },
        "notes": "",
        "gmNotes": "",
        "flavor": "",
        "rule": "Das Ziel ist während der Wirkungsdauer nicht dazu in der Lage, sich weiter als 7 Schritt von dem Ort zu entfernen, an dem es sich am Ende der Zauberdauer aufhält. Wird es mit Gewalt herausgedrängt, erhält es solange 1 Stufe des Zustands @UUID[Compendium.tde5e.conditions.Item.SC72173204142222]{Schmerz} pro KR, bis es wieder in den Wirkungsbereich zurückkehrt.",
        "parents": []
    },
    "effects": [],
    "folder": "SP15718021520213",
    "_key": "!items!BA80641095020261"
}
