{
    "_id": "BA22301461672229",
    "name": "Band zur Ware",
    "type": "spell",
    "img": "systems/tde5e/assets/defaultItems/spell.svg",
    "system": {
        "castingTime": "30 M",
        "castingTimeLong": "30 Minuten",
        "check": {
            "resistedBySpirit": false,
            "resistedByToughness": false,
            "resistanceIsHalfed": false,
            "attributes": [
                "sagacity",
                "intuition",
                "charisma"
            ]
        },
        "checkedSkill": null,
        "cid": "BAND_ZUR_WARE",
        "cost": {
            "text": "8 AsP",
            "textLong": "8 AsP",
            "constant": 8,
            "recurring": null
        },
        "duration": "QS MO / neuer Gegenstand",
        "durationLong": "QS Monate oder bis ein neuer Gegenstand von der Zibilja verzaubert wurde",
        "enhancements": [],
        "group": "zibiljaRitual",
        "modifications": {
            "canModCastingTime": true,
            "canModCost": false,
            "canModRange": true
        },
        "property": "object",
        "range": "Berührung",
        "rangeLong": "Berührung",
        "requirementText": "keine",
        "sources": [
            "BOSPARANS_KATAKOMBEN",
            "LIBER_EXTENSIONUM"
        ],
        "subTraditions": "",
        "targetCategory": "Objekte",
        "traditions": {
            "all": false,
            "values": [
                "Compendium.tde5e.magic.Item.TR23524614818820"
            ]
        },
        "improvement": {
            "column": "B",
            "value": 0
        },
        "notes": "",
        "gmNotes": "",
        "flavor": "",
        "rule": "Die Zibilja berührt einen Gegenstand und weiß fortan, wo er sich befindet und wer ihn bei sich trägt. Sollte sie die Person nicht persönlich kennen, so weiß sie nur, wie diese aussieht, kennt aber nicht deren Namen. Proben auf Orientierung, bei denen der Ort des Gegenstands als Richtungsangabe helfen könnte, sind allerdings nicht erleichtert. Sobald die Zibilja dieses Ritual erneut vollführt, kann sie den alten Gegenstand nicht mehr erspüren, da die magische Verbindung durchtrennt wurde und nun ein magisches Band mit dem neuen Gegenstand geknüpft wurde.",
        "parents": []
    },
    "effects": [],
    "folder": "SP20228137234218",
    "_key": "!items!BA22301461672229"
}
