{
    "_id": "BA14143252202204",
    "name": "Bannbaladin",
    "type": "spell",
    "img": "systems/tde5e/assets/defaultItems/spell.svg",
    "system": {
        "castingTime": "4 Akt",
        "castingTimeLong": "4 Aktionen",
        "check": {
            "resistedBySpirit": true,
            "resistedByToughness": false,
            "resistanceIsHalfed": false,
            "attributes": [
                "courage",
                "intuition",
                "charisma"
            ]
        },
        "checkedSkill": null,
        "cid": "BANNBALADIN",
        "cost": {
            "text": "8 AsP",
            "textLong": "8 AsP",
            "constant": 8,
            "recurring": null
        },
        "duration": "QS x 3 M",
        "durationLong": "QS x 3 Minuten",
        "enhancements": [
            {
                "name": "Gelungene Beeinflussung",
                "effect": "Der Verzauberte muss nach dem Ende der Wirkungsdauer eine Probe auf @UUID[Compendium.tde5e.skills.Item.WI13315915718951]{Willenskraft} ablegen. Bei Misslingen ist ihm nicht bewusst, dass er verzaubert wurde. Diese Erweiterung kann mehrfach angewendet werden, um die Probe um je 2 Punkte pro zusätzlicher Nutzung zu erschweren.",
                "skillPoints": 8,
                "owned": false
            },
            {
                "name": "Gemeinsame Erinnerungen",
                "effect": "Das Ziel erhält fiktive Erinnerungen, welche die Art der bestehenden Beziehung festlegen (z.B. Familie, Lebensschuld, etc.). Dadurch werden während der Wirkungsdauer Proben auf @UUID[Compendium.tde5e.skills.Item.UB25018415118918]{Überreden} gegen das Ziel für den Zauberer um 2 erleichtert.",
                "skillPoints": 11,
                "owned": false
            },
            {
                "name": "Tiefe Verbindung",
                "effect": "Ziele bis einschließlich Stufe 4 (neutral) werden um eine zusätzliche Stufe beeinflusst.",
                "skillPoints": 14,
                "owned": false
            }
        ],
        "group": "incantation",
        "modifications": {
            "canModCastingTime": true,
            "canModCost": true,
            "canModRange": true
        },
        "property": "influence",
        "range": "4 m",
        "rangeLong": "4 Schritt",
        "requirementText": "keine",
        "sources": [
            "BOSPARANS_KATAKOMBEN",
            "LIBER_EXTENSIONUM"
        ],
        "subTraditions": "",
        "targetCategory": "Kulturschaffende, übernatürliche Wesen",
        "traditions": {
            "all": true,
            "values": []
        },
        "improvement": {
            "column": "B",
            "value": 0
        },
        "notes": "",
        "gmNotes": "",
        "flavor": "",
        "rule": "Dieser ursprünglich elfische Freundschaftszauber weckt in seinem Ziel Sympathien und Freundschaft für den Zaubernden. Die genaue Wirkung ist davon abhängig, wie das Ziel zu dem Zaubernden steht. Pro QS verbessert sich die Verbindung zwischen den beiden um eine Stufe. Ist der Zaubernde dem Ziel vorher unbekannt, bewegt sich die Einstellung des Ziels meist zwischen Stufe 4 (Abneigung) und Stufe 6 (Zuneigung). Vorteile wie Gutaussehend oder Nachteile wie Vorurteile gegenüber dem Zaubernden können diesen ersten Eindruck je nach Situation um eine oder mehr Stufen modifizieren. <br /><b>Stufe 1:</b> Das Ziel steht dem Zaubernden voller unstillbarem Hass gegenüber. <br /><b>Stufe 2:</b> Das Ziel ist der erklärte Feind des Zaubernden. <br /><b>Stufe 3:</b> Das Ziel verspürt dem Zaubernden gegenüber Abscheu und Ablehnung. <br /><b>Stufe 4:</b> Das Ziel verspürt eine gewisse Abneigung für den Zaubernden. <br /><b>Stufe 5:</b> Das Ziel ist dem Zaubernden gegenüber neutral. <br /><b>Stufe 6:</b> Das Ziel verspürt eine gewisse Zuneigung für den Zaubernden. <br /><b>Stufe 7:</b> Das Ziel empfindet Vertrauen und Freundschaft zum Zaubernden. <br /><b>Stufe 8:</b> Das Ziel ist dem Zaubernden eng und loyal verbunden. <br /><b>Stufe 9:</b> Das Ziel ist dem Zaubernden verfallen (geht für ihn jedoch nicht in den Tod). Der Zauberspruch verändert nicht das Erinnerungsvermögen. Dem Verzauberten ist nach Ende des Zaubers bewusst, was er empfunden und getan hat. Während der Zauberwirkung mag er sich des Zaubers bewusst sein, das beeinflusst aber seine neue Einstellung nicht. Handlungen des Zauberers hingegen können während der Wirkung das Verhältnis zum Verzauberten positiv oder negativ beeinflussen.",
        "parents": []
    },
    "effects": [],
    "folder": "SP15718021520213",
    "_key": "!items!BA14143252202204"
}
