{
    "_id": "BA14518856991031",
    "name": "Bannzeichen wider Zauberei",
    "type": "spell",
    "img": "systems/tde5e/assets/defaultItems/spell.svg",
    "system": {
        "castingTime": "1 T / 1 Akt",
        "castingTimeLong": "1 Tage / 1 Aktionen",
        "check": {
            "resistedBySpirit": false,
            "resistedByToughness": false,
            "resistanceIsHalfed": false,
            "attributes": [
                "courage",
                "intuition",
                "charisma"
            ]
        },
        "checkedSkill": null,
        "cid": "BANNZEICHEN_WIDER_ZAUBEREI",
        "cost": {
            "text": "16 AsP",
            "textLong": "16 AsP",
            "constant": 16,
            "recurring": null
        },
        "duration": "QS MO / QS x 2 KR",
        "durationLong": "QS Monate / QS x 2 Kampfrunden",
        "rule": "Zauber und magische Handlungen, die gegen das Lebewesen/Objekt gerichtet sind, sind möglicherweise erschwert, wenn das Zeichen aufgetragen ist. Bei jedem Zauber wird vor der Zauberprobe 1W6 gewürfelt. Bei 1 ist die Zauberprobe um –1, bei 2 um –2 erschwert, bei 3-6 ist sie nicht erschwert. Die Erschwernis gilt auch für Magie, die einen positiven Effekt auf den Träger des Zeichens hätte. Insgesamt verfügt das Bannzeichen über eine Schildstärke von QS x 2 Punkte. Jede Erschwernis, die das Bannzeichen erzeugt, verbraucht 1 Punkt dieser Schildstärke. Das Bannzeichen erlischt, wenn die Schildstärke auf 0 oder niedriger gesenkt wurde.",
        "enhancements": [],
        "group": "banishingSign",
        "modifications": {
            "canModCastingTime": false,
            "canModCost": false,
            "canModRange": false
        },
        "property": "antiMagic",
        "range": "Berührung",
        "rangeLong": "Berührung",
        "requirementText": "keine",
        "sources": [
            "KODEX_DER_MAGIE"
        ],
        "subTraditions": "",
        "targetCategory": "Lebewesen/Objekt",
        "traditions": {
            "all": false,
            "values": [
                "Compendium.tde5e.magic.Item.TR13113122614326"
            ]
        },
        "improvement": {
            "column": "C",
            "value": 0
        },
        "notes": "",
        "gmNotes": "",
        "flavor": ""
    },
    "effects": [],
    "folder": "BA13111212783320",
    "_key": "!items!BA14518856991031"
}
