{
    "_id": "BA27291031901604",
    "name": "Bannzeichen der Seelenruhe",
    "type": "spell",
    "img": "systems/tde5e/assets/defaultItems/spell.svg",
    "system": {
        "castingTime": "2 T / 2 Akt",
        "castingTimeLong": "2 Tage / 2 Aktionen",
        "check": {
            "resistedBySpirit": false,
            "resistedByToughness": false,
            "resistanceIsHalfed": false,
            "attributes": [
                "intuition",
                "intuition",
                "charisma"
            ]
        },
        "checkedSkill": null,
        "cid": "BANNZEICHEN_DER_SEELENRUHE",
        "cost": {
            "text": "10 AsP",
            "textLong": "10 AsP",
            "constant": 10,
            "recurring": null
        },
        "duration": "QS MO / QS x 5 M",
        "durationLong": "QS Monate / QS x 5 Minuten",
        "rule": " Jedes Lebewesen, das sich in einem Radius von 8 Schritt um das Bannzeichen aufhält, wird müde. Verlässt es den Radius, fällt die Müdigkeit schlagartig von ihm. Innerhalb von 5 Minuten schläft das Lebewesen langsam ein. Um sich gegen das Einschlafen zu wehren, kann eine Probe auf Selbstbeherrschung –5 ableget werden. Gelingt die Probe, hat das Bannzeichen keine Wirkung gegen das Lebewesen. Lärm und ähnliche Störungen lassen das Lebewesen wieder erwachen.",
        "enhancements": [],
        "group": "banishingSign",
        "modifications": {
            "canModCastingTime": false,
            "canModCost": false,
            "canModRange": false
        },
        "property": "influence",
        "range": "Berührung",
        "rangeLong": "Berührung",
        "requirementText": "keine",
        "sources": [
            "KODEX_DER_MAGIE"
        ],
        "subTraditions": "",
        "targetCategory": "Lebewesen/Objekt",
        "traditions": {
            "all": false,
            "values": [
                "Compendium.tde5e.magic.Item.TR13113122614326"
            ]
        },
        "improvement": {
            "column": "B",
            "value": 0
        },
        "notes": "",
        "gmNotes": "",
        "flavor": ""
    },
    "effects": [],
    "folder": "BA13111212783320",
    "_key": "!items!BA27291031901604"
}
