{
    "_id": "BA23638952471572",
    "name": "Bannschwert des Schutzsegens",
    "type": "artifactAbility",
    "img": "systems/tde5e/assets/defaultItems/artifact_ability.svg",
    "system": {
        "aspects": [],
        "binding": {
            "cost": "",
            "volume": "5 Punkte"
        },
        "brewType": null,
        "cid": "BANNSCHWERT_DES_SCHUTZSEGENS",
        "cost": {
            "text": "4 AsP",
            "constant": 4,
            "recurring": null
        },
        "group": "banishingSword",
        "property": "object",
        "purchase": {
            "cost": [
                10
            ],
            "description": "10 Abenteuerpunkte",
            "levels": 1,
            "maxTimeBuyable": 1
        },
        "requirementText": "keine",
        "sources": [
            "BOSPARANS_KATAKOMBEN",
            "LIBER_EXTENSIONUM"
        ],
        "tradition": "Compendium.tde5e.magic.Item.TR20562116246223",
        "variant": {
            "categories": [],
            "input": false,
            "level": 1,
            "selected": null,
            "available": null
        },
        "flavor": "",
        "notes": "",
        "gmNotes": "",
        "parents": [
            "Compendium.tde5e.magic.Item.BI15023017927216"
        ],
        "rule": "<p>Das Bannschwert muss als sonstige Aktion in die Erde gesteckt werden und funktioniert wie ein @UUID[Compendium.tde5e.karma.Item.KL57310415742523]{Kleiner Schutzsegen}. Der Radius des Segens beträgt automatisch 4 Schritt.</p>"
    },
    "effects": [],
    "folder": "BA17013359912451",
    "_key": "!items!BA23638952471572"
}
