{
    "_id": "BA11671771517254",
    "name": "Bann-/Schutzkreis gegen gehörnte Dämonen",
    "type": "spellGlyphAbility",
    "img": "systems/tde5e/assets/defaultItems/spell_glyph_ability.svg",
    "system": {
        "cid": "BANN_ODER_SCHUTZKREIS_GEGEN_GEHORNTE_DAMONEN",
        "cost": {
            "text": "8 AsP",
            "constant": 8,
            "recurring": null
        },
        "group": "protectionAndBanishingCircle",
        "property": "",
        "purchase": {
            "cost": [
                15
            ],
            "description": "15 Abenteuerpunkte",
            "levels": 1,
            "maxTimeBuyable": 1
        },
        "requirementText": "SF Zauberzeichen",
        "sources": [
            "REGELWERK"
        ],
        "variant": {
            "input": false,
            "level": 1,
            "selected": null,
            "available": null,
            "categories": null
        },
        "flavor": "",
        "notes": "",
        "gmNotes": "",
        "rule": "<p><strong>Schutz:</strong> Gehörnte Dämonen mit bis zu 5 Hörnern können den Kreis nicht betreten.</p><p><strong>Bann:</strong> Der erste gehörnte Dämon mit bis zu 5 Hörnern, der sich dem Kreis auf 7 Schritt nähert, wird in ihn hineingezogen und kann ihn nicht mehr verlassen.</p>",
        "parents": []
    },
    "effects": [],
    "folder": "SC24193251155182",
    "_key": "!items!BA11671771517254"
}
