{
    "_id": "BA18917020820326",
    "name": "Bannzeichen der Dämonengefäßes",
    "type": "spell",
    "img": "systems/tde5e/assets/defaultItems/spell.svg",
    "system": {
        "castingTime": "2 T / 2 Akt",
        "castingTimeLong": "2 Tage / 2 Aktionen",
        "check": {
            "resistedBySpirit": false,
            "resistedByToughness": false,
            "resistanceIsHalfed": false,
            "attributes": [
                "courage",
                "intuition",
                "charisma"
            ]
        },
        "checkedSkill": null,
        "cid": "BANNZEICHEN_DES_DAMONENGEFASSES",
        "cost": {
            "text": "16/28/40 AsP",
            "textLong": "16/28/40 AsP for niederer/gehörte/bis zu 5 gehörnte Dämonen",
            "constant": 16,
            "recurring": null
        },
        "duration": "QS MO / QS x 5 M",
        "durationLong": "QS Monate / QS x 5 Minuten",
        "rule": "Das Zauberzeichen kann einen Dämon in einem Gefäß einsperren, sodass er nicht ohne Weiteres entkommen kann. Voraussetzung ist jedoch, dass der Erschaffer des Zeichens den Wahren Namen des Dämons kennt.",
        "enhancements": [],
        "group": "banishingSign",
        "modifications": {
            "canModCastingTime": false,
            "canModCost": false,
            "canModRange": false
        },
        "property": "antiMagic",
        "range": "Berührung",
        "rangeLong": "Berührung",
        "requirementText": "keine",
        "sources": [
            "KODEX_DER_MAGIE"
        ],
        "subTraditions": "",
        "targetCategory": "Objekt",
        "traditions": {
            "all": false,
            "values": [
                "Compendium.tde5e.magic.Item.TR13113122614326"
            ]
        },
        "improvement": {
            "column": "C",
            "value": 0
        },
        "notes": "",
        "gmNotes": "",
        "flavor": ""
    },
    "effects": [],
    "folder": "BA13111212783320",
    "_key": "!items!BA18917020820326"
}
