{
    "_id": "BA36142477417319",
    "name": "Bannstab des Adepten",
    "type": "artifactAbility",
    "img": "systems/tde5e/assets/defaultItems/artifact_ability.svg",
    "system": {
        "aspects": [],
        "binding": {
            "cost": "",
            "volume": "3 Punkte"
        },
        "brewType": null,
        "cid": "BANNSTAB_DES_ADEPTEN",
        "cost": {
            "text": "keine",
            "constant": 0,
            "recurring": null
        },
        "group": "guildmageStaff",
        "property": "object",
        "purchase": {
            "cost": [
                12
            ],
            "description": "12 Abenteuerpunkte",
            "levels": 1,
            "maxTimeBuyable": 1
        },
        "requirementText": "keine",
        "sources": [
            "BOSPARANS_KATAKOMBEN",
            "LIBER_EXTENSIONUM"
        ],
        "tradition": "Compendium.tde5e.magic.Item.TR20562116246223",
        "variant": {
            "categories": [],
            "input": false,
            "level": 1,
            "selected": null,
            "available": null
        },
        "flavor": "",
        "notes": "",
        "gmNotes": "",
        "parents": [
            "Compendium.tde5e.magic.Item.BI19021382232232"
        ],
        "rule": "<p>Der Stab richtet gegen beschwörbare Wesen wie Dämonen, Elementare, Feen und Geister +1 TP an.</p>"
    },
    "effects": [],
    "folder": "GI21114247636140",
    "_key": "!items!BA36142477417319"
}
