{
    "_id": "BE27218541392211",
    "name": "Beherrscher der Flammen",
    "type": "artifactAbility",
    "img": "systems/tde5e/assets/defaultItems/artifact_ability.svg",
    "system": {
        "aspects": [],
        "binding": {
            "cost": "",
            "volume": "3 Punkte"
        },
        "brewType": null,
        "cid": "BEHERRSCHER_DER_FLAMMEN",
        "cost": {
            "text": "5 AsP",
            "constant": 5,
            "recurring": null
        },
        "group": "geodeRing",
        "property": "elemental",
        "purchase": {
            "cost": [
                10
            ],
            "description": "10 Abenteuerpunkte",
            "levels": 1,
            "maxTimeBuyable": 1
        },
        "requirementText": "keine",
        "sources": [
            "BOSPARANS_KATAKOMBEN",
            "LIBER_EXTENSIONUM"
        ],
        "tradition": "Compendium.tde5e.magic.Item.TR93186147562399",
        "variant": {
            "categories": [],
            "input": false,
            "level": 1,
            "selected": null,
            "available": null
        },
        "flavor": "",
        "notes": "",
        "gmNotes": "",
        "parents": [
            "Compendium.tde5e.magic.Item.BI24918214052114"
        ],
        "rule": "<p>Dem Geoden ist es möglich, einmalig alle Flammen bis zur Größe eines Lagerfeuers zu kontrollieren, die innerhalb eines Radius von 8 Schritt um ihn herum lodern. Dadurch vermag er, die Flammen höherschlagen zu lassen (bis zur Größe eines Lagerfeuers), abzuschwächen oder sogar gänzlich zum Erlöschen zu bringen. Die Zone verharrt an Ort und Stelle, auch wenn sich der Geode bewegt. Übernatürliches Feuer, etwa ein @UUID[Compendium.tde5e.magic.Item.IG13318024411611]{Ignifaxius}, kann mit der Wirkung nicht aufgehalten werden, sehr wohl aber die Folgeschäden, die z. B. eine brennende Fläche betreffen, welche durch den @UUID[Compendium.tde5e.magic.Item.IG13318024411611]{Ignifaxius} entzündet wurde. Die Temperatur der Flammen kann nicht geändert werden, nur ihre Größe. Die Wirkungsdauer beträgt 3 KR.</p>"
    },
    "effects": [],
    "folder": "GE36248242761091",
    "_key": "!items!BE27218541392211"
}
