{
    "_id": "BE19610412464201",
    "name": "Beiß auf Granit!",
    "type": "spell",
    "img": "systems/tde5e/assets/defaultItems/spell.svg",
    "system": {
        "castingTime": "1 Akt",
        "castingTimeLong": "1 Aktion",
        "check": {
            "resistedBySpirit": false,
            "resistedByToughness": true,
            "resistanceIsHalfed": false,
            "attributes": [
                "sagacity",
                "intuition",
                "dexterity"
            ]
        },
        "checkedSkill": null,
        "cid": "BEISS_AUF_GRANIT",
        "cost": {
            "text": "14 AsP",
            "textLong": "14 AsP",
            "constant": 14,
            "recurring": null
        },
        "duration": "QS x 3 T",
        "durationLong": "QS x 3 Tagen",
        "enhancements": [],
        "group": "curse",
        "modifications": {
            "canModCastingTime": false,
            "canModCost": false,
            "canModRange": false
        },
        "property": "object",
        "range": "64 m",
        "rangeLong": "64 Schritt",
        "requirementText": "keine",
        "sources": [
            "BOSPARANS_KATAKOMBEN",
            "LIBER_EXTENSIONUM"
        ],
        "subTraditions": "",
        "targetCategory": "",
        "traditions": {
            "all": false,
            "values": [
                "Compendium.tde5e.magic.Item.TR60602241216130"
            ]
        },
        "improvement": {
            "column": "B",
            "value": 0
        },
        "notes": "",
        "gmNotes": "",
        "flavor": "",
        "rule": "Feste Nahrungsmittel, die das Opfer berührt, werden zu Stein oder einer anderen Substanz, die die Hexe im Fluch benannt hat. Üblich sind neben Stein auch Holz, Mist oder Schleim. Edelmetalle oder Ähnliches sind nicht möglich. Die Lebensmittel verwandeln sich nach fünf Minuten wieder zurück, insofern das Opfer sie nicht berührt. Der Versuch, Lebensmittel mit Zangen oder Trichtern in den Mund zu führen, kann dazu führen, dass das Opfer an einem Stein im Hals erstickt. Für Suppen, Milch und andere Flüssigkeiten gilt der Fluch nicht.",
        "parents": []
    },
    "effects": [],
    "folder": "SP58654619110814",
    "_key": "!items!BE19610412464201"
}
