{
    "_id": "BE19792111931178",
    "name": "Belkelels Ekstase",
    "type": "magicalAbility",
    "img": "systems/tde5e/assets/defaultItems/special_ability_magical.svg",
    "system": {
        "cid": "BELKELELS_EKSTASE",
        "cost": {
            "text": "",
            "constant": 0,
            "recurring": null
        },
        "group": "pactGift",
        "property": "",
        "purchase": {
            "cost": [
                8,
                8,
                8,
                8
            ],
            "description": "8 Abenteuerpunkte pro Stufe",
            "levels": 4,
            "maxTimeBuyable": 1
        },
        "requirementText": "Dämonenpakt Stufe 1 (Belkelel)",
        "sources": [
            "AVENTURISCHE_MAGIE_3"
        ],
        "styleAbilities": [],
        "variant": {
            "categories": [],
            "input": false,
            "available": [],
            "level": 1,
            "selected": null
        },
        "flavor": "",
        "notes": "",
        "gmNotes": "",
        "rule": "Beim Liebesspiel kann die Paktiererin mit einem von ihr ausgewählten Opfer alles anstellen, was ihr gefällt, und es empfindet dennoch höchste Ekstase. Darüber hinaus kann die Paktiererin ihm KdV Lebenspunkte rauben und zu ihrem eigenen LeP-Vorrat hinzufügen, bis hin zu KdV x 5 LeP über ihrem Maximum. Hat die Paktiererin ihr LeP-Maximum nach dem Ende der Wirkung immer noch überschritten, reduzieren sich die LeP auf den natürlichen Maximalwert. Das Paktgeschenk wirkt nur gegen Ziele, deren SK maximal so hoch ist wie die Stufe des Paktgeschenks. Die Wirkung der Fähigkeit hält 7 Stunden an, ihr Einsatz kostet 1 Aktion und verursacht 1 Stufe @UUID[Compendium.tde5e.conditions.Item.DA21528191859282]{Dämonische Auszehrung}.",
        "parents": []
    },
    "effects": [],
    "folder": "DA30309060912592",
    "_key": "!items!BE19792111931178"
}
