{
    "_id": "BI19820421159188",
    "name": "Bienensuche",
    "type": "spell",
    "img": "systems/tde5e/assets/defaultItems/spell.svg",
    "system": {
        "castingTime": "5 M",
        "castingTimeLong": "5 Minuten",
        "check": {
            "resistedBySpirit": false,
            "resistedByToughness": false,
            "resistanceIsHalfed": false,
            "attributes": [
                "courage",
                "intuition",
                "charisma"
            ]
        },
        "checkedSkill": null,
        "cid": "BIENENSUCHE",
        "cost": {
            "text": "4 AsP",
            "textLong": "4 AsP",
            "constant": 4,
            "recurring": null
        },
        "duration": "1 ST",
        "durationLong": "1 Stunde",
        "enhancements": [],
        "group": "zibiljaRitual",
        "modifications": {
            "canModCastingTime": true,
            "canModCost": false,
            "canModRange": true
        },
        "property": "influence",
        "range": "4 m",
        "rangeLong": "4 Schritt",
        "requirementText": "keine",
        "sources": [
            "BOSPARANS_KATAKOMBEN",
            "LIBER_EXTENSIONUM"
        ],
        "subTraditions": "",
        "targetCategory": "Tiere (Bienen)",
        "traditions": {
            "all": false,
            "values": [
                "Compendium.tde5e.magic.Item.TR23524614818820"
            ]
        },
        "improvement": {
            "column": "B",
            "value": 0
        },
        "notes": "",
        "gmNotes": "",
        "flavor": "",
        "rule": "Die Zibilja bittet einen Bienenschwarm, jemanden oder etwas zu suchen. Die Bienen breiten sich in einem Radius von QS Meilen aus und kehren zur Zibilja zurück, wenn sie etwas gefunden haben oder die Wirkungsdauer vorüber ist. Bei gelungener Suche zeigen einige der Bienen das Versteck des Gesuchten. Um sich erfolgreich vor den Bienen zu verstecken, muss eine Probe auf @UUID[Compendium.tde5e.skills.Item.VE22425218425144]{Verbergen (sich Verstecken)} erschwert um QS/2 gelingen.",
        "parents": []
    },
    "effects": [],
    "folder": "SP20228137234218",
    "_key": "!items!BI19820421159188"
}
