{
    "_id": "BI13324519577249",
    "name": "Bindung der Narrenkappe",
    "type": "artifactAbility",
    "img": "systems/tde5e/assets/defaultItems/artifact_ability.svg",
    "system": {
        "aspects": [],
        "binding": {
            "cost": "2 permanente AsP",
            "volume": "0 Punkte"
        },
        "brewType": null,
        "cid": "BINDUNG_DER_NARRENKAPPE",
        "cost": {
            "text": "",
            "constant": 0,
            "recurring": null
        },
        "group": "rogueCap",
        "property": "object",
        "purchase": {
            "cost": [
                10
            ],
            "description": "10 Abenteuerpunkte",
            "levels": 1,
            "maxTimeBuyable": 1
        },
        "requirementText": "keine",
        "sources": [
            "BOSPARANS_KATAKOMBEN",
            "LIBER_EXTENSIONUM"
        ],
        "tradition": "Compendium.tde5e.magic.Item.TR44241162842057",
        "variant": {
            "categories": [],
            "input": false,
            "level": 1,
            "selected": null,
            "available": null
        },
        "flavor": "",
        "notes": "",
        "gmNotes": "",
        "parents": [
            "Compendium.tde5e.magic.Item.TR44241162842057"
        ],
        "rule": "<p>Die Bindung der Narrenkappe ist der erste Kappenzauber, der auf die Narrenkappe gewirkt wird. Mit ihm wird die Kappe an den Schelm gebunden. Fortan gilt sie als unzerstörbar, wobei die Flexibilität des Stoffes erhalten bleibt. Einzig elementares Feuer, das heißer brennt als ein Drachenodem oder ein @UUID[Compendium.tde5e.magic.Item.IG13318024411611]{Ignifaxius}, sowie gezielte Antimagie können sie zerstören. Die Narrenkappe gilt von nun an als magischer Gegenstand und kann nicht durch andere Mittel wie den @UUID[Compendium.tde5e.magic.Item.AR19118618412344]{Arcanovi} mit weiteren Zaubern belegt werden. Ein Schelm kann immer nur eine Narrenkappe besitzen. Das Binden kostet den Schelm einmalig 2 permanente AsP. Der Schelm kann sich entscheiden, seine Verbindung zur Narrenkappe zu lösen, beispielsweise, um eine neue Narrenkappe an sich zu binden. Nach dem Tod des Schelms verliert die Narrenkappe nach 24 Stunden die permanent gespeicherten AsP und jegliche Magie.</p>"
    },
    "effects": [],
    "folder": "NA11911510812811",
    "_key": "!items!BI13324519577249"
}
