{
    "_id": "BI31164839517010",
    "name": "Bindung der Zauberkleidung",
    "type": "artifactAbility",
    "img": "systems/tde5e/assets/defaultItems/artifact_ability.svg",
    "system": {
        "aspects": [],
        "binding": {
            "cost": "2 permanente AsP",
            "volume": "0 Punkte"
        },
        "brewType": null,
        "cid": "BINDUNG_DER_ZAUBERKLEIDUNG",
        "cost": {
            "text": "",
            "constant": 0,
            "recurring": null
        },
        "group": "dancerAttire",
        "property": "object",
        "purchase": {
            "cost": [
                10
            ],
            "description": "10 Abenteuerpunkte",
            "levels": 1,
            "maxTimeBuyable": 1
        },
        "requirementText": "keine",
        "sources": [
            "BOSPARANS_KATAKOMBEN",
            "LIBER_EXTENSIONUM"
        ],
        "tradition": "Compendium.tde5e.magic.Item.TR24231133849412",
        "variant": {
            "categories": [],
            "input": false,
            "level": 1,
            "selected": null,
            "available": null
        },
        "flavor": "",
        "notes": "",
        "gmNotes": "",
        "parents": [
            "Compendium.tde5e.magic.Item.TR24231133849412"
        ],
        "rule": "<p>Die Bindung der Zauberkleidung ist der erste Gewandzauber, der auf Zauberkleidung gewirkt wird. Mit ihm wird ein Satz Kleidung an die Tänzerin gebunden. Fortan gilt er als unzerstörbar, wobei die Flexibilität des Stoffes erhalten bleibt. Einzig elementares Feuer, das heißer brennt als ein Drachenodem oder ein @UUID[Compendium.tde5e.magic.Item.IG13318024411611]{Ignifaxius}, sowie gezielte Antimagie können ihn zerstören. Die Kleidung gilt von nun an als magischer Gegenstand und kann nicht durch andere Mittel wie den @UUID[Compendium.tde5e.magic.Item.AR19118618412344]{Arcanovi} mit weiteren Zaubern belegt werden. Eine Zaubertänzerin kann immer nur einen Satz Zauberkleidung besitzen. Das Binden kostet die Zaubertänzerin einmalig 2 permanente AsP. Die Tänzerin kann sich entscheiden, ihre Verbindung zur Kleidung zu lösen, beispielsweise, um einen neuen Satz Zauberkleidung an sich zu binden. Nach dem Tod der Tänzerin verliert die Kleidung nach 24 Stunden die permanent gespeicherten AsP und jegliche Magie.</p>"
    },
    "effects": [],
    "folder": "ZA22018418563657",
    "_key": "!items!BI31164839517010"
}
