{
    "_id": "BI28173119237106",
    "name": "Bindung des Schelmenspielzeugs",
    "type": "artifactAbility",
    "img": "systems/tde5e/assets/defaultItems/artifact_ability.svg",
    "system": {
        "aspects": [],
        "binding": {
            "cost": "2 permanente AsP",
            "volume": "0 Punkte"
        },
        "brewType": null,
        "cid": "BINDUNG_DES_SCHELMENSPIELZEUGS",
        "cost": {
            "text": "",
            "constant": 0,
            "recurring": null
        },
        "group": "rogueToy",
        "property": "object",
        "purchase": {
            "cost": [
                10
            ],
            "description": "10 Abenteuerpunkte",
            "levels": 1,
            "maxTimeBuyable": 1
        },
        "requirementText": "keine",
        "sources": [
            "BOSPARANS_KATAKOMBEN",
            "LIBER_EXTENSIONUM"
        ],
        "tradition": "Compendium.tde5e.magic.Item.TR44241162842057",
        "variant": {
            "categories": [],
            "input": false,
            "level": 1,
            "selected": null,
            "available": null
        },
        "flavor": "",
        "notes": "",
        "gmNotes": "",
        "parents": [
            "Compendium.tde5e.magic.Item.TR44241162842057"
        ],
        "rule": "<p>Die Bindung des Schelmenspielzeugs ist der erste Spielzeugzauber, der auf ein Schelmenspielzeug gewirkt wird. Mit ihm wird das Schelmenspielzeug an den Schelm gebunden. Fortan gilt es als unzerstörbar, wobei die Flexibilität erhalten bleibt. Einzig elementares Feuer, das heißer brennt als ein Drachenodem oder ein @UUID[Compendium.tde5e.magic.Item.IG13318024411611]{Ignifaxius}, sowie gezielte Antimagie können es zerstören. Das Spielzeug gilt von nun an als magischer Gegenstand und kann nicht durch andere Mittel wie den @UUID[Compendium.tde5e.magic.Item.AR19118618412344]{Arcanovi} mit weiteren Zaubern belegt werden. Ein Schelm kann immer nur ein Schelmenspielzeug besitzen. Das Binden kostet den Schelm einmalig 2 permanente AsP. Der Schelm kann sich entscheiden, seine Verbindung zum Spielzeug zu lösen, beispielsweise, um ein neues Spielzeug an sich zu binden. Nach dem Tod des Schelms verliert das Spielzeug nach 24 Stunden die permanent gespeicherten AsP und jegliche Magie.</p>"
    },
    "effects": [],
    "folder": "SC13023613233678",
    "_key": "!items!BI28173119237106"
}
