{
    "_id": "BL11811741231341",
    "name": "Blick durch fremde Augen",
    "type": "spell",
    "img": "systems/tde5e/assets/defaultItems/spell.svg",
    "system": {
        "castingTime": "5 M",
        "castingTimeLong": "5 Minuten",
        "check": {
            "resistedBySpirit": true,
            "resistedByToughness": false,
            "resistanceIsHalfed": false,
            "attributes": [
                "courage",
                "intuition",
                "charisma"
            ]
        },
        "checkedSkill": null,
        "cid": "BLICK_DURCH_FREMDE_AUGEN",
        "cost": {
            "text": "16 AsP",
            "textLong": "16 AsP",
            "constant": 16,
            "recurring": null
        },
        "duration": "QS x 10 M",
        "durationLong": "QS x 10 Minuten",
        "enhancements": [
            {
                "name": "Längere Wirkungsdauer",
                "effect": "Die Wirkungsdauer beträgt zusätzlich QS x 10 Minuten. Diese Erweiterung kann mehrfach angewendet werden.",
                "skillPoints": 8,
                "owned": false
            },
            {
                "name": "Andere Sinne",
                "effect": "Auch andere Sinne können übertragen werden.",
                "skillPoints": 11,
                "owned": false
            },
            {
                "name": "Geteilte Ansicht",
                "effect": "Die Wirkung ist umgekehrt, das Ziel nimmt also die Sinne des Zauberers wahr und verwendet dessen Werte bei Proben auf @UUID[Compendium.tde5e.skills.Item.SI80193235230167]{Sinnesschärfe}.",
                "skillPoints": 14,
                "owned": false
            }
        ],
        "group": "ritual",
        "modifications": {
            "canModCastingTime": true,
            "canModCost": true,
            "canModRange": true
        },
        "property": "clairvoyance",
        "range": "16 m",
        "rangeLong": "16 Schritt",
        "requirementText": "keine",
        "sources": [
            "BOSPARANS_KATAKOMBEN",
            "LIBER_EXTENSIONUM"
        ],
        "subTraditions": "",
        "targetCategory": "Lebewesen",
        "traditions": {
            "all": false,
            "values": [
                "Compendium.tde5e.magic.Item.TR10415123625209",
                "Compendium.tde5e.magic.Item.TR60602241216130"
            ]
        },
        "improvement": {
            "column": "C",
            "value": 0
        },
        "notes": "",
        "gmNotes": "",
        "flavor": "",
        "rule": "Der Zauberer ersetzt seine eigene Sicht durch jene des Ziels und sieht dadurch alles, was sich in dessen Blickfeld befindet. Ist es währenddessen notwendig, Proben auf @UUID[Compendium.tde5e.skills.Item.SI80193235230167]{Sinnesschärfe} abzulegen, verwendet der Zauberer seine eigenen Werte. Erleidet das Ziel Abzüge auf seine @UUID[Compendium.tde5e.skills.Item.SI80193235230167]{Sinnesschärfe}, sei es aufgrund von äußeren Einflüssen wie Sichtmodifikatoren und Zustandsstufen, oder einer eigenen Sehschwäche, gelten diese aber auch für den Zauberer. Dementsprechend vermag der Anwender des Zaubers nichts zu sehen, wenn das Ziel blind ist oder die Augen schließt. Dem Ziel bleibt die Anwesenheit des Zauberers in seinem Geist verborgen. Während der Wirkungsdauer ist der Zauberer blind für seine eigene Umgebung. Bei freiwilligen Zielen kommt keine Erschwernis durch die SK zu tragen.",
        "parents": []
    },
    "effects": [],
    "folder": "SP18396136219154",
    "_key": "!items!BL11811741231341"
}
