{
    "_id": "BL12417842043593",
    "name": "Blick in die Vergangenheit",
    "type": "spell",
    "img": "systems/tde5e/assets/defaultItems/spell.svg",
    "system": {
        "castingTime": "30 M",
        "castingTimeLong": "30 Minuten",
        "check": {
            "resistedBySpirit": false,
            "resistedByToughness": false,
            "resistanceIsHalfed": false,
            "attributes": [
                "courage",
                "sagacity",
                "intuition"
            ]
        },
        "checkedSkill": null,
        "cid": "BLICK_IN_DIE_VERGANGENHEIT",
        "cost": {
            "text": "32 AsP",
            "textLong": "32 AsP",
            "constant": 32,
            "recurring": null
        },
        "duration": "QS x 30 M",
        "durationLong": "QS x 30 Minuten",
        "enhancements": [
            {
                "name": "Reichweite Berührung",
                "effect": "Als Reichweite gilt Berührung. Das Ritual kann nur auf Kulturschaffende übertragen werden. Es entstehen zusätzliche Kosten in Höhe von 8 AsP.",
                "skillPoints": 8,
                "owned": false
            },
            {
                "name": "Längere Wirkungsdauer",
                "effect": "Die Wirkungsdauer beträgt QS Stunden.",
                "skillPoints": 11,
                "owned": false
            },
            {
                "name": "Verlangsamung",
                "effect": "Das Ziel kann den Strom zu einem zufälligen Zeitpunkt innerhalb des aktuellen Jahres anhalten, um sich das Bild genau einzuprägen.",
                "skillPoints": 14,
                "owned": false
            }
        ],
        "group": "ritual",
        "modifications": {
            "canModCastingTime": true,
            "canModCost": true,
            "canModRange": true
        },
        "property": "clairvoyance",
        "range": "selbst",
        "rangeLong": "selbst",
        "requirementText": "keine",
        "sources": [
            "BOSPARANS_KATAKOMBEN",
            "LIBER_EXTENSIONUM"
        ],
        "subTraditions": "",
        "targetCategory": "Kulturschaffende",
        "traditions": {
            "all": false,
            "values": [
                "Compendium.tde5e.magic.Item.TR10415123625209",
                "Compendium.tde5e.magic.Item.TR93186147562399",
                "Compendium.tde5e.magic.Item.TR20562116246223",
                "Compendium.tde5e.magic.Item.TR52194209152352",
                "Compendium.tde5e.magic.Item.TR98672441157616"
            ]
        },
        "improvement": {
            "column": "C",
            "value": 0
        },
        "notes": "",
        "gmNotes": "",
        "flavor": "",
        "rule": "Die Sicht des Zauberers wird in die Vergangenheit seines derzeitigen Aufenthaltsorts versetzt. Dabei handelt es sich um einen kontinuierlichen, mit einer Geschwindigkeit von einem Jahr pro Minute rückwärts laufenden Fluss. Im Laufe einer Stunde sieht er also die Ereignisse der vergangenen sechs Jahrzehnte an sich vorbeiziehen. Aufgrund der Schnelligkeit der wahrgenommenen Bilder ist es nicht möglich, Gesichter wahrzunehmen, wohl aber andere Details. Im Zweifelsfall entscheidet eine Probe auf @UUID[Compendium.tde5e.skills.Item.SI80193235230167]{Sinnesschärfe (Wahrnehmen)} erschwert um 3, ob der Zauberer das sieht, was er sucht.",
        "parents": []
    },
    "effects": [],
    "folder": "SP18396136219154",
    "_key": "!items!BL12417842043593"
}
