{
    "_id": "BU18920224864148",
    "name": "Buchschließer",
    "type": "cantrip",
    "img": "systems/tde5e/assets/defaultItems/spell.svg",
    "system": {
        "cid": "BUCHSCHLIESSER",
        "duration": "sofort",
        "durationLong": "sofort",
        "property": "telekinesis",
        "range": "8 m",
        "rangeLong": "8 Schritt",
        "requirementText": "",
        "sources": [
            "GRIMORUM_CANTIONES"
        ],
        "targetCategory": "Objekte (Bücher)",
        "traditions": {
            "all": false,
            "values": [
                "Compendium.tde5e.magic.Item.TR20562116246223",
                "Compendium.tde5e.magic.Item.TR23524614818820"
            ]
        },
        "notes": "",
        "gmNotes": "",
        "flavor": "",
        "rule": "Mit diesem Zaubertrick kann der Zauberer beliebig viele Bücher in Reichweite zuklappen lassen. Der Buchdeckel klappt zu und lässt sich auch von geringem Widerstand, beispielsweise den Händen eines Eleven, nicht davon abhalten. Wer das Buch offen halten will, dem muss eine Probe auf @UUID[Compendium.tde5e.skills.Item.KR28631591116621]{Kraftakt (Ziehen & Zerren)} –3 gelingen. Zibiljas rollen mit dem Zaubertrick vor allem Schriftrollen ein.",
        "parents": []
    },
    "effects": [],
    "folder": "SP45861142482726",
    "_key": "!items!BU18920224864148"
}
