{
    "_id": "CH16020621811612",
    "name": "Chimärenmeister",
    "type": "magicalAbility",
    "img": "systems/tde5e/assets/defaultItems/special_ability_magical.svg",
    "system": {
        "cid": "CHIMARENMEISTER",
        "cost": {
            "text": "",
            "constant": 0,
            "recurring": null
        },
        "group": "magical",
        "property": "",
        "purchase": {
            "cost": [
                20
            ],
            "description": "20 Abenteuerpunkte",
            "levels": 1,
            "maxTimeBuyable": 1
        },
        "requirementText": "Vorteil Zauberer, Zauber Chimaeroform",
        "sources": [
            "AVENTURISCHE_MAGIE_3"
        ],
        "styleAbilities": [],
        "variant": {
            "categories": [],
            "input": false,
            "available": [],
            "level": 1,
            "selected": null
        },
        "flavor": "",
        "notes": "",
        "gmNotes": "",
        "parents": [
            "Compendium.tde5e.magic.Item.CH24468160145115"
        ],
        "rule": "<p>Durch diese Sonderfertigkeit ist der Zauberer in der Lage, Chimären der Komplexität <em>einfach</em> zu erschaffen (siehe <strong>Aventurische Magie III</strong> Seite <strong>58</strong>). Für Chimären der Komplexität <em>komplex</em> benötigt er zudem ein entsprechendes Berufsgeheimnis.</p>"
    },
    "effects": [],
    "folder": "PA20111051426896",
    "_key": "!items!CH16020621811612"
}
