{
    "_id": "CH13510582103467",
    "name": "Chimärenherrschaft",
    "type": "magicalAbility",
    "img": "systems/tde5e/assets/defaultItems/special_ability_magical.svg",
    "system": {
        "cid": "CHIMARENHERRSCHAFT",
        "cost": {
            "text": "",
            "constant": 0,
            "recurring": null
        },
        "group": "pactGift",
        "property": "",
        "purchase": {
            "cost": [
                15
            ],
            "description": "15 Abenteuerpunkte",
            "levels": 1,
            "maxTimeBuyable": 1
        },
        "requirementText": "Dämonenpakt Stufe 1 (Asfaloth)",
        "sources": [
            "AVENTURISCHE_MAGIE_3"
        ],
        "styleAbilities": [],
        "variant": {
            "categories": [],
            "input": false,
            "available": [],
            "level": 1,
            "selected": null
        },
        "flavor": "",
        "notes": "",
        "gmNotes": "",
        "rule": "Die Paktiererin kann eine Chimäre, die sie mit 1 Aktion berührt, dauerhaft kontrollieren und es muss keine Probe auf Loyalität mehr abgelegt werden. Ist die Chimäre bereits unter der Kontrolle eines anderen Zauberers oder Paktierers, muss der Paktiererin eine Vergleichsprobe auf @UUID[Compendium.tde5e.skills.Item.WI13315915718951]{Willenskraft} gelingen. Maximal kann die Paktiererin so KdV Chimären kontrollieren. Der Einsatz dieser Fähigkeit verursacht 1 Stufe @UUID[Compendium.tde5e.conditions.Item.DA21528191859282]{Dämonische Auszehrung}.",
        "parents": []
    },
    "effects": [],
    "folder": "DA30309060912592",
    "_key": "!items!CH13510582103467"
}
