{
    "_id": "CH14024015155158",
    "name": "Chrononautos",
    "type": "spell",
    "img": "systems/tde5e/assets/defaultItems/spell.svg",
    "system": {
        "castingTime": "8 ST",
        "castingTimeLong": "8 Stunden",
        "check": {
            "resistedBySpirit": false,
            "resistedByToughness": false,
            "resistanceIsHalfed": false,
            "attributes": [
                "courage",
                "charisma",
                "constitution"
            ]
        },
        "checkedSkill": null,
        "cid": "CHRONONAUTOS",
        "cost": {
            "text": "64 AsP, 16 pAsP",
            "textLong": "64 AsP, 16 davon permanent",
            "constant": 64,
            "recurring": null
        },
        "duration": "12 ST",
        "durationLong": "12 Stunden",
        "enhancements": [
            {
                "name": "Größerer Radius",
                "effect": "Der Radius beträgt 8 Schritt.",
                "skillPoints": 8,
                "owned": false
            },
            {
                "name": "Längere Wirkungsdauer",
                "effect": "Die Wirkungsdauer beträgt 24 Stunden.",
                "skillPoints": 11,
                "owned": false
            },
            {
                "name": "Länger zurückreichender Zeitpunkt",
                "effect": "Der Zeitpunkt, bis zu dem das Ritual zurückreicht, liegt bis zu QS x 250 Jahre in der Vergangenheit.",
                "skillPoints": 14,
                "owned": false
            }
        ],
        "group": "ritual",
        "modifications": {
            "canModCastingTime": true,
            "canModCost": false,
            "canModRange": true
        },
        "property": "temporal",
        "range": "16 m",
        "rangeLong": "16 Schritt",
        "requirementText": "keine",
        "sources": [
            "BOSPARANS_KATAKOMBEN",
            "LIBER_EXTENSIONUM"
        ],
        "subTraditions": "",
        "targetCategory": "Zone",
        "traditions": {
            "all": false,
            "values": [
                "Compendium.tde5e.magic.Item.TR10415123625209",
                "Compendium.tde5e.magic.Item.TR37561943665255",
                "Compendium.tde5e.magic.Item.TR20562116246223",
                "Compendium.tde5e.magic.Item.TR60602241216130"
            ]
        },
        "improvement": {
            "column": "D",
            "value": 0
        },
        "notes": "",
        "gmNotes": "",
        "flavor": "",
        "rule": "Der Zauberer legt einen Punkt innerhalb der Reichweite fest, der den Mittelpunkt einer Zone mit einem Radius von 4 Schritt bildet. Zudem bestimmt er einen Zeitpunkt, der maximal QS x 100 Jahre in der Vergangenheit liegen darf. Ist der Zauber erfolgreich, werden alle Wesen und unbefestigten Objekte, die innerhalb der Zone verweilen, an den gewählten Zeitpunkt transportiert, ohne jedoch den Ort zu wechseln. Am Ende der Wirkungsdauer werden sie an ihren Ursprungsort und in ihre Ursprungszeit zurückgeschleudert.",
        "parents": []
    },
    "effects": [],
    "folder": "SP18396136219154",
    "_key": "!items!CH14024015155158"
}
