{
    "_id": "CO91131541003620",
    "name": "Corpofrigo",
    "type": "spell",
    "img": "systems/tde5e/assets/defaultItems/spell.svg",
    "system": {
        "castingTime": "1 Akt",
        "castingTimeLong": "1 Aktion",
        "check": {
            "resistedBySpirit": false,
            "resistedByToughness": false,
            "resistanceIsHalfed": false,
            "attributes": [
                "sagacity",
                "charisma",
                "constitution"
            ]
        },
        "cid": "CORPOFRIGO",
        "cost": {
            "text": "8 AsP",
            "textLong": "8 AsP",
            "constant": 8,
            "recurring": null
        },
        "duration": "sofort",
        "durationLong": "sofort",
        "enhancements": [
            {
                "name": "Zielkategorie Objekt",
                "effect": "Der Zauber ist auch gegen Objekte einsetzbar.",
                "skillPoints": 8,
                "owned": false
            },
            {
                "name": "Erhöhter Schaden",
                "effect": "Der Zauber verursacht zusätzlich +1 SP. Diese Erweiterung kann bis zu 3 Mal angewendet werden.",
                "skillPoints": 11,
                "owned": false
            },
            {
                "name": "Zerstörer",
                "effect": "Gegen Ziele des Elements Wasser werden die SP verdoppelt.",
                "skillPoints": 14,
                "owned": false
            }
        ],
        "group": "incantation",
        "modifications": {
            "canModCastingTime": true,
            "canModCost": false,
            "canModRange": true
        },
        "property": "elemental",
        "range": "16 m",
        "rangeLong": "16 Schritt",
        "requirementText": "keine",
        "sources": [
            "BOSPARANS_KATAKOMBEN"
        ],
        "targetCategory": "Lebewesen",
        "traditions": {
            "all": false,
            "values": [
                "Compendium.tde5e.magic.Item.TR20562116246223"
            ]
        },
        "improvement": {
            "column": "B",
            "value": 0
        },
        "notes": "",
        "gmNotes": "",
        "flavor": "",
        "checkedSkill": null,
        "rule": "Der Zauber lässt das ausgewählte Lebewesen erstarren. Das Ziel erleidet 1W6+QS SP und den Zustand @UUID[Compendium.tde5e.conditions.Item.PA39138278624750]{paralyse}. Bei QS 5 und 6 sind es zwei Stufen des Zustands. Rüstungen schützen nicht gegen diesen Zauber. Der Zauberspruch trifft sein Ziel automatisch, der Gegner kann weder ausweichen noch parieren.",
        "parents": []
    },
    "effects": [],
    "folder": "SP15718021520213",
    "_key": "!items!CO91131541003620"
}
