{
    "_id": "DA23344187821921",
    "name": "Dämonenpakt beenden",
    "type": "spell",
    "img": "systems/tde5e/assets/defaultItems/spell.svg",
    "system": {
        "castingTime": "8 ST",
        "castingTimeLong": "8 Stunden",
        "check": {
            "resistedBySpirit": true,
            "resistedByToughness": false,
            "resistanceIsHalfed": false,
            "attributes": [
                "courage",
                "intuition",
                "charisma"
            ]
        },
        "checkedSkill": null,
        "cid": "DAMONENPAKT_BEENDEN",
        "cost": {
            "text": "32 AsP, 8 pAsP",
            "textLong": "32 AsP, 8 davon permanent",
            "constant": 32,
            "recurring": null
        },
        "duration": "sofort",
        "durationLong": "sofort",
        "enhancements": [
            {
                "name": "Unterdrückung",
                "effect": "Der Zauberer unterdrückt für QS x 2 Stunden die dämonischen Merkmale des Ziels. Dadurch werden sowohl dämonische Fähigkeiten als auch deren Nachteile temporär deaktiviert. Für diese Variante müssen keine permanenten AsP ausgegeben werden und die Ritualdauer beträgt nur 2 Stunden.",
                "skillPoints": 8,
                "owned": false
            },
            {
                "name": "Große Reue",
                "effect": "War der Paktierer ein Minderpaktierer und unterzog er sich dem Ritual freiwillig, verschwindet das Mal des Frevlers.",
                "skillPoints": 11,
                "owned": false
            },
            {
                "name": "Beschattung",
                "effect": "Als Reichweite gilt 16 Schritt, das Ziel muss sich bis auf kurze Unterbrechungen immer in Sichtweite des Zauberers befinden. Das Ritual wird durch Bewegung nicht unterbrochen, allerdings gelten die Regeln von aufrechterhaltenen Zaubern. Als Ort für die Ritualprobe gilt der Platz, an dem es vollendet wird.",
                "skillPoints": 14,
                "owned": false
            }
        ],
        "group": "ritual",
        "modifications": {
            "canModCastingTime": true,
            "canModCost": true,
            "canModRange": true
        },
        "property": "antiMagic",
        "range": "Berührung",
        "rangeLong": "Berührung",
        "requirementText": "keine",
        "sources": [
            "BOSPARANS_KATAKOMBEN",
            "LIBER_EXTENSIONUM"
        ],
        "subTraditions": "",
        "targetCategory": "Kulturschaffende (Paktierer)",
        "traditions": {
            "all": false,
            "values": [
                "Compendium.tde5e.magic.Item.TR60602241216130",
                "Compendium.tde5e.magic.Item.TR10415123625209",
                "Compendium.tde5e.magic.Item.TR20562116246223",
                "Compendium.tde5e.magic.Item.TR93186147562399"
            ]
        },
        "improvement": {
            "column": "C",
            "value": 0
        },
        "notes": "",
        "gmNotes": "",
        "flavor": "",
        "rule": "<p>Der Zauberer kann mit diesem Ritual versuchen, den Dämonenpakt eines Paktierers zu brechen. Die Probe ist dabei um verschiedene Modifikatoren, beispielsweise durch die Kreise der Verdammnis des Paktierers, modifiziert (<a href=\"https://dsa.ulisses-regelwiki.de/Fokus_Daemonenpakte.html\" target=\"blank\" rel=\"noopener noreferrer\">siehe Dämonenpakt</a>). Die Berührung muss nicht über die ganze Dauer des Rituals erfolgen. Der Meister hat hierbei das letzte Wort.</p>",
        "parents": []
    },
    "effects": [],
    "folder": "SP18396136219154",
    "_key": "!items!DA23344187821921"
}
