{
    "_id": "DA22421215564117",
    "name": "Dämonische Fertigkeiten",
    "type": "magicalAbility",
    "img": "systems/tde5e/assets/defaultItems/special_ability_magical.svg",
    "system": {
        "cid": "DAMONISCHE_FERTIGKEITEN",
        "cost": {
            "text": "",
            "constant": 0,
            "recurring": null
        },
        "group": "pactGift",
        "property": "",
        "purchase": {
            "cost": [
                20
            ],
            "description": "20 Abenteuerpunkte",
            "levels": 1,
            "maxTimeBuyable": null
        },
        "requirementText": "Dämonenpakt Stufe 1",
        "sources": [
            "AVENTURISCHE_MAGIE_3"
        ],
        "styleAbilities": [],
        "variant": {
            "categories": [],
            "input": false,
            "available": [],
            "level": 1,
            "selected": null
        },
        "flavor": "",
        "notes": "",
        "gmNotes": "",
        "rule": "Jeder Erzdämon kann einen Paktierer mit Fähigkeiten ausstatten, die sein gewöhnliches Leistungsmaß deutlich übersteigen. Je nach Erzdämon sind andere Fertigkeiten davon betroffen. Das ausgewählte Talent erhält einen Bonus von +4 FW. Die wählbaren Talente sind je nach Erzdämon unterschiedlich (siehe Tabelle <strong>Erzdämonen, Dämonische Attribute und Dämonische Fertigkeiten</strong>). Der Paktierer muss sich immer, wenn er das Paktgeschenk nutzen möchte, für eines der aufgeführten Talente entscheiden. Die Wirkung hält KdV x 5 Minuten an. Der Einsatz dieser Fähigkeit erfordert 1 Aktion und der Paktierer erhält 1 Stufe @UUID[Compendium.tde5e.conditions.Item.DA21528191859282]{Dämonische Auszehrung}.<p></p><br /><br /><p>Er kann auch hintereinander mehrere Talente wählen, muss aber dafür jedes Mal Zeit für den Einsatz des Paktgeschenks  aufwenden und erhält dafür jeweils 1 weitere Stufe @UUID[Compendium.tde5e.conditions.Item.DA21528191859282]{Dämonische Auszehrung}.</p>",
        "parents": []
    },
    "effects": [],
    "folder": "DA30309060912592",
    "_key": "!items!DA22421215564117"
}
