{
    "_id": "DA13612892522453",
    "name": "Dämonischer Fokus",
    "type": "magicalAbility",
    "img": "systems/tde5e/assets/defaultItems/special_ability_magical.svg",
    "system": {
        "cid": "DAMONISCHER_FOKUS",
        "cost": {
            "text": "",
            "constant": 0,
            "recurring": null
        },
        "group": "pactGift",
        "property": "",
        "purchase": {
            "cost": [
                15
            ],
            "description": "15 Abenteuerpunkte",
            "levels": 1,
            "maxTimeBuyable": 1
        },
        "requirementText": "Dämonenpakt Stufe 2",
        "sources": [
            "UNENDLICHKEIT_UND_TIEFENRAUSCH",
            "AVENTURISCHE_MAGIE_3"
        ],
        "styleAbilities": [],
        "variant": {
            "categories": [],
            "input": false,
            "available": [],
            "level": 1,
            "selected": null
        },
        "flavor": "",
        "notes": "",
        "gmNotes": "",
        "rule": "Der Paktierer erwählt sich einen Gegenstand, der zum Charakter seines Erzdämons passt, und lädt diesen mit dämonischer Macht auf. Dieser Vorgang dauert 7 Stunden, der Gegenstand bleibt danach für 7 Tage ein dämonischer Fokus und kann dazu benutzt werden, die Invokation von Dämonen aus der Domäne des Erzdämons zu erleichtern. Die dafür notwendige Probe wird um 1 erleichtert. Nur der Paktierer, der den dämonischen Fokus erschaffen hat, kann von der Erleichterung profitieren. Ein Paktierer kann keinen weiteren dämonischen Fokus erschaffen, während der vorherige noch aktiv ist. Der Einsatz dieser Fähigkeit verursacht 2 Stufen @UUID[Compendium.tde5e.conditions.Item.DA21528191859282]{Dämonische Auszehrung}.",
        "parents": []
    },
    "effects": [],
    "folder": "DA73976415352799",
    "_key": "!items!DA13612892522453"
}
