{
    "_id": "DE23071142108238",
    "name": "Desintegratus",
    "type": "spell",
    "img": "systems/tde5e/assets/defaultItems/spell.svg",
    "system": {
        "castingTime": "8 Akt",
        "castingTimeLong": "8 Aktionen",
        "check": {
            "resistedBySpirit": false,
            "resistedByToughness": false,
            "resistanceIsHalfed": false,
            "attributes": [
                "sagacity",
                "charisma",
                "strength"
            ]
        },
        "checkedSkill": null,
        "cid": "DESINTEGRATUS",
        "cost": {
            "text": "16 AsP",
            "textLong": "16 AsP",
            "constant": 16,
            "recurring": null
        },
        "duration": "sofort",
        "durationLong": "sofort",
        "enhancements": [
            {
                "name": "Höhere Zerstörungskraft",
                "effect": "Der Schaden steigt um QS x 10 Strukturpunkte. Diese Erweiterung kann mehrfach angewendet werden.",
                "skillPoints": 8,
                "owned": false
            },
            {
                "name": "Erodieren",
                "effect": "Die Wirkung des Zaubers tritt nicht sofort ein, sondern verteilt sich über bis zu 10 Minuten nach Wahl des Zauberers. Diese Erweiterung kann mehrfach angewendet werden, um die maximale Dauer zu erhöhen.",
                "skillPoints": 11,
                "owned": false
            },
            {
                "name": "Ausgeweitete Zerstörung",
                "effect": "Auch kleinere Gegenstände in bis zu 2 Schritt Abstand vom eigentlichen Ziel erleiden Schaden, z. B. Stühle in der Nähe eines betroffenen Tisches, nicht aber einzelne Steine einer Mauer.",
                "skillPoints": 14,
                "owned": false
            }
        ],
        "group": "incantation",
        "modifications": {
            "canModCastingTime": true,
            "canModCost": true,
            "canModRange": true
        },
        "property": "object",
        "range": "8 m",
        "rangeLong": "8 Schritt",
        "requirementText": "keine",
        "sources": [
            "BOSPARANS_KATAKOMBEN",
            "LIBER_EXTENSIONUM"
        ],
        "subTraditions": "",
        "targetCategory": "Profane Objekte",
        "traditions": {
            "all": false,
            "values": [
                "Compendium.tde5e.magic.Item.TR20562116246223"
            ]
        },
        "improvement": {
            "column": "B",
            "value": 0
        },
        "notes": "",
        "gmNotes": "",
        "flavor": "",
        "rule": "Das verzauberte Objekt verliert QS x 10 Strukturpunkte. Sinken die Strukturpunkte dadurch unter 1, zerfällt das Objekt zu Staub. Um Rüstungen zu zerstören, benötigt der Zauberer mindestens  QS in Höhe des Median der RS. Bei Waffen muss mindest QS in Höhe von Bruchfaktor / 4 erreicht werden um diese zu zerstören.",
        "parents": []
    },
    "effects": [],
    "folder": "SP15718021520213",
    "_key": "!items!DE23071142108238"
}
