{
    "_id": "DI54282072441751",
    "name": "Die Gabe Amazeroths",
    "type": "magicalAbility",
    "img": "systems/tde5e/assets/defaultItems/special_ability_magical.svg",
    "system": {
        "cid": "DIE_GABE_AMAZEROTHS",
        "cost": {
            "text": "",
            "constant": 0,
            "recurring": null
        },
        "group": "pactGift",
        "property": "",
        "purchase": {
            "cost": [
                20
            ],
            "description": "20 Abenteuerpunkte",
            "levels": 1,
            "maxTimeBuyable": 1
        },
        "requirementText": "Dämonenpakt Stufe 2 (Amazeroth)",
        "sources": [
            "AVENTURISCHE_MAGIE_3"
        ],
        "styleAbilities": [],
        "variant": {
            "categories": [],
            "input": false,
            "available": [],
            "level": 1,
            "selected": null
        },
        "flavor": "",
        "notes": "",
        "gmNotes": "",
        "rule": "Der Paktierer erhält den Vorteil Zauberer und muss dafür keine zusätzlichen AP ausgeben. Allerdings muss er sich für eine Tradition entscheiden und entsprechend die AP-Kosten der Traditionssonderfertigkeit tragen. Er kann sofort weitere AP für den Kauf und das Steigern von Zaubern und magischen Handlungen investieren KdV x 5 AP in weitere magische Vorteile. Diese Fähigkeit sorgt dafür, dass der Paktierer 3 permanente Stufen @UUID[Compendium.tde5e.conditions.Item.DA21528191859282]{Dämonische Auszehrung} erhält.",
        "parents": []
    },
    "effects": [],
    "folder": "DA73976415352799",
    "_key": "!items!DI54282072441751"
}
