{
    "_id": "DR27124478815127",
    "name": "Druidenrache",
    "type": "magicalAbility",
    "img": "systems/tde5e/assets/defaultItems/special_ability_magical.svg",
    "system": {
        "cid": "DRUIDENRACHE",
        "cost": {
            "text": "",
            "constant": 0,
            "recurring": null
        },
        "group": "magical",
        "property": "",
        "purchase": {
            "cost": [
                10
            ],
            "description": "10 Abenteuerpunkte",
            "levels": 1,
            "maxTimeBuyable": 1
        },
        "requirementText": "Vorteil Zauberer, SF Tradition (Druiden),  Mut 15,  15",
        "sources": [
            "DIE_STREITENDEN_KONIGREICHE",
            "AVENTURISCHE_MAGIE_3",
            "DIE_FLUSSLANDE"
        ],
        "styleAbilities": [],
        "variant": {
            "categories": [],
            "input": false,
            "available": [],
            "level": 1,
            "selected": null
        },
        "flavor": "",
        "notes": "",
        "gmNotes": "",
        "parents": [
            "Compendium.tde5e.magic.Item.TR10415123625209"
        ],
        "rule": "<p>Der Druide wendet sich 1 Minute mit gespreizten Beinen und ausgestreckten Armen nach Osten und nimmt Abschied von der Welt, denn von nun an hat er maximal noch 1 Stunde zu leben. Nach Ablauf dieser Zeit stirbt er und sein Körper zerfällt unwiederbringlich zu Staub oder Asche.<br /><br />Alle Zauber, die er in dieser Zeit wirkt, haben eine Erleichterung von 3. Zudem erhöht sich die QS von erfolgreich gewirkten Zaubern um 1 (bis hin zu einem Maximum von 6). Der Druide kann zudem zum Zaubern auf seine LeP zurückgreifen. Er darf sie im Verhältnis 1 zu 1 als AsP nutzen und kann beim Zaubern beliebig AsP als auch LeP einsetzen. Zusätzlich erhält der Druide noch AsP in Höhe seiner Leiteigenschaft hinzu. Seine Astralenergie kann in diesem Fall auch den Maximalwert des Druiden übersteigen.</p>"
    },
    "effects": [],
    "folder": "PA20111051426896",
    "_key": "!items!DR27124478815127"
}
