{
    "_id": "DU80140842261212",
    "name": "Dunkle Schale",
    "type": "artifactAbility",
    "img": "systems/tde5e/assets/defaultItems/artifact_ability.svg",
    "system": {
        "aspects": [],
        "binding": {
            "cost": "",
            "volume": "3 Punkte"
        },
        "brewType": null,
        "cid": "DUNKLE_SCHALE",
        "cost": {
            "text": "1 AsP pro 5 Minuten",
            "constant": 1,
            "recurring": {
                "interval": 1,
                "unit": "5 Minuten"
            }
        },
        "group": "alchemistBowl",
        "property": "object",
        "purchase": {
            "cost": [
                5
            ],
            "description": "5 Abenteuerpunkte",
            "levels": 1,
            "maxTimeBuyable": 1
        },
        "requirementText": "keine",
        "sources": [
            "BOSPARANS_KATAKOMBEN",
            "LIBER_EXTENSIONUM"
        ],
        "tradition": "Compendium.tde5e.magic.Item.TR21232425518411",
        "variant": {
            "categories": [],
            "input": false,
            "level": 1,
            "selected": null,
            "available": null
        },
        "flavor": "",
        "notes": "",
        "gmNotes": "",
        "parents": [
            "Compendium.tde5e.magic.Item.BI22131281721611"
        ],
        "rule": "<p>Das Innere der Schale ist absolut dunkel, kein Licht dringt dort hinein. Es stellt einen Sichtmodifikator der Stufe 4 dar.</p>"
    },
    "effects": [],
    "folder": "ZA20922218743141",
    "_key": "!items!DU80140842261212"
}
