{
    "_id": "DU31741387722312",
    "name": "Duplicatus",
    "type": "spell",
    "img": "systems/tde5e/assets/defaultItems/spell.svg",
    "system": {
        "castingTime": "2 Akt",
        "castingTimeLong": "2 Aktion",
        "check": {
            "resistedBySpirit": false,
            "resistedByToughness": false,
            "resistanceIsHalfed": false,
            "attributes": [
                "sagacity",
                "intuition",
                "charisma"
            ]
        },
        "checkedSkill": null,
        "cid": "DUPLICATUS",
        "cost": {
            "text": "4 / Dup.",
            "textLong": "4 AsP pro Doppelgänger (bei Misslingen entsprechend 2 AsP)",
            "constant": 0,
            "recurring": {
                "interval": 4,
                "unit": "Doppelgänger (bei Misslingen entsprechend 2 AsP)"
            }
        },
        "duration": "QS x 2 KR",
        "durationLong": "QS x 2 Kampfrunden",
        "enhancements": [
            {
                "name": "Gute Illusion",
                "effect": "Die @UUID[Compendium.tde5e.skills.Item.SI80193235230167]{Sinnesschärfe} -Probe, um die Illusion zu durchschauen, ist zusätzlich um 1 erschwert. Diese Erweiterung kann mehrfach angewendet werden.",
                "skillPoints": 8,
                "owned": false
            },
            {
                "name": "Duplizierte Waffe",
                "effect": "Der Zauberer belegt nicht sich selbst, sondern seine Nahkampfwaffe mit der Wirkung, so dass sich dessen Ziel nur mit der gegebenen Chance verteidigen darf. Die ursprüngliche Wirkung tritt nicht ein.",
                "skillPoints": 11,
                "owned": false
            },
            {
                "name": "Illusionäre Flucht",
                "effect": "Die Doppelgänger bleiben nicht beim Zauberer, sondern fliehen in entgegengesetzte Richtungen.",
                "skillPoints": 14,
                "owned": false
            }
        ],
        "group": "incantation",
        "modifications": {
            "canModCastingTime": true,
            "canModCost": true,
            "canModRange": true
        },
        "property": "illusion",
        "range": "Berührung",
        "rangeLong": "Berührung",
        "requirementText": "keine",
        "sources": [
            "BOSPARANS_KATAKOMBEN",
            "LIBER_EXTENSIONUM"
        ],
        "subTraditions": "",
        "targetCategory": "Lebewesen",
        "traditions": {
            "all": false,
            "values": [
                "Compendium.tde5e.magic.Item.TR20562116246223",
                "Compendium.tde5e.magic.Item.TR18517324589268"
            ]
        },
        "improvement": {
            "column": "C",
            "value": 0
        },
        "notes": "",
        "gmNotes": "",
        "flavor": "",
        "rule": "Der Zaubernde erzeugt bis zu QS illusionäre Doppelgänger des Ziels, die sich synchron zu ihm bewegen und ständig mit ihm verschmelzen und sich wieder von ihm trennen. Der Zaubernde kann sich entscheiden, weniger Doppelgänger als maximal möglich erscheinen zu lassen. Da die Doppelgänger nicht vom Zaubernden zu unterscheiden sind, haben Angreifer mit Nah- und Fernkampfangriffen oder Zaubern eine entsprechende Chance, einen der Doppelgänger statt des Zaubernden zu treffen. Wird ein solcher getroffen, verschwindet er, d.h. die Anzahl der Doppelgänger reduziert sich um 1. Verschwindet damit der letzte, endet der Zauber. Angriffe, die alle Klone treffen würden, treffen automatisch das eigentliche Ziel, zerstören dabei aber keine Klone. Sollte der Zaubernde statt eines Doppelgängers getroffen werden, kann er sich gegen den Angriff verteidigen (<a href=\"https://dsa.ulisses-regelwiki.de/Magie_Spezielle-Regeln-fuer-Spruchzauber_Illusionsregeln.html\" target=\"blank\" rel=\"noopener noreferrer\">Siehe Illusionen</a>).",
        "parents": []
    },
    "effects": [],
    "folder": "SP15718021520213",
    "_key": "!items!DU31741387722312"
}
