{
    "_id": "DU16418412217936",
    "name": "Durch feste Materie",
    "type": "spell",
    "img": "systems/tde5e/assets/defaultItems/spell.svg",
    "system": {
        "castingTime": "1 Akt",
        "castingTimeLong": "1 Aktion",
        "check": {
            "resistedBySpirit": false,
            "resistedByToughness": false,
            "resistanceIsHalfed": false,
            "attributes": [
                "intuition",
                "intuition",
                "constitution"
            ]
        },
        "checkedSkill": null,
        "cid": "DURCH_FESTE_MATERIE",
        "cost": {
            "text": "4 + 2 / KR",
            "textLong": "4 AsP (Aktivierung) + 2 AsP pro Kampfrunden",
            "constant": 4,
            "recurring": {
                "interval": 2,
                "unit": "Kampfrunden"
            }
        },
        "duration": "QS KR",
        "durationLong": "QS Kampfrunden",
        "enhancements": [],
        "group": "animistForce",
        "modifications": {
            "canModCastingTime": false,
            "canModCost": false,
            "canModRange": false
        },
        "property": "transformation",
        "range": "selbst",
        "rangeLong": "selbst",
        "requirementText": "keine",
        "sources": [
            "BOSPARANS_KATAKOMBEN",
            "LIBER_EXTENSIONUM"
        ],
        "subTraditions": "Mohas, Trollzacker",
        "targetCategory": "Kulturschaffende",
        "traditions": {
            "all": false,
            "values": [
                "Compendium.tde5e.magic.Item.TR22473791851201"
            ]
        },
        "improvement": {
            "column": "C",
            "value": 0
        },
        "notes": "",
        "gmNotes": "",
        "flavor": "",
        "rule": "Der Animist lässt eine Wesenheit in sich einfahren, die seinen physischen Körper und sein Traditionsartefakt durchscheinend werden lässt. Er kann sich während der Wirkungsdauer durch feste, unbelebte Materie und Objekte wie Wände, Türen und Tische, nicht aber durch lebende Wesen, hindurchbewegen. Der Animist ist während der Wirkungsdauer immun gegen profane Waffen, nicht jedoch gegen magische oder karmale Waffen oder Angriffe.",
        "parents": []
    },
    "effects": [],
    "folder": "SP86247228901671",
    "_key": "!items!DU16418412217936"
}
