{
    "_id": "EI13025198211662",
    "name": "Eindämmung des Kampfeswillens",
    "type": "artifactAbility",
    "img": "systems/tde5e/assets/defaultItems/artifact_ability.svg",
    "system": {
        "aspects": [],
        "binding": {
            "cost": "",
            "volume": "5 Punkte"
        },
        "brewType": null,
        "cid": "EINDAMMUNG_DES_KAMPFESWILLENS",
        "cost": {
            "text": "6 AsP",
            "constant": 6,
            "recurring": null
        },
        "group": "chronic",
        "property": "influence",
        "purchase": {
            "cost": [
                10
            ],
            "description": "10 Abenteuerpunkte",
            "levels": 1,
            "maxTimeBuyable": 1
        },
        "requirementText": "keine",
        "sources": [
            "BOSPARANS_KATAKOMBEN",
            "LIBER_EXTENSIONUM"
        ],
        "tradition": "Compendium.tde5e.magic.Item.TR23524614818820",
        "variant": {
            "categories": [],
            "input": false,
            "level": 1,
            "selected": null,
            "available": null
        },
        "flavor": "",
        "notes": "",
        "gmNotes": "",
        "parents": [
            "Compendium.tde5e.magic.Item.BI88464624112913"
        ],
        "rule": "<p>Durch das Rezitieren bestimmter Textstellen kann die Zibilja den Kampfwillen eines Gegners in einer Entfernung von bis zu 8 Schritt schwächen. Dessen Kampftechnikproben sind für 3 KR um 1 erschwert. Im Kampf gilt dies als taktische Einsatzmöglichkeit mit mindestens 3 FP*. Allerdings funktioniert dies nur bei Kulturschaffenden, die höchstens eine SK von 2 aufweisen.</p>"
    },
    "effects": [],
    "folder": "SI15718923514013",
    "_key": "!items!EI13025198211662"
}
