{
    "_id": "EL16820323771132",
    "name": "Elementarling",
    "type": "cantrip",
    "img": "systems/tde5e/assets/defaultItems/spell.svg",
    "system": {
        "cid": "ELEMENTARLING",
        "duration": "1 M",
        "durationLong": "1 Minute",
        "property": "elemental",
        "range": "1 m",
        "rangeLong": "1 Schritt",
        "requirementText": "",
        "sources": [
            "BOSPARANS_KATAKOMBEN",
            "LIBER_EXTENSIONUM"
        ],
        "targetCategory": "Zone",
        "traditions": {
            "all": false,
            "values": [
                "Compendium.tde5e.magic.Item.TR10415123625209",
                "Compendium.tde5e.magic.Item.TR93186147562399",
                "Compendium.tde5e.magic.Item.TR20562116246223"
            ]
        },
        "notes": "",
        "gmNotes": "",
        "flavor": "",
        "rule": "Maximal einen Schritt vom Magier entfernt erscheint eine elementare Gestalt, die an ein 20 cm großes Wesen aus Feuer, Luft oder einem anderen Element erinnert. Dieser Elementarling verbleibt bis zum Ende der Wirkungsdauer beim Magier und macht nichts weiter, als andere Personen freundlich anzustarren und gelegentlich zu kichern. Der Elementarling kann keine Objekte beschädigen, ein Feuerelementarling z. B. nichts verbrennen.",
        "parents": []
    },
    "effects": [],
    "folder": "SP45861142482726",
    "_key": "!items!EL16820323771132"
}
