{
    "_id": "ER75311182341571",
    "name": "Erdkraft",
    "type": "magicalAbility",
    "img": "systems/tde5e/assets/defaultItems/special_ability_magical.svg",
    "system": {
        "cid": "ERDKRAFT",
        "cost": {
            "text": "",
            "constant": 0,
            "recurring": null
        },
        "group": "spellStyleExtended",
        "property": "",
        "purchase": {
            "cost": [
                20
            ],
            "description": "20 Abenteuerpunkte",
            "levels": 1,
            "maxTimeBuyable": 1
        },
        "requirementText": "keine",
        "sources": [
            "AVENTURISCHE_MAGIE_2",
            "GLAUBE_MACHT_UND_HELDENMUT_DIE_STREITENDEN_KONIGREICHE"
        ],
        "styleAbilities": [],
        "variant": {
            "categories": [],
            "input": false,
            "available": [],
            "level": 1,
            "selected": null
        },
        "flavor": "",
        "notes": "",
        "gmNotes": "",
        "parents": [
            "Compendium.tde5e.magic.Item.BE19576374134138",
            "Compendium.tde5e.magic.Item.BE13411413119617",
            "Compendium.tde5e.magic.Item.DI24821215689720",
            "Compendium.tde5e.magic.Item.ER24524266164511",
            "Compendium.tde5e.magic.Item.GE14619411802252",
            "Compendium.tde5e.magic.Item.HE98226159203138",
            "Compendium.tde5e.magic.Item.HU18190531263221",
            "Compendium.tde5e.magic.Item.NA32221105511509",
            "Compendium.tde5e.magic.Item.KO19918015978236",
            "Compendium.tde5e.magic.Item.ME17215716627111",
            "Compendium.tde5e.magic.Item.ME19916612710562",
            "Compendium.tde5e.magic.Item.SU70426023471931",
            "Compendium.tde5e.magic.Item.WA38227148230142",
            "Compendium.tde5e.magic.Item.WI93845921613061"
        ],
        "rule": "<p>Übernachtet die Hexe auf der Erde (z. B. auf einer Wiese, an den Wurzeln eines Baumes, auf einem natürlichen Felsen), so erhält sie bei ihrer Regeneration +2 AsP. Sie erhält diesen Bonus nicht, wenn sie in einem Bett schläft (auch nicht, wenn dieses Bett in der freien Natur steht), wenn sie sich auf dem Wasser befindet (beispielsweise auf einem Schiff) oder wenn die Verbindung zu Sumu auf andere Art und Weise unterbrochen oder gestört ist. Der Meister hat hierüber das letzte Wort.</p>"
    },
    "effects": [],
    "folder": "ZA17820398219817",
    "_key": "!items!ER75311182341571"
}
