{
    "_id": "FA19019812819519",
    "name": "Fauliger Wasserstrahl",
    "type": "magicalAbility",
    "img": "systems/tde5e/assets/defaultItems/special_ability_magical.svg",
    "system": {
        "cid": "FAULIGER_WASSERSTRAHL",
        "cost": {
            "text": "",
            "constant": 0,
            "recurring": null
        },
        "group": "pactGift",
        "property": "",
        "purchase": {
            "cost": [
                10
            ],
            "description": "10 Abenteuerpunkte",
            "levels": 1,
            "maxTimeBuyable": 1
        },
        "requirementText": "Dämonenpakt Stufe 1 (Charyptoroth)",
        "sources": [
            "HAVENA_VERSUNKENE_GEHEIMNISSE",
            "AVENTURISCHE_MAGIE_3"
        ],
        "styleAbilities": [],
        "variant": {
            "categories": [],
            "input": false,
            "available": [],
            "level": 1,
            "selected": null
        },
        "flavor": "",
        "notes": "",
        "gmNotes": "",
        "rule": "Der faulige Wasserstrahl trifft auf ein vom Paktierer benanntes Ziel innerhalb einer Reichweite von 16 Schritt. Der Paktierer muss 1 Aktion aufwenden, um dieses Paktgeschenk einzusetzen. Der Strahl trifft automatisch, wenn er nicht verteidigt wird. Er zählt jedoch als Fernkampfangriff mit einer Schusswaffe und kann dementsprechend geblockt werden. Ausweichen ist ebenso möglich. An Schilden erzeugt er Strukturschaden, wenn er auf sie trifft. Das getroffene Ziel erleidet 2W6+(2x KdV) TP Schaden. Trifft der Wasserstrahl sein Ziel, werden die TP durch den RS des Ziels vermindert. Das Ziel erhält zudem bei 1-3 auf 1W6 1 Stufe des Zustands @UUID[Compendium.tde5e.conditions.Item.BE91425088509929]{Betäubung}. Der Paktierer erleidet beim Einsatz dieser Fähigkeit 1 Stufe @UUID[Compendium.tde5e.conditions.Item.DA21528191859282]{Dämonische Auszehrung}.",
        "parents": []
    },
    "effects": [],
    "folder": "DA30309060912592",
    "_key": "!items!FA19019812819519"
}
