{
    "_id": "FA39394177211921",
    "name": "Favilludo",
    "type": "spell",
    "img": "systems/tde5e/assets/defaultItems/spell.svg",
    "system": {
        "castingTime": "1 Akt",
        "castingTimeLong": "1 Aktion",
        "check": {
            "resistedBySpirit": false,
            "resistedByToughness": false,
            "resistanceIsHalfed": false,
            "attributes": [
                "intuition",
                "dexterity",
                "charisma"
            ]
        },
        "checkedSkill": null,
        "cid": "FAVILLUDO",
        "cost": {
            "text": "4 AsP",
            "textLong": "4 AsP",
            "constant": 4,
            "recurring": null
        },
        "duration": "1 + QS / 2 KR",
        "durationLong": "1 + QS /2 Kampfrunden",
        "enhancements": [
            {
                "name": "Kerzenschein",
                "effect": "Der Schein ist so hell wie eine Kerze, sodass der Zauberer als Lichtquelle zählt.",
                "skillPoints": 8,
                "owned": false
            },
            {
                "name": "Heiße Aura",
                "effect": "Der Schein verursacht bei Gegnern, die Nahkampfangriffe gegen den Verzauberten richten, bei 1 auf 1W6 je 1 SP an.",
                "skillPoints": 11,
                "owned": false
            },
            {
                "name": "Reichweite Berührung",
                "effect": "Als Reichweite gilt Berührung. Der Zauberspruch kann nur auf Kulturschaffende übertragen werden.",
                "skillPoints": 14,
                "owned": false
            }
        ],
        "group": "incantation",
        "modifications": {
            "canModCastingTime": true,
            "canModCost": true,
            "canModRange": true
        },
        "property": "elemental",
        "range": "selbst",
        "rangeLong": "selbst",
        "requirementText": "keine",
        "sources": [
            "BOSPARANS_KATAKOMBEN",
            "LIBER_EXTENSIONUM"
        ],
        "subTraditions": "",
        "targetCategory": "Kulturschaffende",
        "traditions": {
            "all": false,
            "values": [
                "Compendium.tde5e.magic.Item.TR20562116246223",
                "Compendium.tde5e.magic.Item.TR18517324589268"
            ]
        },
        "improvement": {
            "column": "A",
            "value": 0
        },
        "notes": "",
        "gmNotes": "",
        "flavor": "",
        "rule": "Das Ziel des Zaubers wird von einem Schwarm tanzender Funken umgeben. Ihre Farbe kann dabei beliebig gewählt werden. Angriffe gegen den Zauberer haben eine erhöhte Qualität von 1.",
        "parents": []
    },
    "effects": [],
    "folder": "SP15718021520213",
    "_key": "!items!FA39394177211921"
}
