{
    "_id": "FE12728428212989",
    "name": "Feenzauber",
    "type": "cantrip",
    "img": "systems/tde5e/assets/defaultItems/spell.svg",
    "system": {
        "cid": "FEENZAUBER",
        "duration": "10 M",
        "durationLong": "10 Minuten",
        "property": "spheres",
        "range": "selbst",
        "rangeLong": "selbst",
        "requirementText": "",
        "sources": [
            "BOSPARANS_KATAKOMBEN",
            "LIBER_EXTENSIONUM"
        ],
        "targetCategory": "Kulturschaffende",
        "traditions": {
            "all": false,
            "values": [
                "Compendium.tde5e.magic.Item.TR20562116246223",
                "Compendium.tde5e.magic.Item.TR18517324589268"
            ]
        },
        "notes": "",
        "gmNotes": "",
        "flavor": "",
        "rule": "Der Magier ist von einem Glimmen umgeben, das an leuchtenden Feenstaub erinnert und ihm etwas Mystisches verleiht. Weitere Auswirkungen hat das feenhafte Leuchten jedoch nicht.",
        "parents": []
    },
    "effects": [],
    "folder": "SP45861142482726",
    "_key": "!items!FE12728428212989"
}
