{
    "_id": "FE25120134223671",
    "name": "Fernkampfmurks",
    "type": "artifactAbility",
    "img": "systems/tde5e/assets/defaultItems/artifact_ability.svg",
    "system": {
        "aspects": [],
        "binding": {
            "cost": "",
            "volume": "6 Punkte"
        },
        "brewType": null,
        "cid": "FERNKAMPFMURKS",
        "cost": {
            "text": "4 AsP",
            "constant": 4,
            "recurring": null
        },
        "group": "rogueCap",
        "property": "telekinesis",
        "purchase": {
            "cost": [
                10
            ],
            "description": "10 Abenteuerpunkte",
            "levels": 1,
            "maxTimeBuyable": 1
        },
        "requirementText": "keine",
        "sources": [
            "BOSPARANS_KATAKOMBEN",
            "LIBER_EXTENSIONUM"
        ],
        "tradition": "Compendium.tde5e.magic.Item.TR44241162842057",
        "variant": {
            "categories": [],
            "input": false,
            "level": 1,
            "selected": null,
            "available": null
        },
        "flavor": "",
        "notes": "",
        "gmNotes": "",
        "parents": [
            "Compendium.tde5e.magic.Item.BI13324519577249"
        ],
        "rule": "<p>Wird der Schelm Ziel eines Angriffs durch eine Fernkampftechnik, kann er den Schadenswurf auf das Minimum (1 auf W6) und die QS auf 1 reduzieren. Die Gruppenkampfprobe und Auswahl der Einsatzmöglichkeit en sind davon unbeeinflusst.</p>"
    },
    "effects": [],
    "folder": "NA11911510812811",
    "_key": "!items!FE25120134223671"
}
