{
    "_id": "FE12613020413756",
    "name": "Fesselnde Gewandung",
    "type": "artifactAbility",
    "img": "systems/tde5e/assets/defaultItems/artifact_ability.svg",
    "system": {
        "aspects": [],
        "binding": {
            "cost": "",
            "volume": "3 Punkte"
        },
        "brewType": null,
        "cid": "FESSELNDE_GEWANDUNG",
        "cost": {
            "text": "4 AsP",
            "constant": 4,
            "recurring": null
        },
        "group": "dancerAttire",
        "property": "object",
        "purchase": {
            "cost": [
                5
            ],
            "description": "5 Abenteuerpunkte",
            "levels": 1,
            "maxTimeBuyable": 1
        },
        "requirementText": "Besitzanspruch",
        "sources": [
            "BOSPARANS_KATAKOMBEN",
            "LIBER_EXTENSIONUM"
        ],
        "tradition": "Compendium.tde5e.magic.Item.TR24231133849412",
        "variant": {
            "categories": [],
            "input": false,
            "level": 1,
            "selected": null,
            "available": null
        },
        "flavor": "",
        "notes": "",
        "gmNotes": "",
        "parents": [
            "Compendium.tde5e.magic.Item.BE14510513017219"
        ],
        "rule": "<p>Wird die Zauberkleidung von jemand anderem als der Zaubertänzerin getragen, kann sie den Träger durch die Zauberkleidung fesseln lassen. Um sich von der Zauberkleidung zu befreien, ist eine Sammelprobe auf @UUID[Compendium.tde5e.skills.Item.AK92342342043211]{Akrobatik (Entwinden)} <em>, 1 KR, 7 Versuche</em>, notwendig. Die Reichweite dieses Gewandzaubers ist nicht begrenzt, er funktioniert aber nur innerhalb der Dritten Sphäre.</p>"
    },
    "effects": [],
    "folder": "ZA22018418563657",
    "_key": "!items!FE12613020413756"
}
