{
    "_id": "FE12722673105165",
    "name": "Feuerpfeil",
    "type": "spell",
    "img": "systems/tde5e/assets/defaultItems/spell.svg",
    "system": {
        "castingTime": "2 Akt",
        "castingTimeLong": "2 Aktion",
        "check": {
            "resistedBySpirit": false,
            "resistedByToughness": false,
            "resistanceIsHalfed": false,
            "attributes": [
                "intuition",
                "charisma",
                "dexterity"
            ]
        },
        "checkedSkill": null,
        "cid": "FEUERPFEIL",
        "cost": {
            "text": "2 AsP",
            "textLong": "2 AsP",
            "constant": 2,
            "recurring": null
        },
        "duration": "QS KR",
        "durationLong": "QS Kampfrunden",
        "enhancements": [
            {
                "name": "Längere Wirkungsdauer",
                "effect": "Die Wirkungsdauer erhöht sich auf QS Stunden. Die Kosten steigen auf 4 AsP und sind nicht mehr modifizierbar.",
                "skillPoints": 8,
                "owned": false
            },
            {
                "name": "Mehr Geschosse",
                "effect": "Bis zu QS Geschosse können verzaubert werden.",
                "skillPoints": 11,
                "owned": false
            },
            {
                "name": "Elementarschaden",
                "effect": "Elementarwesen des Wassers erleiden +4 TP.",
                "skillPoints": 14,
                "owned": false
            }
        ],
        "group": "incantation",
        "modifications": {
            "canModCastingTime": true,
            "canModCost": true,
            "canModRange": true
        },
        "property": "elemental",
        "range": "Berührung",
        "rangeLong": "Berührung",
        "requirementText": "keine",
        "sources": [
            "BOSPARANS_KATAKOMBEN",
            "LIBER_EXTENSIONUM"
        ],
        "subTraditions": "",
        "targetCategory": "Objekte",
        "traditions": {
            "all": false,
            "values": [
                "Compendium.tde5e.magic.Item.TR37561943665255"
            ]
        },
        "improvement": {
            "column": "A",
            "value": 0
        },
        "notes": "",
        "gmNotes": "",
        "flavor": "",
        "rule": "Die Munition einer Fernkampfwaffe oder eine Wurfwaffe wird mit elementarer Kraft gestärkt. Trifft das Geschoss ein entflammbares Ziel, wird dieses angezündet. Handelt es sich dabei um Kleidung, erhält der Träger den Status @UUID[Compendium.tde5e.conditions.Item.BR21523817083921]{Brand} auf kleiner Fläche. Zudem zählt der Pfeil als magische Waffe. Die magische Wirkung entlädt sich bei einem Treffer augenblicklich, sodass das Geschoss die Wirkung nicht mehrfach anrichten kann. Der Status hält nach dem Ende der Wirkungsdauer an.",
        "parents": []
    },
    "effects": [],
    "folder": "SP15718021520213",
    "_key": "!items!FE12722673105165"
}
