{
    "_id": "FE11253920131101",
    "name": "Feuerfinger",
    "type": "cantrip",
    "img": "systems/tde5e/assets/defaultItems/spell.svg",
    "system": {
        "cid": "FEUERFINGER",
        "duration": "5 M",
        "durationLong": "5 Minuten",
        "property": "elemental",
        "range": "selbst",
        "rangeLong": "selbst",
        "requirementText": "",
        "sources": [
            "BOSPARANS_KATAKOMBEN",
            "LIBER_EXTENSIONUM"
        ],
        "targetCategory": "Kulturschaffende",
        "traditions": {
            "all": true,
            "values": []
        },
        "notes": "",
        "gmNotes": "",
        "flavor": "",
        "rule": "Eine kleine Flamme entsteht etwa einen Zentimeter über einem Finger des Zaubernden. Sie brennt bis zu 5 Minuten. Der Zaubertrick schützt die Hand nicht vor der Hitze der Flamme.",
        "parents": []
    },
    "effects": [],
    "folder": "SP45861142482726",
    "_key": "!items!FE11253920131101"
}
