{
    "_id": "FO15217019524816",
    "name": "Fortifex",
    "type": "spell",
    "img": "systems/tde5e/assets/defaultItems/spell.svg",
    "system": {
        "castingTime": "4 Akt",
        "castingTimeLong": "4 Aktionen",
        "check": {
            "resistedBySpirit": false,
            "resistedByToughness": false,
            "resistanceIsHalfed": false,
            "attributes": [
                "courage",
                "intuition",
                "constitution"
            ]
        },
        "checkedSkill": null,
        "cid": "FORTIFEX",
        "cost": {
            "text": "16 AsP",
            "textLong": "16 AsP",
            "constant": 16,
            "recurring": null
        },
        "duration": "15 KR",
        "durationLong": "15 Kampfrunden",
        "enhancements": [
            {
                "name": "Dichtere Wand",
                "effect": "Die Wand hat zusätzlich QS x 10 Strukturpunkte. Diese Erweiterung kann mehrfach angewendet werden.",
                "skillPoints": 8,
                "owned": false
            },
            {
                "name": "Bewegliche Wand",
                "effect": "Die Wand bewegt sich relativ zur Position und Orientierung des Magiers mit.",
                "skillPoints": 11,
                "owned": false
            },
            {
                "name": "Rampe",
                "effect": "Die Wand kann beliebig orientiert werden, um auch vertikal oder schräg stehen zu können.",
                "skillPoints": 14,
                "owned": false
            }
        ],
        "group": "incantation",
        "modifications": {
            "canModCastingTime": true,
            "canModCost": true,
            "canModRange": true
        },
        "property": "telekinesis",
        "range": "8 m",
        "rangeLong": "8 Schritt",
        "requirementText": "keine",
        "sources": [
            "BOSPARANS_KATAKOMBEN",
            "LIBER_EXTENSIONUM"
        ],
        "subTraditions": "",
        "targetCategory": "Zone",
        "traditions": {
            "all": false,
            "values": [
                "Compendium.tde5e.magic.Item.TR20562116246223",
                "Compendium.tde5e.magic.Item.TR18517324589268"
            ]
        },
        "improvement": {
            "column": "B",
            "value": 0
        },
        "notes": "",
        "gmNotes": "",
        "flavor": "",
        "rule": "Durch den Fortifex entsteht eine durchscheinende, allerdings leicht flimmernde (und damit sichtbare) Wand, die für physische Objekte undurchdringlich ist. Die Wand kann beispielsweise Pfeile, Bolzen, einen @UUID[Compendium.tde5e.magic.Item.IG13318024411611]{Ignifaxius} oder Lebewesen aufhalten. Sie schützt nicht vor Hitze, Kälte, Licht, Gasen, körperlosen Wesen oder Zaubern und Liturgien, die keine physische Komponente aufweisen. Der Zauberer muss einen Mittelpunkt innerhalb der Reichweite des Zauberspruchs benennen. Von dort aus wirkt gradlinig eine Barriere, die QS x 2 Schritt lang ist. Den exakten Verlauf durch den Mittelpunkt kann der Zauberer festlegen. Die Höhe der Barriere beträgt 3 Schritt. Eine Tiefe besitzt die Wand nicht. Man kann sie nur aufgerichtet platzieren, nicht flach hinlegen oder schräg stellen. Die Wand besitzt 100 Strukturpunkte. Sollten die Strukturpunkte auf 0 oder darunter sinken, löst sie sich auf.",
        "parents": []
    },
    "effects": [],
    "folder": "SP15718021520213",
    "_key": "!items!FO15217019524816"
}
