{
    "_id": "FR21832190152352",
    "name": "Frostwelle",
    "type": "artifactAbility",
    "img": "systems/tde5e/assets/defaultItems/artifact_ability.svg",
    "system": {
        "aspects": [],
        "binding": {
            "cost": "",
            "volume": "4 Punkte"
        },
        "brewType": null,
        "cid": "FROSTWELLE",
        "cost": {
            "text": "10 AsP",
            "constant": 10,
            "recurring": null
        },
        "group": "geodeRing",
        "property": "elemental",
        "purchase": {
            "cost": [
                15
            ],
            "description": "15 Abenteuerpunkte",
            "levels": 1,
            "maxTimeBuyable": 1
        },
        "requirementText": "Eiskristalle",
        "sources": [
            "BOSPARANS_KATAKOMBEN",
            "LIBER_EXTENSIONUM"
        ],
        "tradition": "Compendium.tde5e.magic.Item.TR93186147562399",
        "variant": {
            "categories": [],
            "input": false,
            "level": 1,
            "selected": null,
            "available": null
        },
        "flavor": "",
        "notes": "",
        "gmNotes": "",
        "parents": [
            "Compendium.tde5e.magic.Item.EI23212525583344"
        ],
        "rule": "<p>In einem Radius von 16 Schritt um de n Geoden herum entsteht ein eisiger Hauch, der allen Lebewesen 1W6 SP zufügt und eine Probe auf @UUID[Compendium.tde5e.skills.Item.SE24510070128212]{Selbstbeherrschung (Handlungsfähigkeit bewahren)} abverlangt, bei deren misslingen sie 1 Stufe @UUID[Compendium.tde5e.conditions.Item.PA39138278624750]{Paralyse} erleiden. Im Kampf gilt dies als taktische Einsatzmöglichkeit mit mindestens 3 FP*.</p>"
    },
    "effects": [],
    "folder": "GE36248242761091",
    "_key": "!items!FR21832190152352"
}
