{
    "_id": "GE23221518715624",
    "name": "Gefunden",
    "type": "spell",
    "img": "systems/tde5e/assets/defaultItems/spell.svg",
    "system": {
        "castingTime": "8 Akt",
        "castingTimeLong": "8 Aktionen",
        "check": {
            "resistedBySpirit": false,
            "resistedByToughness": false,
            "resistanceIsHalfed": false,
            "attributes": [
                "sagacity",
                "intuition",
                "agility"
            ]
        },
        "checkedSkill": null,
        "cid": "GEFUNDEN",
        "cost": {
            "text": "2 AsP",
            "textLong": "2 AsP",
            "constant": 2,
            "recurring": null
        },
        "duration": "sofort",
        "durationLong": "sofort",
        "enhancements": [
            {
                "name": "Höhere Reichweite",
                "effect": "Das gesuchte Objekt darf bis zu QS x 50 Schritt entfernt sein.",
                "skillPoints": 8,
                "owned": false
            },
            {
                "name": "Ortung",
                "effect": "Befindet sich das Objekt außerhalb der Reichweite, schlägt der Zauber nicht fehl. Stattdessen kann der Zauberer die Entfernung, aber nicht die Richtung bestimmen.",
                "skillPoints": 11,
                "owned": false
            },
            {
                "name": "Spontane Verbindung",
                "effect": "Der Zauberer kann einen beliebigen Gegenstand wählen, den er innerhalb der letzten Woche berührt hat.",
                "skillPoints": 14,
                "owned": false
            }
        ],
        "group": "incantation",
        "modifications": {
            "canModCastingTime": true,
            "canModCost": true,
            "canModRange": true
        },
        "property": "clairvoyance",
        "range": "selbst",
        "rangeLong": "selbst",
        "requirementText": "keine",
        "sources": [
            "BOSPARANS_KATAKOMBEN",
            "LIBER_EXTENSIONUM"
        ],
        "subTraditions": "",
        "targetCategory": "Objekte",
        "traditions": {
            "all": false,
            "values": [
                "Compendium.tde5e.magic.Item.TR60602241216130",
                "Compendium.tde5e.magic.Item.TR18517324589268"
            ]
        },
        "improvement": {
            "column": "A",
            "value": 0
        },
        "notes": "",
        "gmNotes": "",
        "flavor": "",
        "rule": "Der Zauberer kann die Richtung bestimmen, in der sich ein persönlicher Gegenstand befindet. Er muss das Objekt gut kennen oder über eine magische Verbindung zu ihm verfügen. Ist das Objekt weiter als QS x 10 Schritt von ihm entfernt, scheitert der Zauber.",
        "parents": []
    },
    "effects": [],
    "folder": "SP15718021520213",
    "_key": "!items!GE23221518715624"
}
