{
    "_id": "GE12520717722545",
    "name": "Gegnerische Zauberpraxis",
    "type": "magicalAbility",
    "img": "systems/tde5e/assets/defaultItems/special_ability_magical.svg",
    "system": {
        "cid": "GEGNERISCHE_ZAUBERPRAXIS_ELEMENT",
        "cost": {
            "text": "",
            "constant": 0,
            "recurring": null
        },
        "group": "spellStyleExtended",
        "property": "",
        "purchase": {
            "cost": [
                5
            ],
            "description": "5 Abenteuerpunkte",
            "levels": 1,
            "maxTimeBuyable": 1
        },
        "requirementText": "keine",
        "sources": [
            "AVENTURISCHE_MAGIE_3"
        ],
        "styleAbilities": [],
        "variant": {
            "categories": [
                {
                    "scope": "translation",
                    "type": "elements",
                    "groups": []
                }
            ],
            "input": false,
            "available": [],
            "level": 1,
            "selected": null
        },
        "flavor": "",
        "notes": "",
        "gmNotes": "",
        "rule": "Gegen Zauber mit dem Merkmal Elementar, die auf dem gewählten Element basieren, erhält der Abenteurer eine Erleichterung von 2 auf seine Verteidigung (gleich ob es eine Probe auf Ausweichen, eine Parade oder eine Fertigkeitsprobe ist). Der Held muss beim Wirken des Zaubers die Formel gehört oder die Geste gesehen haben, damit er die Erleichterung erhält.",
        "parents": []
    },
    "effects": [],
    "folder": "ZA17820398219817",
    "_key": "!items!GE12520717722545"
}
