{
    "_id": "GE12874651402012",
    "name": "Geisterruf",
    "type": "spell",
    "img": "systems/tde5e/assets/defaultItems/spell.svg",
    "system": {
        "castingTime": "5 M",
        "castingTimeLong": "5 Minuten",
        "check": {
            "resistedBySpirit": false,
            "resistedByToughness": false,
            "resistanceIsHalfed": false,
            "attributes": [
                "courage",
                "charisma",
                "constitution"
            ]
        },
        "checkedSkill": null,
        "cid": "GEISTERRUF",
        "cost": {
            "text": "8 AsP",
            "textLong": "8 AsP",
            "constant": 8,
            "recurring": null
        },
        "duration": "sofort",
        "durationLong": "sofort",
        "enhancements": [
            {
                "name": "Mehr Dienste",
                "effect": "Der Zauberer kann einen zusätzlichen Dienst von dem Wesen verlangen. Diese Erweiterung kann mehrfach angewendet werden.",
                "skillPoints": 8,
                "owned": false
            },
            {
                "name": "Längerer Dienst",
                "effect": "Der Zeitraum, nachdem das Wesen automatisch einen Dienst verliert, erhöht sich um 3 Tage. Diese Erweiterung kann bis zu 3 Mal angewendet werden, um die Verfallsdauer auf 4, 7 bzw. 10 Tage zu erhöhen.",
                "skillPoints": 11,
                "owned": false
            },
            {
                "name": "Freundliche Einstellung",
                "effect": "Bittproben sind gegenüber dem Wesen um 1 erleichtert. Diese Erweiterung kann mehrfach angewendet werden.",
                "skillPoints": 14,
                "owned": false
            }
        ],
        "group": "ritual",
        "modifications": {
            "canModCastingTime": true,
            "canModCost": true,
            "canModRange": true
        },
        "property": "spheres",
        "range": "8 m",
        "rangeLong": "8 Schritt",
        "requirementText": "keine",
        "sources": [
            "BOSPARANS_KATAKOMBEN",
            "LIBER_EXTENSIONUM"
        ],
        "subTraditions": "",
        "targetCategory": "Geister",
        "traditions": {
            "all": false,
            "values": [
                "Compendium.tde5e.magic.Item.TR10415123625209",
                "Compendium.tde5e.magic.Item.TR20562116246223",
                "Compendium.tde5e.magic.Item.TR60602241216130",
                "Compendium.tde5e.magic.Item.TR52194209152352",
                "Compendium.tde5e.magic.Item.TR93186147562399"
            ]
        },
        "improvement": {
            "column": "B",
            "value": 0
        },
        "notes": "",
        "gmNotes": "",
        "flavor": "",
        "rule": "Der Zauberer ruft einen niederen Geist einer verstorbenen Person innerhalb eines Radius von 49 Schritt herbei (<a href=\"https://dsa.ulisses-regelwiki.de/herbeirufung.html\" target=\"blank\" rel=\"noopener noreferrer\">Siehe Herbeirufung</a>).",
        "parents": []
    },
    "effects": [],
    "folder": "SP18396136219154",
    "_key": "!items!GE12874651402012"
}
