{
    "_id": "GE13322922615710",
    "name": "Geisteressenz",
    "type": "spell",
    "img": "systems/tde5e/assets/defaultItems/spell.svg",
    "system": {
        "castingTime": "4 Akt",
        "castingTimeLong": "4 Aktionen",
        "check": {
            "resistedBySpirit": false,
            "resistedByToughness": false,
            "resistanceIsHalfed": false,
            "attributes": [
                "courage",
                "sagacity",
                "charisma"
            ]
        },
        "checkedSkill": null,
        "cid": "GEISTERESSENZ",
        "cost": {
            "text": "4 AsP",
            "textLong": "4 AsP",
            "constant": 4,
            "recurring": null
        },
        "duration": "sofort",
        "durationLong": "sofort",
        "enhancements": [
            {
                "name": "Größere Menge",
                "effect": "Die Menge der Essenz steigt um 0,1 l pro QS. Diese Erweiterung kann mehrfach angewendet werden.",
                "skillPoints": 8,
                "owned": false
            },
            {
                "name": "Flüchtige Substanz",
                "effect": "Die herbeigerufene Menge ist zehnfach so groß, verschwindet aber nach QS x 30 Minuten wieder.",
                "skillPoints": 11,
                "owned": false
            },
            {
                "name": "Verformung",
                "effect": "Die herbeigerufene Essenz kann für eine Minute beliebig verformt werden, beispielsweise um solide Körper zu schärfen oder Flüssigkeiten in eine Flasche zu füllen.",
                "skillPoints": 14,
                "owned": false
            }
        ],
        "group": "incantation",
        "modifications": {
            "canModCastingTime": true,
            "canModCost": true,
            "canModRange": true
        },
        "property": "elemental",
        "range": "1 m",
        "rangeLong": "1 Schritt",
        "requirementText": "keine",
        "sources": [
            "GRIMORUM_CANTIONES"
        ],
        "subTraditions": "",
        "targetCategory": "Objekt",
        "traditions": {
            "all": true,
            "values": []
        },
        "improvement": {
            "column": "A",
            "value": 0
        },
        "notes": "",
        "gmNotes": "",
        "flavor": "",
        "rule": "Es manifestiert sich eine Handvoll einer zufälligen, geisterhaften Essenz. Dabei handelt es sich um einfache Manifestationen wie halbdurchscheinende Spinnweben, Schattenflecken oder einen kalten Hauch. Zauberer erlernen diesen Zauberspruch früh in ihrer Ausbildung, um die Grundzüge der Herbeirufung von Geistern zu erlernen (insgesamt erscheint etwa eine Menge von 0,05 l pro QS).",
        "parents": []
    },
    "effects": [],
    "folder": "SP15718021520213",
    "_key": "!items!GE13322922615710"
}
