{
    "_id": "GE12738927315212",
    "name": "Geräuschhexerei",
    "type": "cantrip",
    "img": "systems/tde5e/assets/defaultItems/spell.svg",
    "system": {
        "cid": "GERAUSCHHEXEREI",
        "duration": "sofort",
        "durationLong": "sofort",
        "property": "illusion",
        "range": "16 m",
        "rangeLong": "16 Schritt",
        "requirementText": "",
        "sources": [
            "BOSPARANS_KATAKOMBEN",
            "LIBER_EXTENSIONUM"
        ],
        "targetCategory": "Zone",
        "traditions": {
            "all": false,
            "values": [
                "Compendium.tde5e.magic.Item.TR52194209152352",
                "Compendium.tde5e.magic.Item.TR44241162842057"
            ]
        },
        "notes": "",
        "gmNotes": "",
        "flavor": "",
        "rule": "Ein Lachen, Rülpsen oder Furzen ist zu hören.",
        "parents": []
    },
    "effects": [],
    "folder": "SP45861142482726",
    "_key": "!items!GE12738927315212"
}
