{
    "_id": "GE20938146212214",
    "name": "Gespür des Dolches",
    "type": "artifactAbility",
    "img": "systems/tde5e/assets/defaultItems/artifact_ability.svg",
    "system": {
        "aspects": [],
        "binding": {
            "cost": "",
            "volume": "3 Punkte"
        },
        "brewType": null,
        "cid": "GESPUR_DES_DOLCHES",
        "cost": {
            "text": "1 AsP",
            "constant": 1,
            "recurring": null
        },
        "group": "druidDagger",
        "property": "clairvoyance",
        "purchase": {
            "cost": [
                5
            ],
            "description": "5 Abenteuerpunkte",
            "levels": 1,
            "maxTimeBuyable": 1
        },
        "requirementText": "Dolch-Apport",
        "sources": [
            "BOSPARANS_KATAKOMBEN",
            "LIBER_EXTENSIONUM"
        ],
        "tradition": "Compendium.tde5e.magic.Item.TR10415123625209",
        "variant": {
            "categories": [],
            "input": false,
            "level": 1,
            "selected": null,
            "available": null
        },
        "flavor": "",
        "notes": "",
        "gmNotes": "",
        "parents": [
            "Compendium.tde5e.magic.Item.DO23519723025217"
        ],
        "rule": "<p>Der Druide versenkt den Dolch in den Erdboden, investiert 1 AsP und kann spüren, ob sich im Radius von 32 Schritt um den Punkt, an dem der Dolch versenkt wurde, Orte der Macht, Druidenhaine, Kraftlinien oder Kraftknoten befinden. Außerdem spürt er, ob die Umgebung dämonisch pervertiert ist, sich ein niederer Dämon in den letzten 24 Stunden hier aufgehalten hat, und ob ein unsichtbares Wesen anwesend ist. Den genauen Punkt innerhalb des Radius kann der Druide für diese Phänomene nicht bestimmen.</p>"
    },
    "effects": [],
    "folder": "DR17331238762122",
    "_key": "!items!GE20938146212214"
}
