{
    "_id": "GE24659253164481",
    "name": "Gestapelter Zauberspeicher",
    "type": "artifactAbility",
    "img": "systems/tde5e/assets/defaultItems/artifact_ability.svg",
    "system": {
        "aspects": [],
        "binding": {
            "cost": "",
            "volume": "3 Punkte pro Stufe"
        },
        "brewType": null,
        "cid": "GESTAPELTER_ZAUBERSPEICHER",
        "cost": {
            "text": "keine ( außer die des gespeicherten Zauberspruchs)",
            "constant": 0,
            "recurring": null
        },
        "group": "guildmageStaff",
        "property": "object",
        "purchase": {
            "cost": [
                25,
                25
            ],
            "description": "25 Abenteuerpunkte pro Stufe",
            "levels": 2,
            "maxTimeBuyable": 2
        },
        "requirementText": "Vorherige Stufe des Stabzaubers, Zauberspeicher des Adepten, Merkmalsfokus für die zu speichernden Zauber",
        "sources": [
            "BOSPARANS_KATAKOMBEN",
            "LIBER_EXTENSIONUM"
        ],
        "tradition": "Compendium.tde5e.magic.Item.TR20562116246223",
        "variant": {
            "categories": [],
            "input": false,
            "level": 1,
            "selected": null,
            "available": null
        },
        "flavor": "",
        "notes": "",
        "gmNotes": "",
        "parents": [
            "Compendium.tde5e.magic.Item.ZA63117158143199"
        ],
        "rule": "<p>Der Zauberer kann in seinen Zauberspeicher mehr als einen Zauber binden. Pro Stufe der Sonderfertigkeit kann er einen zusätzlichen Zauber binden und entscheiden, welcher der gestapelten Zauber ausgelöst wird.</p>"
    },
    "effects": [],
    "folder": "GI21114247636140",
    "_key": "!items!GE24659253164481"
}
