{
    "_id": "GE17129121238624",
    "name": "Gestalt aus Rauch",
    "type": "spell",
    "img": "systems/tde5e/assets/defaultItems/spell.svg",
    "system": {
        "castingTime": "5 M",
        "castingTimeLong": "5 Minuten",
        "check": {
            "resistedBySpirit": false,
            "resistedByToughness": false,
            "resistanceIsHalfed": false,
            "attributes": [
                "intuition",
                "charisma",
                "dexterity"
            ]
        },
        "checkedSkill": null,
        "cid": "GESTALT_AUS_RAUCH",
        "cost": {
            "text": "4/8/12/16 AsP",
            "textLong": "4/8/12/16 AsP (winziges/kleines/mittleres/großes Wesen)",
            "constant": 4,
            "recurring": null
        },
        "duration": "QS ST",
        "durationLong": "QS Stunden",
        "enhancements": [],
        "group": "geodeRitual",
        "modifications": {
            "canModCastingTime": false,
            "canModCost": false,
            "canModRange": false
        },
        "property": "spheres",
        "range": "1 S",
        "rangeLong": "1 Schritt",
        "requirementText": "Anhänger der Geoden-Schule: Herren der Erde",
        "sources": [
            "AVENTURISCHE_MAGIE_3",
            "KODEX_DER_MAGIE"
        ],
        "subTraditions": "",
        "targetCategory": "Zone",
        "traditions": {
            "all": false,
            "values": [
                "Compendium.tde5e.magic.Item.TR93186147562399"
            ]
        },
        "improvement": {
            "column": "B",
            "value": 0
        },
        "notes": "",
        "gmNotes": "",
        "flavor": "",
        "rule": "Der Geode formt aus Wachs eine Kerze in Form eines Tiers und zündet sie an. Aus dem Rauch bildet sich auf der Stelle eine Rauchgestalt, die dem Tier gleicht. Das Rauchwesen verfügt über die Werte des entsprechenden Tieres, nicht jedoch über magische/liturgische Fähigkeiten und Gifte. Es kann von dem Geoden kontrolliert werden und hört auf dessen Befehle. Die Rauchgestalt verbleibt in der Nähe ihres Erschaffers (etwa in einem Radius von 8 Schritt) und eignet sich vor allem als Kampfgefährte. Angriffe mit profanen und geweihten Waffen gegen das Tier verursachen nur den halben Schaden. Die Trefferpunkte werden erst halbiert, dann wird der Rüstungsschutz verrechnet. Wird die Kerze gelöscht, so verschwindet das Rauchwesen augenblicklich.",
        "parents": []
    },
    "effects": [],
    "folder": "SP86247228901671",
    "_key": "!items!GE17129121238624"
}
