{
    "_id": "GE18717019222206",
    "name": "Gestank anheften",
    "type": "spell",
    "img": "systems/tde5e/assets/defaultItems/spell.svg",
    "system": {
        "castingTime": "1 Akt",
        "castingTimeLong": "1 Aktion",
        "check": {
            "resistedBySpirit": false,
            "resistedByToughness": true,
            "resistanceIsHalfed": false,
            "attributes": [
                "courage",
                "intuition",
                "charisma"
            ]
        },
        "checkedSkill": null,
        "cid": "GESTANK_ANHEFTEN",
        "cost": {
            "text": "14 AsP",
            "textLong": "14 AsP",
            "constant": 14,
            "recurring": null
        },
        "duration": "QS x 3 T",
        "durationLong": "QS x 3 Tage",
        "enhancements": [],
        "group": "curse",
        "modifications": {
            "canModCastingTime": false,
            "canModCost": false,
            "canModRange": false
        },
        "property": "demonic",
        "range": "64 m",
        "rangeLong": "64 Schritt",
        "requirementText": "keine",
        "sources": [
            "BOSPARANS_KATAKOMBEN",
            "LIBER_EXTENSIONUM"
        ],
        "subTraditions": "",
        "targetCategory": "",
        "traditions": {
            "all": false,
            "values": [
                "Compendium.tde5e.magic.Item.TR60602241216130"
            ]
        },
        "improvement": {
            "column": "B",
            "value": 0
        },
        "notes": "",
        "gmNotes": "",
        "flavor": "",
        "rule": "Das Opfer des Fluchs erleidet den Status @UUID[Compendium.tde5e.states.Item.UB23391668123359]{Übler Geruch} bis zum Ende der Wirkungsdauer.",
        "parents": []
    },
    "effects": [],
    "folder": "SP58654619110814",
    "_key": "!items!GE18717019222206"
}
