{
    "_id": "GE10210024614882",
    "name": "Gewand der Beeinflussung",
    "type": "artifactAbility",
    "img": "systems/tde5e/assets/defaultItems/artifact_ability.svg",
    "system": {
        "aspects": [],
        "binding": {
            "cost": "",
            "volume": "4 Punkte"
        },
        "brewType": null,
        "cid": "GEWAND_DER_BEEINFLUSSUNG",
        "cost": {
            "text": "6 AsP",
            "constant": 6,
            "recurring": null
        },
        "group": "dancerAttire",
        "property": "influence",
        "purchase": {
            "cost": [
                12
            ],
            "description": "12 Abenteuerpunkte",
            "levels": 1,
            "maxTimeBuyable": 1
        },
        "requirementText": "keine",
        "sources": [
            "BOSPARANS_KATAKOMBEN",
            "LIBER_EXTENSIONUM"
        ],
        "tradition": "Compendium.tde5e.magic.Item.TR24231133849412",
        "variant": {
            "categories": [],
            "input": false,
            "level": 1,
            "selected": null,
            "available": null
        },
        "flavor": "",
        "notes": "",
        "gmNotes": "",
        "parents": [
            "Compendium.tde5e.magic.Item.BI31164839517010"
        ],
        "rule": "<p>In einem Radius von 8 Schritt um die Zaubertänzerin sind Proben auf @UUID[Compendium.tde5e.skills.Item.WI13315915718951]{Willenskraft} um 1 erschwert. Die Wirkung betrifft jedoch nur Zuschauer, deren Seelenkraft 2 oder niedriger ist, und auch die Zaubertänzerin wird nicht beeinträchtig.</p>"
    },
    "effects": [],
    "folder": "ZA22018418563657",
    "_key": "!items!GE10210024614882"
}
