{
    "_id": "GL10912912289194",
    "name": "Gletscherform",
    "type": "spell",
    "img": "systems/tde5e/assets/defaultItems/spell.svg",
    "system": {
        "castingTime": "5 M",
        "castingTimeLong": "5 Minuten",
        "check": {
            "resistedBySpirit": false,
            "resistedByToughness": false,
            "resistanceIsHalfed": false,
            "attributes": [
                "sagacity",
                "dexterity",
                "strength"
            ]
        },
        "cid": "GLETSCHERFORM",
        "cost": {
            "text": "16 AsP",
            "textLong": "16 AsP",
            "constant": 16,
            "recurring": null
        },
        "duration": "QS x 10M",
        "durationLong": "QS x 10 Minuten",
        "enhancements": [
            {
                "name": "Schnelle Verformung",
                "effect": "Die Fortbewegung benötigt nur noch 1 Aktion pro 2 Schritt.",
                "skillPoints": 8,
                "owned": false
            },
            {
                "name": "Größerer Radius",
                "effect": "Der Radius beträgt zusätzlich QS Schritt. Diese Erweiterung kann mehrfach angewendet werden.",
                "skillPoints": 11,
                "owned": false
            },
            {
                "name": "Bewegliche Zone",
                "effect": "Der Zauberer kann sich während des Rituals mit sich selbst als Zentrum der Zone bewegen.",
                "skillPoints": 14,
                "owned": false
            }
        ],
        "group": "ritual",
        "modifications": {
            "canModCastingTime": true,
            "canModCost": true,
            "canModRange": true
        },
        "property": "elemental",
        "range": "selbst",
        "rangeLong": "selbst",
        "requirementText": "keine",
        "sources": [
            "BOSPARANS_KATAKOMBEN"
        ],
        "targetCategory": "Zone",
        "traditions": {
            "all": false,
            "values": [
                "Compendium.tde5e.magic.Item.TR37561943665255",
                "Compendium.tde5e.magic.Item.TR65132172112213"
            ]
        },
        "improvement": {
            "column": "C",
            "value": 0
        },
        "notes": "",
        "gmNotes": "",
        "flavor": "",
        "checkedSkill": null,
        "rule": "Innerhalb eines Radius von QS Schritt vermag der Zauberer, das Element Eis zu verformen, solange es nicht Teil eines Wesens ist (etwa bei einem Wasserdschinn). Auf diesem Wege können beispielsweise Eisbrocken zu einer Wand zusammenzufügen oder eine Behausung aus gepresstem Schnee errichtet werden. Die Herstellung von Kunstwerken oder nutzbaren Gegenständen ist nicht zeitgleich mit anderen Verformungen möglich. Das Ergebnis entspricht qualitativ QS/2 des Zaubers als QS des entsprechenden Handwerkstalents. Der Prozess geht dabei nur langsam vonstatten. Soll das Eis in eine bestimmte Richtung geformt werden, dauert dies 1 KR pro 2 Schritt Fortbewegung. Am Ende der Wirkungsdauer ist das Verformte wieder den normalen Gesetzen der Natur ausgeliefert.",
        "parents": []
    },
    "effects": [],
    "folder": "SP18396136219154",
    "_key": "!items!GL10912912289194"
}
