{
    "_id": "GN25419105383650",
    "name": "Gnome",
    "type": "magicalAbility",
    "img": "systems/tde5e/assets/defaultItems/tradition_imprint.svg",
    "system": {
        "cid": "GNOME",
        "group": "spellStyle",
        "requirementText": "Der Held wurde von einem Geoden ausgebildet.",
        "sources": [
            "AVENTURISCHE_MAGIE_3"
        ],
        "notes": "",
        "gmNotes": "",
        "flavor": "",
        "parents": [
            "Compendium.tde5e.magic.Item.TR93186147562399"
        ],
        "rule": "<ul><li><strong>Ritualmeister:</strong> Rituale und Geodenrituale kosten 1 AsP weniger (bei einem Minimum von 1 AsP).</li><li><strong>Fragwürdig:</strong> Gnome gelten in den Augen vieler Aventurier als wenig vertrauenswürdig aufgrund ihrer Vorliebe, häufig nackt herumzulaufen. Ist dem Gegenüber bekannt, dass vor ihm ein Gnom steht, so sind für den Geoden Proben auf Gesellschaftstalente (außer Einschüchtern, Menschenkenntnis und Willenskraft) um 1 erschwert. Gegenüber Freunden und Personen, die den Umgang mit Gnomen gewohnt sind, entfällt dieser Nachteil.</li></ul>",
        "cost": {
            "text": "",
            "constant": 0,
            "recurring": null
        }
    },
    "effects": [],
    "folder": "PR19518380103617",
    "_key": "!items!GN25419105383650",
    "property": "",
    "purchase": {
        "cost": [
            10
        ],
        "description": "10 Abenteuerpunkte",
        "levels": 1,
        "maxTimeBuyable": 1
    },
    "styleAbilities": [],
    "variant": {
        "categories": [],
        "input": false,
        "available": [],
        "level": 1,
        "selected": null
    }
}
