{
    "_id": "GO51512272463196",
    "name": "Goblin-Exorzismus",
    "type": "spell",
    "img": "systems/tde5e/assets/defaultItems/spell.svg",
    "system": {
        "castingTime": "8 ST",
        "castingTimeLong": "8 Stunden",
        "check": {
            "resistedBySpirit": true,
            "resistedByToughness": false,
            "resistanceIsHalfed": false,
            "attributes": [
                "courage",
                "intuition",
                "charisma"
            ]
        },
        "checkedSkill": null,
        "cid": "GOBLINEXORZISMUS",
        "cost": {
            "text": "32 AsP",
            "textLong": "32 AsP",
            "constant": 32,
            "recurring": null
        },
        "duration": "sofort",
        "durationLong": "sofort",
        "rule": "Mit einem Exorzismus werden Dämonen und Geister ausgetrieben, die Besitz von einem Lebewesen ergriffen haben. Gelingt der Exorzismus, wird der Dämon oder Geist aus dem Körper vertrieben und zurück in die Niederhöllen oder ins Totenreich verbannt.",
        "enhancements": [],
        "group": "goblinRitual",
        "modifications": {
            "canModCastingTime": false,
            "canModCost": false,
            "canModRange": false
        },
        "property": "antiMagic",
        "range": "4 m",
        "rangeLong": "4 Schritt",
        "requirementText": "keine",
        "sources": [
            "KODEX_DER_MAGIE"
        ],
        "subTraditions": "",
        "targetCategory": "Dämonen, Geister",
        "traditions": {
            "all": false,
            "values": [
                "Compendium.tde5e.magic.Item.TR52194209152352"
            ]
        },
        "improvement": {
            "column": "B",
            "value": 0
        },
        "notes": "",
        "gmNotes": "",
        "flavor": ""
    },
    "effects": [],
    "folder": "GO33132696188521",
    "_key": "!items!GO51512272463196"
}
