{
    "_id": "GO22719215914351",
    "name": "Goblin-Bannzone",
    "type": "spell",
    "img": "systems/tde5e/assets/defaultItems/spell.svg",
    "system": {
        "castingTime": "4 Akt",
        "castingTimeLong": "4 Aktionen",
        "check": {
            "resistedBySpirit": false,
            "resistedByToughness": false,
            "resistanceIsHalfed": false,
            "attributes": [
                "courage",
                "intuition",
                "charisma"
            ]
        },
        "checkedSkill": null,
        "cid": "GOBLINBANNZONE",
        "cost": {
            "text": "4 AsP + 2 / 5 KR",
            "textLong": "8 AsP + 2 AsP pro 5 Kampfrunden",
            "constant": 8,
            "recurring": {
                "interval": 2,
                "unit": "5 Kampfrunden"
            }
        },
        "duration": "aufrechthaltend",
        "durationLong": "aufrechthaltend",
        "rule": "Die Bannzone kann einige als unheilig geltende Wesen von einem Gebiet fernhalten. Folgende Typen von Wesen können ferngehalten werden: Geister, Untote (Hirnlose), niedere Dämonen jeglicher Art. Bei Errichtung der Bannzone muss entschieden werden, gegen welchen Typ Wesenheit sie wirken soll. Solche Wesen können während der Wirkungsdauer das gesegnete Gebiet nicht betreten. Sind solche Wesen gezwungen, das Gebiet zu betreten, dann versuchen sie sofort, sich wieder aus diesem zurückzuziehen. Die Bannzone darf nicht größer sein als 4 Schritt Radius, sehr wohl aber kleiner. Die Zone ist stationär und bewegt sich nicht mit der Zauberin. Wenn sich Personen innerhalb der Zone an deren Rand bewegen, um dort lauernde Wesen im Nahkampf anzugreifen, können diese Wesen ebenfalls angreifen.",
        "enhancements": [],
        "group": "goblinRitual",
        "modifications": {
            "canModCastingTime": false,
            "canModCost": false,
            "canModRange": false
        },
        "property": "antiMagic",
        "range": "4 m",
        "rangeLong": "4 Schritt",
        "requirementText": "keine",
        "sources": [
            "KODEX_DER_MAGIE"
        ],
        "subTraditions": "",
        "targetCategory": "Zone",
        "traditions": {
            "all": false,
            "values": [
                "Compendium.tde5e.magic.Item.TR52194209152352"
            ]
        },
        "improvement": {
            "column": "B",
            "value": 0
        },
        "notes": "",
        "gmNotes": "",
        "flavor": ""
    },
    "effects": [],
    "folder": "GO33132696188521",
    "_key": "!items!GO22719215914351"
}
