{
    "_id": "GO74210978025311",
    "name": "Goldene Gabe",
    "type": "magicalAbility",
    "img": "systems/tde5e/assets/defaultItems/special_ability_magical.svg",
    "system": {
        "cid": "GOLDENE_GABE",
        "cost": {
            "text": "",
            "constant": 0,
            "recurring": null
        },
        "group": "pactGift",
        "property": "",
        "purchase": {
            "cost": [
                12
            ],
            "description": "12 Abenteuerpunkte",
            "levels": 1,
            "maxTimeBuyable": 1
        },
        "requirementText": "Dämonenpakt Stufe 2 (Tasfarelel)",
        "sources": [
            "AVENTURISCHE_MAGIE_3"
        ],
        "styleAbilities": [],
        "variant": {
            "categories": [],
            "input": false,
            "available": [],
            "level": 1,
            "selected": null
        },
        "flavor": "",
        "notes": "",
        "gmNotes": "",
        "rule": "Durch dieses Paktgeschenk kann der Paktierer Gold im Wert von KdV x 100 Dukaten herstellen. Das Gold erscheint vor dem Paktierer und ist entweder in Form von Münzen oder Goldklumpen vorhanden. Nach 7 Tagen verschwindet das Gold einfach. Der Einsatz dieser Fähigkeit kostet 1 Aktion und verursacht 1 Stufe @UUID[Compendium.tde5e.conditions.Item.DA21528191859282]{Dämonische Auszehrung}.",
        "parents": []
    },
    "effects": [],
    "folder": "DA73976415352799",
    "_key": "!items!GO74210978025311"
}
