{
    "_id": "HA24235128192848",
    "name": "Haarpracht",
    "type": "cantrip",
    "img": "systems/tde5e/assets/defaultItems/spell.svg",
    "system": {
        "cid": "HAARPRACHT",
        "duration": "sofort",
        "durationLong": "sofort",
        "property": "transformation",
        "range": "selbst",
        "rangeLong": "selbst",
        "requirementText": "",
        "sources": [
            "BOSPARANS_KATAKOMBEN",
            "LIBER_EXTENSIONUM"
        ],
        "targetCategory": "Kulturschaffende",
        "traditions": {
            "all": true,
            "values": [
                "Compendium.tde5e.magic.Item.TR60602241216130",
                "Compendium.tde5e.magic.Item.TR18517324589268",
                "Compendium.tde5e.magic.Item.TR24231133849412"
            ]
        },
        "notes": "",
        "gmNotes": "",
        "flavor": "",
        "rule": "Der Zauberer kann die Farbe seines Haupthaars nach Belieben bestimmen. Gleiches gilt für die Länge, solange sie 1 Schritt nicht überschreitet. Schneidet der Zauberer die durch den Zaubertrick gewachsenen Haare ab, lösen sich diese sofort auf. Nachwachsende Haare sind von der Veränderung nicht betroffen.",
        "parents": []
    },
    "effects": [],
    "folder": "SP45861142482726",
    "_key": "!items!HA24235128192848"
}
