{
    "_id": "HA24225221250147",
    "name": "Hagelschlag",
    "type": "spell",
    "img": "systems/tde5e/assets/defaultItems/spell.svg",
    "system": {
        "castingTime": "1 Akt",
        "castingTimeLong": "1 Aktion",
        "check": {
            "resistedBySpirit": false,
            "resistedByToughness": false,
            "resistanceIsHalfed": false,
            "attributes": [
                "courage",
                "intuition",
                "charisma"
            ]
        },
        "checkedSkill": null,
        "cid": "HAGELSCHLAG",
        "cost": {
            "text": "21 AsP",
            "textLong": "21 AsP",
            "constant": 21,
            "recurring": null
        },
        "duration": "QS x 15 M",
        "durationLong": "QS x 15 Minuten",
        "enhancements": [],
        "group": "curse",
        "modifications": {
            "canModCastingTime": false,
            "canModCost": false,
            "canModRange": false
        },
        "property": "elemental",
        "range": "64 m",
        "rangeLong": "64 Schritt",
        "requirementText": "keine",
        "sources": [
            "BOSPARANS_KATAKOMBEN",
            "LIBER_EXTENSIONUM"
        ],
        "subTraditions": "",
        "targetCategory": "",
        "traditions": {
            "all": false,
            "values": [
                "Compendium.tde5e.magic.Item.TR60602241216130"
            ]
        },
        "improvement": {
            "column": "B",
            "value": 0
        },
        "notes": "",
        "gmNotes": "",
        "flavor": "",
        "rule": "Auf einer Fläche von bis zu (QS x 20.000) Rechtschritt geht ein schwerer Hagelsturm nieder. Je nach Region kann auch ein Schnee- oder Sandsturm die Fläche verheeren. Solche Stürme können Ernten zerstören, Dächer abdecken und bei ungeschützten Tieren und Personen 2W6 TP Schaden pro 5 Minuten verursachen.",
        "parents": []
    },
    "effects": [],
    "folder": "SP58654619110814",
    "_key": "!items!HA24225221250147"
}
