{
    "_id": "HA21513911122621",
    "name": "Hand der Antimagie",
    "type": "cantrip",
    "img": "systems/tde5e/assets/defaultItems/spell.svg",
    "system": {
        "cid": "HAND_DER_ANTIMAGIE",
        "duration": "sofort",
        "durationLong": "sofort",
        "property": "antiMagic",
        "range": "Berührung",
        "rangeLong": "Berührung",
        "requirementText": "",
        "sources": [
            "BOSPARANS_KATAKOMBEN",
            "LIBER_EXTENSIONUM"
        ],
        "targetCategory": "Zaubertricks",
        "traditions": {
            "all": false,
            "values": [
                "Compendium.tde5e.magic.Item.TR20562116246223",
                "Compendium.tde5e.magic.Item.TR98672441157616",
                "Compendium.tde5e.magic.Item.TR13113122614326"
            ]
        },
        "notes": "",
        "gmNotes": "",
        "flavor": "",
        "rule": "Durch eine bloße Berührung kann der Magier einen Zaubertrick mit QS 1 beenden.",
        "parents": []
    },
    "effects": [],
    "folder": "SP45861142482726",
    "_key": "!items!HA21513911122621"
}
