{
    "_id": "HA25311154107118",
    "name": "Harmlose Gestalt",
    "type": "spell",
    "img": "systems/tde5e/assets/defaultItems/spell.svg",
    "system": {
        "castingTime": "4 Akt",
        "castingTimeLong": "4 Aktionen",
        "check": {
            "resistedBySpirit": false,
            "resistedByToughness": false,
            "resistanceIsHalfed": false,
            "attributes": [
                "sagacity",
                "intuition",
                "charisma"
            ]
        },
        "checkedSkill": null,
        "cid": "HARMLOSE_GESTALT",
        "cost": {
            "text": "8  + 4 / 5 M",
            "textLong": "8 AsP (Aktivierung) + 4 AsP pro 5 Minuten",
            "constant": 8,
            "recurring": {
                "interval": 4,
                "unit": "5 Minuten"
            }
        },
        "duration": "aufrechterhaltend",
        "durationLong": "aufrechterhaltend",
        "enhancements": [
            {
                "name": "Gute Illusion",
                "effect": "Die @UUID[Compendium.tde5e.skills.Item.SI80193235230167]{Sinnesschärfe} -Probe, um die Illusion zu durchschauen, ist um zusätzlich 1 erschwert. Diese Erweiterung kann mehrfach angewendet werden.",
                "skillPoints": 8,
                "owned": false
            },
            {
                "name": "Reichweite Berührung",
                "effect": "Als Reichweite gilt Berührung. Der Zauberspruch kann nur auf Kulturschaffende übertragen werden.",
                "skillPoints": 11,
                "owned": false
            },
            {
                "name": "Wählbare Gestalt",
                "effect": "Der Zauberer kann als Person seiner Wahl erscheinen. Wenn er jemandem begegnet, der diese Person kennt, muss er eine Probe auf @UUID[Compendium.tde5e.skills.Item.VE16625179947199]{Verkleiden (Personen imitieren)} bestehen, sonst gilt die Illusion als durchschaut.",
                "skillPoints": 14,
                "owned": false
            }
        ],
        "group": "incantation",
        "modifications": {
            "canModCastingTime": true,
            "canModCost": true,
            "canModRange": true
        },
        "property": "illusion",
        "range": "selbst",
        "rangeLong": "selbst",
        "requirementText": "keine",
        "sources": [
            "BOSPARANS_KATAKOMBEN",
            "LIBER_EXTENSIONUM"
        ],
        "subTraditions": "",
        "targetCategory": "Wesen",
        "traditions": {
            "all": false,
            "values": [
                "Compendium.tde5e.magic.Item.TR60602241216130",
                "Compendium.tde5e.magic.Item.TR98672441157616"
            ]
        },
        "improvement": {
            "column": "B",
            "value": 0
        },
        "notes": "",
        "gmNotes": "",
        "flavor": "",
        "rule": "Der Zaubernde nimmt die Gestalt einer unauffälligen Person wie eines Dieners oder eines Bettlers an, die an dem entsprechenden Ort nicht auffällt. Dies umfasst sowohl das Aussehen als auch die passende Stimme, jedoch nicht Kenntnisse wie Sprachen oder angemessenes Verhalten. Größere Gegenstände und Vertrautentiere werden nicht mit dem Zauberspruch verborgen. Der Zauberspruch wirkt intuitiv, daher kann die Hexe nicht explizit festlegen, welches Aussehen sie annimmt (<a href=\"https://dsa.ulisses-regelwiki.de/Magie_Spezielle-Regeln-fuer-Spruchzauber_Illusionsregeln.html\" target=\"blank\" rel=\"noopener noreferrer\">Siehe Illusionen</a>).",
        "parents": []
    },
    "effects": [],
    "folder": "SP15718021520213",
    "_key": "!items!HA25311154107118"
}
