{
    "_id": "HA21531386224106",
    "name": "Hartes schmelze",
    "type": "spell",
    "img": "systems/tde5e/assets/defaultItems/spell.svg",
    "system": {
        "castingTime": "30 M",
        "castingTimeLong": "30 Minuten",
        "check": {
            "resistedBySpirit": false,
            "resistedByToughness": false,
            "resistanceIsHalfed": false,
            "attributes": [
                "courage",
                "intuition",
                "constitution"
            ]
        },
        "checkedSkill": null,
        "cid": "HARTES_SCHMELZE",
        "cost": {
            "text": "2/4/8/16/32 (Tasse/Truhe/Tür/Bücherregal/Burgtor)",
            "textLong": "2/4/8/16 /32 AsP für einen Gegenstand von der Größe einer Tasse/Truhe/Tür/ Bücherregal/ Burgtor",
            "constant": 0,
            "recurring": null
        },
        "duration": "QS x 2 M",
        "durationLong": "QS x 2 Minuten",
        "enhancements": [
            {
                "name": "Längere Wirkungsdauer",
                "effect": "Die Wirkungsdauer beträgt zusätzlich QS x 2 Minuten. Diese Erweiterung ist mehrfach anwendbar.",
                "skillPoints": 8,
                "owned": false
            },
            {
                "name": "Größere Objekte",
                "effect": "Das Ritual kann auf Gegenstände von der Größe einer Tür gewirkt werden. Diese Zaubererweiterung kann mehrfach angewendet werden, um Gegenstände von der Größe eines Bücherregals (zweifach) bzw. eines Burgtors (dreifach) zu beeinflussen.",
                "skillPoints": 11,
                "owned": false
            },
            {
                "name": "Guckloch",
                "effect": "Das Ritual kann mit Zielkategorie Zone gewirkt werden, so dass nur ein Teil des Objektes verformbar wird. Die AsP-Kosten entsprechen dem eines Objektes von vergleichbarer Größe (anstatt der Größe des gesamten Objekts).",
                "skillPoints": 14,
                "owned": false
            }
        ],
        "group": "ritual",
        "modifications": {
            "canModCastingTime": true,
            "canModCost": false,
            "canModRange": true
        },
        "property": "elemental",
        "range": "4 m",
        "rangeLong": "4 Schritt",
        "requirementText": "keine",
        "sources": [
            "BOSPARANS_KATAKOMBEN",
            "LIBER_EXTENSIONUM"
        ],
        "subTraditions": "",
        "targetCategory": "Objekt (profane Objekte bis zur Größe einer Truhe)",
        "traditions": {
            "all": false,
            "values": [
                "Compendium.tde5e.magic.Item.TR20562116246223"
            ]
        },
        "improvement": {
            "column": "B",
            "value": 0
        },
        "notes": "",
        "gmNotes": "",
        "flavor": "",
        "rule": "Das Ritual raubt einem Objekt bis zur Größe einer Truhe seine Festigkeit und macht einen harten Gegenstand weich und formbar. Dies erlaubt sowohl künstlerische Gestaltungen als auch das Erschaffen von Löchern oder das Abtrennen einzelner Teile. Der Zauberer kann z. B. Türen wie Knetmasse zusammenrollen oder ein Schloss entfernen. Dabei ist zu beachten, dass der Meister entscheidet, welche Gegenstände miteinander verbunden sind. Ein Schloss gehört zu einer Tür, eine Tür aber nicht zu einer Wand. Der Zauber ist kein Ersatz für Handwerkstalente, man kann damit beispielsweise nicht Metall verformen, um eine scharfe Klinge zu erhalten. Am Ende der Wirkungsdauer wird der Gegenstand augenblicklich wieder hart.",
        "parents": []
    },
    "effects": [],
    "folder": "SP18396136219154",
    "_key": "!items!HA21531386224106"
}
