{
    "_id": "HE26372441235631",
    "name": "Hexenschuss",
    "type": "spell",
    "img": "systems/tde5e/assets/defaultItems/spell.svg",
    "system": {
        "castingTime": "1 Akt",
        "castingTimeLong": "1 Aktion",
        "check": {
            "resistedBySpirit": false,
            "resistedByToughness": true,
            "resistanceIsHalfed": false,
            "attributes": [
                "intuition",
                "dexterity",
                "constitution"
            ]
        },
        "checkedSkill": null,
        "cid": "HEXENSCHUSS",
        "cost": {
            "text": "14 AsP",
            "textLong": "14 AsP",
            "constant": 14,
            "recurring": null
        },
        "duration": "QS x 3 ST",
        "durationLong": "QS x 3 Stunden",
        "enhancements": [],
        "group": "curse",
        "modifications": {
            "canModCastingTime": false,
            "canModCost": false,
            "canModRange": false
        },
        "property": "transformation",
        "range": "64 m",
        "rangeLong": "64 Schritt",
        "requirementText": "keine",
        "sources": [
            "BOSPARANS_KATAKOMBEN",
            "LIBER_EXTENSIONUM"
        ],
        "subTraditions": "",
        "targetCategory": "",
        "traditions": {
            "all": false,
            "values": [
                "Compendium.tde5e.magic.Item.TR60602241216130"
            ]
        },
        "improvement": {
            "column": "B",
            "value": 0
        },
        "notes": "",
        "gmNotes": "",
        "flavor": "",
        "rule": "Das Opfer erleidet plötzlich einen starken Schmerz im Rücken oder im Kopf, je nach Wahl der Hexe. Durch den Hexenschuss erleidet das Opfer eine Stufe des Zustands @UUID[Compendium.tde5e.conditions.Item.SC72173204142222]{Schmerz}.",
        "parents": []
    },
    "effects": [],
    "folder": "SP58654619110814",
    "_key": "!items!HE26372441235631"
}
