{
    "_id": "HO16520710222037",
    "name": "Horriphobus",
    "type": "spell",
    "img": "systems/tde5e/assets/defaultItems/spell.svg",
    "system": {
        "castingTime": "2 Akt",
        "castingTimeLong": "2 Aktion",
        "check": {
            "resistedBySpirit": true,
            "resistedByToughness": false,
            "resistanceIsHalfed": false,
            "attributes": [
                "courage",
                "intuition",
                "charisma"
            ]
        },
        "checkedSkill": null,
        "cid": "HORRIPHOBUS",
        "cost": {
            "text": "8 AsP",
            "textLong": "8 AsP",
            "constant": 8,
            "recurring": null
        },
        "duration": "QS x 3 M",
        "durationLong": "QS x 3 Minuten",
        "enhancements": [
            {
                "name": "Verteilte Wirkung",
                "effect": "Die Zustandsstufen können auf mehrere Ziele verteilt werden, die vor dem Wirken des Zaubers benannt werden müssen. Das erste Ziel muss mindestens eine Stufe erhalten.",
                "skillPoints": 8,
                "owned": false
            },
            {
                "name": "Beeinträchtigung",
                "effect": "Der Mut des Ziels wird um 2 reduziert. Abgeleitete Werte werden davon nicht beeinflusst.",
                "skillPoints": 11,
                "owned": false
            },
            {
                "name": "Mehr Ziele",
                "effect": "Der Zauber kann ein zusätzliches Ziel gleichzeitig treffen, was 8 AsP extra kostet. Diese Erweiterung kann mehrfach angewendet werden.",
                "skillPoints": 14,
                "owned": false
            }
        ],
        "group": "incantation",
        "modifications": {
            "canModCastingTime": true,
            "canModCost": true,
            "canModRange": true
        },
        "property": "influence",
        "range": "8 m",
        "rangeLong": "8 Schritt",
        "requirementText": "keine",
        "sources": [
            "BOSPARANS_KATAKOMBEN",
            "LIBER_EXTENSIONUM"
        ],
        "subTraditions": "",
        "targetCategory": "Lebewesen",
        "traditions": {
            "all": false,
            "values": [
                "Compendium.tde5e.magic.Item.TR20562116246223"
            ]
        },
        "improvement": {
            "column": "B",
            "value": 0
        },
        "notes": "",
        "gmNotes": "",
        "flavor": "",
        "rule": "Dem Verzauberten gegenüber wirkt der Zaubernde wie eine Angst einflößende Gestalt aus seinen Alpträumen. Die Stärke dieses Eindrucks variiert mit der QS: <br/><b>QS 1:</b> 1 Stufe @UUID[Compendium.tde5e.conditions.Item.FU13915517420459]{Furcht}, aber nur für 2 KR <br/><b>QS 2:</b> 1 Stufe @UUID[Compendium.tde5e.conditions.Item.FU13915517420459]{Furcht} <br/><b>QS 3:</b> 2 Stufen @UUID[Compendium.tde5e.conditions.Item.FU13915517420459]{Furcht} <br/><b>QS 4:</b> 3 Stufen @UUID[Compendium.tde5e.conditions.Item.FU13915517420459]{Furcht} <br/><b>QS 5:</b> 4 Stufen @UUID[Compendium.tde5e.conditions.Item.FU13915517420459]{Furcht}.",
        "parents": []
    },
    "effects": [],
    "folder": "SP15718021520213",
    "_key": "!items!HO16520710222037"
}
