{
    "_id": "IG10991321811315",
    "name": "Ignorantia",
    "type": "spell",
    "img": "systems/tde5e/assets/defaultItems/spell.svg",
    "system": {
        "castingTime": "4 Akt",
        "castingTimeLong": "4 Aktionen",
        "check": {
            "resistedBySpirit": true,
            "resistedByToughness": false,
            "resistanceIsHalfed": false,
            "attributes": [
                "intuition",
                "charisma",
                "agility"
            ]
        },
        "checkedSkill": null,
        "cid": "IGNORANTIA",
        "cost": {
            "text": "8 AsP",
            "textLong": "8 AsP",
            "constant": 8,
            "recurring": null
        },
        "duration": "QS M",
        "durationLong": "QS Minuten",
        "enhancements": [
            {
                "name": "Phantomhände",
                "effect": "Das Ziel ignoriert kurze Berührungen wie Taschendiebstähle oder einen leichten Schubser. Der Zauber endet bei solchen Interaktionen nicht.",
                "skillPoints": 8,
                "owned": false
            },
            {
                "name": "Höhere Wirkungsdauer",
                "effect": "Die Wirkungsdauer erhöht sich auf QS x 10 Minuten.",
                "skillPoints": 11,
                "owned": false
            },
            {
                "name": "Jemand anderen benennen",
                "effect": "Der Zauberer kann die Wirkung des Spruchs auf jemand anderen übertragen, statt selbst Nutznießer zu sein. Diese andere Person muss er beim Wirken des Zaubers berühren.",
                "skillPoints": 14,
                "owned": false
            }
        ],
        "group": "incantation",
        "modifications": {
            "canModCastingTime": true,
            "canModCost": true,
            "canModRange": true
        },
        "property": "influence",
        "range": "16 m",
        "rangeLong": "16 Schritt",
        "requirementText": "keine",
        "sources": [
            "BOSPARANS_KATAKOMBEN",
            "LIBER_EXTENSIONUM"
        ],
        "subTraditions": "",
        "targetCategory": "Lebewesen",
        "traditions": {
            "all": false,
            "values": [
                "Compendium.tde5e.magic.Item.TR18517324589268"
            ]
        },
        "improvement": {
            "column": "B",
            "value": 0
        },
        "notes": "",
        "gmNotes": "",
        "flavor": "",
        "rule": "Das Ziel ignoriert den Zauberer und seine Handlungen. Dadurch kann dieser unbemerkt an seinem Opfer vorbeilaufen oder vor seinen Augen einen Diebstahl begehen. Interagiert der Zaubernde während der Wirkungsdauer mit dem Opfer oder greift er dieses an, endet der Zauber sofort. Achtet das Ziel explizit auf eine Sache, etwa eine Tür oder einen Gegenstand, bemerkt es alle diesbezüglichen Veränderungen, jedoch ohne die Quelle der Veränderung ausmachen zu können. So bemerkt es z.B. das Öffnen oder Schließen einer bewachten Tür, vermag aber nicht zu sagen, wer genau dafür verantwortlich war.",
        "parents": []
    },
    "effects": [],
    "folder": "SP15718021520213",
    "_key": "!items!IG10991321811315"
}
