{
    "_id": "IM44109188113224",
    "name": "Immortalis Lebenszeit",
    "type": "spell",
    "img": "systems/tde5e/assets/defaultItems/spell.svg",
    "system": {
        "castingTime": "32 ST",
        "castingTimeLong": "32 Stunden",
        "check": {
            "resistedBySpirit": false,
            "resistedByToughness": false,
            "resistanceIsHalfed": false,
            "attributes": [
                "courage",
                "charisma",
                "constitution"
            ]
        },
        "checkedSkill": null,
        "cid": "IMMORTALIS_LEBENSZEIT",
        "cost": {
            "text": "64 AsP, 16 pAsP",
            "textLong": "64 AsP, 16 davon permanent",
            "constant": 64,
            "recurring": null
        },
        "duration": "QS J",
        "durationLong": "QS Jahre",
        "enhancements": [
            {
                "name": "Längere Wirkungsdauer",
                "effect": "Die Wirkungsdauer beträgt zusätzlich QS Jahre. Diese Erweiterung kann mehrfach angewendet werden.",
                "skillPoints": 8,
                "owned": false
            },
            {
                "name": "Verjüngung",
                "effect": "Der Zauberer kann, statt die Alterung auszusetzen, sein Alter um QS Jahre reduzieren.",
                "skillPoints": 11,
                "owned": false
            },
            {
                "name": "Reichweite Berührung",
                "effect": "Als Reichweite gilt Berührung. Das Ritual kann nur auf Kulturschaffende übertragen werden.",
                "skillPoints": 14,
                "owned": false
            }
        ],
        "group": "ritual",
        "modifications": {
            "canModCastingTime": true,
            "canModCost": false,
            "canModRange": true
        },
        "property": "temporal",
        "range": "selbst",
        "rangeLong": "selbst",
        "requirementText": "keine",
        "sources": [
            "BOSPARANS_KATAKOMBEN",
            "LIBER_EXTENSIONUM"
        ],
        "subTraditions": "",
        "targetCategory": "Kulturschaffende",
        "traditions": {
            "all": false,
            "values": [
                "Compendium.tde5e.magic.Item.TR20562116246223",
                "Compendium.tde5e.magic.Item.TR60602241216130"
            ]
        },
        "improvement": {
            "column": "D",
            "value": 0
        },
        "notes": "",
        "gmNotes": "",
        "flavor": "",
        "rule": "Während der Wirkungsdauer wird die Alterung des Zauberers ausgesetzt.",
        "parents": []
    },
    "effects": [],
    "folder": "SP18396136219154",
    "_key": "!items!IM44109188113224"
}
