{
    "_id": "IN17814956509524",
    "name": "Invocatio Minor",
    "type": "spell",
    "img": "systems/tde5e/assets/defaultItems/spell.svg",
    "system": {
        "castingTime": "30 M",
        "castingTimeLong": "30 Minuten",
        "check": {
            "resistedBySpirit": false,
            "resistedByToughness": false,
            "resistanceIsHalfed": false,
            "attributes": [
                "courage",
                "charisma",
                "constitution"
            ]
        },
        "checkedSkill": null,
        "cid": "INVOCATIO_MINOR",
        "cost": {
            "text": "16 AsP",
            "textLong": "16 AsP",
            "constant": 16,
            "recurring": null
        },
        "duration": "sofort",
        "durationLong": "sofort",
        "enhancements": [
            {
                "name": "Mehr Dienste",
                "effect": "Der Zauberer kann einen zusätzlichen Dienst von dem Wesen verlangen. Diese Erweiterung kann mehrfach angewendet werden.",
                "skillPoints": 8,
                "owned": false
            },
            {
                "name": "Längerer Dienst",
                "effect": "Der Zeitraum, nachdem das Wesen automatisch einen Dienst verliert, erhöht sich um 3 Tage. Diese Erweiterung kann bis zu 3 Mal angewendet werden, um die Verfallsdauer auf 4, 7 bzw. 10 Tage zu erhöhen.",
                "skillPoints": 11,
                "owned": false
            },
            {
                "name": "Opfergabe",
                "effect": "Einmal pro Tag kann der Beschwörer einen Kulturschaffenden opfern. Dadurch erhält der Dämon 2 x QS in Verbesserungen oder Wesensfähigkeiten. Deren Effekt endet nach 24 Stunden. Das Opfer muss der Domäne entsprechend dargebracht werden.",
                "skillPoints": 14,
                "owned": false
            }
        ],
        "group": "ritual",
        "modifications": {
            "canModCastingTime": true,
            "canModCost": true,
            "canModRange": true
        },
        "property": "spheres",
        "range": "8 m",
        "rangeLong": "8 Schritt",
        "requirementText": "keine",
        "sources": [
            "BOSPARANS_KATAKOMBEN",
            "LIBER_EXTENSIONUM"
        ],
        "subTraditions": "",
        "targetCategory": "Dämonen",
        "traditions": {
            "all": false,
            "values": [
                "Compendium.tde5e.magic.Item.TR20562116246223",
                "Compendium.tde5e.magic.Item.TR60602241216130"
            ]
        },
        "improvement": {
            "column": "B",
            "value": 0
        },
        "notes": "",
        "gmNotes": "",
        "flavor": "",
        "rule": "Ein zuvor ausgewählter niederer Dämon erscheint. Die Ritualprobe ist um die Anrufungsschwierigkeit des Dämons erschwert (<a href=\"https://dsa.ulisses-regelwiki.de/Invokation.html\" target=\"blank\" rel=\"noopener noreferrer\">Siehe Invokation</a>).",
        "parents": []
    },
    "effects": [],
    "folder": "SP18396136219154",
    "_key": "!items!IN17814956509524"
}
