{
    "_id": "KA16633893136241",
    "name": "Kaltes Schmieden",
    "type": "magicalAbility",
    "img": "systems/tde5e/assets/defaultItems/special_ability_magical.svg",
    "system": {
        "cid": "KALTES_SCHMIEDEN",
        "cost": {
            "text": "",
            "constant": 0,
            "recurring": null
        },
        "group": "pactGift",
        "property": "",
        "purchase": {
            "cost": [
                10
            ],
            "description": "10 Abenteuerpunkte",
            "levels": 1,
            "maxTimeBuyable": 1
        },
        "requirementText": "Dämonenpakt Stufe 2 (Agrimoth)",
        "sources": [
            "AVENTURISCHE_MAGIE_3"
        ],
        "styleAbilities": [],
        "variant": {
            "categories": [],
            "input": false,
            "available": [],
            "level": 1,
            "selected": null
        },
        "flavor": "",
        "notes": "",
        "gmNotes": "",
        "rule": "Der Paktierer kann jedes Metall mit seinen Händen formen, als wäre es Wachs. Bei Schmiedearbeiten erhalten sie dadurch eine Erleichterung von 3 auf @UUID[Compendium.tde5e.skills.Item.MI11215015715762]{Mineralbearbeitung} und benötigen keine Esse. Die Wirkung hält KdV Stunden an. Der Einsatz dieser Fähigkeit  kostet 1 Aktion und verursacht 1 Stufe @UUID[Compendium.tde5e.conditions.Item.DA21528191859282]{Dämonische Auszehrung}.",
        "parents": []
    },
    "effects": [],
    "folder": "DA73976415352799",
    "_key": "!items!KA16633893136241"
}
