{
    "_id": "KA30831461991132",
    "name": "Katzenruf",
    "type": "spell",
    "img": "systems/tde5e/assets/defaultItems/spell.svg",
    "system": {
        "castingTime": "4 Akt",
        "castingTimeLong": "4 Aktionen",
        "check": {
            "resistedBySpirit": false,
            "resistedByToughness": false,
            "resistanceIsHalfed": false,
            "attributes": [
                "courage",
                "charisma",
                "charisma"
            ]
        },
        "checkedSkill": null,
        "cid": "KATZENRUF",
        "cost": {
            "text": "16 AsP",
            "textLong": "16 AsP",
            "constant": 16,
            "recurring": null
        },
        "duration": "Tod d. Tiere / 10 KR",
        "durationLong": "bis zum Tod der Tiere, maximal jedoch 10 KR",
        "enhancements": [
            {
                "name": "Angriffslustig",
                "effect": "Die Tiere erhalten + 1 KTW.",
                "skillPoints": 8,
                "owned": false
            },
            {
                "name": "Neun Leben",
                "effect": "Die Tiere können jeweils einen tödlichen Treffer ignorieren. Fallen ihre LeP zum ersten Mal unter 0, bleiben sie stattdessen auf 1 LeP und werden nicht kampfunfähig.",
                "skillPoints": 11,
                "owned": false
            },
            {
                "name": "Scharfe Krallen",
                "effect": "Die Tiere erhalten +1 TP.",
                "skillPoints": 14,
                "owned": false
            }
        ],
        "group": "incantation",
        "modifications": {
            "canModCastingTime": true,
            "canModCost": true,
            "canModRange": true
        },
        "property": "demonic",
        "range": "8 m",
        "rangeLong": "8 Schritt",
        "requirementText": "keine",
        "sources": [
            "BOSPARANS_KATAKOMBEN",
            "LIBER_EXTENSIONUM"
        ],
        "subTraditions": "",
        "targetCategory": "Zone",
        "traditions": {
            "all": false,
            "values": [
                "Compendium.tde5e.magic.Item.TR60602241216130"
            ]
        },
        "improvement": {
            "column": "C",
            "value": 0
        },
        "notes": "",
        "gmNotes": "",
        "flavor": "",
        "rule": "Die Hexe ruft mit diesem Zauberspruch bis zu QS x 2 Katzen herbei, die für sie kämpfen. Es erscheinen maximal so viele Katzen, wie die Anzahl der Gegner der Hexe beträgt. Die Hexe muss einen Punkt am Boden innerhalb der Reichweite bestimmen, an dem die Tiere dann in einem Radius von QS/2 Schritt erscheinen. Die Hexe kann gezielt Gegner benennen, welche von den Katzen angegriffen werden. Sie kann beliebig viele Tiere auf einen Gegner hetzen. Nach ihrem Erscheinen können die Katzen sich beliebig weit vom Ort ihrer Herbeirufung wegbewegen. Wenn ein Gegner stirbt, verschwinden die Katzen nicht, sondern können einzeln einem anderen Ziel zugeordnet werden. Die Katzen sind magische Wesen, die aus Magie erschaffen wurden. Endet die Wirkungsdauer, verschwinden die Katzen wieder im Nichts.<p><div class=\"stat-block\"><h1>Hexenkatzen</h1><span class=\"stats\"><span><b>MU</b> 12</span><span><b>KL</b> 12(t)</span><span><b>IN</b> 13</span><span><b>CH</b> 12</span><span><b>FF</b> 10</span><span><b>GE</b> 14</span><span><b>KO</b> 6</span><span><b>KK</b> 5</span></span><span class=\"stats\"><span><b>LE</b> -5</span><span><b>SK</b> -5</span><span><b>ZK</b> -6</span><span><b>GS</b> 10</span><span><b>KTW</b> 9 (Schlagwaffen)</span><span><b>RS</b> 0/0/0</span><span><b>BE</b> 0</span><span><b>Adr</b> 1</span><span><b>TP</b> 1W3</span></span><div><b>Vorteile</b> @UUID[Compendium.tde5e.advantagesDisadvantages.Item.DU23402511285217]{Dunkelsicht I}</div><div><b>Talente</b> @UUID[Compendium.tde5e.skills.Item.EI23914229134172]{Einschüchtern} 2, @UUID[Compendium.tde5e.skills.Item.KL21110615875233]{Klettern} 10, @UUID[Compendium.tde5e.skills.Item.AT01742720744548]{Athlethik} 11, @UUID[Compendium.tde5e.skills.Item.AK92342342043211]{Akrobatik} 12, @UUID[Compendium.tde5e.skills.Item.KR28631591116621]{Kraftakt} 0,  @UUID[Compendium.tde5e.skills.Item.SE24510070128212]{Selbstbeherrschung} 2, @UUID[Compendium.tde5e.skills.Item.SI80193235230167]{Sinnesschärfe} 10, @UUID[Compendium.tde5e.skills.Item.VE22425218425144]{Verbergen} 10, @UUID[Compendium.tde5e.skills.Item.WI13315915718951]{Willenskraft} 4</div><div><b>Größenkategorie</b> winzig</div><div><b>Typus</b> Tier, nicht humanoid</div><div><b>Flucht</b> fliehen nicht.</div>Als magische Wesen sind die Tiere immun gegen den Zustand @UUID[Compendium.tde5e.conditions.Item.SC72173204142222]{Schmerz}.</span></div></p>",
        "parents": []
    },
    "effects": [],
    "folder": "SP15718021520213",
    "_key": "!items!KA30831461991132"
}
