{
    "_id": "KE16026171172313",
    "name": "Kehrbesen",
    "type": "cantrip",
    "img": "systems/tde5e/assets/defaultItems/spell.svg",
    "system": {
        "cid": "KEHRBESEN",
        "duration": "30 M",
        "durationLong": "30 Minuten",
        "property": "telekinesis",
        "range": "8 m",
        "rangeLong": "8 Schritt",
        "requirementText": "",
        "sources": [
            "BOSPARANS_KATAKOMBEN",
            "LIBER_EXTENSIONUM"
        ],
        "targetCategory": "Objekte (Besen)",
        "traditions": {
            "all": false,
            "values": [
                "Compendium.tde5e.magic.Item.TR60602241216130"
            ]
        },
        "notes": "",
        "gmNotes": "",
        "flavor": "",
        "rule": "Die Hexe kann einem beliebigen Besen innerhalb der Reichweite befehlen, den Boden in einem Radius von 8 Schritt zu kehren. Der Besen weicht dabei Hindernissen aus und versucht, Lebewesen der Größenkategorie klein und größer aus dem Weg zu gehen. Wird der Besen berührt, endet der Zaubertrick augenblicklich.",
        "parents": []
    },
    "effects": [],
    "folder": "SP45861142482726",
    "_key": "!items!KE16026171172313"
}
