{
    "_id": "KE10617917912293",
    "name": "Kesselmeisterin",
    "type": "magicalAbility",
    "img": "systems/tde5e/assets/defaultItems/special_ability_magical.svg",
    "system": {
        "cid": "KESSELMEISTERIN",
        "cost": {
            "text": "",
            "constant": 0,
            "recurring": null
        },
        "group": "spellStyleExtended",
        "property": "",
        "purchase": {
            "cost": [
                10
            ],
            "description": "10 Abenteuerpunkte",
            "levels": 1,
            "maxTimeBuyable": 1
        },
        "requirementText": "keine",
        "sources": [
            "AVENTURISCHE_MAGIE_2"
        ],
        "styleAbilities": [],
        "variant": {
            "categories": [],
            "input": false,
            "available": [],
            "level": 1,
            "selected": null
        },
        "flavor": "",
        "notes": "",
        "gmNotes": "",
        "parents": [
            "Compendium.tde5e.magic.Item.RE91364652261175",
            "Compendium.tde5e.magic.Item.TO24311674177961",
            "Compendium.tde5e.magic.Item.WA48521231820220"
        ],
        "rule": "<p>Eine Hexe mit dieser Sonderfertigkeit kann eine Probe auf @UUID[Compendium.tde5e.skills.Item.LE21912211415814]{Lebensmittelbearbeitung (Brauen)} ablegen, wenn sie Tränke, Salben oder Suppen in ihrem Hexenkessel zubereitet. Gelingt ihr die Probe, kann sie QS/2 der folgenden Optionen wählen:</p><ul><li><p>Die Dauer der Herstellung wird halbiert.</p></li><li>Die Hexe hat die doppelte Menge zubereitet.</li><li><p>Das Gekochte ist doppelt so lange haltbar wie üblich.</p></li></ul><p><br /><br /></p><p>Die Hexe kann jede Option nur einmal wählen.</p>"
    },
    "effects": [],
    "folder": "ZA17820398219817",
    "_key": "!items!KE10617917912293"
}
