{
    "_id": "KL21631187963241",
    "name": "Klabauterlehrling",
    "type": "magicalAbility",
    "img": "systems/tde5e/assets/defaultItems/tradition_imprint.svg",
    "system": {
        "cid": "KLABAUTERLEHRLING",
        "group": "spellStyle",
        "requirementText": "Der Held wurde von einem Klabauter in der Tradition der Schelme unterwiesen.",
        "sources": [
            "AVENTURISCHE_MAGIE_2"
        ],
        "notes": "",
        "gmNotes": "",
        "flavor": "",
        "parents": [
            "Compendium.tde5e.magic.Item.TR44241162842057"
        ],
        "rule": "<ul><li><strong>Meeresverbunden:</strong> Befindet sich der Klabauterlehrling auf einem Schiff, erhält er bei seinen Schelmenstreichen +1 FP (bis zu einem Maximum von 18 FP).</li><li><strong>Magierabscheu:</strong> Der Klabauterlehrling kann keine Zauber mit der Verbreitung Gildenmagier zu Schelmenstreichen umwandeln.</li></ul>",
        "cost": {
            "text": "",
            "constant": 0,
            "recurring": null
        }
    },
    "effects": [],
    "folder": "PR19518380103617",
    "_key": "!items!KL21631187963241",
    "property": "",
    "purchase": {
        "cost": [
            10
        ],
        "description": "10 Abenteuerpunkte",
        "levels": 1,
        "maxTimeBuyable": 1
    },
    "styleAbilities": [],
    "variant": {
        "categories": [],
        "input": false,
        "available": [],
        "level": 1,
        "selected": null
    }
}
