{
    "_id": "KL91011741477113",
    "name": "Klarheit des Eises",
    "type": "spell",
    "img": "systems/tde5e/assets/defaultItems/spell.svg",
    "system": {
        "castingTime": "30 M",
        "castingTimeLong": "30 Minuten",
        "check": {
            "resistedBySpirit": false,
            "resistedByToughness": false,
            "resistanceIsHalfed": false,
            "attributes": [
                "courage",
                "intuition",
                "constitution"
            ]
        },
        "cid": "KLARHEIT_DES_EISES",
        "cost": {
            "text": "16 AsP",
            "textLong": "16 AsP",
            "constant": 16,
            "recurring": null
        },
        "duration": "QS x 3 W",
        "durationLong": "QS x 3 Wochen",
        "enhancements": [
            {
                "name": "Reichweite Berührung",
                "effect": "Als Reichweite gilt Berührung. Das Ritual kann nur auf Kulturschaffende übertragen werden. Es entstehen zusätzliche Kosten in Höhe von 8 AsP. Gegen unfreiwillige Ziele gilt die SK als Erschwernis.",
                "skillPoints": 8,
                "owned": false
            },
            {
                "name": "Bewusstsein",
                "effect": "Der Verwandelte behält sein Bewusstsein und kann sogar mit allen Sinnen wahrnehmen.",
                "skillPoints": 11,
                "owned": false
            },
            {
                "name": "Unzerstörbar",
                "effect": "Die elementare Masse kann nicht getrennt oder zerstört werden.",
                "skillPoints": 14,
                "owned": false
            }
        ],
        "group": "ritual",
        "modifications": {
            "canModCastingTime": true,
            "canModCost": true,
            "canModRange": true
        },
        "property": "elemental",
        "range": "selbst",
        "rangeLong": "selbst",
        "requirementText": "keine",
        "sources": [
            "BOSPARANS_KATAKOMBEN"
        ],
        "targetCategory": "Lebewesen",
        "traditions": {
            "all": false,
            "values": [
                "Compendium.tde5e.magic.Item.TR37561943665255"
            ]
        },
        "improvement": {
            "column": "C",
            "value": 0
        },
        "notes": "",
        "gmNotes": "",
        "flavor": "",
        "checkedSkill": null,
        "rule": "Der Zauberer verwandelt sich in reines Eis. Während der Wirkungsdauer ist er zu keinen körperlichen oder geistigen Handlungen fähig und behält keine Erinnerung an die Zeit der Verwandlung zurück. Dafür sind sämtliche körperlichen Prozesse ausgesetzt, er benötigt also weder Nahrung noch Atemluft, unterliegt nicht der Wirkung von Giften und Krankheiten und ist keinerlei Alterung ausgesetzt. Der verwandelte Körper ist zu zerstören. Während der Wirkungsdauer hat das Ziel den Status <em>Vereist</em>.",
        "parents": []
    },
    "effects": [],
    "folder": "SP18396136219154",
    "_key": "!items!KL91011741477113"
}
