{
    "_id": "KL19878210473617",
    "name": "Kleines Salasandra",
    "type": "magicalAbility",
    "img": "systems/tde5e/assets/defaultItems/special_ability_magical.svg",
    "system": {
        "cid": "KLEINES_SALASANDRA",
        "cost": {
            "text": "",
            "constant": 0,
            "recurring": null
        },
        "group": "magical",
        "property": "",
        "purchase": {
            "cost": [
                20
            ],
            "description": "20 Abenteuerpunkte",
            "levels": 1,
            "maxTimeBuyable": 1
        },
        "requirementText": "SF Tradition (Elfen), Rasse Elfen",
        "sources": [
            "AVENTURISCHE_MAGIE_2"
        ],
        "styleAbilities": [],
        "variant": {
            "categories": [],
            "input": false,
            "available": [],
            "level": 1,
            "selected": null
        },
        "flavor": "",
        "notes": "",
        "gmNotes": "",
        "parents": [
            "Compendium.tde5e.magic.Item.TR37561943665255"
        ],
        "rule": "<p>Elfen, die über diese Sonderfertigkeit verfügen, können sich in einem mindestens einstündigen Ritual miteinander verbinden. Sie müssen sich dazu alle in einem Radius von 16 Schritt um einen ausgewählten Mittelpunkt aufhalten.<br /><br />Die Elfen können ihre LeP und AsP beliebig mit den anderen Elfen im Salasandra austauschen bzw. verschieben, sodass ein geschwächter Elf beispielsweise von seinen Gefährten einen Teil ihrer AsP- und LeP-Vorräte erhält. Allerdings kann man nicht über das Maximum der Werte hinausgehen und keine Energie eines einzelnen Teilnehmers unter 6 absinken lassen. Für jeweils 10 volle Punkte, die so verschoben werden, dauert das Salasandra 1 Stunde.<br /><br />Alle Teilnehmer sind nach dem kleinen Salasandra so glücklich, euphorisch oder ausgeglichen, dass Proben auf Zauber um 1 erleichtert sind. Dies hält so viele Stunden an, wie das Salasandra wirkte. Wird das Salasandra gestört, z. B. durch einen Angriff, bricht es sofort ab und auch die Wirkung kann sich nicht entfalten.</p>"
    },
    "effects": [],
    "folder": "PA20111051426896",
    "_key": "!items!KL19878210473617"
}
