{
    "_id": "KL12724315456862",
    "name": "Klingenmeister",
    "type": "magicalAbility",
    "img": "systems/tde5e/assets/defaultItems/tradition_imprint.svg",
    "system": {
        "cid": "KLINGENMEISTER",
        "group": "spellStyle",
        "requirementText": "Der Held besitzt die Tradition (Animisten)",
        "sources": [
            "AVENTURISCHE_MAGIE_3"
        ],
        "notes": "",
        "gmNotes": "",
        "flavor": "",
        "parents": [
            "Compendium.tde5e.magic.Item.TR22473791851201"
        ],
        "rule": "<ul><li><strong>Waffenmeister:</strong> Der Einsatz einer Animistenwaffe kostet bei Waffenzaubern 1 AsP weniger (bei einem Minimum von 1 AsP). Zudem richtet die Waffe in ihren Händen +1 TP an.</li><li><strong>Schwierigere Geisterkontrolle:</strong> Proben auf Animistenkräfte sind um 1 erschwert.</li></ul>",
        "cost": {
            "text": "",
            "constant": 0,
            "recurring": null
        }
    },
    "effects": [],
    "folder": "PR19518380103617",
    "_key": "!items!KL12724315456862",
    "property": "",
    "purchase": {
        "cost": [
            10
        ],
        "description": "10 Abenteuerpunkte",
        "levels": 1,
        "maxTimeBuyable": 1
    },
    "styleAbilities": [],
    "variant": {
        "categories": [],
        "input": false,
        "available": [],
        "level": 1,
        "selected": null
    }
}
