{
    "_id": "KO35120169111173",
    "name": "Koboldruf",
    "type": "magicalAbility",
    "img": "systems/tde5e/assets/defaultItems/special_ability_magical.svg",
    "system": {
        "cid": "KOBOLDRUF",
        "cost": {
            "text": "",
            "constant": 0,
            "recurring": null
        },
        "group": "magical",
        "property": "",
        "purchase": {
            "cost": [
                15
            ],
            "description": "15 Abenteuerpunkte",
            "levels": 1,
            "maxTimeBuyable": 1
        },
        "requirementText": "SF Tradition (Schelme)",
        "sources": [
            "AVENTURISCHE_MAGIE_2"
        ],
        "styleAbilities": [],
        "variant": {
            "categories": [],
            "input": false,
            "available": [],
            "level": 1,
            "selected": null
        },
        "flavor": "",
        "notes": "",
        "gmNotes": "",
        "parents": [
            "Compendium.tde5e.magic.Item.TR44241162842057"
        ],
        "rule": "<p>Diese Sonderfertigkeit erlaubt es dem Anwender, einen Kobold zur rufen, den er persönlich kennt. Der Kobold reist durch ein Limbustor zum Anwender und erscheint 16 Aktionen später bei ihm. Was der Kobold für den Anwender zu tun bereit ist, hängt ganz von dessen Wünschen und Redegewandtheit ab.<br /><br />Nach 5 Minuten erleidet der Anwender 1 Stufe @UUID[Compendium.tde5e.conditions.Item.BE91425088509929]{Betäubung}</p>"
    },
    "effects": [],
    "folder": "PA20111051426896",
    "_key": "!items!KO35120169111173"
}
