{
    "_id": "KO16414623518621",
    "name": "Konservierende Schale",
    "type": "artifactAbility",
    "img": "systems/tde5e/assets/defaultItems/artifact_ability.svg",
    "system": {
        "aspects": [],
        "binding": {
            "cost": "",
            "volume": "2 Punkte"
        },
        "brewType": null,
        "cid": "KONSERVIERENDE_SCHALE",
        "cost": {
            "text": "2 AsP",
            "constant": 2,
            "recurring": null
        },
        "group": "alchemistBowl",
        "property": "healing",
        "purchase": {
            "cost": [
                5
            ],
            "description": "5 Abenteuerpunkte",
            "levels": 1,
            "maxTimeBuyable": 1
        },
        "requirementText": "keine",
        "sources": [
            "BOSPARANS_KATAKOMBEN",
            "LIBER_EXTENSIONUM"
        ],
        "tradition": "Compendium.tde5e.magic.Item.TR21232425518411",
        "variant": {
            "categories": [],
            "input": false,
            "level": 1,
            "selected": null,
            "available": null
        },
        "flavor": "",
        "notes": "",
        "gmNotes": "",
        "parents": [
            "Compendium.tde5e.magic.Item.BI22131281721611"
        ],
        "rule": "<p>Pflanzen, die der Zauberalchimist in die Schale legt, sind um 50% haltbarer als üblich. Belässt er die Pflanze in der Schale, kann eine Anwendung der Pflanze bis zu 10 Jahren haltbar bleiben. Der natürliche Verfall setzt erst wieder ein, wenn die Pflanze aus der Schale genommen wurde.</p>"
    },
    "effects": [],
    "folder": "ZA20922218743141",
    "_key": "!items!KO16414623518621"
}
