{
    "_id": "KO19918015978236",
    "name": "Konzilsmeister",
    "type": "magicalAbility",
    "img": "systems/tde5e/assets/defaultItems/special_ability_magical.svg",
    "system": {
        "cid": "KONZILSMEISTER",
        "cost": {
            "text": "",
            "constant": 0,
            "recurring": null
        },
        "group": "spellStyle",
        "property": "",
        "purchase": {
            "cost": [
                20
            ],
            "description": "20 Abenteuerpunkte",
            "levels": 1,
            "maxTimeBuyable": 1
        },
        "requirementText": "SF Tradition (Druiden)",
        "sources": [
            "AVENTURISCHE_MAGIE_3"
        ],
        "styleAbilities": [
            "Compendium.tde5e.magic.Item.ER75311182341571",
            "Compendium.tde5e.magic.Item.WE15199538580194",
            "Compendium.tde5e.magic.Item.WI15718524953922"
        ],
        "variant": {
            "categories": [],
            "input": false,
            "available": [],
            "level": 1,
            "selected": null
        },
        "flavor": "",
        "notes": "",
        "gmNotes": "",
        "parents": [
            "Compendium.tde5e.magic.Item.TR10415123625209"
        ],
        "rule": "<p>Zauber in der Tradition der Gildenmagier sind nur um 1 erschwert und können modifiziert werden.</p>"
    },
    "effects": [],
    "folder": "ZA14914837156109",
    "_key": "!items!KO19918015978236"
}
