{
    "_id": "KO20227181138178",
    "name": "Korn verfaulen lassen",
    "type": "magicalAbility",
    "img": "systems/tde5e/assets/defaultItems/special_ability_magical.svg",
    "system": {
        "cid": "KORN_VERFAULEN_LASSEN",
        "cost": {
            "text": "",
            "constant": 0,
            "recurring": null
        },
        "group": "pactGift",
        "property": "",
        "purchase": {
            "cost": [
                8
            ],
            "description": "8 Abenteuerpunkte",
            "levels": 1,
            "maxTimeBuyable": 1
        },
        "requirementText": "Dämonenpakt Stufe 1 (Mishkara)",
        "sources": [
            "AVENTURISCHE_MAGIE_3"
        ],
        "styleAbilities": [],
        "variant": {
            "categories": [],
            "input": false,
            "available": [],
            "level": 1,
            "selected": null
        },
        "flavor": "",
        "notes": "",
        "gmNotes": "",
        "rule": "Die Paktiererin kann mit diesem Fluch ein Feld von 50 x 100 Rechtschritt durch Schädlinge wie Heuschrecken oder durch Pflanzenkrankheiten wie Mehltau zerstören. Die Paktiererin kann dabei die Art der Zerstörung auswählen. Die Ernte ist binnen 7–KdV Stunden vollständig zerstört (bei KdV 7 also sofort). Die Pflanzen lassen sich durch Umpflanzen nicht retten und stecken dabei eventuell sogar weitere Pflanzen an. Auf dem Boden lassen sich 13 Wochen lang keine Lebensmittel mehr anbauen. Alle Versuche innerhalb dieser Zeit sind zum Scheitern verurteilt. Der Einsatz dieser Fähigkeit kostet 1 Aktion und verursacht 1 Stufe @UUID[Compendium.tde5e.conditions.Item.DA21528191859282]{Dämonische Auszehrung}.",
        "parents": []
    },
    "effects": [],
    "folder": "DA30309060912592",
    "_key": "!items!KO20227181138178"
}
