{
    "_id": "KO20714272195714",
    "name": "Körperlose Reise",
    "type": "spell",
    "img": "systems/tde5e/assets/defaultItems/spell.svg",
    "system": {
        "castingTime": "30 M",
        "castingTimeLong": "30 Minuten",
        "check": {
            "resistedBySpirit": false,
            "resistedByToughness": false,
            "resistanceIsHalfed": false,
            "attributes": [
                "courage",
                "sagacity",
                "intuition"
            ]
        },
        "checkedSkill": null,
        "cid": "KORPERLOSE_REISE",
        "cost": {
            "text": "8 + 4 / 10 M",
            "textLong": "8 AsP (Aktivierung) + 4 AsP pro 10 Minuten",
            "constant": 8,
            "recurring": {
                "interval": 4,
                "unit": "10 Minuten"
            }
        },
        "duration": "aufrechterhaltend",
        "durationLong": "aufrechterhaltend",
        "enhancements": [
            {
                "name": "Körpergefühl",
                "effect": "Der Zauberer nimmt wahr, was mit seinem Körper geschieht, z.B., ob dieser Schaden erleidet.",
                "skillPoints": 8,
                "owned": false
            },
            {
                "name": "Durch Objekte",
                "effect": "Der Geisterkörper kann sich auch durch feste Objekte bewegen.",
                "skillPoints": 11,
                "owned": false
            },
            {
                "name": "Manifestation",
                "effect": "Der Zauberer kann seinen Geistkörper manifestieren, sodass in der Wirklichkeit eine geisterhafte Erscheinung von ihm zu sehen ist. In dieser Gestalt kann er zwar keine physischen Objekte berühren, sehr wohl aber sprechen.",
                "skillPoints": 14,
                "owned": false
            }
        ],
        "group": "ritual",
        "modifications": {
            "canModCastingTime": true,
            "canModCost": true,
            "canModRange": true
        },
        "property": "spheres",
        "range": "selbst",
        "rangeLong": "selbst",
        "requirementText": "keine",
        "sources": [
            "BOSPARANS_KATAKOMBEN",
            "LIBER_EXTENSIONUM"
        ],
        "subTraditions": "",
        "targetCategory": "Kulturschaffende",
        "traditions": {
            "all": false,
            "values": [
                "Compendium.tde5e.magic.Item.TR10415123625209",
                "Compendium.tde5e.magic.Item.TR20562116246223"
            ]
        },
        "improvement": {
            "column": "C",
            "value": 0
        },
        "notes": "",
        "gmNotes": "",
        "flavor": "",
        "rule": "Der Zauberer trennt seinen Geist von seinem Körper und kann sich auf diesem Wege mit einer GS von QS x 3 fortbewegen, feste Objekte halten den Geisterkörper jedoch auf. Er behält dabei Sicht, Gehör und Geruch, vermag jedoch nicht, mit seiner Umgebung zu interagieren, was auch das Wirken von Magie ausschließt. Ein Eindringen in Bereiche, in denen Magie im Allgemeinen sowie Zauber des Merkmals Sphären im Speziellen unterbunden oder zumindest erschwert werden, ist nur möglich, wenn die erreichten QS die QS der zu überwindenden Wirkung übersteigen. Während der Wirkungsdauer bemerkt der Zauberer nicht, was mit seinem bewusstlosen Körper geschieht, selbst wenn dieser Schaden erleidet. Stirbt der Köper, wird der Geist zu einer Gefesselten Seele. Gleiches geschieht, wenn der Geist nicht vor Ende der Wirkungsdauer in den Körper zurückkehrt, der daraufhin als leere Hülle verendet.",
        "parents": []
    },
    "effects": [],
    "folder": "SP18396136219154",
    "_key": "!items!KO20714272195714"
}
