{
    "_id": "KO98824399771451",
    "name": "Körperpflege",
    "type": "cantrip",
    "img": "systems/tde5e/assets/defaultItems/spell.svg",
    "system": {
        "cid": "KORPERPFLEGE",
        "duration": "sofort",
        "durationLong": "sofort",
        "property": "healing",
        "range": "Berührung",
        "rangeLong": "Berührung",
        "requirementText": "",
        "sources": [
            "BOSPARANS_KATAKOMBEN",
            "LIBER_EXTENSIONUM"
        ],
        "targetCategory": "Kulturschaffende",
        "traditions": {
            "all": false,
            "values": [
                "Compendium.tde5e.magic.Item.TR22473791851201",
                "Compendium.tde5e.magic.Item.TR20562116246223"
            ]
        },
        "notes": "",
        "gmNotes": "",
        "flavor": "",
        "rule": "Durch eine Berührung können Hautverunreinigungen, Rötungen und kleine Kratzer beseitigt werden. Der Zaubertrick regeneriert keine LeP, kann auch keine entstellenden Narben oder Pusteln, die durch Krankheiten entstanden sind, beseitigen.",
        "parents": []
    },
    "effects": [],
    "folder": "SP45861142482726",
    "_key": "!items!KO98824399771451"
}
