{
    "_id": "KR22924691187109",
    "name": "Kraftlinienmagie",
    "type": "magicalAbility",
    "img": "systems/tde5e/assets/defaultItems/special_ability_magical.svg",
    "system": {
        "cid": "KRAFTLINIENMAGIE",
        "cost": {
            "text": "",
            "constant": 0,
            "recurring": null
        },
        "group": "magical",
        "property": "",
        "purchase": {
            "cost": [
                5
            ],
            "description": "5 Abenteuerpunkte",
            "levels": 1,
            "maxTimeBuyable": 1
        },
        "requirementText": "SF Kraftliniennutzung",
        "sources": [
            "AVENTURISCHE_MAGIE_2"
        ],
        "styleAbilities": [],
        "variant": {
            "categories": [],
            "input": false,
            "available": [],
            "level": 1,
            "selected": null
        },
        "flavor": "",
        "notes": "",
        "gmNotes": "",
        "parents": [
            "Compendium.tde5e.magic.Item.KR12922918912021"
        ],
        "rule": "<p>Verfügt der Zauberer über diese Sonderfertigkeit, erhält er eine Erleichterung von 1 auf Zauber, sofern sich sein Körper auf einer Kraftlinie befindet. Die Modifikation Reichweite erhöhen erschwert die Probe entlang der Linie nicht.</p>"
    },
    "effects": [],
    "folder": "PA20111051426896",
    "_key": "!items!KR22924691187109"
}
