{
    "_id": "KR93238104200151",
    "name": "Kraftknotenmagie",
    "type": "magicalAbility",
    "img": "systems/tde5e/assets/defaultItems/special_ability_magical.svg",
    "system": {
        "cid": "KRAFTKNOTENMAGIE",
        "cost": {
            "text": "",
            "constant": 0,
            "recurring": null
        },
        "group": "magical",
        "property": "",
        "purchase": {
            "cost": [
                15
            ],
            "description": "15 Abenteuerpunkte",
            "levels": 1,
            "maxTimeBuyable": 1
        },
        "requirementText": "SF Kraftknotennutzung",
        "sources": [
            "AVENTURISCHE_MAGIE_2"
        ],
        "styleAbilities": [],
        "variant": {
            "categories": [],
            "input": false,
            "available": [],
            "level": 1,
            "selected": null
        },
        "flavor": "",
        "notes": "",
        "gmNotes": "",
        "parents": [
            "Compendium.tde5e.magic.Item.KR17010020217130"
        ],
        "rule": "<p>Verfügt der Zauberer über diese Sonderfertigkeit, erhält er eine Erleichterung von 1 auf Zauber, sofern sich sein Körper auf einem Kraftknoten befindet. Die Modifikation Reichweite erhöhen erschwert die Probe entlang der Linien des Knotens nicht.</p>"
    },
    "effects": [],
    "folder": "PA20111051426896",
    "_key": "!items!KR93238104200151"
}
