{
    "_id": "KR84391122043224",
    "name": "Krafttrank",
    "type": "artifactAbility",
    "img": "systems/tde5e/assets/defaultItems/artifact_ability.svg",
    "system": {
        "aspects": [],
        "binding": {
            "cost": "",
            "volume": "4 Punkte"
        },
        "brewType": "Trank",
        "cid": "KRAFTTRANK",
        "cost": {
            "text": "10 AsP",
            "constant": 10,
            "recurring": null
        },
        "group": "witchCouldron",
        "property": "healing",
        "purchase": {
            "cost": [
                12
            ],
            "description": "12 Abenteuerpunkte",
            "levels": 1,
            "maxTimeBuyable": 1
        },
        "requirementText": "keine",
        "sources": [
            "BOSPARANS_KATAKOMBEN",
            "LIBER_EXTENSIONUM"
        ],
        "tradition": "Compendium.tde5e.magic.Item.TR60602241216130",
        "variant": {
            "categories": [],
            "input": false,
            "level": 1,
            "selected": null,
            "available": null
        },
        "flavor": "",
        "notes": "",
        "gmNotes": "",
        "parents": [
            "Compendium.tde5e.magic.Item.BI66178225234192"
        ],
        "rule": "<p>Ein Kulturschaffender kann den Trank komplett trinken (etwa 3 Liter). Danach verfügt er für eine halbe Stunde über unglaubliche Kraft (+3 KK, +6 FW @UUID[Compendium.tde5e.skills.Item.KR28631591116621]{Kraftakt}). Nach dem Ende der Wirkung erhält der Kulturschaffende 1 Stufe @UUID[Compendium.tde5e.conditions.Item.BE91425088509929]{Betäubung}.</p>"
    },
    "effects": [],
    "folder": "HE94771616520622",
    "_key": "!items!KR84391122043224"
}
