{
    "_id": "KR16020610323714",
    "name": "Krähenruf",
    "type": "spell",
    "img": "systems/tde5e/assets/defaultItems/spell.svg",
    "system": {
        "castingTime": "4 Akt",
        "castingTimeLong": "4 Aktionen",
        "check": {
            "resistedBySpirit": false,
            "resistedByToughness": false,
            "resistanceIsHalfed": false,
            "attributes": [
                "courage",
                "charisma",
                "charisma"
            ]
        },
        "checkedSkill": null,
        "cid": "KRAHENRUF",
        "cost": {
            "text": "16 AsP",
            "textLong": "16 AsP",
            "constant": 16,
            "recurring": null
        },
        "duration": "Tod d. Tiere / 10 KR",
        "durationLong": "bis zum Tod der Tiere, maximal jedoch 10 KR",
        "enhancements": [
            {
                "name": "Angriffslustig",
                "effect": "Die Tiere erhalten +1 KTW.",
                "skillPoints": 8,
                "owned": false
            },
            {
                "name": "Scharfe Schnäbel",
                "effect": "Die Tiere erhalten +1 TP.",
                "skillPoints": 11,
                "owned": false
            },
            {
                "name": "Zielgenauigkeit",
                "effect": "Die Krähen erhalten das Manöver <em>Angriff auf ungeschützte Stellen</em> (Schnabel).",
                "skillPoints": 14,
                "owned": false
            }
        ],
        "group": "incantation",
        "modifications": {
            "canModCastingTime": true,
            "canModCost": true,
            "canModRange": true
        },
        "property": "demonic",
        "range": "8 m",
        "rangeLong": "8 Schritt",
        "requirementText": "keine",
        "sources": [
            "BOSPARANS_KATAKOMBEN",
            "LIBER_EXTENSIONUM"
        ],
        "subTraditions": "",
        "targetCategory": "Zone",
        "traditions": {
            "all": false,
            "values": [
                "Compendium.tde5e.magic.Item.TR60602241216130"
            ]
        },
        "improvement": {
            "column": "C",
            "value": 0
        },
        "notes": "",
        "gmNotes": "",
        "flavor": "",
        "rule": "Die Hexe ruft mit diesem Zauberspruch bis zu QS x 3 Krähen herbei, die für sie kämpfen (ungeachtet dessen, wie viele Gegner die Hexe bedrohen). Die Hexe muss einen Punkt in der Luft innerhalb der Reichweite bestimmen, an dem die Tiere dann in einem Radius von QS/2 Schritt erscheinen. Die Krähen verteilen sich gleichmäßig auf alle Gegner. Geht die gleichmäßige Verteilung nicht ganz auf, kann die Spielerin der Hexe bestimmen, welche Gegner eine Krähe mehr oder weniger abbekommen. Stirbt ein Gegner, verschwinden alle Krähen bei ihm wieder im Nichts. Nach ihrem Erscheinen können die Krähen sich beliebig weit vom Ort ihrer Herbeirufung wegbewegen. Die Krähen sind magische Wesen, die aus Magie erschaffen wurden. Endet die Wirkungsdauer, verschwinden die Krähen wieder im Nichts.<p><div class=\"stat-block\"><h1>Hexenkrähen</h1><span class=\"stats\"><span><b>MU</b> 12</span><span><b>KL</b> 14(t)</span><span><b>IN</b> 12</span><span><b>CH</b> 11</span><span><b>FF</b> 12</span><span><b>GE</b> 10</span><span><b>KO</b> 5</span><span><b>KK</b> 7 (k)</span></span><span class=\"stats\"><span><b>LE</b> -7</span><span><b>SK</b> -5</span><span><b>ZK</b> -6</span><span><b>GS</b> 17</span><span><b>KTW</b> 9 (Schlagwaffen)</span><span><b>RS</b> 0/0/0</span><span><b>BE</b> 0</span><span><b>Adr</b> 2</span><span><b>TP</b> 1W3-2</span></span><div><b>Vorteile</b> @UUID[Compendium.tde5e.advantagesDisadvantages.Item.HE35591881565014]{Herausragender Sinn (Tastsinn)}</div><div><b>Talente</b> @UUID[Compendium.tde5e.skills.Item.EI23914229134172]{Einschüchtern} 2, @UUID[Compendium.tde5e.skills.Item.FL13615987154130]{Fliegen} 7, @UUID[Compendium.tde5e.skills.Item.KL21110615875233]{Klettern} 10, @UUID[Compendium.tde5e.skills.Item.AT01742720744548]{Athlethik} 4, @UUID[Compendium.tde5e.skills.Item.AK92342342043211]{Akrobatik} 3, @UUID[Compendium.tde5e.skills.Item.KR28631591116621]{Kraftakt} 2,  @UUID[Compendium.tde5e.skills.Item.SE24510070128212]{Selbstbeherrschung} 4, @UUID[Compendium.tde5e.skills.Item.SI80193235230167]{Sinnesschärfe} 12, @UUID[Compendium.tde5e.skills.Item.VE22425218425144]{Verbergen} 2, @UUID[Compendium.tde5e.skills.Item.WI13315915718951]{Willenskraft} 2</div><div><b>Größenkategorie</b> winzig</div><div><b>Typus</b> Tier, nicht humanoid</div><div><b>Flucht</b> fliehen nicht.</div>Als magische Wesen sind die Tiere immun gegen den Zustand @UUID[Compendium.tde5e.conditions.Item.SC72173204142222]{Schmerz}.</span></div></p>",
        "parents": []
    },
    "effects": [],
    "folder": "SP15718021520213",
    "_key": "!items!KR16020610323714"
}
