{
    "_id": "KR20725017387151",
    "name": "Krallenketten-Apport",
    "type": "artifactAbility",
    "img": "systems/tde5e/assets/defaultItems/artifact_ability.svg",
    "system": {
        "aspects": [],
        "binding": {
            "cost": "",
            "volume": "3 Punkte"
        },
        "brewType": null,
        "cid": "KRALLENKETTENAPPORT",
        "cost": {
            "text": "1 AsP",
            "constant": 1,
            "recurring": null
        },
        "group": "animistClawChain",
        "property": null,
        "purchase": {
            "cost": [
                15
            ],
            "description": "15 Abenteuerpunkte",
            "levels": 1,
            "maxTimeBuyable": 1
        },
        "requirementText": "SF Bindung der Krallenkette",
        "sources": [
            "GEISTERWALD_UND_KNOCHENKLIPPEN"
        ],
        "tradition": "Compendium.tde5e.magic.Item.TR22473791851201",
        "variant": {
            "categories": [],
            "input": false,
            "level": 1,
            "selected": null,
            "available": null
        },
        "flavor": "",
        "notes": "",
        "gmNotes": "",
        "parents": [
            "Compendium.tde5e.magic.Item.BI46152119524428"
        ],
        "rule": "<p>Die Krallenkette kann von der Animistin zu sich gerufen werden. Sie fliegt auf dem kürzesten Weg mit Geschwindigkeit 15 zur Animistin und umfliegt selbstständig Hindernisse. Fenster durchschlägt die Krallenkette, Wände aus Holz oder Stein halten sie jedoch auf. Die Animistin muss ihre Krallenkette für den Einsatz des Krallenketten-Apports nicht sehen.</p>"
    },
    "effects": [],
    "folder": "AN29112102313266",
    "_key": "!items!KR20725017387151"
}
