{
    "_id": "KR10721214123914",
    "name": "Kriegsbemalung",
    "type": "cantrip",
    "img": "systems/tde5e/assets/defaultItems/spell.svg",
    "system": {
        "cid": "KRIEGSBEMALUNG",
        "duration": "10 M",
        "durationLong": "10 Minuten",
        "property": "transformation",
        "range": "selbst",
        "rangeLong": "selbst",
        "requirementText": "",
        "sources": [
            "BOSPARANS_KATAKOMBEN",
            "LIBER_EXTENSIONUM"
        ],
        "targetCategory": "Kulturschaffende",
        "traditions": {
            "all": false,
            "values": [
                "Compendium.tde5e.magic.Item.TR22473791851201",
                "Compendium.tde5e.magic.Item.TR20562116246223"
            ]
        },
        "notes": "",
        "gmNotes": "",
        "flavor": "",
        "rule": "Auf dem Körper des Zauberers erscheinen leuchtende Zauberzeichen, ähnlich einer Tätowierung. Die genaue Form der Bemalung ist dem Zauberer überlassen. Das Leuchten reicht nicht aus, um Licht zu spenden und Sichtmodifikatoren zu beheben.",
        "parents": []
    },
    "effects": [],
    "folder": "SP45861142482726",
    "_key": "!items!KR10721214123914"
}
