{
    "_id": "KR20250512524125",
    "name": "Krötenruf",
    "type": "spell",
    "img": "systems/tde5e/assets/defaultItems/spell.svg",
    "system": {
        "castingTime": "4 Akt",
        "castingTimeLong": "4 Aktionen",
        "check": {
            "resistedBySpirit": false,
            "resistedByToughness": false,
            "resistanceIsHalfed": false,
            "attributes": [
                "courage",
                "charisma",
                "charisma"
            ]
        },
        "checkedSkill": null,
        "cid": "KROTENRUF",
        "cost": {
            "text": "16 AsP",
            "textLong": "16 AsP",
            "constant": 16,
            "recurring": null
        },
        "duration": "Tod d. Tiere / 10 KR",
        "durationLong": "bis zum Tod der Tiere, maximal jedoch 10 KR",
        "enhancements": [
            {
                "name": "Angriffslustig",
                "effect": "Die Tiere erhalten +1 KTW.",
                "skillPoints": 8,
                "owned": false
            },
            {
                "name": "Schleimige Zunge",
                "effect": "Zur Bestimmung, ob das Gift eintritt gilt der Rüstschutz um 1 niedriger.",
                "skillPoints": 11,
                "owned": false
            },
            {
                "name": "Zielgenauigkeit",
                "effect": "Die Kröten erhalten das Manöver <em>Angriff auf ungeschützte Stellen</em> (Schnabel).",
                "skillPoints": 14,
                "owned": false
            }
        ],
        "group": "incantation",
        "modifications": {
            "canModCastingTime": true,
            "canModCost": true,
            "canModRange": true
        },
        "property": "demonic",
        "range": "8 m",
        "rangeLong": "8 Schritt",
        "requirementText": "keine",
        "sources": [
            "BOSPARANS_KATAKOMBEN",
            "LIBER_EXTENSIONUM"
        ],
        "subTraditions": "",
        "targetCategory": "Zone",
        "traditions": {
            "all": false,
            "values": [
                "Compendium.tde5e.magic.Item.TR60602241216130"
            ]
        },
        "improvement": {
            "column": "C",
            "value": 0
        },
        "notes": "",
        "gmNotes": "",
        "flavor": "",
        "rule": "Die Hexe ruft mit diesem Zauberspruch bis zu QS x 3 Kröten herbei, die für sie kämpfen (ungeachtet dessen, wie viele Gegner die Hexe bedrohen). Die Hexe muss einen Punkt in der Luft innerhalb der Reichweite bestimmen, an dem die Tiere dann in einem Radius von QS/2 Schritt erscheinen. Die Kröten verteilen sich gleichmäßig auf alle Gegner. Geht die gleichmäßige Verteilung nicht ganz auf, kann die Spielerin der Hexe bestimmen, welche Gegner eine Krähe mehr oder weniger abbekommen. Stirbt ein Gegner, verschwinden alle Kröten bei ihm wieder im Nichts. Nach ihrem Erscheinen können die Kröten sich beliebig weit vom Ort ihrer Herbeirufung wegbewegen. Die Kröten sind magische Wesen, die aus Magie erschaffen wurden. Endet die Wirkungsdauer, verschwinden die Kröten wieder im Nichts.<p><div class=\"stat-block\"><h1>Hexenkröten</h1><span class=\"stats\"><span><b>MU</b> 16</span><span><b>KL</b> 8(t)</span><span><b>IN</b> 12</span><span><b>CH</b> 10</span><span><b>FF</b> 6</span><span><b>GE</b> 8</span><span><b>KO</b> 4</span><span><b>KK</b> 9 (k)</span></span><span class=\"stats\"><span><b>LE</b> -6</span><span><b>SK</b> -5</span><span><b>ZK</b> -6</span><span><b>GS</b> 1</span><span><b>KTW</b> 8 (Schlagwaffen)</span><span><b>RS</b> 0/0/0</span><span><b>BE</b> 0</span><span><b>Adr</b> 2</span><span><b>TP</b> 1W3-2</span></span><div><b>Vorteile</b> @UUID[Compendium.tde5e.advantagesDisadvantages.Item.HE35591881565014]{Herausragender Sinn (Tastsinn)}</div><div><b>Talente</b> @UUID[Compendium.tde5e.skills.Item.EI23914229134172]{Einschüchtern} 1, @UUID[Compendium.tde5e.skills.Item.KL21110615875233]{Klettern} 2, @UUID[Compendium.tde5e.skills.Item.AT01742720744548]{Athlethik} 4, @UUID[Compendium.tde5e.skills.Item.AK92342342043211]{Akrobatik} 4, @UUID[Compendium.tde5e.skills.Item.SE24510070128212]{Selbstbeherrschung} 7, @UUID[Compendium.tde5e.skills.Item.SI80193235230167]{Sinnesschärfe} 7, @UUID[Compendium.tde5e.skills.Item.VE22425218425144]{Verbergen} 10, @UUID[Compendium.tde5e.skills.Item.WI13315915718951]{Willenskraft} 7</div><div><b>Größenkategorie</b> winzig</div><div><b>Typus</b> Tier, nicht humanoid</div><div><b>Flucht</b> fliehen nicht.</div>Als magische Wesen sind die Tiere immun gegen den Zustand @UUID[Compendium.tde5e.conditions.Item.SC72173204142222]{Schmerz}.</span></div><div class=\"stat-block\"><h1>Hexenkrötengift</h1><div><b>Stufe</b> 4</div><div><b>Art</b> Kontakt -und Waffengift, tierisch</div><div><b>Widerstand</b> Zähigkeit</div><div><b>Wirkung</b> 1 Stufe @UUID[Compendium.tde5e.conditions.Item.VE73175641105112]{Verwirrung} / -</div><div><b>Beginn</b> 3 KR</div><div><b>Dauer</b> 30 Minuten</div>Das Gift der Hexenkröten ist ein leichtes Halluzinogen. Es wirkt nicht auf Hexen, es sei denn, die Hexe möchte willentlich, dass das Gift bei ihr wirkt. Die Zustandsstufen durch das Gift wirken kumulativ, maximal lassen sich so 3 Stufen ansammeln.</span></div></p>",
        "parents": []
    },
    "effects": [],
    "folder": "SP15718021520213",
    "_key": "!items!KR20250512524125"
}
