{
    "_id": "KU18812310117163",
    "name": "Zauberkugel des Hellsehers",
    "type": "artifactAbility",
    "img": "systems/tde5e/assets/defaultItems/artifact_ability.svg",
    "system": {
        "aspects": [],
        "binding": {
            "cost": "",
            "volume": "2 Punkte"
        },
        "brewType": null,
        "cid": "KUGEL_DES_HELLSEHERS_ZAUBERKUGEL",
        "cost": {
            "text": "4 AsP",
            "constant": 4,
            "recurring": null
        },
        "group": "charlatanBall",
        "property": "clairvoyance",
        "purchase": {
            "cost": [
                12
            ],
            "description": "12 Abenteuerpunkte",
            "levels": 1,
            "maxTimeBuyable": 1
        },
        "requirementText": "keine",
        "sources": [
            "BOSPARANS_KATAKOMBEN",
            "LIBER_EXTENSIONUM"
        ],
        "tradition": "Compendium.tde5e.magic.Item.TR18517324589268",
        "variant": {
            "categories": [],
            "input": false,
            "level": 1,
            "selected": null,
            "available": null
        },
        "flavor": "",
        "notes": "",
        "gmNotes": "",
        "parents": [
            "Compendium.tde5e.magic.Item.BI25320487236112"
        ],
        "rule": "<p>Der Scharlatan spürt den größten Wunsch und die größte Angst einer ausgewählten Zielperson innerhalb von 4 Schritt, beispielsweise, ob sie Angst vor Spinnen hat oder unbedingt heiraten möchte. Beides sieht der Scharlatan als Bilder in seinem Kopf, aber es handelt sich dabei um sehr allgemeine Darstellungen ohne Details. Die Zielperson darf keine Seelenkraft von mehr als 2 aufweisen.</p>"
    },
    "effects": [],
    "folder": "SC17321712817524",
    "_key": "!items!KU18812310117163"
}
