{
    "_id": "LA31151266112132",
    "name": "Lähmende Furcht",
    "type": "magicalAbility",
    "img": "systems/tde5e/assets/defaultItems/special_ability_magical.svg",
    "system": {
        "cid": "LAHMENDE_FURCHT",
        "cost": {
            "text": "",
            "constant": 0,
            "recurring": null
        },
        "group": "pactGift",
        "property": "",
        "purchase": {
            "cost": [
                15,
                15,
                15
            ],
            "description": "15 Abenteuerpunkte pro Stufe",
            "levels": 3,
            "maxTimeBuyable": 1
        },
        "requirementText": "Stufe I:  Dämonenpakt Stufe 1 (Belhalhar), Stufe II: Dämonenpakt Stufe 3, Stufe III: Dämonenpakt Stufe 5",
        "sources": [
            "AVENTURISCHE_MAGIE_3"
        ],
        "styleAbilities": [],
        "variant": {
            "categories": [],
            "input": false,
            "available": [],
            "level": 1,
            "selected": null
        },
        "flavor": "",
        "notes": "",
        "gmNotes": "",
        "rule": "In einem Radius von 8 Schritt um den Paktierer herum entsteht durch sein Geheul, seine Drohungen und dämonische Ausdünstungen eine Zone der Furcht. Alle Lebewesen müssen eine Probe auf @UUID[Compendium.tde5e.skills.Item.WI13315915718951]{Willenskraft (Einschüchtern widerstehen)} erschwert um KdV ablegen. Bei Misslingen erleiden sie 1 Stufe @UUID[Compendium.tde5e.conditions.Item.FU13915517420459]{Furcht} pro Stufe des Paktgeschenks. Jedes Lebewesen kann durch diese Fähigkeit nur 2 Stufen @UUID[Compendium.tde5e.conditions.Item.FU13915517420459]{Furcht} erleiden, auch wenn die Fähigkeit mehrfach eingesetzt wird. Allerdings muss es, sofern es noch keine Furcht durch die Fähigkeit erlitten hat, jedes Mal bei Einsatz der Fähigkeit eine neue Probe ablegen. Die Zone wirkt augenblicklich, bleibt also nicht bestehen. Der Einsatz dieser Fähigkeit kostet 1 Aktion und verursacht 1 Stufe @UUID[Compendium.tde5e.conditions.Item.DA21528191859282]{Dämonische Auszehrung}.",
        "parents": []
    },
    "effects": [],
    "folder": "DA30309060912592",
    "_key": "!items!LA31151266112132"
}
