{
    "_id": "LA15305310913819",
    "name": "Laufendes Händchen",
    "type": "cantrip",
    "img": "systems/tde5e/assets/defaultItems/spell.svg",
    "system": {
        "cid": "LAUFENDES_HANDCHEN",
        "duration": "10 M",
        "durationLong": "10 Minuten",
        "property": "demonic",
        "range": "Berührung",
        "rangeLong": "Berührung",
        "requirementText": "",
        "sources": [
            "BOSPARANS_KATAKOMBEN",
            "LIBER_EXTENSIONUM"
        ],
        "targetCategory": "Zone",
        "traditions": {
            "all": false,
            "values": [
                "Compendium.tde5e.magic.Item.TR20562116246223"
            ]
        },
        "notes": "",
        "gmNotes": "",
        "flavor": "",
        "rule": "Durch die Berührung einer abgeschlagenen Hand kann der Magier diese zum Untot erwecken. Die Hand verbleibt bis zum Ende der Wirkungsdauer in der Nähe des Magiers und macht nichts weiter, als andere Personen durch krabbelnde Bewegungen und Zuckungen zu verunsichern. Weder greift sie jemanden an, noch kann sie etwas ergreifen. Dafür ist sie aber in der Lage, sich fortzubewegen (mit GS 4), um dem Magier zu folgen.",
        "parents": []
    },
    "effects": [],
    "folder": "SP45861142482726",
    "_key": "!items!LA15305310913819"
}
