{
    "_id": "LE11017929165124",
    "name": "Leben aufspüren",
    "type": "magicalAbility",
    "img": "systems/tde5e/assets/defaultItems/special_ability_magical.svg",
    "system": {
        "cid": "LEBEN_AUFSPUREN",
        "cost": {
            "text": "5 AsP",
            "constant": 5,
            "recurring": null
        },
        "group": "companionTrick",
        "property": "clairvoyance",
        "purchase": {
            "cost": [
                10
            ],
            "description": "10 Abenteuerpunkte",
            "levels": 1,
            "maxTimeBuyable": 1
        },
        "requirementText": "Nur für Tierarten: Hunde, Vielfraß",
        "sources": [
            "BOSPARANS_KATAKOMBEN",
            "LIBER_EXTENSIONUM"
        ],
        "styleAbilities": [],
        "variant": {
            "categories": [],
            "input": false,
            "available": [],
            "level": 1,
            "selected": null
        },
        "flavor": "",
        "notes": "",
        "gmNotes": "",
        "rule": "Das Vertrautentier kann in einem Radius von 3 Meilen einen Kulturschaffenden aufspüren, den der Geode persönlich kennt. Dieser muss dem Vertrauten den Namen der Person mitteilen. Der Vertraute muss keine Probe ablegen und spürt magisch, wo sich die Person aufhält, solange sie sich zu Beginn des Tricks im Wirkungsradius befindet.",
        "parents": []
    },
    "effects": [],
    "folder": "TI11380342501412",
    "_key": "!items!LE11017929165124"
}
