{
    "_id": "LE27118861217055",
    "name": "Lebensrune (Livruna)",
    "type": "spell",
    "img": "systems/tde5e/assets/defaultItems/spell.svg",
    "system": {
        "castingTime": "4 T / 4 Akt ",
        "castingTimeLong": "4 Tag / 4 Aktion ",
        "check": {
            "resistedBySpirit": false,
            "resistedByToughness": false,
            "resistanceIsHalfed": false,
            "attributes": [
                "sagacity",
                "intuition",
                "charisma"
            ]
        },
        "checkedSkill": null,
        "cid": "LEBENSRUNE_LIVRUNA",
        "cost": {
            "text": "25 AsP",
            "textLong": "25 AsP",
            "constant": 25,
            "recurring": null
        },
        "duration": "QS MO / QS T ",
        "durationLong": "QS Monate / QS Tage",
        "rule": "Die Rune verleiht ihrem Träger den Vorteil @UUID[Compendium.tde5e.advantagesDisadvantages.Item.AL12432421401381]{Altersresistenz}. Auf ein bis zu 100 Stein schweres Objekt aufgetragen, schützt sie dieses während der Wirkungsdauer vor dem Verfall. Die Zeit kann dem Objekt nichts anhaben, es wird also weder verrotten, verrosten noch verfallen, auch nicht in widrigen Umgebungen in feuchten oder heißen Gegenden oder durch den Kontakt mit Salzwasser. Vor gewaltsamen Einflüssen wie Waffenschaden, Feuer oder Säure bietet die Lebensrune jedoch keinen Schutz.",
        "enhancements": [],
        "group": "magicalRunes",
        "modifications": {
            "canModCastingTime": false,
            "canModCost": false,
            "canModRange": false
        },
        "property": "temporal",
        "range": "Berührung",
        "rangeLong": "Berührung",
        "requirementText": "keine",
        "sources": [
            "KODEX_DER_MAGIE"
        ],
        "subTraditions": "",
        "targetCategory": "Objekt/Lebewesen",
        "traditions": {
            "all": false,
            "values": [
                "Compendium.tde5e.magic.Item.TR94321048617158"
            ]
        },
        "improvement": {
            "column": "D",
            "value": 0
        },
        "notes": "",
        "gmNotes": "",
        "flavor": ""
    },
    "effects": [],
    "folder": "ZA63255252379723",
    "_key": "!items!LE27118861217055"
}
