{
    "_id": "LE98845910435178",
    "name": "Leichengespür",
    "type": "magicalAbility",
    "img": "systems/tde5e/assets/defaultItems/special_ability_magical.svg",
    "system": {
        "cid": "LEICHENGESPUR",
        "cost": {
            "text": "",
            "constant": 0,
            "recurring": null
        },
        "group": "pactGift",
        "property": "",
        "purchase": {
            "cost": [
                5
            ],
            "description": "5 Abenteuerpunkte",
            "levels": 1,
            "maxTimeBuyable": 1
        },
        "requirementText": "Dämonenpakt Stufe 1 (Thargunitoth)",
        "sources": [
            "AVENTURISCHE_MAGIE_3"
        ],
        "styleAbilities": [],
        "variant": {
            "categories": [],
            "input": false,
            "available": [],
            "level": 1,
            "selected": null
        },
        "flavor": "",
        "notes": "",
        "gmNotes": "",
        "rule": "Mit diesem Paktgeschenk kann die Paktiererin Leichen in einem Radius von KdV x 10 Schritt erspüren. Sie weiß zudem, in welchem Zustand sich die Leiche befindet (frischer Leichnam, skelettiert, mumifiziert, etc.). Die Zone bewegt sich mit ihr als Mittelpunkt. Die Wirkung dieser Fähigkeit hält 5 Minuten lang an, ihr Einsatz kostet 1 Aktion und verursacht 1 Stufe @UUID[Compendium.tde5e.conditions.Item.DA21528191859282]{Dämonische Auszehrung}.",
        "parents": []
    },
    "effects": [],
    "folder": "DA30309060912592",
    "_key": "!items!LE98845910435178"
}
