{
    "_id": "LE23813615210620",
    "name": "Leidensbund",
    "type": "spell",
    "img": "systems/tde5e/assets/defaultItems/spell.svg",
    "system": {
        "castingTime": "5 M",
        "castingTimeLong": "5 Minuten",
        "check": {
            "resistedBySpirit": false,
            "resistedByToughness": false,
            "resistanceIsHalfed": false,
            "attributes": [
                "courage",
                "intuition",
                "constitution"
            ]
        },
        "checkedSkill": null,
        "cid": "LEIDENSBUND",
        "cost": {
            "text": "4 AsP",
            "textLong": "4 AsP",
            "constant": 4,
            "recurring": null
        },
        "duration": "sofort",
        "durationLong": "sofort",
        "enhancements": [
            {
                "name": "Krankheitsübertragung",
                "effect": "Anstelle der verlorenen LeP kann eine Krankheit auf den Zauberer übertragen werden. Die Krankheitsstufe darf maximal QS Punkte betragen.",
                "skillPoints": 8,
                "owned": false
            },
            {
                "name": "Giftübertragung",
                "effect": "Anstelle der verlorenen LeP kann ein Gift auf den Zauberer übertragen werden. Die Giftstufe darf maximal QS Punkte betragen.",
                "skillPoints": 11,
                "owned": false
            },
            {
                "name": "Freiwilliger",
                "effect": "Die verlorenen LeP können statt auf den Zauberer auf einen Freiwilligen übertragen werden.",
                "skillPoints": 14,
                "owned": false
            }
        ],
        "group": "ritual",
        "modifications": {
            "canModCastingTime": true,
            "canModCost": true,
            "canModRange": true
        },
        "property": "healing",
        "range": "Berührung",
        "rangeLong": "Berührung",
        "requirementText": "keine",
        "sources": [
            "BOSPARANS_KATAKOMBEN",
            "LIBER_EXTENSIONUM"
        ],
        "subTraditions": "",
        "targetCategory": "Kulturschaffende",
        "traditions": {
            "all": false,
            "values": [
                "Compendium.tde5e.magic.Item.TR20562116246223",
                "Compendium.tde5e.magic.Item.TR52194209152352",
                "Compendium.tde5e.magic.Item.TR98672441157616"
            ]
        },
        "improvement": {
            "column": "A",
            "value": 0
        },
        "notes": "",
        "gmNotes": "",
        "flavor": "",
        "rule": "Der Zauberer kann den erlittenen LeP-Verlust von einer anderen Person auf sich selbst übertragen. Dadurch werden die Wunden des Ziels geheilt und entstehen dafür beim Zaubernden. Maximal können auf diesem Wege QS x 3 verlorene LeP übertragen werden, wobei sich der Zauberer auch für weniger entscheiden kann. Auch ist keine Übertragung möglich, die beim Zauberer zu einem LeP-Stand führen würde, der bei 0 oder darunter liegt. Die Wirkung des Zaubers setzt erst nach Ende der Ritualdauer ein, es ist daher mit diesem Ritual nicht möglich, Sterbende von der Schwelle des Todes zu retten.",
        "parents": []
    },
    "effects": [],
    "folder": "SP18396136219154",
    "_key": "!items!LE23813615210620"
}
