{
    "_id": "LE91104636117389",
    "name": "Leselampe",
    "type": "cantrip",
    "img": "systems/tde5e/assets/defaultItems/spell.svg",
    "system": {
        "cid": "LESELAMPE",
        "duration": "30 M",
        "durationLong": "30 Minuten",
        "property": "elemental",
        "range": "1 m",
        "rangeLong": "1 Schritt",
        "requirementText": "",
        "sources": [
            "BOSPARANS_KATAKOMBEN",
            "LIBER_EXTENSIONUM"
        ],
        "targetCategory": "Kulturschaffende",
        "traditions": {
            "all": false,
            "values": [
                "Compendium.tde5e.magic.Item.TR20562116246223",
                "Compendium.tde5e.magic.Item.TR98672441157616",
                "Compendium.tde5e.magic.Item.TR13113122614326",
                "Compendium.tde5e.magic.Item.TR23524614818820"
            ]
        },
        "notes": "",
        "gmNotes": "",
        "flavor": "",
        "rule": "Aus dem rechten Zeigefinger des Magiers leuchtet ein schwaches Licht. Das Licht ist nicht hell genug, um Sichtmodifikatoren zu ändern, aber es reicht aus, um in der Dunkelheit ein Buch zu lesen.",
        "parents": []
    },
    "effects": [],
    "folder": "SP45861142482726",
    "_key": "!items!LE91104636117389"
}
