{
    "_id": "LE13714192145419",
    "name": "Levthans Feuer",
    "type": "spell",
    "img": "systems/tde5e/assets/defaultItems/spell.svg",
    "system": {
        "castingTime": "2 Akt",
        "castingTimeLong": "2 Aktion",
        "check": {
            "resistedBySpirit": true,
            "resistedByToughness": false,
            "resistanceIsHalfed": false,
            "attributes": [
                "courage",
                "intuition",
                "charisma"
            ]
        },
        "checkedSkill": null,
        "cid": "LEVTHANS_FEUER",
        "cost": {
            "text": "8 AsP",
            "textLong": "8 AsP",
            "constant": 8,
            "recurring": null
        },
        "duration": "QS ST",
        "durationLong": "QS Stunden",
        "enhancements": [
            {
                "name": "Lustsinn",
                "effect": "Die Hexe erhält Informationen über die sexuelle Orientierung oder spezifische Gelüste des Ziels. Dies gilt auch für nicht vom ursprünglichen Effekt betroffene Personen.",
                "skillPoints": 8,
                "owned": false
            },
            {
                "name": "Verkuppeln",
                "effect": "Das Interesse des Ziels gilt nicht der Hexe, sondern einer anderen, von der Hexe ausgewählten Person innerhalb der Reichweite des Zaubers.",
                "skillPoints": 11,
                "owned": false
            },
            {
                "name": "Regeneration stehlen",
                "effect": "Die Hexe und ihr Ziel können während der Wirkungsdauer miteinander schlafen und dies als die nächste Regenerationsphase nutzen (dadurch kann man pro Tag aber keine drei Regenerationsphasen bekommen). Die Hexe kann dabei ihre LeP- und AsP-Regeneration dem Ziel schenken, oder diese dem Ziel rauben und sich selbst gutschreiben. Die so erhaltenen Punkte können das Maximum der LeP oder AsP nicht übersteigen.",
                "skillPoints": 14,
                "owned": false
            }
        ],
        "group": "incantation",
        "modifications": {
            "canModCastingTime": true,
            "canModCost": true,
            "canModRange": true
        },
        "property": "influence",
        "range": "Berührung",
        "rangeLong": "Berührung",
        "requirementText": "keine",
        "sources": [
            "BOSPARANS_KATAKOMBEN",
            "LIBER_EXTENSIONUM"
        ],
        "subTraditions": "",
        "targetCategory": "Kulturschaffende",
        "traditions": {
            "all": false,
            "values": [
                "Compendium.tde5e.magic.Item.TR60602241216130"
            ]
        },
        "improvement": {
            "column": "B",
            "value": 0
        },
        "notes": "",
        "gmNotes": "",
        "flavor": "",
        "rule": "Das Ziel entbrennt in leidenschaftlicher Zuneigung zum Zauberer und wird sich diesem auf Wunsch hingeben. Betroffen sind nur solche Ziele, die prinzipiell an Spezies und Geschlecht des Zauberers interessiert sind, was auch streng asketisch lebende Personen ausschließt. Das Ziel des Zaubers bekommt eine Erschwernis in Höhe der QS für Proben auf @UUID[Compendium.tde5e.skills.Item.WI13315915718951]{Willenskraft (Betören widerstehen)} gegenüber der Hexe.",
        "parents": []
    },
    "effects": [],
    "folder": "SP15718021520213",
    "_key": "!items!LE13714192145419"
}
