{
    "_id": "LI70121021234964",
    "name": "Lied des Schmerzes",
    "type": "spell",
    "img": "systems/tde5e/assets/defaultItems/spell.svg",
    "system": {
        "castingTime": "1 Akt",
        "castingTimeLong": "1 Aktion",
        "check": {
            "resistedBySpirit": false,
            "resistedByToughness": false,
            "resistanceIsHalfed": false,
            "attributes": [
                "courage",
                "sagacity",
                "intuition"
            ]
        },
        "checkedSkill": [
            "Compendium.tde5e.skills.Item.SI13425148507115"
        ],
        "cid": "LIED_DES_SCHMERZES",
        "cost": {
            "text": "8 / 5 M",
            "textLong": "8 AsP pro 5 Minuten",
            "constant": 0,
            "recurring": {
                "interval": 8,
                "unit": "5 Minuten"
            }
        },
        "duration": "",
        "durationLong": "",
        "enhancements": [],
        "group": "distortedElvenSong",
        "modifications": {
            "canModCastingTime": true,
            "canModCost": true,
            "canModRange": true
        },
        "property": "influence",
        "range": "",
        "rangeLong": "",
        "requirementText": "keine",
        "sources": [
            "BOSPARANS_KATAKOMBEN",
            "LIBER_EXTENSIONUM"
        ],
        "subTraditions": "",
        "traditions": {
            "all": false,
            "values": [
                "Compendium.tde5e.magic.Item.TR65132172112213"
            ]
        },
        "improvement": {
            "column": "D",
            "value": 0
        },
        "notes": "",
        "gmNotes": "",
        "flavor": "",
        "rule": "Alle Lebewesen innerhalb von QS x 3 Schritt erhalten während des Spielens 2 Stufen des Zustands @UUID[Compendium.tde5e.conditions.Item.SC72173204142222]{Schmerz}. Betroffen sind nur solche Wesen, deren SK die QS des Lieds nicht übersteigen. Nachtalben sind gegen die Auswirkungen immun.",
        "parents": []
    },
    "effects": [],
    "folder": "SP21814224631382",
    "_key": "!items!LI70121021234964"
}
