{
    "_id": "LI13789412140657",
    "name": "Lied der Tierwahrnehmung",
    "type": "spell",
    "img": "systems/tde5e/assets/defaultItems/spell.svg",
    "system": {
        "castingTime": "5 M",
        "castingTimeLong": "5 Minuten",
        "check": {
            "resistedBySpirit": false,
            "resistedByToughness": false,
            "resistanceIsHalfed": false,
            "attributes": [
                "intuition",
                "charisma",
                "charisma"
            ]
        },
        "checkedSkill": [
            "Compendium.tde5e.skills.Item.MU14419753218980"
        ],
        "cid": "LIED_DER_TIERWAHRNEHMUNG",
        "cost": {
            "text": "4 / M",
            "textLong": "4 AsP pro Minute",
            "constant": 0,
            "recurring": {
                "interval": 4,
                "unit": "Minute"
            }
        },
        "duration": "",
        "durationLong": "",
        "enhancements": [],
        "group": "elvenSong",
        "modifications": {
            "canModCastingTime": true,
            "canModCost": true,
            "canModRange": true
        },
        "property": "clairvoyance",
        "range": "",
        "rangeLong": "",
        "requirementText": "keine",
        "sources": [
            "BOSPARANS_KATAKOMBEN",
            "LIBER_EXTENSIONUM"
        ],
        "subTraditions": "",
        "traditions": {
            "all": false,
            "values": [
                "Compendium.tde5e.magic.Item.TR37561943665255"
            ]
        },
        "improvement": {
            "column": "C",
            "value": 0
        },
        "notes": "",
        "gmNotes": "",
        "flavor": "",
        "rule": "In einem Radius von QS Meilen kann der Elf um die Gegend wahrzunehmen. Er kann dadurch z. B. sich nähernde Feinde wahrnehmen oder den Ort, an dem sich die Tiere befinden, einsehen. Im Zweifelsfall muss der Elf eine Probe auf @UUID[Compendium.tde5e.skills.Item.SI80193235230167]{Sinnesschärfe} ablegen.",
        "parents": []
    },
    "effects": [],
    "folder": "SP21312616611924",
    "_key": "!items!LI13789412140657"
}
