{
    "_id": "MA19522687159104",
    "name": "Mächtiger Patronruf",
    "type": "spell",
    "img": "systems/tde5e/assets/defaultItems/spell.svg",
    "system": {
        "castingTime": "1 Akt",
        "castingTimeLong": "1 Aktion",
        "check": {
            "resistedBySpirit": false,
            "resistedByToughness": false,
            "resistanceIsHalfed": false,
            "attributes": [
                "intuition",
                "constitution",
                "strength"
            ]
        },
        "checkedSkill": null,
        "cid": "MACHTIGER_PATRONRUF",
        "cost": {
            "text": "12 AsP",
            "textLong": "12 AsP",
            "constant": 12,
            "recurring": null
        },
        "duration": "QS x 5 M",
        "durationLong": "QS x 5 Minuten",
        "enhancements": [],
        "group": "animistForce",
        "modifications": {
            "canModCastingTime": false,
            "canModCost": true,
            "canModRange": true
        },
        "property": "influence",
        "range": "selbst",
        "rangeLong": "selbst",
        "requirementText": "keine",
        "sources": [
            "KODEX_DER_MAGIE"
        ],
        "subTraditions": "Ferkinas, Gjalsker, Nivesen, Tahaya",
        "targetCategory": "Kulturschaffende",
        "traditions": {
            "all": false,
            "values": [
                "Compendium.tde5e.magic.Item.TR22473791851201"
            ]
        },
        "improvement": {
            "column": "D",
            "value": 0
        },
        "notes": "",
        "gmNotes": "",
        "flavor": "",
        "rule": "Der Animist kann durch diese Animistenkraft ein oder mehrere Tiere seines primären Tierpatrons zu sich rufen. Die Tiere müssen sich in einem Radius von 10 Meilen um den Standort des Animisten aufhalten und bewegen sich mit ihrer natürlichen Geschwindigkeit zu ihm. Wie lange es dauert, bis die Tiere den Animisten erreichen, entscheidet die Meisterin. Der Animist kann den Tieren einfache Befehle (wie Arbeit, Kampf, Suche, Wache) geben, die sie ausführen. Die Tiere verhalten sich gegenüber dem Animisten nicht angriffslustig, sondern freundlich. Die Wirkungsdauer beginnt erst, wenn die Tiere den Animisten erreichen. Nach dem Ende der Wirkungsdauer kehren die Tiere wieder dorthin zurück, woher sie gekommen sind. In Regionen, in denen die Patrontierart nicht vorkommt, scheitert der Einsatz der Animistenkraft normalerweise, doch die Meisterin kann entscheiden, dass ein Tier ähnlicher Art erscheint (z. B. statt eines Mammuts ein Elefant, statt eines Säbelzahntigers ein Jaguar etc.). Der kann Animist bis zu 6 Tiere der Patronart herbeirufen. Die Probe ist für jedes Exemplar nach dem ersten zusätzlich um –2 erschwert. Die AsP-Kosten fallen pro erschienenem Tier an. Der Animist kann auch weniger als 6 Tiere rufen, wenn er dies wünscht.",
        "parents": []
    },
    "effects": [],
    "folder": "SP15718021520213",
    "_key": "!items!MA19522687159104"
}
