{
    "_id": "MA81811201782082",
    "name": "Machtvolle Entschwörung (Geister)",
    "type": "magicalAbility",
    "img": "systems/tde5e/assets/defaultItems/special_ability_magical.svg",
    "system": {
        "cid": "MACHTVOLLE_ENTSCHWORUNG_GEISTER",
        "cost": {
            "text": "",
            "constant": 0,
            "recurring": null
        },
        "group": "magical",
        "property": "",
        "purchase": {
            "cost": [
                10
            ],
            "description": "10 Abenteuerpunkte",
            "levels": 1,
            "maxTimeBuyable": 1
        },
        "requirementText": "SF Entschwörung (Geister),  Mut 15",
        "sources": [
            "AVENTURISCHE_MAGIE_1"
        ],
        "styleAbilities": [],
        "variant": {
            "categories": [],
            "input": false,
            "available": [],
            "level": 1,
            "selected": null
        },
        "flavor": "",
        "notes": "",
        "gmNotes": "",
        "parents": [
            "Compendium.tde5e.magic.Item.EN24681786049872"
        ],
        "rule": "<p>Durch diese SF kann die Heldin mittels Heptagramma auch hohe Geister verbannen.</p>"
    },
    "effects": [],
    "folder": "PA20111051426896",
    "_key": "!items!MA81811201782082"
}
