{
    "_id": "MA19624121415811",
    "name": "Machtvolle Gewandzauber",
    "type": "artifactAbility",
    "img": "systems/tde5e/assets/defaultItems/artifact_ability.svg",
    "system": {
        "aspects": [],
        "binding": {
            "cost": "",
            "volume": "1 Punkt pro Stufe"
        },
        "brewType": null,
        "cid": "MACHTVOLLE_GEWANDZAUBER",
        "cost": {
            "text": "keine",
            "constant": 0,
            "recurring": null
        },
        "group": "dancerAttire",
        "property": "object",
        "purchase": {
            "cost": [
                3,
                3,
                3,
                3
            ],
            "description": "3 Abenteuerpunkt pro Stufe",
            "levels": 4,
            "maxTimeBuyable": 4
        },
        "requirementText": "keine, bei höheren Stufen die jeweils vorige Stufe der SF",
        "sources": [
            "BOSPARANS_KATAKOMBEN",
            "LIBER_EXTENSIONUM"
        ],
        "tradition": "Compendium.tde5e.magic.Item.TR24231133849412",
        "variant": {
            "categories": [],
            "input": false,
            "level": 1,
            "selected": null,
            "available": null
        },
        "flavor": "",
        "notes": "",
        "gmNotes": "",
        "parents": [
            "Compendium.tde5e.magic.Item.BI31164839517010"
        ],
        "rule": "<p>Die QS von Gewandzaubern gilt pro Stufe als um 1 höher. Dieser Gewandzauber kann mehrfach gewählt werden, um die jeweils nächsthöhere Stufe zu erhalten.</p>"
    },
    "effects": [],
    "folder": "ZA22018418563657",
    "_key": "!items!MA19624121415811"
}
