{
    "_id": "MA46194180823020",
    "name": "Machtvolle Spielzeugzauber",
    "type": "artifactAbility",
    "img": "systems/tde5e/assets/defaultItems/artifact_ability.svg",
    "system": {
        "aspects": [],
        "binding": {
            "cost": "",
            "volume": "1 pro Stufe"
        },
        "brewType": null,
        "cid": "MACHTVOLLE_SPIELZEUGZAUBER",
        "cost": {
            "text": "keine",
            "constant": 0,
            "recurring": null
        },
        "group": "rogueCap",
        "property": null,
        "purchase": {
            "cost": [
                3,
                3,
                3,
                3
            ],
            "description": "3 Abenteuerpunkte pro Stufe",
            "levels": 4,
            "maxTimeBuyable": 1
        },
        "requirementText": "SF Bindung des Schelmenspielzeugs",
        "sources": [
            "AVENTURISCHE_MAGIE_2"
        ],
        "tradition": "Compendium.tde5e.magic.Item.TR44241162842057",
        "variant": {
            "categories": [],
            "input": false,
            "level": 1,
            "selected": null,
            "available": null
        },
        "flavor": "",
        "notes": "",
        "gmNotes": "",
        "parents": [
            "Compendium.tde5e.magic.Item.BI28173119237106"
        ],
        "rule": "<p>Die QS von Spielzeugzaubern gilt pro Stufe als um 1 höher. Dieser Spielzeugzauber kann mehrfach gewählt werden, um die jeweils nächsthöhere Stufe zu erhalten. Voraussetzungen: keine, bei höheren Stufen die jeweils vorige Stufe der SF</p>"
    },
    "effects": [],
    "folder": "SC13023613233678",
    "_key": "!items!MA46194180823020"
}
