{
    "_id": "MA19211134233120",
    "name": "Machtvoller Kugelzauber I-IV",
    "type": "artifactAbility",
    "img": "systems/tde5e/assets/defaultItems/artifact_ability.svg",
    "system": {
        "aspects": [],
        "binding": {
            "cost": "",
            "volume": "1 pro Stufe"
        },
        "brewType": null,
        "cid": "MACHTVOLLER_KUGELZAUBER_IIV_ZAUBERKUGEL",
        "cost": {
            "text": "keine",
            "constant": 0,
            "recurring": null
        },
        "group": "charlatanBall",
        "property": "object",
        "purchase": {
            "cost": [
                3
            ],
            "description": "3 Abenteuerpunkt pro Stufe",
            "levels": 1,
            "maxTimeBuyable": 1
        },
        "requirementText": "keine, bei höheren Stufen die jeweils vorige Stufe der SF",
        "sources": [
            "BOSPARANS_KATAKOMBEN",
            "LIBER_EXTENSIONUM"
        ],
        "tradition": "Compendium.tde5e.magic.Item.TR18517324589268",
        "variant": {
            "categories": [],
            "input": false,
            "level": 1,
            "selected": null,
            "available": null
        },
        "flavor": "",
        "notes": "",
        "gmNotes": "",
        "parents": [
            "Compendium.tde5e.magic.Item.BI25320487236112"
        ],
        "rule": "<p>Die QS von Kugelzaubern gilt pro Stufe als um 1 höher. Dieser Kugelzauber kann mehrfach gewählt werden, um die jeweils nächsthöhere Stufe zu erhalten.</p>"
    },
    "effects": [],
    "folder": "SC17321712817524",
    "_key": "!items!MA19211134233120"
}
