{
    "_id": "MA23741341653521",
    "name": "Macht des Wahnsinns",
    "type": "magicalAbility",
    "img": "systems/tde5e/assets/defaultItems/special_ability_magical.svg",
    "system": {
        "cid": "MACHT_DES_WAHNSINNS",
        "cost": {
            "text": "",
            "constant": 0,
            "recurring": null
        },
        "group": "pactGift",
        "property": "",
        "purchase": {
            "cost": [
                20
            ],
            "description": "20 Abenteuerpunkte",
            "levels": 1,
            "maxTimeBuyable": 1
        },
        "requirementText": "Dämonenpakt Stufe 2 (Amazeroth)",
        "sources": [
            "AVENTURISCHE_MAGIE_3"
        ],
        "styleAbilities": [],
        "variant": {
            "categories": [],
            "input": false,
            "available": [],
            "level": 1,
            "selected": null
        },
        "flavor": "",
        "notes": "",
        "gmNotes": "",
        "rule": "Berührt der Paktierer einen Kulturschaffenden, kann er ihm pro Kontakt 1 Stufe @UUID[Compendium.tde5e.conditions.Item.VE73175641105112]{Verwirrung} zufügen. Im Zweifelsfall ist dazu eine unverteidigte Raufen-AT erleichtert um 2 notwendig. Bei einem echten Kampf kann der Paktierer auch Raufen benutzen, mit der Kampftechnik normalen Schaden anrichten und zusätzlich 1 Stufe Schmerz durch das Paktgeschenk verursachen. Dies zählt dann gemeinsam als ein Angriff. Ein Opfer kann mehrfach während der Wirkungsdauer des Paktgeschenkes berührt werden und erleidet jedes Mal 1 Stufe @UUID[Compendium.tde5e.conditions.Item.VE73175641105112]{Verwirrung}. Die Wirkung hält KdV Minuten an. Der Einsatz dieser Fähigkeit kostet 1 Aktion und verursacht 2 Stufen @UUID[Compendium.tde5e.conditions.Item.DA21528191859282]{Dämonische Auszehrung}.",
        "parents": []
    },
    "effects": [],
    "folder": "DA73976415352799",
    "_key": "!items!MA23741341653521"
}
