{
    "_id": "MA15920021616820",
    "name": "Machtvolle Instrumentenzauber",
    "type": "artifactAbility",
    "img": "systems/tde5e/assets/defaultItems/artifact_ability.svg",
    "system": {
        "aspects": [],
        "binding": {
            "cost": "",
            "volume": "1 Punkt pro Stufe"
        },
        "brewType": null,
        "cid": "MACHTVOLLE_INSTRUMENTENZAUBER",
        "cost": {
            "text": "",
            "constant": 0,
            "recurring": null
        },
        "group": "bardInstrument",
        "property": null,
        "purchase": {
            "cost": [
                3,
                3,
                3,
                3
            ],
            "description": "3 Abenteuerpunkte pro Stufe",
            "levels": 4,
            "maxTimeBuyable": 1
        },
        "requirementText": "keine, bei höheren Stufen die jeweils vorige Stufe der SF",
        "sources": [
            "AVENTURISCHE_MAGIE_1"
        ],
        "tradition": "Compendium.tde5e.magic.Item.TR24181571692532",
        "variant": {
            "categories": [],
            "input": false,
            "level": 1,
            "selected": null,
            "available": null
        },
        "flavor": "",
        "notes": "",
        "gmNotes": "",
        "parents": [
            "Compendium.tde5e.magic.Item.BI11518208151817"
        ],
        "rule": "<p>Die QS von Instrumentzaubern gilt pro Stufe als um 1 höher. Dieser Instrumentzauber kann mehrfach gewählt werden, um die jeweils nächsthöhere Stufe zu erhalten.</p>"
    },
    "effects": [],
    "folder": "ZA11881417936252",
    "_key": "!items!MA15920021616820"
}
