{
    "_id": "MA14438101875423",
    "name": "Machtvolle Ringzauber",
    "type": "artifactAbility",
    "img": "systems/tde5e/assets/defaultItems/artifact_ability.svg",
    "system": {
        "aspects": [],
        "binding": {
            "cost": "",
            "volume": "1 pro Stufe"
        },
        "brewType": null,
        "cid": "MACHTVOLLE_RINGZAUBER",
        "cost": {
            "text": "keine",
            "constant": 0,
            "recurring": null
        },
        "group": "geodeRing",
        "property": "object",
        "purchase": {
            "cost": [
                3,
                3,
                3,
                3
            ],
            "description": "3 Abenteuerpunkte pro Stufe",
            "levels": 4,
            "maxTimeBuyable": 4
        },
        "requirementText": "keine, bei höheren Stufen die jeweils vorige Stufe der SF",
        "sources": [
            "BOSPARANS_KATAKOMBEN",
            "LIBER_EXTENSIONUM"
        ],
        "tradition": "Compendium.tde5e.magic.Item.TR93186147562399",
        "variant": {
            "categories": [],
            "input": false,
            "level": 1,
            "selected": null,
            "available": null
        },
        "flavor": "",
        "notes": "",
        "gmNotes": "",
        "parents": [
            "Compendium.tde5e.magic.Item.BI24918214052114"
        ],
        "rule": "<p>Die QS von Ringzaubern gilt pro Stufe als um 1 höher. Dieser Ringzauber kann mehrfach gewählt werden, um die jeweils nächsthöhere Stufe zu erhalten.</p>"
    },
    "effects": [],
    "folder": "GE36248242761091",
    "_key": "!items!MA14438101875423"
}
