{
    "_id": "MA25223198211867",
    "name": "Madas Spiegel",
    "type": "spell",
    "img": "systems/tde5e/assets/defaultItems/spell.svg",
    "system": {
        "castingTime": "5 M",
        "castingTimeLong": "5 Minuten",
        "check": {
            "resistedBySpirit": false,
            "resistedByToughness": false,
            "resistanceIsHalfed": false,
            "attributes": [
                "courage",
                "sagacity",
                "intuition"
            ]
        },
        "checkedSkill": null,
        "cid": "MADAS_SPIEGEL",
        "cost": {
            "text": "8 AsP",
            "textLong": "8 AsP",
            "constant": 8,
            "recurring": null
        },
        "duration": "QS x 2 KR",
        "durationLong": "QS x 2 Kampfrunde",
        "enhancements": [
            {
                "name": "Jedermanns Freund",
                "effect": "Auch neutral oder zugeneigt eingestellte Personen (Stufe 5 oder höher) können gesehen werden.",
                "skillPoints": 8,
                "owned": false
            },
            {
                "name": "Längere Wirkungsdauer",
                "effect": "Die Wirkungsdauer beträgt zusätzlich QS Minuten. Diese Erweiterung kann mehrfach angewendet werden.",
                "skillPoints": 11,
                "owned": false
            },
            {
                "name": "Umgebungsansicht",
                "effect": "Auch die Umgebung in einem Radius von 3 Schritt ist zu sehen.",
                "skillPoints": 14,
                "owned": false
            }
        ],
        "group": "ritual",
        "modifications": {
            "canModCastingTime": true,
            "canModCost": true,
            "canModRange": true
        },
        "property": "clairvoyance",
        "range": "selbst",
        "rangeLong": "selbst",
        "requirementText": "keine",
        "sources": [
            "BOSPARANS_KATAKOMBEN",
            "LIBER_EXTENSIONUM"
        ],
        "subTraditions": "",
        "targetCategory": "Kulturschaffende",
        "traditions": {
            "all": false,
            "values": [
                "Compendium.tde5e.magic.Item.TR60602241216130"
            ]
        },
        "improvement": {
            "column": "B",
            "value": 0
        },
        "notes": "",
        "gmNotes": "",
        "flavor": "",
        "rule": "Blickt der Zauberer auf eine Wasserfläche, vermag er darin eine mit ihm befreundete Person seiner Wahl zu erkennen. Als befreundet zählen Familienmitglieder, andere Helden und weitere gute Freunde, nicht aber der nette Tavernenwirt, den man erst seit ein paar Tagen kennt (Stufe 7 oder höher). Der Zauberer sieht dabei lediglich den Körper der Person in Frontalsicht und kann daher nur dessen derzeitige Bewegungen, die getragene Kleidung und den körperlichen Zustand bestimmen. Den Hintergrund der Person sieht der Zauberer nicht. Ist die Person verstorben, sieht er stattdessen ihre Leiche oder ihr Grab. Ist die Person weiter als QS x 50 Meilen vom Zauberer entfernt, scheitert der Zauber automatisch. Gleiches geschieht, wenn die Person vor Magie im Allgemeinen oder Zaubern des Merkmals Hellsicht im Speziellen geschützt ist und die erreichten QS die QS der Schutzwirkung nicht übersteigen.",
        "parents": []
    },
    "effects": [],
    "folder": "SP18396136219154",
    "_key": "!items!MA25223198211867"
}
