{
    "_id": "MA11210468721922",
    "name": "Magierkugel -Apport",
    "type": "artifactAbility",
    "img": "systems/tde5e/assets/defaultItems/artifact_ability.svg",
    "system": {
        "aspects": [],
        "binding": {
            "cost": "",
            "volume": "3 Punkte"
        },
        "brewType": null,
        "cid": "MAGIERKUGELAPPORT",
        "cost": {
            "text": "1 AsP",
            "constant": 1,
            "recurring": null
        },
        "group": "guildmageBall",
        "property": "telekinesis",
        "purchase": {
            "cost": [
                15
            ],
            "description": "15 Abenteuerpunkte",
            "levels": 1,
            "maxTimeBuyable": 1
        },
        "requirementText": "keine",
        "sources": [
            "BOSPARANS_KATAKOMBEN",
            "LIBER_EXTENSIONUM"
        ],
        "tradition": "Compendium.tde5e.magic.Item.TR20562116246223",
        "variant": {
            "categories": [],
            "input": false,
            "level": 1,
            "selected": null,
            "available": null
        },
        "flavor": "",
        "notes": "",
        "gmNotes": "",
        "parents": [
            "Compendium.tde5e.magic.Item.BI10670202777232"
        ],
        "rule": "<p>Die Magierkugel kann vom Magier zu sich gerufen werden. Sie fliegt auf dem kürzesten Weg mit Geschwindigkeit 15 zum Zauberer und umfliegt selbstständig Hindernisse. Fenster durchschlägt die Kugel, Wände aus Holz oder Stein halten sie jedoch auf. Der Zauberer muss für den Einsatz des Magierkugel - Apports seine Magierkugel nicht sehen. Der Apport funktioniert nur, wenn die Kugel nicht in einen Magierstab integriert ist.</p>"
    },
    "effects": [],
    "folder": "GI15089213899116",
    "_key": "!items!MA11210468721922"
}
