{
    "_id": "MA76196154250514",
    "name": "Magnum Opus",
    "type": "magicalAbility",
    "img": "systems/tde5e/assets/defaultItems/special_ability_magical.svg",
    "system": {
        "cid": "MAGNUM_OPUS",
        "cost": {
            "text": "",
            "constant": 0,
            "recurring": null
        },
        "group": "pactGift",
        "property": "",
        "purchase": {
            "cost": [
                25,
                25,
                25,
                25,
                25,
                25,
                25
            ],
            "description": "25 Abenteuerpunkte pro Stufe",
            "levels": 7,
            "maxTimeBuyable": 1
        },
        "requirementText": "Stufe I:  Dämonenpakt Stufe 1, Stufe II: Dämonenpakt Stufe 2, Stufe III: Dämonenpakt Stufe 3, Stufe IV: Dämonenpakt Stufe 4, Stufe V: Dämonenpakt Stufe 5, Stufe VI: Dämonenpakt Stufe 6, Stufe VII: Dämonenpakt Stufe 7",
        "sources": [
            "AVENTURISCHE_MAGIE_3"
        ],
        "styleAbilities": [],
        "variant": {
            "categories": [],
            "input": false,
            "available": [],
            "level": 1,
            "selected": null
        },
        "flavor": "",
        "notes": "",
        "gmNotes": "",
        "rule": "Jeder Erzdämon vergibt die Kenntnis von Magna Opera, deren Auswirkungen ganz unterschiedlich ausfallen. Die Meisterin hat hierbei das letzte Wort, was genau möglich ist. Für jeden Kreis der Verdamnis kann ein neues, jeweils mächtigeres Magnum Opus erlernt werden, dessen Auswirkungen stärker und umfassender sind. Dazu muss der Paktierer aber wieder eine neue Stufe des Paktgeschenkes erlernen. Ein Paktierer kann höchstens eine Magnum Opus-Stufe aufweisen, die seinem KdV entspricht. Er muss zudem alle Magnum-Opus-Stufen nacheinander erlernen.<br /><br /><p>Die Vorbereitungen eines Magnum Opus dauern mindestens 8 Stunden. Hat der Paktierer das Paktgeschenk eingesetzt, so verliert er die Fähigkeit und erhält seine Abenteuerpunkte zurück. Er kann sich dieses Paktgeschenk wieder aneignen, aber frühestens nach 13–KdV Monaten. Der Einsatz dieser Fähigkeit verursacht 4 Stufen @UUID[Compendium.tde5e.conditions.Item.DA21528191859282]{Dämonische Auszehrung} und der Paktierer verliert dabei 2W6 (+ Stufe des Magnum Opus in W6) LeP.</p>",
        "parents": []
    },
    "effects": [],
    "folder": "DA30309060912592",
    "_key": "!items!MA76196154250514"
}
