{
    "_id": "MA21104244184183",
    "name": "Matrixkontrolle",
    "type": "magicalAbility",
    "img": "systems/tde5e/assets/defaultItems/special_ability_magical.svg",
    "system": {
        "cid": "MATRIXKONTROLLE",
        "cost": {
            "text": "",
            "constant": 0,
            "recurring": null
        },
        "group": "magical",
        "property": "",
        "purchase": {
            "cost": [
                20
            ],
            "description": "20 Abenteuerpunkte",
            "levels": 1,
            "maxTimeBuyable": 1
        },
        "requirementText": "Vorteil Zauberer,  15",
        "sources": [
            "AVENTURISCHE_MAGIE_1"
        ],
        "styleAbilities": [],
        "variant": {
            "categories": [],
            "input": false,
            "available": [],
            "level": 1,
            "selected": null
        },
        "flavor": "",
        "notes": "",
        "gmNotes": "",
        "rule": "Kennern dieser Sonderfertigkeit steht es offen, Zauber im Rahmen der Zauberwerkstatt (siehe <strong>Aventurische Magie</strong> Seite <strong>81</strong>) zu modifizieren.",
        "parents": []
    },
    "effects": [],
    "folder": "PA20111051426896",
    "_key": "!items!MA21104244184183"
}
