{
    "_id": "ME23125116921624",
    "name": "Mehrer der Macht",
    "type": "magicalAbility",
    "img": "systems/tde5e/assets/defaultItems/tradition_imprint.svg",
    "system": {
        "cid": "MEHRER_DER_MACHT",
        "group": "spellStyle",
        "requirementText": "Der Held wurde von einem Druiden dieser Denkschule ausgebildet.",
        "sources": [
            "GLAUBE_MACHT_UND_HELDENMUT_DIE_STREITENDEN_KONIGREICHE"
        ],
        "notes": "",
        "gmNotes": "",
        "flavor": "",
        "parents": [
            "Compendium.tde5e.magic.Item.TR10415123625209"
        ],
        "rule": "<ul><li><strong>Beherrschungsikone:</strong> Bei Ritualen und druidischen Herrschaftsritualen gilt die SK und ZK des Opfers als um 1 niedriger. Bei druidischen Herrschaftsritualen werden SK und ZK nach der Halbierung um 1 reduziert.</li><li><strong>Fragwürdig:</strong> Mehrer der Macht gelten in den Augen vieler Aventurier als wenig vertrauenswürdig aufgrund ihrer manipulativen Art. Ist dem Gegenüber bekannt, dass vor ihm ein Mehrer der Macht steht, so sind für den Mehrer der Macht Proben auf Gesellschaftstalente (außer Einschüchtern, Menschenkenntnis und Willenskraft) um 1 erschwert. Gegenüber Freunden und Personen, die den Umgang mit Mehrern der Macht gewohnt sind, entfällt dieser Nachteil.</li></ul>",
        "cost": {
            "text": "",
            "constant": 0,
            "recurring": null
        }
    },
    "effects": [],
    "folder": "PR19518380103617",
    "_key": "!items!ME23125116921624",
    "property": "",
    "purchase": {
        "cost": [
            10
        ],
        "description": "10 Abenteuerpunkte",
        "levels": 1,
        "maxTimeBuyable": 1
    },
    "styleAbilities": [],
    "variant": {
        "categories": [],
        "input": false,
        "available": [],
        "level": 1,
        "selected": null
    }
}
