{
    "_id": "ME15619310281144",
    "name": "Meistertrick",
    "type": "magicalAbility",
    "img": "systems/tde5e/assets/defaultItems/special_ability_magical.svg",
    "system": {
        "cid": "MEISTERTRICK",
        "cost": {
            "text": "",
            "constant": 0,
            "recurring": null
        },
        "group": "magical",
        "property": "",
        "purchase": {
            "cost": [
                1,
                1,
                1
            ],
            "description": "1 Abenteuerpunkte pro Stufe",
            "levels": 3,
            "maxTimeBuyable": 1
        },
        "requirementText": "Vorteil Zauberer",
        "sources": [
            "AVENTURISCHE_MAGIE_1"
        ],
        "styleAbilities": [],
        "variant": {
            "categories": [
                {
                    "scope": "item",
                    "type": "spell",
                    "groups": [
                        "cantrip"
                    ]
                }
            ],
            "input": false,
            "available": [],
            "level": 1,
            "selected": null
        },
        "flavor": "",
        "notes": "",
        "gmNotes": "",
        "rule": "Ein einziger ausgewählter Zaubertrick erhält pro Stufe der SF +1 QS. Dabei wird meist der Zaubertrick ausgewählt, der eine besondere Verbreitung bei Akademie oder Lehrmeister aufweist. Dies ist aber nicht zwingend.",
        "parents": []
    },
    "effects": [],
    "folder": "PA20111051426896",
    "_key": "!items!ME15619310281144"
}
