{
    "_id": "ME23824491166864",
    "name": "Melodie des Handels",
    "type": "spell",
    "img": "systems/tde5e/assets/defaultItems/spell.svg",
    "system": {
        "castingTime": "3 - QS* / 2 M",
        "castingTimeLong": "3 - QS* / 2 Minuten",
        "check": {
            "resistedBySpirit": false,
            "resistedByToughness": false,
            "resistanceIsHalfed": false,
            "attributes": [
                "sagacity",
                "intuition",
                "agility"
            ]
        },
        "checkedSkill": [
            "Compendium.tde5e.skills.Item.MU14419753218980"
        ],
        "cid": "MELODIE_DES_HANDELS",
        "cost": {
            "text": "4 (1 Person) + 2 (weitere)",
            "textLong": "4 AsP für die erste Person + 2 AsP für jede weitere",
            "constant": 4,
            "recurring": null
        },
        "duration": "5 M",
        "durationLong": "5 Minuten",
        "enhancements": [],
        "group": "magicalMelody",
        "modifications": {
            "canModCastingTime": false,
            "canModCost": false,
            "canModRange": false
        },
        "property": "influence",
        "range": "Hörweite",
        "rangeLong": "Hörweite",
        "requirementText": "keine",
        "sources": [
            "BOSPARANS_KATAKOMBEN",
            "LIBER_EXTENSIONUM"
        ],
        "subTraditions": "Ceoladir, Derwische, Sangara",
        "traditions": {
            "all": false,
            "values": [
                "Compendium.tde5e.magic.Item.TR24181571692532"
            ]
        },
        "improvement": {
            "column": "B",
            "value": 0
        },
        "notes": "",
        "gmNotes": "",
        "flavor": "",
        "rule": "Bis zu QS/2 ausgewählte Zuhörer erleiden eine Erschwernis oder eine Erleichterung auf @UUID[Compendium.tde5e.skills.Item.HA19014124211567]{Handel (Feilschen)} von 1. Dabei kann der Zauberbarde einzelnen ausgewählten Zuhörern beliebig die Erleichterung oder die Erschwernis zuteilen. Die Wirkung betrifft nur Zuhörer, deren Seelenkraft 2 oder niedriger ist, und hält QS x 10 Minuten nach Ende der Melodie an.",
        "parents": []
    },
    "effects": [],
    "folder": "SP23891811491601",
    "_key": "!items!ME23824491166864"
}
