{
    "_id": "ME60151247113170",
    "name": "Melodie der Feen",
    "type": "spell",
    "img": "systems/tde5e/assets/defaultItems/spell.svg",
    "system": {
        "castingTime": "3 - QS* / 2 M",
        "castingTimeLong": "3 - QS* / 2 Minuten",
        "check": {
            "resistedBySpirit": false,
            "resistedByToughness": false,
            "resistanceIsHalfed": false,
            "attributes": [
                "charisma",
                "agility",
                "constitution"
            ]
        },
        "checkedSkill": [
            "Compendium.tde5e.skills.Item.MU14419753218980",
            "Compendium.tde5e.skills.Item.SI13425148507115"
        ],
        "cid": "MELODIE_DER_FEEN",
        "cost": {
            "text": "8 AsP",
            "textLong": "8 AsP",
            "constant": 8,
            "recurring": null
        },
        "duration": "5 M",
        "durationLong": "5 Minuten",
        "enhancements": [],
        "group": "magicalMelody",
        "modifications": {
            "canModCastingTime": false,
            "canModCost": false,
            "canModRange": false
        },
        "property": "influence",
        "range": "Hörweite",
        "rangeLong": "Hörweite",
        "requirementText": "keine",
        "sources": [
            "BOSPARANS_KATAKOMBEN",
            "LIBER_EXTENSIONUM"
        ],
        "subTraditions": "Ceoladir",
        "traditions": {
            "all": false,
            "values": [
                "Compendium.tde5e.magic.Item.TR24181571692532"
            ]
        },
        "improvement": {
            "column": "A",
            "value": 0
        },
        "notes": "",
        "gmNotes": "",
        "flavor": "",
        "rule": "Diese Melodie lockt Feenwesen an, wenn sich solche innerhalb des Radius der Zaubermelodie aufhalten oder verstecken. Die Feenwesen können sich mit einer Probe auf @UUID[Compendium.tde5e.skills.Item.WI13315915718951]{Willenskraft} erschwert um die QS/2 der Melodie gegen das Verlangen zur Wehr setzen, sich zum Ceoladir aufzumachen. Die Fee kann den Ceoladir während der Wirkung der Melodie nicht angreifen, aber sie muss ihm auch nicht zwingend freundlich gegenübertreten. Nach einer gescheiterten Probe ist sie jedoch zumindest neugierig auf den Menschen. Diese Melodie wirkt nicht gegen hohe Feen.",
        "parents": []
    },
    "effects": [],
    "folder": "SP23891811491601",
    "_key": "!items!ME60151247113170"
}
