{
    "_id": "ME23520318984276",
    "name": "Melodie des Windes",
    "type": "spell",
    "img": "systems/tde5e/assets/defaultItems/spell.svg",
    "system": {
        "castingTime": "3 - QS* / 2 KR",
        "castingTimeLong": "3 - QS* / 2 Kampfrunden",
        "check": {
            "resistedBySpirit": false,
            "resistedByToughness": false,
            "resistanceIsHalfed": false,
            "attributes": [
                "charisma",
                "agility",
                "constitution"
            ]
        },
        "checkedSkill": [
            "Compendium.tde5e.skills.Item.MU14419753218980"
        ],
        "cid": "MELODIE_DES_WINDES",
        "cost": {
            "text": "6 AsP",
            "textLong": "6 AsP",
            "constant": 6,
            "recurring": null
        },
        "duration": "aufrechthaltend",
        "durationLong": "aufrechthaltend",
        "enhancements": [],
        "group": "magicalMelody",
        "modifications": {
            "canModCastingTime": false,
            "canModCost": false,
            "canModRange": false
        },
        "property": "elemental",
        "range": "Hörweite",
        "rangeLong": "Hörweite",
        "requirementText": "keine",
        "sources": [
            "BOSPARANS_KATAKOMBEN",
            "LIBER_EXTENSIONUM"
        ],
        "subTraditions": "Derwisch, Sangara",
        "traditions": {
            "all": false,
            "values": [
                "Compendium.tde5e.magic.Item.TR24181571692532"
            ]
        },
        "improvement": {
            "column": "B",
            "value": 0
        },
        "notes": "",
        "gmNotes": "",
        "flavor": "",
        "rule": "Die Melodie ruft einen starken Wind herbei, der Sand, Laub oder anderes Material herumwirbelt, und so innerhalb des Radius zu einem Sichtmodifikator von QS/2 führt. Der Zauberbarde ist davon ebenfalls betroffen.",
        "parents": []
    },
    "effects": [],
    "folder": "SP23891811491601",
    "_key": "!items!ME23520318984276"
}
