{
    "_id": "ME82120608549183",
    "name": "Melodie der Freundschaft",
    "type": "spell",
    "img": "systems/tde5e/assets/defaultItems/spell.svg",
    "system": {
        "castingTime": "3 - QS* / 2 KR",
        "castingTimeLong": "3 - QS* / 2 Kampfrunden",
        "check": {
            "resistedBySpirit": false,
            "resistedByToughness": false,
            "resistanceIsHalfed": false,
            "attributes": [
                "intuition",
                "charisma",
                "charisma"
            ]
        },
        "checkedSkill": [
            "Compendium.tde5e.skills.Item.MU14419753218980",
            "Compendium.tde5e.skills.Item.SI13425148507115"
        ],
        "cid": "MELODIE_DER_FREUNDSCHAFT",
        "cost": {
            "text": "2 (1 Person) + 1 (weitere)",
            "textLong": "2 AsP für die erste Person + 1 AsP für jede weitere",
            "constant": 2,
            "recurring": null
        },
        "duration": "5 M",
        "durationLong": "5 Minuten",
        "enhancements": [],
        "group": "magicalMelody",
        "modifications": {
            "canModCastingTime": false,
            "canModCost": false,
            "canModRange": false
        },
        "property": "influence",
        "range": "Hörweite",
        "rangeLong": "Hörweite",
        "requirementText": "keine",
        "sources": [
            "BOSPARANS_KATAKOMBEN",
            "LIBER_EXTENSIONUM"
        ],
        "subTraditions": "Ceoladir",
        "traditions": {
            "all": false,
            "values": [
                "Compendium.tde5e.magic.Item.TR24181571692532"
            ]
        },
        "improvement": {
            "column": "A",
            "value": 0
        },
        "notes": "",
        "gmNotes": "",
        "flavor": "",
        "rule": "Durch den Einsatz dieser Melodie können bis zu QS Personen in Hörweite der Melodie beeinflusst werden. Die Personen dürfen keine schlechtere als eine neutrale Einstellung zum Helden haben (siehe Stufe 5 des @UUID[Compendium.tde5e.magic.Item.BA14143252202204]{Bannbaladin} ). Ihre Einstellung verbessert sich für die nächsten 24 Stunden um eine Stufe.",
        "parents": []
    },
    "effects": [],
    "folder": "SP23891811491601",
    "_key": "!items!ME82120608549183"
}
