{
    "_id": "ME35432081782191",
    "name": "Melodie der Tiere",
    "type": "spell",
    "img": "systems/tde5e/assets/defaultItems/spell.svg",
    "system": {
        "castingTime": "3 - QS* / 2 M",
        "castingTimeLong": "3 - QS* / 2 Minuten",
        "check": {
            "resistedBySpirit": false,
            "resistedByToughness": false,
            "resistanceIsHalfed": false,
            "attributes": [
                "intuition",
                "charisma",
                "constitution"
            ]
        },
        "checkedSkill": [
            "Compendium.tde5e.skills.Item.MU14419753218980"
        ],
        "cid": "MELODIE_DER_TIERE",
        "cost": {
            "text": "8 AsP",
            "textLong": "8 AsP",
            "constant": 8,
            "recurring": null
        },
        "duration": "aufrechterhaltend",
        "durationLong": "aufrechterhaltendn",
        "enhancements": [],
        "group": "magicalMelody",
        "modifications": {
            "canModCastingTime": false,
            "canModCost": false,
            "canModRange": false
        },
        "property": "influence",
        "range": "Hörweite",
        "rangeLong": "Hörweite",
        "requirementText": "keine",
        "sources": [
            "BOSPARANS_KATAKOMBEN",
            "LIBER_EXTENSIONUM"
        ],
        "subTraditions": "Sangara",
        "traditions": {
            "all": false,
            "values": [
                "Compendium.tde5e.magic.Item.TR24181571692532"
            ]
        },
        "improvement": {
            "column": "B",
            "value": 0
        },
        "notes": "",
        "gmNotes": "",
        "flavor": "",
        "rule": "Tiere im Wirkungsbereich der Zaubermelodie werden ruhig und zahm und folgen dem Zauberbarden bereitwillig, wohin auch immer er geht. Der Barde kann sich beliebig weit von der Stelle entfernen, wo er die Melodie begann, und auch nach Ende der Melodie hält die Wirkung weitere 30 Minuten lang an. Es sind nur Tiere mit einer SK von 1 oder niedriger betroffen. Sie können während der Wirkungsdauer nicht angreifen und verwenden jede Aktion darauf, sich auf den Zauberbarden zuzubewegen. Insgesamt kann die Melodie auf bis zu QS Tiere der Größenkategorie groß, QS x 2 Tiere der Größenkategorie mittel, QS x 4 Tiere der Größenkategorie klein oder QS x 8 Tiere der Größenkategorie winzig wirken. Riesige Tiere sind gegen die Wirkung immun. Die Wirkung endet sofort, wenn das Tier aus dem Wirkungsbereich der Melodie gerät oder Ziel eines Angriffs wird.",
        "parents": []
    },
    "effects": [],
    "folder": "SP23891811491601",
    "_key": "!items!ME35432081782191"
}
