{
    "_id": "ME27185411442550",
    "name": "Melodie der Ermutigung",
    "type": "spell",
    "img": "systems/tde5e/assets/defaultItems/spell.svg",
    "system": {
        "castingTime": "3 - QS* / 2 KR",
        "castingTimeLong": "3 - QS* / 2 Kampfrunden",
        "check": {
            "resistedBySpirit": false,
            "resistedByToughness": false,
            "resistanceIsHalfed": false,
            "attributes": [
                "courage",
                "intuition",
                "agility"
            ]
        },
        "checkedSkill": [
            "Compendium.tde5e.skills.Item.MU14419753218980"
        ],
        "cid": "MELODIE_DER_ERMUTIGUNG",
        "cost": {
            "text": "8 (1 Person) + 4 (weitere)",
            "textLong": "8 AsP für die erste Person + 4 AsP für jede weitere",
            "constant": 8,
            "recurring": null
        },
        "duration": "aufrechterhaltend",
        "durationLong": "aufrechterhaltend",
        "enhancements": [],
        "group": "magicalMelody",
        "modifications": {
            "canModCastingTime": false,
            "canModCost": false,
            "canModRange": false
        },
        "property": "healing",
        "range": "Hörweite",
        "rangeLong": "Hörweite",
        "requirementText": "keine",
        "sources": [
            "BOSPARANS_KATAKOMBEN",
            "LIBER_EXTENSIONUM"
        ],
        "subTraditions": "Ceoladir, Derwisch, Sangara",
        "traditions": {
            "all": false,
            "values": [
                "Compendium.tde5e.magic.Item.TR24181571692532"
            ]
        },
        "improvement": {
            "column": "B",
            "value": 0
        },
        "notes": "",
        "gmNotes": "",
        "flavor": "",
        "rule": "Bis zu QS ausgewählte Zuhörer werden zuversichtlicher und mutiger. Je nach QS erhalten sie verschiedene Boni. Die Boni sind kumulativ, d. h. bei QS 3 hat das Ziel insgesamt MU +2 und SK +1. Die Wirkung hält 30 Minuten nach dem Ende der Melodie an. <b>QS 1:</b> +1 MU <b>QS 2:</b> +1 SK <b>QS 3:</b> +1 MU <b>QS 4:</b> +1 ZK <b>QS 5:</b> +1 MU <b>QS 6:</b> + 1 SK.",
        "parents": []
    },
    "effects": [],
    "folder": "SP23891811491601",
    "_key": "!items!ME27185411442550"
}
