{
    "_id": "ME11325119078877",
    "name": "Melodie des Meeres",
    "type": "spell",
    "img": "systems/tde5e/assets/defaultItems/spell.svg",
    "system": {
        "castingTime": "3 - QS* / 2 M",
        "castingTimeLong": "3 - QS* / 2 Minuten",
        "check": {
            "resistedBySpirit": false,
            "resistedByToughness": false,
            "resistanceIsHalfed": false,
            "attributes": [
                "sagacity",
                "intuition",
                "agility"
            ]
        },
        "checkedSkill": [
            "Compendium.tde5e.skills.Item.MU14419753218980",
            "Compendium.tde5e.skills.Item.SI13425148507115"
        ],
        "cid": "MELODIE_DES_MEERES",
        "cost": {
            "text": "4 AsP für die erste Person + 2 AsP für jede weitere",
            "textLong": "4 AsP für die erste Person + 2 AsP für jede weitere",
            "constant": 4,
            "recurring": null
        },
        "duration": "5 M",
        "durationLong": "5 Minuten",
        "enhancements": [],
        "group": "magicalMelody",
        "modifications": {
            "canModCastingTime": false,
            "canModCost": false,
            "canModRange": false
        },
        "property": "influence",
        "range": "Hörweite",
        "rangeLong": "Hörweite",
        "requirementText": "keine",
        "sources": [
            "BOSPARANS_KATAKOMBEN",
            "LIBER_EXTENSIONUM"
        ],
        "subTraditions": "Ceoladir, Sangara",
        "traditions": {
            "all": false,
            "values": [
                "Compendium.tde5e.magic.Item.TR24181571692532"
            ]
        },
        "improvement": {
            "column": "A",
            "value": 0
        },
        "notes": "",
        "gmNotes": "",
        "flavor": "",
        "rule": "Der Zauberbarde kann bis zu 6 ausgewählten freiwilligen Zuhörern beim Steuern eines Bootes oder Schiffes so viel Mut machen, dass die Arbeit einfacher von der Hand geht. Alle Zuhörer erhalten eine Erleichterung von 1 auf Proben auf @UUID[Compendium.tde5e.skills.Item.SE18516924155745]{Seefahrt}. Die Wirkung hält 12 Stunden nach Ende der Melodie an.",
        "parents": []
    },
    "effects": [],
    "folder": "SP23891811491601",
    "_key": "!items!ME11325119078877"
}
