{
    "_id": "ME10340318883512",
    "name": "Melodie der Versöhnung",
    "type": "spell",
    "img": "systems/tde5e/assets/defaultItems/spell.svg",
    "system": {
        "castingTime": "3 - QS* / 2 M",
        "castingTimeLong": "3 - QS* / 2 Minuten",
        "check": {
            "resistedBySpirit": false,
            "resistedByToughness": false,
            "resistanceIsHalfed": false,
            "attributes": [
                "charisma",
                "agility",
                "constitution"
            ]
        },
        "checkedSkill": [
            "Compendium.tde5e.skills.Item.SI13425148507115"
        ],
        "cid": "MELODIE_DER_VERSOHNUNG",
        "cost": {
            "text": "10 AsP",
            "textLong": "10 AsP",
            "constant": 10,
            "recurring": null
        },
        "duration": "5 M",
        "durationLong": "5 Minuten",
        "enhancements": [],
        "group": "magicalMelody",
        "modifications": {
            "canModCastingTime": false,
            "canModCost": false,
            "canModRange": false
        },
        "property": "influence",
        "range": "Hörweite",
        "rangeLong": "Hörweite",
        "requirementText": "keine",
        "sources": [
            "BOSPARANS_KATAKOMBEN",
            "LIBER_EXTENSIONUM"
        ],
        "subTraditions": "Sangara",
        "traditions": {
            "all": false,
            "values": [
                "Compendium.tde5e.magic.Item.TR24181571692532"
            ]
        },
        "improvement": {
            "column": "C",
            "value": 0
        },
        "notes": "",
        "gmNotes": "",
        "flavor": "",
        "rule": "Alle Zuhörer, die sich im Streit miteinander befunden haben, legen diesen bei, wenn ihnen nicht eine Probe auf @UUID[Compendium.tde5e.skills.Item.WI13315915718951]{Willenskraft} erschwert um die QS/2 der Melodie gelingt. Sie müssen aber dadurch keine Freunde sein. Die Wirkung betrifft nur Zuhörer, deren Seelenkraft 2 oder niedriger ist.",
        "parents": []
    },
    "effects": [],
    "folder": "SP23891811491601",
    "_key": "!items!ME10340318883512"
}
