{
    "_id": "ME43116471701997",
    "name": "Melodie der Heilung",
    "type": "spell",
    "img": "systems/tde5e/assets/defaultItems/spell.svg",
    "system": {
        "castingTime": "3 - QS* / 2 M",
        "castingTimeLong": "3 - QS* / 2 Minuten",
        "check": {
            "resistedBySpirit": false,
            "resistedByToughness": false,
            "resistanceIsHalfed": false,
            "attributes": [
                "intuition",
                "intuition",
                "charisma"
            ]
        },
        "checkedSkill": [
            "Compendium.tde5e.skills.Item.MU14419753218980",
            "Compendium.tde5e.skills.Item.SI13425148507115"
        ],
        "cid": "MELODIE_DER_HEILUNG",
        "cost": {
            "text": "8 AsP",
            "textLong": "8 AsP",
            "constant": 8,
            "recurring": null
        },
        "duration": "5 M",
        "durationLong": "5 Minuten",
        "enhancements": [],
        "group": "magicalMelody",
        "modifications": {
            "canModCastingTime": false,
            "canModCost": false,
            "canModRange": false
        },
        "property": "healing",
        "range": "Hörweite",
        "rangeLong": "Hörweite",
        "requirementText": "keine",
        "sources": [
            "BOSPARANS_KATAKOMBEN",
            "LIBER_EXTENSIONUM"
        ],
        "subTraditions": "Ceoladir, Derwisch",
        "traditions": {
            "all": false,
            "values": [
                "Compendium.tde5e.magic.Item.TR24181571692532"
            ]
        },
        "improvement": {
            "column": "B",
            "value": 0
        },
        "notes": "",
        "gmNotes": "",
        "flavor": "",
        "rule": "QS vom Barden ausgewählte Zuhörer innerhalb der Hörweite erhalten am Ende der Melodie 1W3 +1 LeP zurück. Ein Zuhörer kann nur einmal am Tag von dieser Wirkung profitieren.",
        "parents": []
    },
    "effects": [],
    "folder": "SP23891811491601",
    "_key": "!items!ME43116471701997"
}
