{
    "_id": "ME25582255208174",
    "name": "Melodie des Verbergens",
    "type": "spell",
    "img": "systems/tde5e/assets/defaultItems/spell.svg",
    "system": {
        "castingTime": "3 - QS* / 2 KR",
        "castingTimeLong": "3 - QS* / 2 Kampfrunden",
        "check": {
            "resistedBySpirit": false,
            "resistedByToughness": false,
            "resistanceIsHalfed": false,
            "attributes": [
                "intuition",
                "charisma",
                "dexterity"
            ]
        },
        "checkedSkill": [
            "Compendium.tde5e.skills.Item.SI13425148507115"
        ],
        "cid": "MELODIE_DES_VERBERGENS",
        "cost": {
            "text": "2 + 1 / M",
            "textLong": "2 AsP (Aktivierung) + 1 AsP pro Minute",
            "constant": 2,
            "recurring": {
                "interval": 1,
                "unit": "Minute"
            }
        },
        "duration": "aufrechterhaltend",
        "durationLong": "aufrechterhaltend",
        "enhancements": [],
        "group": "magicalMelody",
        "modifications": {
            "canModCastingTime": false,
            "canModCost": false,
            "canModRange": false
        },
        "property": "illusion",
        "range": "Hörweite",
        "rangeLong": "Hörweite",
        "requirementText": "keine",
        "sources": [
            "BOSPARANS_KATAKOMBEN"
        ],
        "subTraditions": "Sangara",
        "traditions": {
            "all": false,
            "values": [
                "Compendium.tde5e.magic.Item.TR24181571692532"
            ]
        },
        "improvement": {
            "column": "B",
            "value": 0
        },
        "notes": "",
        "gmNotes": "",
        "flavor": "",
        "rule": "Der Sangara kann einen kleinen Gegenstand, etwa bis zur Größe eines Dolches, in der Hand tragen, ihn aber durch die Magie der Melodie vor den Augen von Kulturschaffenden verbergen, sodass sie ihn nicht wahrnehmen. Um den Gegenstand doch zu bemerken, ist eine Probe auf @UUID[Compendium.tde5e.skills.Item.SI80193235230167]{Sinnesschärfe (Suchen oder Wahrnehmen)} erschwert um die QS notwendig.",
        "parents": []
    },
    "effects": [],
    "folder": "SP23891811491601",
    "_key": "!items!ME25582255208174"
}
