{
    "_id": "ME21155218124211",
    "name": "Memorabia Falsifir",
    "type": "spell",
    "img": "systems/tde5e/assets/defaultItems/spell.svg",
    "system": {
        "castingTime": "2 ST",
        "castingTimeLong": "2 Stunden",
        "check": {
            "resistedBySpirit": true,
            "resistedByToughness": false,
            "resistanceIsHalfed": false,
            "attributes": [
                "sagacity",
                "intuition",
                "charisma"
            ]
        },
        "checkedSkill": null,
        "cid": "MEMORABIA_FALSIFIR",
        "cost": {
            "text": "8 AsP",
            "textLong": "8 AsP",
            "constant": 8,
            "recurring": null
        },
        "duration": "1 J",
        "durationLong": "1 Jahr",
        "enhancements": [
            {
                "name": "Ohne Erinnerung",
                "effect": "Das Opfer kann sich an den Moment der Verzauberung nicht erinnern.",
                "skillPoints": 8,
                "owned": false
            },
            {
                "name": "Phasen",
                "effect": "Der gelöschte Zeitraum muss nicht zusammenhängend sein, sondern darf auf bis zu drei Phasen aufgeteilt werden.",
                "skillPoints": 11,
                "owned": false
            },
            {
                "name": "Andere Erinnerung",
                "effect": "Das Opfer erhält eine andere Erinnerung an den gelöschten Zeitraum, deren Qualität abhängig von den QS ist.",
                "skillPoints": 14,
                "owned": false
            }
        ],
        "group": "ritual",
        "modifications": {
            "canModCastingTime": true,
            "canModCost": true,
            "canModRange": true
        },
        "property": "influence",
        "range": "Berührung",
        "rangeLong": "Berührung",
        "requirementText": "keine",
        "sources": [
            "BOSPARANS_KATAKOMBEN",
            "LIBER_EXTENSIONUM"
        ],
        "subTraditions": "",
        "targetCategory": "Kulturschaffende",
        "traditions": {
            "all": false,
            "values": [
                "Compendium.tde5e.magic.Item.TR10415123625209",
                "Compendium.tde5e.magic.Item.TR20562116246223"
            ]
        },
        "improvement": {
            "column": "C",
            "value": 0
        },
        "notes": "",
        "gmNotes": "",
        "flavor": "",
        "rule": "Der Zauberer entfernt Erinnerungen aus dem Gedächtnis des Ziels. Dabei kann er jedoch keine bestimmte Erinnerung festlegen, sondern lediglich einen Zeitraum von maximal QS x 3 Tagen ab einem von ihm gewünschten Anfangszeitpunkt.",
        "parents": []
    },
    "effects": [],
    "folder": "SP18396136219154",
    "_key": "!items!ME21155218124211"
}
