{
    "_id": "ME61169868214621",
    "name": "Meute",
    "type": "artifactAbility",
    "img": "systems/tde5e/assets/defaultItems/artifact_ability.svg",
    "system": {
        "aspects": [],
        "binding": {
            "cost": "",
            "volume": "4 Punkte"
        },
        "brewType": null,
        "cid": "MEUTE",
        "cost": {
            "text": "4 AsP pro 5 KR",
            "constant": 4,
            "recurring": null
        },
        "group": "animistClawChain",
        "property": null,
        "purchase": {
            "cost": [
                15
            ],
            "description": "15 Abenteuerpunkte",
            "levels": 1,
            "maxTimeBuyable": 1
        },
        "requirementText": "SF Bindung der Krallenkette",
        "sources": [
            "GEISTERWALD_UND_KNOCHENKLIPPEN"
        ],
        "tradition": "Compendium.tde5e.magic.Item.TR22473791851201",
        "variant": {
            "categories": [],
            "input": false,
            "level": 1,
            "selected": null,
            "available": null
        },
        "flavor": "",
        "notes": "",
        "gmNotes": "",
        "parents": [
            "Compendium.tde5e.magic.Item.BI46152119524428"
        ],
        "rule": "<p>Pro Kampfgefährten innerhalb einer Angriffsdistanz von 3 Schritt erhält die Animistin +1 AT (bis zu einem Maximum von +4).</p>"
    },
    "effects": [],
    "folder": "AN29112102313266",
    "_key": "!items!ME61169868214621"
}
