{
    "_id": "MI27152139249233",
    "name": "Milde Gabe",
    "type": "magicalAbility",
    "img": "systems/tde5e/assets/defaultItems/special_ability_magical.svg",
    "system": {
        "cid": "MILDE_GABE",
        "cost": {
            "text": "",
            "constant": 0,
            "recurring": null
        },
        "group": "pactGift",
        "property": "",
        "purchase": {
            "cost": [
                5,
                5,
                5,
                5
            ],
            "description": "5 Abenteuerpunkte pro Stufe",
            "levels": 4,
            "maxTimeBuyable": 1
        },
        "requirementText": "Dämonenpakt Stufe 3 (Aphestadil)",
        "sources": [
            "AVENTURISCHE_MAGIE_3"
        ],
        "styleAbilities": [],
        "variant": {
            "categories": [],
            "input": false,
            "available": [],
            "level": 1,
            "selected": null
        },
        "flavor": "",
        "notes": "",
        "gmNotes": "",
        "rule": "Personen in einem Radius von 16 Schritt um die Paktiererin herum sind bereit, ihr eine kleine, mildtätige Gabe zu überlassen (in Höhe von ca. KdV Silbertalern pro Person). Die Personen bemerken nicht, dass die Paktiererin sie manipuliert. Das Paktgeschenk wirkt nur gegen Ziele, deren SK maximal so hoch ist wie die Stufe des Paktgeschenks. Die Wirkung dieser Fähigkeit hält 1 Stunde an, ihr Einsatz kostet 1 Aktion und verursacht 1 Stufe @UUID[Compendium.tde5e.conditions.Item.DA21528191859282]{Dämonische Auszehrung}.",
        "parents": []
    },
    "effects": [],
    "folder": "DA85480733742407",
    "_key": "!items!MI27152139249233"
}
