{
    "_id": "MI18871146202423",
    "name": "Mitverwandlung",
    "type": "magicalAbility",
    "img": "systems/tde5e/assets/defaultItems/special_ability_magical.svg",
    "system": {
        "cid": "MITVERWANDLUNG",
        "cost": {
            "text": "",
            "constant": 0,
            "recurring": null
        },
        "group": "spellStyleExtended",
        "property": "",
        "purchase": {
            "cost": [
                10
            ],
            "description": "10 Abenteuerpunkte",
            "levels": 1,
            "maxTimeBuyable": 1
        },
        "requirementText": "keine",
        "sources": [
            "AVENTURISCHE_MAGIE_1"
        ],
        "styleAbilities": [],
        "variant": {
            "categories": [],
            "input": false,
            "available": [],
            "level": 1,
            "selected": null
        },
        "flavor": "",
        "notes": "",
        "gmNotes": "",
        "rule": "Wenn der Zauberer es wünscht, kann er bei der Selbstverwandlung bis zu 10 Stein Ausrüstung mitverwandeln. Verwandelt werden kann dabei nur Material wie Holz, Wolle oder Leder, nicht aber Stein oder Metall. Wird der Zauberer in seiner neuen Form verletzt und nicht geheilt, weist die Ausrüstung bei der Rückverwandlung ein gewisses Maß an Beschädigung nach Maßgabe des Meisters auf.",
        "parents": []
    },
    "effects": [],
    "folder": "ZA17820398219817",
    "_key": "!items!MI18871146202423"
}
