{
    "_id": "MO19615420815635",
    "name": "Motoricus",
    "type": "spell",
    "img": "systems/tde5e/assets/defaultItems/spell.svg",
    "system": {
        "castingTime": "2 Akt",
        "castingTimeLong": "2 Aktion",
        "check": {
            "resistedBySpirit": false,
            "resistedByToughness": false,
            "resistanceIsHalfed": false,
            "attributes": [
                "sagacity",
                "dexterity",
                "strength"
            ]
        },
        "checkedSkill": null,
        "cid": "MOTORICUS",
        "cost": {
            "text": "min 4 + (GEW / 200 U) / 5 M",
            "textLong": "mindestens 4 AsP (Aktivierung) + Hälfte der notwendigen AsP pro 5 Minuten",
            "constant": 4,
            "recurring": {
                "interval": 0,
                "unit": "5 Minuten"
            }
        },
        "duration": "aufrechterhaltend",
        "durationLong": "aufrechterhaltend",
        "enhancements": [
            {
                "name": "Mehr Gewicht",
                "effect": "Das maximale Gewicht erhöht sich um QS x 20 Stein. Diese Erweiterung kann mehrfach angewendet werden.",
                "skillPoints": 8,
                "owned": false
            },
            {
                "name": "Hebelwirkung",
                "effect": "Pro AsP kann der Zauberer zusätzlich 5 Stein bewegen. Diese Erweiterung kann bis zu 3 Mal angewendet werden.",
                "skillPoints": 11,
                "owned": false
            },
            {
                "name": "Mehrere Objekte",
                "effect": "Mit dem Zauber können mehrere Objekte gleichzeitig bewegt werden, deren Gesamtgewicht aber nicht über dem zulässigen Maximum liegen darf.",
                "skillPoints": 14,
                "owned": false
            }
        ],
        "group": "incantation",
        "modifications": {
            "canModCastingTime": true,
            "canModCost": false,
            "canModRange": true
        },
        "property": "telekinesis",
        "range": "8 m",
        "rangeLong": "8 Schritt",
        "requirementText": "keine",
        "sources": [
            "BOSPARANS_KATAKOMBEN",
            "LIBER_EXTENSIONUM"
        ],
        "subTraditions": "",
        "targetCategory": "Objekt",
        "traditions": {
            "all": true,
            "values": []
        },
        "improvement": {
            "column": "B",
            "value": 0
        },
        "notes": "",
        "gmNotes": "",
        "flavor": "",
        "rule": "Der Zaubernde kann unbelebte Gegenstände telekinetisch anheben und bewegen. Sie bewegen sich mit einer Geschwindigkeit von maximal QS Schritt pro Aktion und dürfen maximal QS x 20 Stein wiegen. Pro 5 Stein Gewicht muss der Zaubernde dafür 1 AsP aufbringen. Befinden sich andere Objekte auf dem zu bewegenden Gegenstand, zählt deren Gewicht mit hinzu. Die Bewegungen des Objekts sind träge, weshalb sie für Angriffe oder Paraden ungeeignet sind. Um ein so bewegtes Objekt durch Festhalten oder Drücken aufzuhalten, ist eine um die QS erschwerte Probe auf @UUID[Compendium.tde5e.skills.Item.KR28631591116621]{Kraftakt (Ziehen &amp; Zerren)} nötig.",
        "parents": []
    },
    "effects": [],
    "folder": "SP15718021520213",
    "_key": "!items!MO19615420815635"
}
