{
    "_id": "NE76229171701531",
    "name": "Nebelform",
    "type": "spell",
    "img": "systems/tde5e/assets/defaultItems/spell.svg",
    "system": {
        "castingTime": "4 Akt",
        "castingTimeLong": "4 Aktionen",
        "check": {
            "resistedBySpirit": false,
            "resistedByToughness": false,
            "resistanceIsHalfed": false,
            "attributes": [
                "courage",
                "intuition",
                "constitution"
            ]
        },
        "checkedSkill": null,
        "cid": "NEBELFORM",
        "cost": {
            "text": "8 + 4 / 5 M",
            "textLong": "8 AsP (Aktivierung) + 4 AsP pro 5 Minuten",
            "constant": 8,
            "recurring": {
                "interval": 4,
                "unit": "5 Minuten"
            }
        },
        "duration": "aufrechterhaltend",
        "durationLong": "aufrechterhaltend",
        "enhancements": [
            {
                "name": "Nebelhand",
                "effect": "Der Zauberer kann Gegenstände mit bis zu 1 Stein Gewicht verschieben, aber nicht anheben oder damit interagieren.",
                "skillPoints": 8,
                "owned": false
            },
            {
                "name": "Windflug",
                "effect": "Der Zauberer kann Gegenwind ignorieren oder bei Rückenwind die doppelte Windstufe auf seine GS addieren.",
                "skillPoints": 11,
                "owned": false
            },
            {
                "name": "Flüchtig",
                "effect": "Der Zauberer nimmt keinen Schaden von Zaubern und Ritualen. Sonstige Einflüsse oder Antimagie werden davon nicht beeinflusst.",
                "skillPoints": 14,
                "owned": false
            }
        ],
        "group": "incantation",
        "modifications": {
            "canModCastingTime": true,
            "canModCost": true,
            "canModRange": true
        },
        "property": "transformation",
        "range": "selbst",
        "rangeLong": "selbst",
        "requirementText": "keine",
        "sources": [
            "BOSPARANS_KATAKOMBEN",
            "LIBER_EXTENSIONUM"
        ],
        "subTraditions": "",
        "targetCategory": "Lebewesen",
        "traditions": {
            "all": false,
            "values": [
                "Compendium.tde5e.magic.Item.TR10415123625209"
            ]
        },
        "improvement": {
            "column": "C",
            "value": 0
        },
        "notes": "",
        "gmNotes": "",
        "flavor": "",
        "rule": "Der Körper des Zauberers löst sich in Nebel auf. Er kann sich in dieser Form mit einer GS in Höhe der QS+2 fortbewegen (aber maximal so schnell, wie man in normaler Form ist) und ist wie normaler Nebel dem Wind ausgesetzt. Auch ist es ihm nicht möglich, höher als 2 Schritt zu schweben. Gerät er an einen Abgrund, gleitet er langsam Richtung Boden. Dafür vermag er sich selbst durch kleinste Ritzen zu zwängen und kann nicht von profanen, magischen oder geweihten Waffen verletzt werden. Kleidung und Ausrüstung sind nicht von der Verwandlung betroffen. Während der Wirkungsdauer kann der Zauberer abgesehen von seiner Bewegung keinerlei Handlungen vornehmen, jedoch seine Umgebung ganz normal wahrnehmen.",
        "parents": []
    },
    "effects": [],
    "folder": "SP15718021520213",
    "_key": "!items!NE76229171701531"
}
