{
    "_id": "OR22222719454243",
    "name": "Orkanstimmenrune (Hringjavindruna)",
    "type": "spell",
    "img": "systems/tde5e/assets/defaultItems/spell.svg",
    "system": {
        "castingTime": "2 T / 2 Akt ",
        "castingTimeLong": "2 Tag / 2 Aktion ",
        "check": {
            "resistedBySpirit": false,
            "resistedByToughness": false,
            "resistanceIsHalfed": false,
            "attributes": [
                "intuition",
                "charisma",
                "constitution"
            ]
        },
        "checkedSkill": null,
        "cid": "ORKANSTIMMENRUNE_HRINGJAVINDRUNA",
        "cost": {
            "text": "7 AsP",
            "textLong": "7 AsP",
            "constant": 7,
            "recurring": null
        },
        "duration": "QS MO / QS x 5 KR",
        "durationLong": "QS Monate / QS x 5 Kampfrunden",
        "rule": "Wenn die Trägerin der Rune laut ruft und es drauf anlegt, ist ihre Stimme QS x 100 Schritt weit zu hören. Wind, Sturm und andere natürliche Geräusche haben keine Auswirkung auf die Reichweite oder wie klar die Stimme zu hören ist.",
        "enhancements": [],
        "group": "magicalRunes",
        "modifications": {
            "canModCastingTime": false,
            "canModCost": false,
            "canModRange": false
        },
        "property": "transformation",
        "range": "Berührung",
        "rangeLong": "Berührung",
        "requirementText": "keine",
        "sources": [
            "KODEX_DER_MAGIE"
        ],
        "subTraditions": "",
        "targetCategory": "Objekt/Lebewesen",
        "traditions": {
            "all": false,
            "values": [
                "Compendium.tde5e.magic.Item.TR94321048617158"
            ]
        },
        "improvement": {
            "column": "A",
            "value": 0
        },
        "notes": "",
        "gmNotes": "",
        "flavor": ""
    },
    "effects": [],
    "folder": "ZA63255252379723",
    "_key": "!items!OR22222719454243"
}
