{
    "_id": "PA24614212216410",
    "name": "Parallelzauberei",
    "type": "magicalAbility",
    "img": "systems/tde5e/assets/defaultItems/special_ability_magical.svg",
    "system": {
        "cid": "PARALLELZAUBEREI",
        "cost": {
            "text": "",
            "constant": 0,
            "recurring": null
        },
        "group": "magical",
        "property": "",
        "purchase": {
            "cost": [
                15
            ],
            "description": "15 Abenteuerpunkte",
            "levels": 1,
            "maxTimeBuyable": 1
        },
        "requirementText": "Vorteil Zauberer,  15",
        "sources": [
            "AVENTURISCHE_MAGIE_1"
        ],
        "styleAbilities": [],
        "variant": {
            "categories": [],
            "input": false,
            "available": [],
            "level": 1,
            "selected": null
        },
        "flavor": "",
        "notes": "",
        "gmNotes": "",
        "rule": "Durch diese Sonderfertigkeit sinken die Erschwernisse durch aufrechterhaltene Zauber um 1 (bis zu einem Minimum von 0).",
        "parents": []
    },
    "effects": [],
    "folder": "PA20111051426896",
    "_key": "!items!PA24614212216410"
}
