{
    "_id": "PR12620013825220",
    "name": "Projectimago",
    "type": "spell",
    "img": "systems/tde5e/assets/defaultItems/spell.svg",
    "system": {
        "castingTime": "8 Akt",
        "castingTimeLong": "8 Aktionen",
        "check": {
            "resistedBySpirit": false,
            "resistedByToughness": false,
            "resistanceIsHalfed": false,
            "attributes": [
                "courage",
                "intuition",
                "charisma"
            ]
        },
        "checkedSkill": null,
        "cid": "PROJECTIMAGO",
        "cost": {
            "text": "8 + 1/ zusätzlicher km",
            "textLong": "8 AsP + 1 AsP pro zusätzlicher Meile",
            "constant": 8,
            "recurring": {
                "interval": 1,
                "unit": "zusätzlicher Meile"
            }
        },
        "duration": "QS x 3 M",
        "durationLong": "QS x 3 Minuten",
        "enhancements": [
            {
                "name": "Gute Illusion",
                "effect": "Die @UUID[Compendium.tde5e.skills.Item.SI80193235230167]{Sinnesschärfe} -Probe, um die Illusion zu durchschauen, ist zusätzlich um 1 erschwert. Diese Erweiterung kann mehrfach angewendet werden.",
                "skillPoints": 8,
                "owned": false
            },
            {
                "name": "Gegenbewegung",
                "effect": "Der Zauberer kann sich vor der Wirkung aussuchen, ob sich die Projektion parallel zu ihm, entgegengesetzt oder überhaupt nicht mitbewegt.",
                "skillPoints": 11,
                "owned": false
            },
            {
                "name": "Ferngespräch",
                "effect": "Auch vom Zauberer verursachte Geräusche werden übertragen.",
                "skillPoints": 14,
                "owned": false
            }
        ],
        "group": "incantation",
        "modifications": {
            "canModCastingTime": true,
            "canModCost": true,
            "canModRange": true
        },
        "property": "illusion",
        "range": "selbst",
        "rangeLong": "selbst",
        "requirementText": "keine",
        "sources": [
            "BOSPARANS_KATAKOMBEN",
            "LIBER_EXTENSIONUM"
        ],
        "subTraditions": "",
        "targetCategory": "Kulturschaffende",
        "traditions": {
            "all": false,
            "values": [
                "Compendium.tde5e.magic.Item.TR18517324589268"
            ]
        },
        "improvement": {
            "column": "B",
            "value": 0
        },
        "notes": "",
        "gmNotes": "",
        "flavor": "",
        "rule": "Der Zauberer projiziert ein optisches Ebenbild seiner selbst an einen gewünschten Ort (inklusive Kleidung und Gegenständen, die er am Körper trägt). Für die dortigen Beobachter sieht es so aus, als stünde eine reale Person vor ihnen, die alle Handlungen vollzieht, die der Zauberer durch Bewegung vorgibt. Dreht er sich also im Kreis und springt in die Luft, wird die Projektion das Gleiche tun. Der Ort der Erscheinung darf maximal 5 Meilen + 1 Meile pro vom Zauberer zusätzlich freiwillig investierten AsP entfernt sein, und dieser muss ihn schon einmal aufgesucht haben oder ihn sehen können. Eine Übertragung der Sinne findet nicht statt, der Zauberer kann also im Normalfall nur vermuten, wie die Reaktionen am Zielort ausfallen (<a href=\"https://dsa.ulisses-regelwiki.de/Magie_Spezielle-Regeln-fuer-Spruchzauber_Illusionsregeln.html\" target=\"blank\" rel=\"noopener noreferrer\">Siehe Illusionen</a>).",
        "parents": []
    },
    "effects": [],
    "folder": "SP15718021520213",
    "_key": "!items!PR12620013825220"
}
