{
    "_id": "PS19614712711012",
    "name": "Psychometrie",
    "type": "magicalAbility",
    "img": "systems/tde5e/assets/defaultItems/special_ability_magical.svg",
    "system": {
        "cid": "PSYCHOMETRIE",
        "cost": {
            "text": "",
            "constant": 0,
            "recurring": null
        },
        "group": "spellStyleExtended",
        "property": "",
        "purchase": {
            "cost": [
                10
            ],
            "description": "10 Abenteuerpunkte",
            "levels": 1,
            "maxTimeBuyable": 1
        },
        "requirementText": "keine",
        "sources": [
            "AVENTURISCHE_MAGIE_2"
        ],
        "styleAbilities": [],
        "variant": {
            "categories": [],
            "input": false,
            "available": [],
            "level": 1,
            "selected": null
        },
        "flavor": "",
        "notes": "",
        "gmNotes": "",
        "parents": [
            "Compendium.tde5e.magic.Item.SP33282089219818"
        ],
        "rule": "<p>Die Hexe kann spüren, was ein Objekt „durchlebt“ hat. Das Objekt darf nicht größer sein als eine Tasse und nicht mehr als 5 Stein wiegen. Die Hexe muss das Objekt mindestens 5 Aktionen lang anfassen. Durch eine gelungene Probe auf ein Talent (z. B. <em>Holz-</em>, <em>Leder-</em>, <em>Metall-</em>, <em>Stein-</em> oder @UUID[Compendium.tde5e.skills.Item.ST18887227775891]{Stoffbearbeitung}) – je nachdem, woraus das Objekt größtenteils besteht – kann die Hexe spüren, wer das Objekt erschaffen hat und für was es benutzt wurde. Den Erschaffer wird die Hexe bildlich vor ihrem Auge sehen können, sie wird aber nicht automatisch etwas über ihn wissen. Sogar ein Echo von Gefühlen des Gegenstandes nimmt sie war (also beispielsweise, ob man mit dem Objekt gut umgegangen ist oder ob es eine persönliche Bindung zu seinem Träger hat). Je mehr QS erzielt werden, desto deutlicher sind die Informationen. Nach der Psychometrie erleidet die Hexe 1 Stufe @UUID[Compendium.tde5e.conditions.Item.BE91425088509929]{Betäubung}.</p>"
    },
    "effects": [],
    "folder": "ZA17820398219817",
    "_key": "!items!PS19614712711012"
}
