{
    "_id": "PU68118221250215",
    "name": "Publikumsliebling",
    "type": "artifactAbility",
    "img": "systems/tde5e/assets/defaultItems/artifact_ability.svg",
    "system": {
        "aspects": [],
        "binding": {
            "cost": "",
            "volume": "4 Punkte"
        },
        "brewType": null,
        "cid": "PUBLIKUMSLIEBLING",
        "cost": {
            "text": "7 AsP",
            "constant": 7,
            "recurring": null
        },
        "group": "rogueCap",
        "property": "influence",
        "purchase": {
            "cost": [
                12
            ],
            "description": "12 Abenteuerpunkte",
            "levels": 1,
            "maxTimeBuyable": 1
        },
        "requirementText": "keine",
        "sources": [
            "BOSPARANS_KATAKOMBEN",
            "LIBER_EXTENSIONUM"
        ],
        "tradition": "Compendium.tde5e.magic.Item.TR44241162842057",
        "variant": {
            "categories": [],
            "input": false,
            "level": 1,
            "selected": null,
            "available": null
        },
        "flavor": "",
        "notes": "",
        "gmNotes": "",
        "parents": [
            "Compendium.tde5e.magic.Item.BI13324519577249"
        ],
        "rule": "<p>Der Schelm kann bis zu 12 Zuschauer in einem Radius von 8 Schritt um sich herum mit einer Rede oder einem Kunststück beeindrucken und zum Lachen bringen. Die ausgewählten Zuschauer erhalten wegen der Ablenkung für den Zeitraum der Vorstellung eine Erschwernis von 1 auf alle Fertigkeitsproben. Die Vorstellung dauert 5 Minuten. Die Wirkung betrifft nur Ziele, deren SK der Schelm ignorieren kann.</p>"
    },
    "effects": [],
    "folder": "NA11911510812811",
    "_key": "!items!PU68118221250215"
}
