{
    "_id": "RA39561228721024",
    "name": "Raub der Lebenskraft",
    "type": "magicalAbility",
    "img": "systems/tde5e/assets/defaultItems/special_ability_magical.svg",
    "system": {
        "cid": "RAUB_DER_LEBENSKRAFT_SF",
        "cost": {
            "text": "",
            "constant": 0,
            "recurring": null
        },
        "group": "pactGift",
        "property": "",
        "purchase": {
            "cost": [
                12
            ],
            "description": "12 Abenteuerpunkte",
            "levels": 1,
            "maxTimeBuyable": 1
        },
        "requirementText": "Dämonenpakt Stufe 1 (Mishkara)",
        "sources": [
            "AVENTURISCHE_MAGIE_3"
        ],
        "styleAbilities": [],
        "variant": {
            "categories": [],
            "input": false,
            "available": [],
            "level": 1,
            "selected": null
        },
        "flavor": "",
        "notes": "",
        "gmNotes": "",
        "rule": "Berührt die Paktiererin ein Lebewesen, kann sie ihm pro Kontakt KdV LeP entziehen. Im Zweifelsfall ist dazu eine unverteidigte Raufen-AT erleichtert um 2 notwendig. Bei einem echten Kampf kann die Paktiererin auch Raufen benutzen, mit der Kampftechnik normalen Schaden anrichten und zusätzlich Schaden durch das Paktgeschenk verursachen. Dies zählt dann gemeinsam als ein Angriff. Ein Opfer kann mehrfach während der Wirkungsdauer des Paktgeschenkes berührt werden und verliert jedes Mal dabei LeP. Die entzogenen LeP gehen verloren und werden nicht der Paktiererin gutgeschrieben. Die Wirkung hält 7 KR an. Der Einsatz dieser Fähigkeit kostet 1 Aktion und verursacht 1 Stufe @UUID[Compendium.tde5e.conditions.Item.DA21528191859282]{Dämonische Auszehrung}.",
        "parents": []
    },
    "effects": [],
    "folder": "DA30309060912592",
    "_key": "!items!RA39561228721024"
}
