{
    "_id": "RE24165177291892",
    "name": "Reptilea",
    "type": "spell",
    "img": "systems/tde5e/assets/defaultItems/spell.svg",
    "system": {
        "castingTime": "8 Akt",
        "castingTimeLong": "8 Aktionen",
        "check": {
            "resistedBySpirit": false,
            "resistedByToughness": false,
            "resistanceIsHalfed": false,
            "attributes": [
                "courage",
                "intuition",
                "charisma"
            ]
        },
        "cid": "REPTILEA",
        "cost": {
            "text": "16 AsP",
            "textLong": "16 AsP",
            "constant": 16,
            "recurring": null
        },
        "duration": "QS x 3 ST",
        "durationLong": "QS x 3 Stunden",
        "enhancements": [
            {
                "name": "Reichweite Berührung",
                "effect": "Als Reichweite gilt Berührung. Der Zauberspruch kann nur auf Kulturschaffende übertragen werden. Allerdings muss nun die SK des Verzauberten als Modifikator berücksichtigt werden.",
                "skillPoints": 8,
                "owned": false
            },
            {
                "name": "Spezieswahl",
                "effect": "Der Zauberer kann nur eine bestimmte Spezies wie Käfer oder Spinnen anziehen. Er muss dies vor dem Wirken des Zaubers festlegen.",
                "skillPoints": 11,
                "owned": false
            },
            {
                "name": "Größere Tiere",
                "effect": "Auch Tiere der Größenkategorie klein werden herbeigerufen.",
                "skillPoints": 14,
                "owned": false
            }
        ],
        "group": "incantation",
        "modifications": {
            "canModCastingTime": true,
            "canModCost": true,
            "canModRange": true
        },
        "property": "influence",
        "range": "selbst",
        "rangeLong": "selbst",
        "requirementText": "keine",
        "sources": [
            "BOSPARANS_KATAKOMBEN"
        ],
        "targetCategory": "Lebewesen, Objekte",
        "traditions": {
            "all": false,
            "values": [
                "Compendium.tde5e.magic.Item.TR60602241216130",
                "Compendium.tde5e.magic.Item.TR98672441157616"
            ]
        },
        "improvement": {
            "column": "C",
            "value": 0
        },
        "notes": "",
        "gmNotes": "",
        "flavor": "",
        "checkedSkill": null,
        "rule": "Alle innerhalb von 1 Meile befindlichen Reptilien und Amphibien der Größenkategorie winzig werden vom Zauberer angezogen und versammeln sich innerhalb von 50 Schritt um den Zauberer. Betroffen sind davon nur solche Wesen, die KL (t) statt KL verwenden und deren SK die QS/2 nicht überschreitet. Zudem verlieren die Wesen nicht ihren Selbsterhaltungstrieb, werden sich also beispielsweise nicht durch Feuer bewegen, das den Pfad zum Zauberer versperrt. Sobald sie beim Zauberer angekommen sind, verbleiben sie in seiner unmittelbaren Nähe und folgen ihm, falls er sich fortbewegt. Der Zauber erlaubt dabei keinerlei Kontrolle über die Wesen, es ist also gut möglich, dass sie ihn oder auch die anderen eingetroffenen Wesen angreifen.",
        "parents": []
    },
    "effects": [],
    "folder": "SP15718021520213",
    "_key": "!items!RE24165177291892"
}
