{
    "_id": "RE86842022910813",
    "name": "Respondami",
    "type": "spell",
    "img": "systems/tde5e/assets/defaultItems/spell.svg",
    "system": {
        "castingTime": "2 Akt",
        "castingTimeLong": "2 Aktion",
        "check": {
            "resistedBySpirit": true,
            "resistedByToughness": false,
            "resistanceIsHalfed": false,
            "attributes": [
                "courage",
                "intuition",
                "charisma"
            ]
        },
        "checkedSkill": null,
        "cid": "RESPONDAMI",
        "cost": {
            "text": "8 AsP",
            "textLong": "8 AsP",
            "constant": 8,
            "recurring": null
        },
        "duration": "QS x 15 M",
        "durationLong": "QS x 15 Minuten",
        "enhancements": [
            {
                "name": "Mehr Fragen",
                "effect": "Die Person muss eine zusätzliche Frage beantworten. Diese Erweiterung kann mehrfach angewendet werden.",
                "skillPoints": 8,
                "owned": false
            },
            {
                "name": "Antworten mit Zahlen",
                "effect": "Das Ziel kann auch Fragen beantworten, deren Antwort Zahlen darstellen („Wie viele Gäste waren auf der Feier gestern anwesend?“ „42!“).",
                "skillPoints": 11,
                "owned": false
            },
            {
                "name": "Wann-Fragen beantworten",
                "effect": "Das Ziel kann auch Fragen zu Zeiten beantworten („Wann ist die Kaiserin nach Gareth aufgebrochen?“ „Vor drei Tagen.“).",
                "skillPoints": 14,
                "owned": false
            }
        ],
        "group": "incantation",
        "modifications": {
            "canModCastingTime": true,
            "canModCost": true,
            "canModRange": true
        },
        "property": "influence",
        "range": "Berührung",
        "rangeLong": "Berührung",
        "requirementText": "keine",
        "sources": [
            "BOSPARANS_KATAKOMBEN",
            "LIBER_EXTENSIONUM"
        ],
        "subTraditions": "",
        "targetCategory": "Lebewesen",
        "traditions": {
            "all": false,
            "values": [
                "Compendium.tde5e.magic.Item.TR10415123625209",
                "Compendium.tde5e.magic.Item.TR20562116246223"
            ]
        },
        "improvement": {
            "column": "B",
            "value": 0
        },
        "notes": "",
        "gmNotes": "",
        "flavor": "",
        "rule": "Der Verzauberte muss auf QS Fragen wahrheitsgemäß antworten. Die Fragen müssen mit Ja oder Nein zu beantworten sein. Auf andere Fragen kann der Verzauberte schweigen. Das Opfer ist sich während der Wirkung des Zaubers bewusst, was es sagt. Das Opfer muss die Sprache des Zauberers verstehen und sprechen können, ansonsten kann es ihm nicht antworten.",
        "parents": []
    },
    "effects": [],
    "folder": "SP15718021520213",
    "_key": "!items!RE86842022910813"
}
