{
    "_id": "RU15019824257923",
    "name": "Ruf der Feenwesen",
    "type": "spell",
    "img": "systems/tde5e/assets/defaultItems/spell.svg",
    "system": {
        "castingTime": "2 ST",
        "castingTimeLong": "2 Stunden",
        "check": {
            "resistedBySpirit": false,
            "resistedByToughness": false,
            "resistanceIsHalfed": false,
            "attributes": [
                "courage",
                "charisma",
                "constitution"
            ]
        },
        "cid": "RUF_DER_FEENWESEN",
        "cost": {
            "text": "16 AsP",
            "textLong": "16 AsP",
            "constant": 16,
            "recurring": null
        },
        "duration": "sofort",
        "durationLong": "sofort",
        "enhancements": [
            {
                "name": "Mehr Dienste",
                "effect": "Der Zauberer kann einen zusätzlichen Dienst von dem Wesen verlangen. Diese Erweiterung kann mehrfach angewendet werden.",
                "skillPoints": 8,
                "owned": false
            },
            {
                "name": "Längerer Dienst",
                "effect": "Der Zeitraum, nachdem das Wesen automatisch einen Dienst verliert, erhöht sich um 3 Tage. Diese Erweiterung kann bis zu 3 Mal angewendet werden, um die Verfallsdauer auf 4, 7 bzw. 10 Tage zu erhöhen.",
                "skillPoints": 11,
                "owned": false
            },
            {
                "name": "Freundliche Einstellung",
                "effect": "Bittproben sind gegenüber dem Wesen um 1 erleichtert. Diese Erweiterung kann mehrfach angewendet werden.",
                "skillPoints": 14,
                "owned": false
            }
        ],
        "group": "ritual",
        "modifications": {
            "canModCastingTime": true,
            "canModCost": true,
            "canModRange": true
        },
        "property": "spheres",
        "range": "8 Schritt",
        "rangeLong": "8 Schritt",
        "requirementText": "@UUID[Compendium.tde5e.magic.Item.ZA87502461772311]{Zauberwesen der Natur} 12",
        "sources": [
            "BOSPARANS_KATAKOMBEN"
        ],
        "targetCategory": "Feenwesen",
        "traditions": {
            "all": false,
            "values": [
                "Compendium.tde5e.magic.Item.TR37561943665255"
            ]
        },
        "improvement": {
            "column": "C",
            "value": 0
        },
        "notes": "",
        "gmNotes": "",
        "flavor": "",
        "checkedSkill": null,
        "rule": "Ein zufällig ausgewähltes, mittleres Feenwesen aus einem Umkreis von 7 Meilen kommt zum Zauberer und ist in der Regel bereit, ihm zu Diensten zu sein (<a href=\"https://dsa.ulisses-regelwiki.de/herbeirufung.html\" target=\"blank\" rel=\"noopener noreferrer\">Siehe Herbeirufung</a>).",
        "parents": []
    },
    "effects": [],
    "folder": "SP18396136219154",
    "_key": "!items!RU15019824257923"
}
