{
    "_id": "RU12020012714816",
    "name": "Ruhepol",
    "type": "magicalAbility",
    "img": "systems/tde5e/assets/defaultItems/special_ability_magical.svg",
    "system": {
        "cid": "RUHEPOL",
        "cost": {
            "text": "2 AsP pro geheilter Zustandsstufe",
            "constant": 2,
            "recurring": null
        },
        "group": "companionTrick",
        "property": "healing",
        "purchase": {
            "cost": [
                10
            ],
            "description": "10 Abenteuerpunkte",
            "levels": 1,
            "maxTimeBuyable": 1
        },
        "requirementText": "Für alle Tierarten verfügbar",
        "sources": [
            "BOSPARANS_KATAKOMBEN",
            "LIBER_EXTENSIONUM"
        ],
        "styleAbilities": [],
        "variant": {
            "categories": [],
            "input": false,
            "available": [],
            "level": 1,
            "selected": null
        },
        "flavor": "",
        "notes": "",
        "gmNotes": "",
        "rule": "Das Vertrautentier hat eine beruhigende Wirkung auf den Hexer, sodass er pro Minute, die er es in beiden Armen hält, eine Stufe @UUID[Compendium.tde5e.conditions.Item.FU13915517420459]{Furcht} oder @UUID[Compendium.tde5e.conditions.Item.VE73175641105112]{Verwirrung} heilen kann. Es ist ebenso möglich dadurch pro Minute eine Stufe @UUID[Compendium.tde5e.conditions.Item.SC72173204142222]{Schmerz} zu heilen, wobei dies nur so lange gilt, wie das Tier in den Armen des Hexers verweilt. Lässt er es los, kehrt der Schmerz mit einer Stufe pro Minute mit sämtlichen Auswirkungen zurück. Es ist nicht möglich, pro Minute mehr als eine Stufe insgesamt zu heilen.",
        "parents": []
    },
    "effects": [],
    "folder": "TI11380342501412",
    "_key": "!items!RU12020012714816"
}
