{
    "_id": "SA75971341336167",
    "name": "Satuarias Herrlichkeit",
    "type": "spell",
    "img": "systems/tde5e/assets/defaultItems/spell.svg",
    "system": {
        "castingTime": "4 Akt",
        "castingTimeLong": "4 Aktionen",
        "check": {
            "resistedBySpirit": false,
            "resistedByToughness": false,
            "resistanceIsHalfed": false,
            "attributes": [
                "sagacity",
                "intuition",
                "constitution"
            ]
        },
        "checkedSkill": null,
        "cid": "SATUARIAS_HERRLICHKEIT",
        "cost": {
            "text": "8 AsP",
            "textLong": "8 AsP",
            "constant": 8,
            "recurring": null
        },
        "duration": "QS x 3 ST",
        "durationLong": "QS x 3 Stunden",
        "enhancements": [
            {
                "name": "Reichweite Berührung",
                "effect": "Die Reichweite ist Berührung. Der Zauberspruch kann nur auf Kulturschaffende übertragen werden.",
                "skillPoints": 8,
                "owned": false
            },
            {
                "name": "Längere Wirkungsdauer",
                "effect": "Die Wirkungsdauer beträgt zusätzlich QS Stunden. Diese Erweiterung kann mehrfach angewendet werden.",
                "skillPoints": 11,
                "owned": false
            },
            {
                "name": "Wahre Schönheit",
                "effect": "Alle gegen den Verzauberten gerichteten Einsatzmöglichkeiten, Zauber oder Liturgien, die Schaden verursachen würden, haben 1 FP weniger. Davon ist die Wahl der Einsatzmöglichkeiten und die Qualität des Angriffs betroffen, allerdings können Proben dadurch nicht fehlschlagen. Diese Einsatzmöglichkeit kann mehrfach angewendet werden.",
                "skillPoints": 14,
                "owned": false
            }
        ],
        "group": "incantation",
        "modifications": {
            "canModCastingTime": true,
            "canModCost": true,
            "canModRange": true
        },
        "property": "transformation",
        "range": "selbst",
        "rangeLong": "selbst",
        "requirementText": "keine",
        "sources": [
            "BOSPARANS_KATAKOMBEN",
            "LIBER_EXTENSIONUM"
        ],
        "subTraditions": "",
        "targetCategory": "Wesen",
        "traditions": {
            "all": false,
            "values": [
                "Compendium.tde5e.magic.Item.TR60602241216130"
            ]
        },
        "improvement": {
            "column": "B",
            "value": 0
        },
        "notes": "",
        "gmNotes": "",
        "flavor": "",
        "rule": "Der Zaubernde erzeugt subtile Veränderungen seines Körpers, die ihn begehrlicher wirken lassen. Haar und Teint werden verbessert, die Zähne aufgehellt und begradigt und die gesamte Statur dem gewünschten Schönheitsideal angepasst. Proben auf das Talent @UUID[Compendium.tde5e.skills.Item.BE22019221941182]{Betören (Anbändeln, Liebeskünste)} und @UUID[Compendium.tde5e.skills.Item.UB25018415118918]{Überreden (Schmeicheln)} sind um QS erleichtert. Je nach Situation können andere Gesellschaftstalente auf die gleiche Weise erleichtert werden. Auf Wesen mit anderem Schönheitsideal wirkt die Veränderung nicht.",
        "parents": []
    },
    "effects": [],
    "folder": "SP15718021520213",
    "_key": "!items!SA75971341336167"
}
