{
    "_id": "SC21328117367701",
    "name": "Schlaf rauben",
    "type": "spell",
    "img": "systems/tde5e/assets/defaultItems/spell.svg",
    "system": {
        "castingTime": "1 Akt",
        "castingTimeLong": "1 Aktion",
        "check": {
            "resistedBySpirit": true,
            "resistedByToughness": false,
            "resistanceIsHalfed": false,
            "attributes": [
                "sagacity",
                "intuition",
                "charisma"
            ]
        },
        "checkedSkill": null,
        "cid": "SCHLAF_RAUBEN",
        "cost": {
            "text": "14 AsP",
            "textLong": "14 AsP",
            "constant": 14,
            "recurring": null
        },
        "duration": "QS x 3 T",
        "durationLong": "QS x 3 Tagen",
        "enhancements": [],
        "group": "curse",
        "modifications": {
            "canModCastingTime": false,
            "canModCost": false,
            "canModRange": false
        },
        "property": "influence",
        "range": "64 m",
        "rangeLong": "64 Schritt",
        "requirementText": "keine",
        "sources": [
            "BOSPARANS_KATAKOMBEN",
            "LIBER_EXTENSIONUM"
        ],
        "subTraditions": "",
        "targetCategory": "",
        "traditions": {
            "all": false,
            "values": [
                "Compendium.tde5e.magic.Item.TR60602241216130"
            ]
        },
        "improvement": {
            "column": "B",
            "value": 0
        },
        "notes": "",
        "gmNotes": "",
        "flavor": "",
        "rule": "Das Opfer kann nicht schlafen. Wenn es doch für einige Sekunden einschläft, wird es von Alpträumen wieder aufgeschreckt. Regeneration ist in diesem Zustand nicht möglich. Es reagiert genauso wie andere Menschen, die lange Zeit wachgehalten werden, wird also fahrig, reizbar und erleidet nach einigen Tagen Sinnestäuschungen. Pro zwei Tagen ohne Schlaf erhält das Opfer eine Stufe @UUID[Compendium.tde5e.conditions.Item.VE73175641105112]{Verwirrung}, die erst abklingt, wenn es wieder schlafen kann.",
        "parents": []
    },
    "effects": [],
    "folder": "SP58654619110814",
    "_key": "!items!SC21328117367701"
}
