{
    "_id": "SC18619314134995",
    "name": "Schminken",
    "type": "cantrip",
    "img": "systems/tde5e/assets/defaultItems/spell.svg",
    "system": {
        "cid": "SCHMINKEN",
        "duration": "sofort",
        "durationLong": "sofort",
        "property": "telekinesis",
        "range": "selbst",
        "rangeLong": "selbst",
        "requirementText": "",
        "sources": [
            "BOSPARANS_KATAKOMBEN",
            "LIBER_EXTENSIONUM"
        ],
        "targetCategory": "Kulturschaffende",
        "traditions": {
            "all": false,
            "values": [
                "Compendium.tde5e.magic.Item.TR20562116246223",
                "Compendium.tde5e.magic.Item.TR60602241216130",
                "Compendium.tde5e.magic.Item.TR18517324589268",
                "Compendium.tde5e.magic.Item.TR24231133849412"
            ]
        },
        "notes": "",
        "gmNotes": "",
        "flavor": "",
        "rule": "Durch diesen Zaubertrick tragen Schminkutensilien die Schminke so wie gewünscht auf, ohne dass der Zauberer seine Hände benutzen muss. Das Ziel muss in einem ruhigen Zustand verharren, bis der Schminkvorgang vollendet ist.",
        "parents": []
    },
    "effects": [],
    "folder": "SP45861142482726",
    "_key": "!items!SC18619314134995"
}
