{
    "_id": "SC95131971622552",
    "name": "Schmusekätzchen",
    "type": "magicalAbility",
    "img": "systems/tde5e/assets/defaultItems/special_ability_magical.svg",
    "system": {
        "cid": "SCHMUSEKATZCHEN",
        "cost": {
            "text": "",
            "constant": 0,
            "recurring": null
        },
        "group": "pactGift",
        "property": "",
        "purchase": {
            "cost": [
                15
            ],
            "description": "15 Abenteuerpunkte",
            "levels": 1,
            "maxTimeBuyable": 1
        },
        "requirementText": "Dämonenpakt Stufe 2 (Aphasmayra)",
        "sources": [
            "AVENTURISCHE_MAGIE_3"
        ],
        "styleAbilities": [],
        "variant": {
            "categories": [],
            "input": false,
            "available": [],
            "level": 1,
            "selected": null
        },
        "flavor": "",
        "notes": "",
        "gmNotes": "",
        "rule": "Die Paktiererin verwandelt sich in eine Hauskatze. Die Werte entsprechen denen einer normalen Katze, allerdings sind die geistigen Eigenschaften und die SK die der Paktiererin. Auch ihre Fertigkeitswerte bleiben gleich. Diese Katze erscheint allen Kulturschaffenden als ein Tier, dass sie gerne streicheln würden, und sie hegen keine Abneigung gegen das Kätzchen. Um das Kätzchen anzugreifen, muss eine Probe auf @UUID[Compendium.tde5e.skills.Item.WI13315915718951]{Willenskraft} erschwert um KdV gelingen. In Katzengestalt kann die Paktiererin subtil durch eine Berührung einem einzigen Kulturschaffenden einen unterbewussten Befehl geben (ähnlich einem <span class=\"name--spell\">Zauberzwang</span> mit QS 4). Die Wirkung hält maximal KdV Tage an, die Paktiererin kann sich aber dazu entscheiden, die Fähigkeit früher abzubrechen. Dazu benötigt sie 1 freie Aktion. Der Einsatz dieser Fähigkeit kostet 1 Aktion und verursacht 1 Stufe @UUID[Compendium.tde5e.conditions.Item.DA21528191859282]{Dämonische Auszehrung}.",
        "parents": []
    },
    "effects": [],
    "folder": "DA73976415352799",
    "_key": "!items!SC95131971622552"
}
