{
    "_id": "SC24976119187118",
    "name": "Schnitt durch Stein",
    "type": "artifactAbility",
    "img": "systems/tde5e/assets/defaultItems/artifact_ability.svg",
    "system": {
        "aspects": [],
        "binding": {
            "cost": "",
            "volume": "6 Punkte"
        },
        "brewType": null,
        "cid": "SCHNITT_DURCH_STEIN",
        "cost": {
            "text": "3 AsP pro Schnitt",
            "constant": 3,
            "recurring": null
        },
        "group": "druidSickle",
        "property": "object",
        "purchase": {
            "cost": [
                15
            ],
            "description": "15 Abenteuerpunkte",
            "levels": 1,
            "maxTimeBuyable": 1
        },
        "requirementText": "keine",
        "sources": [
            "BOSPARANS_KATAKOMBEN",
            "LIBER_EXTENSIONUM"
        ],
        "tradition": "Compendium.tde5e.magic.Item.TR10415123625209",
        "variant": {
            "categories": [],
            "input": false,
            "level": 1,
            "selected": null,
            "available": null
        },
        "flavor": "",
        "notes": "",
        "gmNotes": "",
        "parents": [
            "Compendium.tde5e.magic.Item.BI70123662242852"
        ],
        "rule": "<p>Die Sichel kann durch Fels und Stein schneiden (auch bearbeitete Materialien wie Burgmauern), wie ein heißes Messer durch Butter. Pro Schnitt kann die Sichel 25 Strukturpunkte zerstören. Mit dieser Fähigkeit können keine Edelsteine oder Erze zerteilt werden, lediglich einfaches Gestein kann zerschnitten werden. Das letzte Wort darüber hat der Meister.</p>"
    },
    "effects": [],
    "folder": "DR19621511010721",
    "_key": "!items!SC24976119187118"
}
