{
    "_id": "SC19281104101103",
    "name": "Schnelles Brauen",
    "type": "artifactAbility",
    "img": "systems/tde5e/assets/defaultItems/artifact_ability.svg",
    "system": {
        "aspects": [],
        "binding": {
            "cost": "",
            "volume": "7 Punkte"
        },
        "brewType": null,
        "cid": "SCHNELLES_BRAUEN",
        "cost": {
            "text": "12 AsP (fallen beim ersten Trank an)",
            "constant": 12,
            "recurring": null
        },
        "group": "alchemistBowl",
        "property": "object",
        "purchase": {
            "cost": [
                20
            ],
            "description": "20 Abenteuerpunkte",
            "levels": 1,
            "maxTimeBuyable": 1
        },
        "requirementText": "keine",
        "sources": [
            "BOSPARANS_KATAKOMBEN",
            "LIBER_EXTENSIONUM"
        ],
        "tradition": "Compendium.tde5e.magic.Item.TR21232425518411",
        "variant": {
            "categories": [],
            "input": false,
            "level": 1,
            "selected": null,
            "available": null
        },
        "flavor": "",
        "notes": "",
        "gmNotes": "",
        "parents": [
            "Compendium.tde5e.magic.Item.BI22131281721611"
        ],
        "rule": "<p>Mit Hilfe der Schale kann der Alchimist pro Tag zwei Tränke brauen.</p>"
    },
    "effects": [],
    "folder": "ZA20922218743141",
    "_key": "!items!SC19281104101103"
}
