{
    "_id": "SC63559974975798",
    "name": "Schönheitssalbe",
    "type": "artifactAbility",
    "img": "systems/tde5e/assets/defaultItems/artifact_ability.svg",
    "system": {
        "aspects": [],
        "binding": {
            "cost": "",
            "volume": "5 Punkte"
        },
        "brewType": "Salbe",
        "cid": "SCHONHEITSSALBE",
        "cost": {
            "text": "8 AsP",
            "constant": 8,
            "recurring": null
        },
        "group": "witchCouldron",
        "property": "transformation",
        "purchase": {
            "cost": [
                15
            ],
            "description": "15 Abenteuerpunkte",
            "levels": 1,
            "maxTimeBuyable": 1
        },
        "requirementText": "keine",
        "sources": [
            "BOSPARANS_KATAKOMBEN",
            "LIBER_EXTENSIONUM"
        ],
        "tradition": "Compendium.tde5e.magic.Item.TR60602241216130",
        "variant": {
            "categories": [],
            "input": false,
            "level": 1,
            "selected": null,
            "available": null
        },
        "flavor": "",
        "notes": "",
        "gmNotes": "",
        "parents": [
            "Compendium.tde5e.magic.Item.BI66178225234192"
        ],
        "rule": "<p>Die Hexe kann eine Salbe brauen, die bei Kulturschaffenden die Stufe ihrer Schönheit um 1 erhöht (Personen mit dem Nachteil <em>Hässlich I</em> werden durchschnittlich aussehend, durchschnittliche aussehende Personen erhalten @UUID[Compendium.tde5e.advantagesDisadvantages.Item.GU93816821016025]{Gutaussehend} <em>I</em> usw.). Die Hexe kann die Salbe auch auf sich selbst anwenden. Die Wirkung hält 6 Stunden. Eine Person mit dem Vorteil <em>Gutaussehend II</em> kann nicht weiter von der Salbe profitieren.</p>"
    },
    "effects": [],
    "folder": "HE94771616520622",
    "_key": "!items!SC63559974975798"
}
