{
    "_id": "SC77815517580227",
    "name": "Scholar des Seminars der elfischen Verständigung und natürlichen Heilung zu Donnerbach",
    "type": "magicalAbility",
    "img": "systems/tde5e/assets/defaultItems/special_ability_magical.svg",
    "system": {
        "cid": "SCHOLAR_DES_SEMINARS_DER_ELFISCHEN_VERSTANDIGUNG_UND_NATURLICHEN_HEILUNG_ZU_DONNERBACH",
        "cost": {
            "text": "",
            "constant": 0,
            "recurring": null
        },
        "group": "spellStyle",
        "property": "",
        "purchase": {
            "cost": [
                10
            ],
            "description": "10 Abenteuerpunkte",
            "levels": 1,
            "maxTimeBuyable": 1
        },
        "requirementText": "SF Tradition (Gildenmagier)",
        "sources": [
            "AVENTURISCHE_MAGIE_1"
        ],
        "styleAbilities": [
            "Compendium.tde5e.magic.Item.BE20320113829169",
            "Compendium.tde5e.magic.Item.EL70801195416571",
            "Compendium.tde5e.magic.Item.VE31738550652367"
        ],
        "variant": {
            "categories": [],
            "input": false,
            "available": [],
            "level": 1,
            "selected": null
        },
        "flavor": "",
        "notes": "",
        "gmNotes": "",
        "rule": "Die Donnerbacher sind Spezialisten der klassischen Heilmagie. Für jeweils 5 volle LeP, die ein Zauber mit dem Merkmal Heilung wiedergibt, bekommt das Ziel des Zaubers 1 LeP zusätzlich zurück.",
        "parents": []
    },
    "effects": [],
    "folder": "ZA14914837156109",
    "_key": "!items!SC77815517580227"
}
