{
    "_id": "SC22120121121183",
    "name": "Schutz des Rudels",
    "type": "artifactAbility",
    "img": "systems/tde5e/assets/defaultItems/artifact_ability.svg",
    "system": {
        "aspects": [],
        "binding": {
            "cost": "",
            "volume": "4 Punkte"
        },
        "brewType": null,
        "cid": "SCHUTZ_DES_RUDELS",
        "cost": {
            "text": "6 AsP pro 10 KR",
            "constant": 6,
            "recurring": null
        },
        "group": "animistClawChain",
        "property": null,
        "purchase": {
            "cost": [
                12
            ],
            "description": "12 Abenteuerpunkte",
            "levels": 1,
            "maxTimeBuyable": 1
        },
        "requirementText": "SF Bindung der Krallenkette",
        "sources": [
            "GEISTERWALD_UND_KNOCHENKLIPPEN"
        ],
        "tradition": "Compendium.tde5e.magic.Item.TR22473791851201",
        "variant": {
            "categories": [],
            "input": false,
            "level": 1,
            "selected": null,
            "available": null
        },
        "flavor": "",
        "notes": "",
        "gmNotes": "",
        "parents": [
            "Compendium.tde5e.magic.Item.BI46152119524428"
        ],
        "rule": "<p>Bis zu zwei Kampfgefährten nach Wahl der Animistin, die sich innerhalb der Angriffsdistanz von 3 Schritt zu ihr befinden müssen, sind für Angreifende schwerer zu treffen. Die Animistin kann sich nicht selbst auswählen. Gegner erhalten eine AT-Erschwernis in Höhe von –2 gegen die Kampfgefährten der Animistin.</p>"
    },
    "effects": [],
    "folder": "AN29112102313266",
    "_key": "!items!SC22120121121183"
}
