{
    "_id": "SC13117812134226",
    "name": "Schutzsalbe",
    "type": "artifactAbility",
    "img": "systems/tde5e/assets/defaultItems/artifact_ability.svg",
    "system": {
        "aspects": [],
        "binding": {
            "cost": "",
            "volume": "7 Punkte"
        },
        "brewType": "Salbe",
        "cid": "SCHUTZSALBE",
        "cost": {
            "text": "7, 14 oder 21 AsP",
            "constant": 0,
            "recurring": null
        },
        "group": "witchCouldron",
        "property": "transformation",
        "purchase": {
            "cost": [
                20
            ],
            "description": "20 Abenteuerpunkte",
            "levels": 1,
            "maxTimeBuyable": 1
        },
        "requirementText": "keine",
        "sources": [
            "BOSPARANS_KATAKOMBEN",
            "LIBER_EXTENSIONUM"
        ],
        "tradition": "Compendium.tde5e.magic.Item.TR60602241216130",
        "variant": {
            "categories": [],
            "input": false,
            "level": 1,
            "selected": null,
            "available": null
        },
        "flavor": "",
        "notes": "",
        "gmNotes": "",
        "parents": [
            "Compendium.tde5e.magic.Item.BI66178225234192"
        ],
        "rule": "<p>Die Hexe kann in ihrem Hexenkessel eine Salbe brauen, die sie auf sich selbst auftragen kann. Durch die Salbe bekommt die Hexe bis zum nächsten Sonnenuntergang einen zusätzlichen Schutz gegen körperliche Angriffe, der sich in 7, 14 oder 21 zusätzlichen Lebenspunkten äußert (je nach AsP-Einsatz). Die Salbe schützt nicht vor Schaden, der nicht gegen die Haut der Hexe gerichtet ist, also beispielsweise durch Gifte und Krankheiten, einige Zauber oder Liturgien (z. B. @UUID[Compendium.tde5e.magic.Item.FU24521531547837]{Fulminictus}). Bei körperlichen Angriffen gegen die Haut werden zunächst die LeP der Salbe abgezogen, dann erst die eigentlichen LeP der Hexe.</p>"
    },
    "effects": [],
    "folder": "HE94771616520622",
    "_key": "!items!SC13117812134226"
}
