{
    "_id": "SC17122762310612",
    "name": "Schwester des Wissens",
    "type": "magicalAbility",
    "img": "systems/tde5e/assets/defaultItems/tradition_imprint.svg",
    "system": {
        "cid": "SCHWESTER_DES_WISSENS",
        "group": "spellStyle",
        "requirementText": "Die Heldin wurde von einer Hexe dieser Schwesternschaft ausgebildet.",
        "sources": [
            "AVENTURISCHE_MAGIE_2"
        ],
        "notes": "",
        "gmNotes": "",
        "flavor": "",
        "parents": [
            "Compendium.tde5e.magic.Item.TR60602241216130"
        ],
        "rule": "<ul><li><strong>Fremdwissen:</strong> Fremdzauber (allerdings nur Zaubersprüche) sind für die Schlangenhexen nur um 1 statt um 2 erschwert.</li><li><strong>Flugschwäche:</strong> Um ihr Fluggerät zu aktivieren, müssen Schlangenhexen 3 AsP statt 1 AsP aufwenden.</li></ul>",
        "cost": {
            "text": "",
            "constant": 0,
            "recurring": null
        }
    },
    "effects": [],
    "folder": "PR19518380103617",
    "_key": "!items!SC17122762310612",
    "property": "",
    "purchase": {
        "cost": [
            10
        ],
        "description": "10 Abenteuerpunkte",
        "levels": 1,
        "maxTimeBuyable": 1
    },
    "styleAbilities": [],
    "variant": {
        "categories": [],
        "input": false,
        "available": [],
        "level": 1,
        "selected": null
    }
}
