{
    "_id": "SE11620516517210",
    "name": "Seilschlange",
    "type": "artifactAbility",
    "img": "systems/tde5e/assets/defaultItems/artifact_ability.svg",
    "system": {
        "aspects": [],
        "binding": {
            "cost": "",
            "volume": "5 Punkte"
        },
        "brewType": null,
        "cid": "SEILSCHLANGE",
        "cost": {
            "text": "5 AsP pro 5 Minuten",
            "constant": 5,
            "recurring": {
                "interval": 5,
                "unit": "5 Minuten"
            }
        },
        "group": "guildmageStaff",
        "property": "telekinesis",
        "purchase": {
            "cost": [
                10
            ],
            "description": "10 Abenteuerpunkte",
            "levels": 1,
            "maxTimeBuyable": 1
        },
        "requirementText": "Seilpeitsche",
        "sources": [
            "BOSPARANS_KATAKOMBEN",
            "LIBER_EXTENSIONUM"
        ],
        "tradition": "Compendium.tde5e.magic.Item.TR20562116246223",
        "variant": {
            "categories": [],
            "input": false,
            "level": 1,
            "selected": null,
            "available": null
        },
        "flavor": "",
        "notes": "",
        "gmNotes": "",
        "parents": [
            "Compendium.tde5e.magic.Item.SE93163141215148"
        ],
        "rule": "<p>Der Stab verwandelt sich in eine Seilschlange. Sie beschützt den Zauberer mit den ihr zur Verfügung stehenden Mitteln und folgt ihm. „Stirbt“ die Schlange, verwandelt sie sich wieder zurück in den Stab. Die Schlange gilt als magisch.</p>"
    },
    "effects": [],
    "folder": "GI21114247636140",
    "_key": "!items!SE11620516517210"
}
