{
    "_id": "SE22019322521110",
    "name": "Selbstarchivierung",
    "type": "cantrip",
    "img": "systems/tde5e/assets/defaultItems/spell.svg",
    "system": {
        "cid": "SELBSTARCHIVIERUNG",
        "duration": "sofort",
        "durationLong": "sofort",
        "property": "telekinesis",
        "range": "16 m",
        "rangeLong": "16 Schritt",
        "requirementText": "",
        "sources": [
            "BOSPARANS_KATAKOMBEN",
            "LIBER_EXTENSIONUM"
        ],
        "targetCategory": "Objekte (Bücher)",
        "traditions": {
            "all": false,
            "values": [
                "Compendium.tde5e.magic.Item.TR20562116246223"
            ]
        },
        "notes": "",
        "gmNotes": "",
        "flavor": "",
        "rule": "Ein aus einer Bibliothek geliehenes Buch fliegt wieder dorthin, woher es der Zauberer aus dem Regal entnommen hat. Dieser Zaubertrick funktioniert nur bei Büchern, die der Zauberer selbst ausgeliehen und aus der Bibliothek entnommen hat.",
        "parents": []
    },
    "effects": [],
    "folder": "SP45861142482726",
    "_key": "!items!SE22019322521110"
}
