{
    "_id": "SE36178761322327",
    "name": "Selbstkontrolle",
    "type": "magicalAbility",
    "img": "systems/tde5e/assets/defaultItems/special_ability_magical.svg",
    "system": {
        "cid": "SELBSTKONTROLLE",
        "cost": {
            "text": "",
            "constant": 0,
            "recurring": null
        },
        "group": "spellStyleExtended",
        "property": "",
        "purchase": {
            "cost": [
                20
            ],
            "description": "20 Abenteuerpunkte",
            "levels": 1,
            "maxTimeBuyable": 1
        },
        "requirementText": "keine",
        "sources": [
            "AVENTURISCHE_MAGIE_1"
        ],
        "styleAbilities": [],
        "variant": {
            "categories": [],
            "input": false,
            "available": [],
            "level": 1,
            "selected": null
        },
        "flavor": "",
        "notes": "",
        "gmNotes": "",
        "parents": [
            "Compendium.tde5e.magic.Item.UN14811002232363",
            "Compendium.tde5e.magic.Item.ZA78335052378613"
        ],
        "rule": "<p>Ist der Zauberer von einem Zauber des Merkmals Einfluss betroffen, der Zustandsstufen von @UUID[Compendium.tde5e.conditions.Item.BE91425088509929]{Betäubung}, @UUID[Compendium.tde5e.conditions.Item.FU13915517420459]{Furcht}, @UUID[Compendium.tde5e.conditions.Item.SC72173204142222]{Schmerz} oder @UUID[Compendium.tde5e.conditions.Item.VE73175641105112]{Verwirrung} verursacht, so kann er mit einer Verteidigung eine Probe auf @UUID[Compendium.tde5e.skills.Item.WI13315915718951]{Willenskraft} ablegen.<br /><br />Gelingt die Probe, kann er die Wirkung des Zaubers für QS/2 KR unterdrücken. Die Wirkung des Zaubers setzt wieder ein, sobald der Zauberer in der letzten KR Unterdrückung laut Initiativeergebnis an der Reihe ist. Die KR, in der er die Probe auf @UUID[Compendium.tde5e.skills.Item.WI13315915718951]{Willenskraft} ablegt, zählt dabei als 1. KR der Unterdrückung. Da die Probe auf @UUID[Compendium.tde5e.skills.Item.WI13315915718951]{Willenskraft} als Verteidigung eingesetzt wird, ist diese möglicherweise erschwert, und ihr Einsatz erschwert auch weitere Verteidigungen wie üblich (siehe <strong>Regelwerk</strong> Seite <strong>232</strong>).</p>"
    },
    "effects": [],
    "folder": "ZA17820398219817",
    "_key": "!items!SE36178761322327"
}
