{
    "_id": "SE95248120232292",
    "name": "Sensibar",
    "type": "spell",
    "img": "systems/tde5e/assets/defaultItems/spell.svg",
    "system": {
        "castingTime": "4 Akt",
        "castingTimeLong": "4 Aktionen",
        "check": {
            "resistedBySpirit": true,
            "resistedByToughness": false,
            "resistanceIsHalfed": false,
            "attributes": [
                "courage",
                "intuition",
                "charisma"
            ]
        },
        "checkedSkill": null,
        "cid": "SENSIBAR",
        "cost": {
            "text": "8 + 4 / M",
            "textLong": "8 AsP (Aktivierung) + 4 AsP pro Minute",
            "constant": 8,
            "recurring": {
                "interval": 4,
                "unit": "Minute"
            }
        },
        "duration": "aufrechterhaltend",
        "durationLong": "aufrechterhaltend",
        "enhancements": [
            {
                "name": "Austausch",
                "effect": "Der Zauberer kann seine eigenen Gefühle mit dem Ziel teilen.",
                "skillPoints": 8,
                "owned": false
            },
            {
                "name": "Unbemerkt",
                "effect": "Die Sinnesschärfe-Probe, um das Eindringen mittels Magie zu bemerken, ist für das Opfer um QS x 2 erschwert.",
                "skillPoints": 11,
                "owned": false
            },
            {
                "name": "Starke Gefühle",
                "effect": "Der Zauberer verstärkt die Gefühle des Ziels. Die Probe zum Unterdrücken dieser ist zusätzlich um QS erschwert. Misslingt sie, werden selbst geringe emotionale Regungen für alle umstehenden offensichtlich.",
                "skillPoints": 14,
                "owned": false
            }
        ],
        "group": "incantation",
        "modifications": {
            "canModCastingTime": true,
            "canModCost": true,
            "canModRange": true
        },
        "property": "clairvoyance",
        "range": "4 m",
        "rangeLong": "4 Schritt",
        "requirementText": "keine",
        "sources": [
            "BOSPARANS_KATAKOMBEN",
            "LIBER_EXTENSIONUM"
        ],
        "subTraditions": "",
        "targetCategory": "Kulturschaffende",
        "traditions": {
            "all": true,
            "values": []
        },
        "improvement": {
            "column": "B",
            "value": 0
        },
        "notes": "",
        "gmNotes": "",
        "flavor": "",
        "rule": "Der Zaubernde kann die Gefühle des Verzauberten ergründen. Der Zauber offenbart nur die Gefühle selbst, nicht jedoch deren Grund oder Ursprung. Für den Zaubernden sind Proben auf @UUID[Compendium.tde5e.skills.Item.ME10520624750192]{Menschenkenntnis (Lügen durchschauen, Motivation erkennen)} gegen das Ziel des <em>Sensibar</em> um die erreichte QS erleichtert. Der Verzauberte kann bemerken, dass etwas Fremdes in seinen Geist blickt. Hierzu muss ihm eine Probe auf @UUID[Compendium.tde5e.skills.Item.SI80193235230167]{Sinnesschärfe} erschwert um die QS des Zaubers gelingen. Er kann aber auch dann nicht zweifelsfrei sagen, wer dafür verantwortlich ist. Mit einer Probe auf @UUID[Compendium.tde5e.skills.Item.WI13315915718951]{Willenskraft}, ebenfalls erschwert um die QS des Zaubers, kann er seine Gefühle gezielt unterdrücken. Ist der Verzauberte emotional stark aufgewühlt, ist dies jedoch nach Meisterentscheid um bis zu 3 Punkte zusätzlich erschwert.",
        "parents": []
    },
    "effects": [],
    "folder": "SP15718021520213",
    "_key": "!items!SE95248120232292"
}
