{
    "_id": "SE18121925110411",
    "name": "Serpentialis",
    "type": "spell",
    "img": "systems/tde5e/assets/defaultItems/spell.svg",
    "system": {
        "castingTime": "2 Akt",
        "castingTimeLong": "2 Aktion",
        "check": {
            "resistedBySpirit": false,
            "resistedByToughness": false,
            "resistanceIsHalfed": false,
            "attributes": [
                "courage",
                "charisma",
                "agility"
            ]
        },
        "checkedSkill": null,
        "cid": "SERPENTIALIS",
        "cost": {
            "text": "8 + 4 / 5 KR",
            "textLong": "8 AsP (Aktivierung) + 4 AsP pro 5 KR",
            "constant": 8,
            "recurring": {
                "interval": 4,
                "unit": "5 Kampfrunden"
            }
        },
        "duration": "aufrechterhaltend",
        "durationLong": "aufrechterhaltend",
        "enhancements": [
            {
                "name": "Panzerstecher",
                "effect": "Der Gegner wird immer vergiftet, wenn der Angriff nicht mit einer Verteidigung abgewehrt oder ausgewichen wird. Dafür gilt immer die schwächere Wirkung des Giftes.",
                "skillPoints": 8,
                "owned": false
            },
            {
                "name": "Lange Schlangen",
                "effect": "Der Qualität von Angriffen mit Schlangenarme ist nicht verringert",
                "skillPoints": 11,
                "owned": false
            },
            {
                "name": "Sechs Schlangen",
                "effect": "Jeder Arm besteht aus 3 Schlangen, wodurch alle Verteidigungen einen Aktionspunkt mehr benötigen. Angriffe eines Arms gelten aber auch mit drei Schlangen weiterhin als einzelner Angriff.",
                "skillPoints": 14,
                "owned": false
            }
        ],
        "group": "incantation",
        "modifications": {
            "canModCastingTime": true,
            "canModCost": true,
            "canModRange": true
        },
        "property": "transformation",
        "range": "selbst",
        "rangeLong": "selbst",
        "requirementText": "keine",
        "sources": [
            "BOSPARANS_KATAKOMBEN",
            "LIBER_EXTENSIONUM"
        ],
        "subTraditions": "",
        "targetCategory": "Kulturschaffende",
        "traditions": {
            "all": false,
            "values": [
                "Compendium.tde5e.magic.Item.TR60602241216130",
                "Compendium.tde5e.magic.Item.TR98672441157616"
            ]
        },
        "improvement": {
            "column": "B",
            "value": 0
        },
        "notes": "",
        "gmNotes": "",
        "flavor": "",
        "rule": "Die Arme der Hexe verwandeln sich in Giftschlangen gleicher Länge, mit denen sie ihre Gegner attackieren kann. Dabei verwendet sie ihre Werte in der Kampftechnik @UUID[Compendium.tde5e.skills.Item.SC43947299610730]{Schlagwaffen (Raufen)}, jedoch sind ihre Angriffe mit einer Giftwirkung versehen. Die normalen Werte der Schlangenarme (TP, Adr, etc.) sind genauso hoch wie der eines waffenlosen Raufen-Angriffs der Hexe, allerdings ist die Qualität von Angriffen um  1 verringert. Während der Wirkungsdauer ist es der Hexe nicht möglich, Waffen zu führen oder andere Aktionen zu vollziehen, die Hände erfordern.<div class=\"stat-block\"><h1>Hexenschlangengift</h1><div><b>Stufe</b> 3</div><div><b>Art</b> Waffengift, tierisch</div><div><b>Widerstand</b> Zähigkeit</div><div><b>Wirkung</b> 1W3 SP / 1 SP</div><div><b>Beginn</b> sofort</div><div><b>Dauer</b> sofort</div>Das Gift wirkt auch mehrmalig.</span></div>",
        "parents": []
    },
    "effects": [],
    "folder": "SP15718021520213",
    "_key": "!items!SE18121925110411"
}
