{
    "_id": "SI46501917223118",
    "name": "Sicht auf Heshinjas Werk",
    "type": "artifactAbility",
    "img": "systems/tde5e/assets/defaultItems/artifact_ability.svg",
    "system": {
        "aspects": [],
        "binding": {
            "cost": "",
            "volume": "5 Punkte"
        },
        "brewType": null,
        "cid": "SICHT_AUF_HESHINJAS_WERK",
        "cost": {
            "text": "16 AsP",
            "constant": 16,
            "recurring": null
        },
        "group": "chronic",
        "property": "clairvoyance",
        "purchase": {
            "cost": [
                20
            ],
            "description": "20 Abenteuerpunkte",
            "levels": 1,
            "maxTimeBuyable": 1
        },
        "requirementText": "keine",
        "sources": [
            "BOSPARANS_KATAKOMBEN",
            "LIBER_EXTENSIONUM"
        ],
        "tradition": "Compendium.tde5e.magic.Item.TR23524614818820",
        "variant": {
            "categories": [],
            "input": false,
            "level": 1,
            "selected": null,
            "available": null
        },
        "flavor": "",
        "notes": "",
        "gmNotes": "",
        "parents": [
            "Compendium.tde5e.magic.Item.BI88464624112913"
        ],
        "rule": "<p>Die Zibilja kann eine Magische Analyse durchführen, so als ob sie den Zauber @UUID[Compendium.tde5e.magic.Item.AN18910822311601]{Analys} mit einer QS von 2 durchgeführt hätte.</p>"
    },
    "effects": [],
    "folder": "SI15718923514013",
    "_key": "!items!SI46501917223118"
}
