{
    "_id": "SI13811637312008",
    "name": "Sicherer Tritt",
    "type": "magicalAbility",
    "img": "systems/tde5e/assets/defaultItems/special_ability_magical.svg",
    "system": {
        "cid": "SICHERER_TRITT_SF",
        "cost": {
            "text": "",
            "constant": 0,
            "recurring": null
        },
        "group": "pactGift",
        "property": "",
        "purchase": {
            "cost": [
                8
            ],
            "description": "8 Abenteuerpunkte",
            "levels": 1,
            "maxTimeBuyable": 1
        },
        "requirementText": "Dämonenpakt Stufe 1 (Nagrach)",
        "sources": [
            "AVENTURISCHE_MAGIE_3"
        ],
        "styleAbilities": [],
        "variant": {
            "categories": [],
            "input": false,
            "available": [],
            "level": 1,
            "selected": null
        },
        "flavor": "",
        "notes": "",
        "gmNotes": "",
        "rule": "Unter dem Einfluss dieser Fähigkeit kann der Paktierer für KdV Stunden über Eis und Schnee laufen, ganz so, als ob sie über Erde gehen würde. Bei einem Schneesturm kann der Meister entscheiden, dass die GS des Paktierers sinkt. Der Einsatz dieser Fähigkeit verursacht 1 Stufe @UUID[Compendium.tde5e.conditions.Item.DA21528191859282]{Dämonische Auszehrung}.",
        "parents": []
    },
    "effects": [],
    "folder": "DA30309060912592",
    "_key": "!items!SI13811637312008"
}
