{
    "_id": "SI17422215518514",
    "name": "Sippenhüterinnen",
    "type": "magicalAbility",
    "img": "systems/tde5e/assets/defaultItems/tradition_imprint.svg",
    "system": {
        "cid": "SIPPENHUTERINNEN",
        "group": "spellStyle",
        "requirementText": "Die Heldin wurde von einer Zibilja ausgebildet.",
        "sources": [
            "AVENTURISCHE_MAGIE_3"
        ],
        "notes": "",
        "gmNotes": "",
        "flavor": "",
        "parents": [
            "Compendium.tde5e.magic.Item.TR23524614818820"
        ],
        "rule": "<ul><li><strong>Hüter der Chronik:</strong> Die Wirkungsdauer von Chronikzaubern erhöht sich um 50 %.</li><li><strong>Kraftsog:</strong> Zibiljarituale kosten zusätzlich 1 AsP.</li></ul>",
        "cost": {
            "text": "",
            "constant": 0,
            "recurring": null
        }
    },
    "effects": [],
    "folder": "PR19518380103617",
    "_key": "!items!SI17422215518514",
    "property": "",
    "purchase": {
        "cost": [
            10
        ],
        "description": "10 Abenteuerpunkte",
        "levels": 1,
        "maxTimeBuyable": 1
    },
    "styleAbilities": [],
    "variant": {
        "categories": [],
        "input": false,
        "available": [],
        "level": 1,
        "selected": null
    }
}
