{
    "_id": "SK21989155485107",
    "name": "Skelettarius",
    "type": "spell",
    "img": "systems/tde5e/assets/defaultItems/spell.svg",
    "system": {
        "castingTime": "2 Akt",
        "castingTimeLong": "2 Aktion",
        "check": {
            "resistedBySpirit": false,
            "resistedByToughness": false,
            "resistanceIsHalfed": false,
            "attributes": [
                "courage",
                "sagacity",
                "charisma"
            ]
        },
        "checkedSkill": null,
        "cid": "SKELETTARIUS",
        "cost": {
            "text": "8 AsP",
            "textLong": "8 AsP",
            "constant": 8,
            "recurring": null
        },
        "duration": "QS KR",
        "durationLong": "QS Kampfrunden",
        "enhancements": [
            {
                "name": "Kleinvieh",
                "effect": "Der Zauberer kann statt einem mittleren auch zwei kleine oder vier winzige Wesen erwecken. Die Werte entsprechen etwa dem eines lebenden Wesens (siehe <b>Aventurisches Bestiarium</b>) mit den Merkmalen von Untoten.",
                "skillPoints": 8,
                "owned": false
            },
            {
                "name": "Längerer Dienst",
                "effect": "Das Wesen ist nicht in der Lage zu kämpfen, lebt aber für QS x 10 Minuten.",
                "skillPoints": 11,
                "owned": false
            },
            {
                "name": "Rekonstruktion",
                "effect": "Das Wesen setzt sich nach seinem Tod neu zusammen. Zwei Kampfrunden nachdem die LeP auf oder unter 0 sinken entsteht ein neues Skelett mit einer geringeren Größenkategorie und halben LeP. Winzige Wesen können nicht wiederauferstehen.",
                "skillPoints": 14,
                "owned": false
            }
        ],
        "group": "incantation",
        "modifications": {
            "canModCastingTime": true,
            "canModCost": true,
            "canModRange": true
        },
        "property": "demonic",
        "range": "8 m",
        "rangeLong": "8 Schritt",
        "requirementText": "keine",
        "sources": [
            "BOSPARANS_KATAKOMBEN",
            "LIBER_EXTENSIONUM"
        ],
        "subTraditions": "",
        "targetCategory": "Kulturschaffende (Verstorbene)",
        "traditions": {
            "all": false,
            "values": [
                "Compendium.tde5e.magic.Item.TR20562116246223"
            ]
        },
        "improvement": {
            "column": "B",
            "value": 0
        },
        "notes": "",
        "gmNotes": "",
        "flavor": "",
        "rule": "Der Zauberer erhebt die körperlichen Überreste eines verstorbenen Wesens kurzfristig zum Untoten. Er kann mit dem Zauberspruch einfache Mumien, Skelette und Zombies erwecken, jeweils maximal bis zur Größenkategorie mittel. Die Erschaffung funktioniert nach den gleichen Regeln wie die Beschwörung. Das untote Wesen verrichtet 1 + QS Dienste und kann wie Dämonen und Elementare verbessert werden (<a href=\"https://dsa.ulisses-regelwiki.de/Fokus_Wesensfaehigkeiten.html\" target=\"blank\" rel=\"noopener noreferrer\">Siehe Wesensfähigkeiten</a>). Es ist zu den gleichen Diensten wie Dämonen und Untote in der Lage (<a href=\"https://dsa.ulisses-regelwiki.de/Invokation.html\" target=\"blank\" rel=\"noopener noreferrer\">Siehe Invokation</a>).",
        "parents": []
    },
    "effects": [],
    "folder": "SP15718021520213",
    "_key": "!items!SK21989155485107"
}
