{
    "_id": "SO34168253523610",
    "name": "Somnigravis",
    "type": "spell",
    "img": "systems/tde5e/assets/defaultItems/spell.svg",
    "system": {
        "castingTime": "4 Akt",
        "castingTimeLong": "4 Aktionen",
        "check": {
            "resistedBySpirit": true,
            "resistedByToughness": false,
            "resistanceIsHalfed": false,
            "attributes": [
                "courage",
                "intuition",
                "charisma"
            ]
        },
        "checkedSkill": null,
        "cid": "SOMNIGRAVIS",
        "cost": {
            "text": "8 AsP",
            "textLong": "8 AsP",
            "constant": 8,
            "recurring": null
        },
        "duration": "QS x 3 M",
        "durationLong": "QS x 3 Minuten",
        "enhancements": [
            {
                "name": "Verteilte Wirkung",
                "effect": "Die Zustandsstufen können auf mehrere Ziele verteilt werden, die vor dem Wirken des Zaubers benannt werden müssen. Das erste Ziel muss mindestens eine Stufe erhalten.",
                "skillPoints": 8,
                "owned": false
            },
            {
                "name": "Beeinträchtigung",
                "effect": "Die Konstitution des Ziels wird um 2 reduziert. Abgeleitete Werte werden davon nicht beeinflusst.",
                "skillPoints": 11,
                "owned": false
            },
            {
                "name": "Mehr Ziele",
                "effect": "Der Zauber kann ein zusätzliches Ziel gleichzeitig treffen, was 8 AsP extra kostet. Diese Erweiterung kann mehrfach angewendet werden.",
                "skillPoints": 14,
                "owned": false
            }
        ],
        "group": "incantation",
        "modifications": {
            "canModCastingTime": true,
            "canModCost": true,
            "canModRange": true
        },
        "property": "influence",
        "range": "8 m",
        "rangeLong": "8 Schritt",
        "requirementText": "keine",
        "sources": [
            "BOSPARANS_KATAKOMBEN",
            "LIBER_EXTENSIONUM"
        ],
        "subTraditions": "",
        "targetCategory": "Lebewesen",
        "traditions": {
            "all": false,
            "values": [
                "Compendium.tde5e.magic.Item.TR10415123625209",
                "Compendium.tde5e.magic.Item.TR37561943665255",
                "Compendium.tde5e.magic.Item.TR98672441157616",
                "Compendium.tde5e.magic.Item.TR52194209152352"
            ]
        },
        "improvement": {
            "column": "B",
            "value": 0
        },
        "notes": "",
        "gmNotes": "",
        "flavor": "",
        "rule": "Der Zauberspruch betäubt den Verzauberten. Erreicht er so @UUID[Compendium.tde5e.conditions.Item.BE91425088509929]{Betäubung} Stufe IV, schläft er ein und ist vor Ablauf der Wirkungsdauer nur durch großen Lärm, kräftiges Anstoßen oder Ähnliches zu wecken. Ungestört schläft er, bis er auf natürlichem Wege erwacht. <br/><b>QS 1:</b> 1 Stufe @UUID[Compendium.tde5e.conditions.Item.BE91425088509929]{Betäubung}, aber nur für 1 Minute <br/><b>QS 2:</b> 1 Stufe @UUID[Compendium.tde5e.conditions.Item.BE91425088509929]{Betäubung} <br/><b>QS 3:</b> 2 Stufen @UUID[Compendium.tde5e.conditions.Item.BE91425088509929]{Betäubung} <br/><b>QS 4:</b> 3 Stufen @UUID[Compendium.tde5e.conditions.Item.BE91425088509929]{Betäubung} <br/><b>QS 5:</b> 4 Stufen @UUID[Compendium.tde5e.conditions.Item.BE91425088509929]{Betäubung} <br/><b>QS 6:</b> 4 Stufen @UUID[Compendium.tde5e.conditions.Item.BE91425088509929]{Betäubung}, doppelte Wirkungsdauer.",
        "parents": []
    },
    "effects": [],
    "folder": "SP15718021520213",
    "_key": "!items!SO34168253523610"
}
