{
    "_id": "SP99701032211211",
    "name": "Spinnenruf",
    "type": "spell",
    "img": "systems/tde5e/assets/defaultItems/spell.svg",
    "system": {
        "castingTime": "4 Akt",
        "castingTimeLong": "4 Aktionen",
        "check": {
            "resistedBySpirit": false,
            "resistedByToughness": false,
            "resistanceIsHalfed": false,
            "attributes": [
                "courage",
                "charisma",
                "charisma"
            ]
        },
        "checkedSkill": null,
        "cid": "SPINNENRUF",
        "cost": {
            "text": "16 AsP",
            "textLong": "16 AsP",
            "constant": 16,
            "recurring": null
        },
        "duration": "Tod d. Tiere / 10 KR",
        "durationLong": "bis zum Tod der Tiere, maximal jedoch 10 KR",
        "enhancements": [
            {
                "name": "Angriffslustig",
                "effect": "Die Tiere erhalten +1 KTW und richten 1W3 TP an.",
                "skillPoints": 8,
                "owned": false
            },
            {
                "name": "Starkes Gift",
                "effect": "Die Giftstufe beträgt 5 statt 3.",
                "skillPoints": 11,
                "owned": false
            },
            {
                "name": "Spinnenpanik",
                "effect": "Pro vollen 10 Spinnen, die sich in Sichtweite befinden, erhalten alle Kulturschaffenden außer der Hexe eine Stufe des Nachteils @UUID[Compendium.tde5e.advantagesDisadvantages.Item.AN22963184228632]{Angst vor Spinnen}.",
                "skillPoints": 14,
                "owned": false
            }
        ],
        "group": "incantation",
        "modifications": {
            "canModCastingTime": true,
            "canModCost": true,
            "canModRange": true
        },
        "property": "demonic",
        "range": "8 m",
        "rangeLong": "8 Schritt",
        "requirementText": "keine",
        "sources": [
            "BOSPARANS_KATAKOMBEN",
            "LIBER_EXTENSIONUM"
        ],
        "subTraditions": "",
        "targetCategory": "Zone",
        "traditions": {
            "all": false,
            "values": [
                "Compendium.tde5e.magic.Item.TR60602241216130"
            ]
        },
        "improvement": {
            "column": "C",
            "value": 0
        },
        "notes": "",
        "gmNotes": "",
        "flavor": "",
        "rule": "Die Hexe ruft mit diesem Zauberspruch bis zu QS x 3 Spinnen herbei, die für sie kämpfen. Die Spinnen bilden maximal so viele Schwärme, wie es Gegner gibt. Die genaue Anzahl der Schwärme kann die Hexe bestimmen. Die Hexe muss einen Punkt am Boden innerhalb der Reichweite bestimmen, an dem die Tiere dann in einem Radius von QS/2 Schritt erscheinen. Die Hexe kann gezielt Gegner benennen, welche die Spinnenschwärme dann angreifen. Stirbt ein Gegner, verschwindet der gerufene Spinnenschwarm wieder im Nichts. Nach ihrem Erscheinen können die Spinnenschwärme sich beliebig weit vom Ort ihrer Herbeirufung wegbewegen. Die Spinnen sind magische Wesen, die aus Magie erschaffen wurden. Am Ender der Wirkungsdauer verschwinden die Spinnenschwärme wieder.<p><div class=\"stat-block\"><h1>Hexenspinnen</h1><span class=\"stats\"><span><b>MU</b> 16</span><span><b>KL</b> 8(t)</span><span><b>IN</b> 15</span><span><b>CH</b> 11</span><span><b>FF</b> 16</span><span><b>GE</b> 16</span><span><b>KO</b> 5</span><span><b>KK</b> 8 (k)</span></span><span class=\"stats\"><span><b>LE</b> -9</span><span><b>SK</b> -5</span><span><b>ZK</b> -7</span><span><b>GS</b> 4</span><span><b>KTW</b> 8 (Schlagwaffen)</span><span><b>RS</b> 0/0/0</span><span><b>BE</b> 0</span><span><b>Adr</b> 1</span><span><b>TP</b> 1W2-1+(Gift)</span></span><div><b>Talente</b> @UUID[Compendium.tde5e.skills.Item.EI23914229134172]{Einschüchtern} 6, @UUID[Compendium.tde5e.skills.Item.KL21110615875233]{Klettern} 18, @UUID[Compendium.tde5e.skills.Item.AT01742720744548]{Athlethik} 5, @UUID[Compendium.tde5e.skills.Item.AK92342342043211]{Akrobatik} 9, @UUID[Compendium.tde5e.skills.Item.KR28631591116621]{Kraftakt} 2,  @UUID[Compendium.tde5e.skills.Item.SE24510070128212]{Selbstbeherrschung} 14, @UUID[Compendium.tde5e.skills.Item.SI80193235230167]{Sinnesschärfe} 14, @UUID[Compendium.tde5e.skills.Item.VE22425218425144]{Verbergen} 16, @UUID[Compendium.tde5e.skills.Item.WI13315915718951]{Willenskraft} 10</div><div><b>Größenkategorie</b> winzig</div><div><b>Typus</b> Tier, nicht humanoid</div><div><b>Flucht</b> fliehen nicht.</div><div><b>Sonderregel Schwarm</b> Hexenspinnen sind kleine Schwarmwesen mit Grundgrüße 3 (<a href=\"https://dsa.ulisses-regelwiki.de/RE_SchwarmRegeln.html\" target=\"blank\" rel=\"noopener noreferrer\">Siehe Schwarmregeln</a>)</div>Das Gift kann nicht extrahiert werden; Als magische Wesen sind die Tiere immun gegen den Zustand @UUID[Compendium.tde5e.conditions.Item.SC72173204142222]{Schmerz}.</span></div><div class=\"stat-block\"><h1>Hexenspinnengift</h1><div><b>Stufe</b> 3</div><div><b>Art</b> Waffengift, tierisch</div><div><b>Widerstand</b> Zähigkeit</div><div><b>Wirkung</b> 1W6 SP / 1W3 SP (bei 4 oder mehr 1 Stufe @UUID[Compendium.tde5e.conditions.Item.VE73175641105112]{Verwirrung}</div><div><b>Beginn</b> sofort</div><div><b>Dauer</b> sofort</div>Das Gift der Hexenspinne ist für einen gesunden Menschen nicht sehr gefährlich, allerdings kann die Spinne mehrfach zubeißen. Der Schaden ist dabei kumulativ..</span></div></p>",
        "parents": []
    },
    "effects": [],
    "folder": "SP15718021520213",
    "_key": "!items!SP99701032211211"
}
