{
    "_id": "ST30157187670201",
    "name": "Stabbohrer",
    "type": "artifactAbility",
    "img": "systems/tde5e/assets/defaultItems/artifact_ability.svg",
    "system": {
        "aspects": [],
        "binding": {
            "cost": "",
            "volume": "2 Punkte"
        },
        "brewType": null,
        "cid": "STABBOHRER",
        "cost": {
            "text": "keine",
            "constant": 0,
            "recurring": null
        },
        "group": "guildmageStaff",
        "property": "telekinesis",
        "purchase": {
            "cost": [
                8
            ],
            "description": "8 Abenteuerpunkte",
            "levels": 1,
            "maxTimeBuyable": 1
        },
        "requirementText": "Stab-Apport",
        "sources": [
            "BOSPARANS_KATAKOMBEN",
            "LIBER_EXTENSIONUM"
        ],
        "tradition": "Compendium.tde5e.magic.Item.TR20562116246223",
        "variant": {
            "categories": [],
            "input": false,
            "level": 1,
            "selected": null,
            "available": null
        },
        "flavor": "",
        "notes": "",
        "gmNotes": "",
        "parents": [
            "Compendium.tde5e.magic.Item.ST20219112013720"
        ],
        "rule": "<p>Der Stab bohrt sich durch jedes beliebige Material, das nicht härter als Diamant ist. Der Stab dreht sich und bohrt pro KR 2 Halbfinger tief. Er kann sich vertikal oder horizontal durch das Material bohren, allerdings nur durch leblose Objekte.</p>"
    },
    "effects": [],
    "folder": "GI21114247636140",
    "_key": "!items!ST30157187670201"
}
