{
    "_id": "ST11212911751178",
    "name": "Standfest",
    "type": "spell",
    "img": "systems/tde5e/assets/defaultItems/spell.svg",
    "system": {
        "castingTime": "1 Akt",
        "castingTimeLong": "1 Aktion",
        "check": {
            "resistedBySpirit": false,
            "resistedByToughness": false,
            "resistanceIsHalfed": false,
            "attributes": [
                "courage",
                "intuition",
                "agility"
            ]
        },
        "checkedSkill": null,
        "cid": "STANDFEST",
        "cost": {
            "text": "4 AsP",
            "textLong": "4 AsP",
            "constant": 4,
            "recurring": null
        },
        "duration": "QS KR",
        "durationLong": "QS Kampfrunden",
        "enhancements": [
            {
                "name": "Reichweite Berührung",
                "effect": "Als Reichweite gilt Berührung. Der Zauberspruch kann nur auf Kulturschaffende übertragen werden.",
                "skillPoints": 8,
                "owned": false
            },
            {
                "name": "Absolut standfest",
                "effect": "Das Ziel des Zaubers kann nicht den Status @UUID[Compendium.tde5e.states.Item.LI27509315183188]{Liegend} erleiden (es sei denn, es legt sich freiwillig hin).",
                "skillPoints": 11,
                "owned": false
            },
            {
                "name": "Vom Schicksal begünstigt",
                "effect": "Die Vermeidung von Patzern wirkt nicht im Kampf, dafür aber bei allen anderen Talent- und Zauberproben. Die Wirkungsdauer beträgt QS Stunden.",
                "skillPoints": 14,
                "owned": false
            }
        ],
        "group": "incantation",
        "modifications": {
            "canModCastingTime": true,
            "canModCost": true,
            "canModRange": true
        },
        "property": "healing",
        "range": "selbst",
        "rangeLong": "selbst",
        "requirementText": "keine",
        "sources": [
            "BOSPARANS_KATAKOMBEN",
            "LIBER_EXTENSIONUM"
        ],
        "subTraditions": "",
        "targetCategory": "Kulturschaffende",
        "traditions": {
            "all": false,
            "values": [
                "Compendium.tde5e.magic.Item.TR37561943665255"
            ]
        },
        "improvement": {
            "column": "A",
            "value": 0
        },
        "notes": "",
        "gmNotes": "",
        "flavor": "",
        "rule": "Bei Kampftechniken gilt jede gewürfelte 20 des Ziels als 19. Ihm unterlaufen keine Patzer, auch dann nicht, wenn Effekte gleicher Art wirken. Patzt es auf 19 oder weniger, kann dies lediglich zum automatischen Misslingen der Probe führen, nicht aber zu Patzereffekten. Das Ziel erhält eine Erleichterung von 1 bei Proben auf @UUID[Compendium.tde5e.skills.Item.AK92342342043211]{Akrobatik (Kampfmanöver)}.",
        "parents": []
    },
    "effects": [],
    "folder": "SP15718021520213",
    "_key": "!items!ST11212911751178"
}
