{
    "_id": "ST10089313212725",
    "name": "Steckenverzauberung",
    "type": "artifactAbility",
    "img": "systems/tde5e/assets/defaultItems/artifact_ability.svg",
    "system": {
        "aspects": [],
        "binding": {
            "cost": "",
            "volume": ""
        },
        "brewType": null,
        "cid": "STECKENVERZAUBERUNG",
        "cost": {
            "text": "",
            "constant": 0,
            "recurring": null
        },
        "group": "charlatanWand",
        "property": null,
        "purchase": {
            "cost": [
                5
            ],
            "description": "5 Abenteuerpunkte",
            "levels": 1,
            "maxTimeBuyable": 1
        },
        "requirementText": "Tradition Scharlatane",
        "sources": [
            "BOSPARANS_KATAKOMBEN",
            "LIBER_EXTENSIONUM"
        ],
        "tradition": "Compendium.tde5e.magic.Item.TR18517324589268",
        "variant": {
            "categories": [],
            "input": false,
            "level": 1,
            "selected": null,
            "available": null
        },
        "flavor": "",
        "notes": "",
        "gmNotes": "",
        "parents": [
            "Compendium.tde5e.magic.Item.TR18517324589268"
        ],
        "rule": "<p>Durch diese Sonderfertigkeit kann die Scharlatanin einen Zauberstecken verzaubern und einen einzigen Steckenzauber auf ihn legen. Das Ritual selbst dauert 5 Minuten und muss immer angewandt werden, wenn ein Steckenzauber auf den Stecken gelegt wird. Der Steckenzauber funktioniert regeltechnisch wie das gildenmagische Gegenstück, und die Scharlatanin muss den entsprechenden Steckenzauber durch den Einsatz von AP aktivieren. Es kann nur ein einziger Steckenzauber gleichzeitig auf dem Stecken liegen. Die Wirkung verflüchtigt sich spätestens nach 24 Stunden. Danach muss das Ritual wiederholt werden, um einen neuen (oder den gleichen) Steckenzauber auf den Stecken zu sprechen.</p>"
    },
    "effects": [],
    "folder": "SC38771222321682",
    "_key": "!items!ST10089313212725"
}
