{
    "_id": "ST74641241034515",
    "name": "Sturmwand",
    "type": "spell",
    "img": "systems/tde5e/assets/defaultItems/spell.svg",
    "system": {
        "castingTime": "4 Akt",
        "castingTimeLong": "4 Aktionen",
        "check": {
            "resistedBySpirit": false,
            "resistedByToughness": false,
            "resistanceIsHalfed": false,
            "attributes": [
                "courage",
                "sagacity",
                "charisma"
            ]
        },
        "cid": "STURMWAND",
        "cost": {
            "text": "16 AsP",
            "textLong": "16 AsP",
            "constant": 16,
            "recurring": null
        },
        "duration": "15 KR",
        "durationLong": "15 KR",
        "enhancements": [
            {
                "name": "Größere Wand",
                "effect": "Die Wand ist 1 Schritt höher und länger. Diese Erweiterung kann mehrfach angewendet werden.",
                "skillPoints": 8,
                "owned": false
            },
            {
                "name": "Kuppel",
                "effect": "Die Wand ist gewölbt und bildet eine Kuppel mit dem Zauberer als Mittelpunkt. Der Radius beträgt QS Schritt.",
                "skillPoints": 11,
                "owned": false
            },
            {
                "name": "Rampe",
                "effect": "Die Wand kann beliebig orientiert werden, um auch vertikal oder schräg stehen zu können.",
                "skillPoints": 14,
                "owned": false
            }
        ],
        "group": "incantation",
        "modifications": {
            "canModCastingTime": true,
            "canModCost": true,
            "canModRange": true
        },
        "property": "elemental",
        "range": "8 m",
        "rangeLong": "8 Schritt",
        "requirementText": "keine",
        "sources": [
            "BOSPARANS_KATAKOMBEN"
        ],
        "targetCategory": "Zone",
        "traditions": {
            "all": false,
            "values": [
                "Compendium.tde5e.magic.Item.TR10415123625209",
                "Compendium.tde5e.magic.Item.TR93186147562399",
                "Compendium.tde5e.magic.Item.TR20562116246223"
            ]
        },
        "improvement": {
            "column": "B",
            "value": 0
        },
        "notes": "",
        "gmNotes": "",
        "flavor": "",
        "checkedSkill": null,
        "rule": "Der Spruch erschafft eine Sturm Wand. Der Zauberer muss einen Mittelpunkt auf festem Grund und innerhalb der Reichweite benennen, von dem aus sich die Wand geradlinig mit einer Länge von QS x 2 Schritt ausbreitet. Den exakten Verlauf durch den Mittelpunkt kann der Zauberer festlegen. Die Höhe der Barriere beträgt 3 Schritt, die Tiefe 1 Schritt. Man kann sie nur aufgerichtet platzieren, nicht flach hinlegen oder schräg stellen. Enge Räumlichkeiten können die Ausbreitung der Wand einschränken. Eine Zerstörung der Wand ist nicht möglich, da sich entstehende Lücken auf der Stelle schließen. Die Durchquerung der Wand erfordert eine gelungene Probe auf @UUID[Compendium.tde5e.skills.Item.KR28631591116621]{Kraftakt (Drücken &amp; Verbiegen)}, die um die QS erschwert ist. Dabei wird der Durchquerende von schneidenden Winden geschnitten, sodass jeder gelungene wie misslungene Versuch 1W6 TP verursacht und Ziele zudem bei 1-3 auf 1W6 den Status @UUID[Compendium.tde5e.conditions.Item.BR21523817083921]{brand} erhalten. Der Mittelpunkt kann auf einem Schiff oder einem ähnlich großen Objekt platziert werden, sodass sich die Wand einerseits damit fortbewegt, andererseits aber auch das Objekt dem Feuer ausgesetzt wird.",
        "parents": []
    },
    "effects": [],
    "folder": "SP15718021520213",
    "_key": "!items!ST74641241034515"
}
