{
    "_id": "SU22120822612913",
    "name": "Sumpfstrudel",
    "type": "spell",
    "img": "systems/tde5e/assets/defaultItems/spell.svg",
    "system": {
        "castingTime": "4 Akt",
        "castingTimeLong": "4 Aktionen",
        "check": {
            "resistedBySpirit": false,
            "resistedByToughness": false,
            "resistanceIsHalfed": false,
            "attributes": [
                "sagacity",
                "intuition",
                "intuition"
            ]
        },
        "cid": "SUMPFSTRUDEL",
        "cost": {
            "text": "8 AsP",
            "textLong": "8 AsP",
            "constant": 8,
            "recurring": null
        },
        "duration": "15 KR",
        "durationLong": "15 KR",
        "enhancements": [
            {
                "name": "Größerer Radius",
                "effect": "Der Radius ist um 1 Schritt größer. Diese Erweiterung kann mehrfach angewendet werden.",
                "skillPoints": 8,
                "owned": false
            },
            {
                "name": "Starker Sog",
                "effect": "Der Zielwert zum Befreien ist um 1 erhöht. Diese Erweiterung kann bis zu 3 mal angewendet werden.",
                "skillPoints": 11,
                "owned": false
            },
            {
                "name": "Tiefer Strudel",
                "effect": "Lebewesen werden nun auch unter die Oberfläche gezogen. Nach 1 KR erleiden Opfer 2 SP pro KR.",
                "skillPoints": 14,
                "owned": false
            }
        ],
        "group": "incantation",
        "modifications": {
            "canModCastingTime": true,
            "canModCost": true,
            "canModRange": true
        },
        "property": "elemental",
        "range": "8 m",
        "rangeLong": "8 Schritt",
        "requirementText": "keine",
        "sources": [
            "BOSPARANS_KATAKOMBEN"
        ],
        "targetCategory": "Zone",
        "traditions": {
            "all": false,
            "values": [
                "Compendium.tde5e.magic.Item.TR10415123625209",
                "Compendium.tde5e.magic.Item.TR37561943665255",
                "Compendium.tde5e.magic.Item.TR93186147562399",
                "Compendium.tde5e.magic.Item.TR20562116246223",
                "Compendium.tde5e.magic.Item.TR60602241216130"
            ]
        },
        "improvement": {
            "column": "B",
            "value": 0
        },
        "notes": "",
        "gmNotes": "",
        "flavor": "",
        "checkedSkill": null,
        "rule": "In einer Zone mit einem Radius von 2 Schritt wird der Erdboden zu einem Sumpfstrudel, der alle Lebewesen und andere Wesen mit physischem Körper bis zur Brust einsinken lässt. Das Opfer erhält den Status @UUID[Compendium.tde5e.states.Item.FI49243782439243]{Fixiert} und gilt als @UUID[Compendium.tde5e.states.Item.EI91154101161062]{Eingeengt}, bis es sich erfolgreich befreit. @UUID[Compendium.tde5e.combat.Item.BE76222611285218]{Befreien} geht gegen 13 + QS des Zaubers.",
        "parents": []
    },
    "effects": [],
    "folder": "SP15718021520213",
    "_key": "!items!SU22120822612913"
}
