{
    "_id": "SU43192242972381",
    "name": "Sumus Elixiere",
    "type": "spell",
    "img": "systems/tde5e/assets/defaultItems/spell.svg",
    "system": {
        "castingTime": "4 Akt",
        "castingTimeLong": "4 Aktionen",
        "check": {
            "resistedBySpirit": false,
            "resistedByToughness": false,
            "resistanceIsHalfed": false,
            "attributes": [
                "sagacity",
                "intuition",
                "intuition"
            ]
        },
        "checkedSkill": null,
        "cid": "SUMUS_ELIXIERE",
        "cost": {
            "text": "8 AsP",
            "textLong": "8 AsP",
            "constant": 8,
            "recurring": null
        },
        "duration": "QS J",
        "durationLong": "QS Jahre",
        "enhancements": [
            {
                "name": "Revitalisieren",
                "effect": "Zutaten, die bereits seit maximal einem Monat abgelaufen sind, können normal verwendet werden.",
                "skillPoints": 8,
                "owned": false
            },
            {
                "name": "Bessere Zubereitung",
                "effect": "Die Qualitätsstufe einer erfolgreichen Herstellung steigt um 1. Ein Elixier kann dadurch nicht mehr als QS 6 erreichen.",
                "skillPoints": 11,
                "owned": false
            },
            {
                "name": "Perfekte Dosierung",
                "effect": "Die Zutaten einer Herstellung reichen stattdessen für zwei Nutzungen.",
                "skillPoints": 14,
                "owned": false
            }
        ],
        "group": "incantation",
        "modifications": {
            "canModCastingTime": true,
            "canModCost": true,
            "canModRange": true
        },
        "property": "object",
        "range": "Berührung",
        "rangeLong": "Berührung",
        "requirementText": "keine",
        "sources": [
            "BOSPARANS_KATAKOMBEN",
            "LIBER_EXTENSIONUM"
        ],
        "subTraditions": "",
        "targetCategory": "Objekte (Zutaten für Alchimica )",
        "traditions": {
            "all": false,
            "values": [
                "Compendium.tde5e.magic.Item.TR10415123625209"
            ]
        },
        "improvement": {
            "column": "A",
            "value": 0
        },
        "notes": "",
        "gmNotes": "",
        "flavor": "",
        "rule": "Durch diesen Zauberspruch kann der Druide Astralkraft in Zutaten für Alchimica einfließen lassen. Er erhöht die Haltbarkeit von Zutaten und Alchimica um die Wirkungsdauer des Zauberspruchs und erhält eine Erleichterung von 1 bei der Probe auf @UUID[Compendium.tde5e.skills.Item.AL25553758184166]{Alchimie}, um das Elixier herzustellen.",
        "parents": []
    },
    "effects": [],
    "folder": "SP15718021520213",
    "_key": "!items!SU43192242972381"
}
