{
    "_id": "TA16124575221132",
    "name": "Talentverbesserung",
    "type": "spell",
    "img": "systems/tde5e/assets/defaultItems/spell.svg",
    "system": {
        "castingTime": "1 Akt",
        "castingTimeLong": "1 Aktion",
        "check": {
            "resistedBySpirit": false,
            "resistedByToughness": false,
            "resistanceIsHalfed": false,
            "attributes": [
                "intuition",
                "charisma",
                "constitution"
            ]
        },
        "checkedSkill": null,
        "cid": "TALENTVERBESSERUNG",
        "cost": {
            "text": "2 + 1 / M",
            "textLong": "2 AsP (Aktivierung) + 1 AsP pro Minute",
            "constant": 2,
            "recurring": {
                "interval": 1,
                "unit": "Minute"
            }
        },
        "duration": "aufrechterhaltend",
        "durationLong": "aufrechterhaltend",
        "enhancements": [],
        "group": "animistForce",
        "modifications": {
            "canModCastingTime": false,
            "canModCost": false,
            "canModRange": false
        },
        "property": "healing",
        "range": "selbst",
        "rangeLong": "selbst",
        "requirementText": "keine",
        "sources": [
            "BOSPARANS_KATAKOMBEN",
            "LIBER_EXTENSIONUM"
        ],
        "subTraditions": "Alle",
        "targetCategory": "Kulturschaffende",
        "traditions": {
            "all": false,
            "values": [
                "Compendium.tde5e.magic.Item.TR22473791851201"
            ]
        },
        "improvement": {
            "column": "B",
            "value": 0
        },
        "notes": "",
        "gmNotes": "",
        "flavor": "",
        "rule": "Mit dieser Animistenkraft erhält der Zauberer eine kurzzeitige Verbesserung auf drei Talente, die abhängig von der Wesenheit sind, die er ruft. Der FW der drei Talente steigt während der Wirkungsdauer um QS/2+1 und kann auch die Maximalgrenze des FW übersteigen. Talente des primären Patrons erhalten einen zusätzlichen Bonus von 2.",
        "parents": []
    },
    "effects": [],
    "folder": "SP86247228901671",
    "_key": "!items!TA16124575221132"
}
