{
    "_id": "TA82552117158229",
    "name": "Tanz der Liebe",
    "type": "spell",
    "img": "systems/tde5e/assets/defaultItems/spell.svg",
    "system": {
        "castingTime": "3 - QS* / 2 M",
        "castingTimeLong": "3 - QS* / 2 Minuten",
        "check": {
            "resistedBySpirit": false,
            "resistedByToughness": false,
            "resistanceIsHalfed": false,
            "attributes": [
                "charisma",
                "charisma",
                "agility"
            ]
        },
        "checkedSkill": [
            "Compendium.tde5e.skills.Item.TA20629207239217"
        ],
        "cid": "TANZ_DER_LIEBE",
        "cost": {
            "text": "8 AsP",
            "textLong": "8 AsP",
            "constant": 8,
            "recurring": null
        },
        "duration": "5 M",
        "durationLong": "5 Minuten",
        "enhancements": [],
        "group": "magicalDance",
        "modifications": {
            "canModCastingTime": false,
            "canModCost": false,
            "canModRange": false
        },
        "property": "influence",
        "range": "",
        "rangeLong": "",
        "requirementText": "keine",
        "sources": [
            "BOSPARANS_KATAKOMBEN",
            "LIBER_EXTENSIONUM"
        ],
        "subTraditions": "Hazaqi, Rahkisa, Sharisad",
        "targetCategory": "Kulturschaffende",
        "traditions": {
            "all": false,
            "values": [
                "Compendium.tde5e.magic.Item.TR24231133849412"
            ]
        },
        "improvement": {
            "column": "B",
            "value": 0
        },
        "notes": "",
        "gmNotes": "",
        "flavor": "",
        "rule": "Alle Zuschauer hegen während des Tanzes große Sympathie für die Zaubertänzerin. Sie kann zusätzlich bis zu QS/2 Personen auswählen, die ihr mit Haut und Haaren verfallen sind. Diese entbrennen in leidenschaftlicher Zuneigung zur Tänzerin und werden sich ihr auf Wunsch hingeben. Proben auf @UUID[Compendium.tde5e.skills.Item.WI13315915718951]{Willenskraft (Betören widerstehen)} sind für die Ziele des Zaubertanzes um QS/2 erschwert. Betroffen sind nur Zuschauer, deren Seelenkraft 2 oder niedriger ist. Sie müssen zudem prinzipiell an Spezies und Geschlecht der Tänzerin interessiert sein, was z. B. asketisch lebende Personen ausschließt. Die Wirkung hält 3 Stunden nach dem Ende des Tanzes an.",
        "parents": []
    },
    "effects": [],
    "folder": "SP11375187358168",
    "_key": "!items!TA82552117158229"
}
