{
    "_id": "TA66164847189177",
    "name": "Tanz der Träume",
    "type": "spell",
    "img": "systems/tde5e/assets/defaultItems/spell.svg",
    "system": {
        "castingTime": "3 - QS* / 2 M",
        "castingTimeLong": "3 - QS* / 2 Minuten",
        "check": {
            "resistedBySpirit": false,
            "resistedByToughness": false,
            "resistanceIsHalfed": false,
            "attributes": [
                "courage",
                "charisma",
                "agility"
            ]
        },
        "checkedSkill": [
            "Compendium.tde5e.skills.Item.TA20629207239217"
        ],
        "cid": "TANZ_DER_TRAUME",
        "cost": {
            "text": "6 AsP",
            "textLong": "6 AsP",
            "constant": 6,
            "recurring": null
        },
        "duration": "5 M",
        "durationLong": "5 Minuten",
        "enhancements": [],
        "group": "magicalDance",
        "modifications": {
            "canModCastingTime": false,
            "canModCost": false,
            "canModRange": false
        },
        "property": "influence",
        "range": "",
        "rangeLong": "",
        "requirementText": "keine",
        "sources": [
            "BOSPARANS_KATAKOMBEN",
            "LIBER_EXTENSIONUM"
        ],
        "subTraditions": "Hazaqi, Majuna",
        "targetCategory": "Kulturschaffende",
        "traditions": {
            "all": false,
            "values": [
                "Compendium.tde5e.magic.Item.TR24231133849412"
            ]
        },
        "improvement": {
            "column": "A",
            "value": 0
        },
        "notes": "",
        "gmNotes": "",
        "flavor": "",
        "rule": "Die Tänzerin kann mit diesem Zaubertanz einen Zuschauer auswählen. Sie spürt sofort, wenn er das nächste Mal schläft und kann bestimmen, was er träumt. Die Tänzerin dringt selbst nicht in den Traum ein und kann dem Träumer nicht schaden. Es ist aber durchaus möglich, ihm Alpträume zu bescheren. Auch schöne Träume sind möglich. Die Zielperson kann sich nach dem Ende des Tanzes beliebig weit von der Zaubertänzerin entfernen. Dieser Tanz kann auch für einen bereits Schlafenden getanzt werden, der die Tänzerin in diesem Fall natürlich nicht sehen muss. In einem solchen Fall ist der Tanz um 1 erleichtert. Der Traum ist intensiver, je mehr QS erzielt wurden.",
        "parents": []
    },
    "effects": [],
    "folder": "SP11375187358168",
    "_key": "!items!TA66164847189177"
}
