{
    "_id": "TA92067816716962",
    "name": "Tanz des Jagdpechs",
    "type": "spell",
    "img": "systems/tde5e/assets/defaultItems/spell.svg",
    "system": {
        "castingTime": "3 - QS* / 2 M",
        "castingTimeLong": "3 - QS* / 2 Minuten",
        "check": {
            "resistedBySpirit": false,
            "resistedByToughness": false,
            "resistanceIsHalfed": false,
            "attributes": [
                "charisma",
                "agility",
                "constitution"
            ]
        },
        "checkedSkill": [
            "Compendium.tde5e.skills.Item.TA20629207239217"
        ],
        "cid": "TANZ_DES_JAGDPECHS",
        "cost": {
            "text": "8 AsP",
            "textLong": "8 AsP",
            "constant": 8,
            "recurring": null
        },
        "duration": "5 M",
        "durationLong": "5 Minuten",
        "enhancements": [],
        "group": "magicalDance",
        "modifications": {
            "canModCastingTime": false,
            "canModCost": false,
            "canModRange": false
        },
        "property": "healing",
        "range": "",
        "rangeLong": "",
        "requirementText": "keine",
        "sources": [
            "BOSPARANS_KATAKOMBEN",
            "LIBER_EXTENSIONUM"
        ],
        "subTraditions": "Majuna",
        "targetCategory": "Kulturschaffende",
        "traditions": {
            "all": false,
            "values": [
                "Compendium.tde5e.magic.Item.TR24231133849412"
            ]
        },
        "improvement": {
            "column": "A",
            "value": 0
        },
        "notes": "",
        "gmNotes": "",
        "flavor": "",
        "rule": "Bis zu 6 ausgewählte Personen erhalten bei der Jagd eine Erschwernis von 2 bei Proben auf @UUID[Compendium.tde5e.skills.Item.TI20015091191414]{Tierkunde (Wildtiere)}. Die benannten Zuschauer dürfen sich am Ende des Tanzes beliebig weit von dem Majuna wegbewegen. Die Wirkung hält QS Stunden nach dem Ende des Tanzes an.",
        "parents": []
    },
    "effects": [],
    "folder": "SP11375187358168",
    "_key": "!items!TA92067816716962"
}
