{
    "_id": "TA10091866815920",
    "name": "Tanz der Beweglichkeit",
    "type": "spell",
    "img": "systems/tde5e/assets/defaultItems/spell.svg",
    "system": {
        "castingTime": "3 - QS* / 2 KR",
        "castingTimeLong": "3 - QS* / 2 Kampfrunden",
        "check": {
            "resistedBySpirit": false,
            "resistedByToughness": false,
            "resistanceIsHalfed": false,
            "attributes": [
                "sagacity",
                "intuition",
                "agility"
            ]
        },
        "checkedSkill": [
            "Compendium.tde5e.skills.Item.TA20629207239217"
        ],
        "cid": "TANZ_DER_BEWEGLICHKEIT",
        "cost": {
            "text": "8 AsP",
            "textLong": "8 AsP",
            "constant": 8,
            "recurring": null
        },
        "duration": "aufrechterhaltend",
        "durationLong": "aufrechterhaltend",
        "enhancements": [],
        "group": "magicalDance",
        "modifications": {
            "canModCastingTime": false,
            "canModCost": false,
            "canModRange": false
        },
        "property": "healing",
        "range": "",
        "rangeLong": "",
        "requirementText": "keine",
        "sources": [
            "BOSPARANS_KATAKOMBEN",
            "LIBER_EXTENSIONUM"
        ],
        "subTraditions": "Rahkisa",
        "targetCategory": "Kulturschaffende",
        "traditions": {
            "all": false,
            "values": [
                "Compendium.tde5e.magic.Item.TR24231133849412"
            ]
        },
        "improvement": {
            "column": "B",
            "value": 0
        },
        "notes": "",
        "gmNotes": "",
        "flavor": "",
        "rule": "Die Rahkisa erhält + QS/2 auf GS und als Erleichterung beim Ausweichen. Die Wirkung hält 1 Stunde nach dem Ende des Tanzes an.",
        "parents": []
    },
    "effects": [],
    "folder": "SP11375187358168",
    "_key": "!items!TA10091866815920"
}
