{
    "_id": "TA60236173149225",
    "name": "Tanz des Feuers",
    "type": "spell",
    "img": "systems/tde5e/assets/defaultItems/spell.svg",
    "system": {
        "castingTime": "3 - QS* / 2 KR",
        "castingTimeLong": "3 - QS* / 2 Kampfrunden",
        "check": {
            "resistedBySpirit": false,
            "resistedByToughness": false,
            "resistanceIsHalfed": false,
            "attributes": [
                "courage",
                "intuition",
                "agility"
            ]
        },
        "checkedSkill": [
            "Compendium.tde5e.skills.Item.TA20629207239217"
        ],
        "cid": "TANZ_DES_FEUERS",
        "cost": {
            "text": "2 AsP/Feuer",
            "textLong": "2 AsP pro Feuer",
            "constant": 0,
            "recurring": {
                "interval": 2,
                "unit": "Feuer"
            }
        },
        "duration": "5 M",
        "durationLong": "5 Minuten",
        "enhancements": [],
        "group": "magicalDance",
        "modifications": {
            "canModCastingTime": false,
            "canModCost": false,
            "canModRange": false
        },
        "property": "elemental",
        "range": "",
        "rangeLong": "",
        "requirementText": "keine",
        "sources": [
            "BOSPARANS_KATAKOMBEN",
            "LIBER_EXTENSIONUM"
        ],
        "subTraditions": "Hazaqi",
        "targetCategory": "Kulturschaffende",
        "traditions": {
            "all": false,
            "values": [
                "Compendium.tde5e.magic.Item.TR24231133849412"
            ]
        },
        "improvement": {
            "column": "B",
            "value": 0
        },
        "notes": "",
        "gmNotes": "",
        "flavor": "",
        "rule": "In einem Radius von 16 Schritt kann die Hazaqi bis zu QS Feuer entfachen. Sie kann nur Stroh, Gras, Holz, Tuch und ähnlich leicht brennbare Materialien auswählen. Gegenstände und Kleidung, die gerade getragen wird, können von der Wirkung des Tanzes nicht betroffen sein. Das Feuer ist zunächst so groß wie die Flamme einer Kerze und entflammt die umliegenden Materialien mit der Geschwindigkeit, wie dies normales Feuer tun würde.",
        "parents": []
    },
    "effects": [],
    "folder": "SP11375187358168",
    "_key": "!items!TA60236173149225"
}
