{
    "_id": "TA24265015714115",
    "name": "Tanz der Unverletzbarkeit",
    "type": "spell",
    "img": "systems/tde5e/assets/defaultItems/spell.svg",
    "system": {
        "castingTime": "3 - QS* / 2 KR",
        "castingTimeLong": "3 - QS* / 2 Kampfrunden",
        "check": {
            "resistedBySpirit": false,
            "resistedByToughness": false,
            "resistanceIsHalfed": false,
            "attributes": [
                "agility",
                "constitution",
                "strength"
            ]
        },
        "checkedSkill": [
            "Compendium.tde5e.skills.Item.TA20629207239217"
        ],
        "cid": "TANZ_DER_UNVERLETZBARKEIT",
        "cost": {
            "text": "8 AsP",
            "textLong": "8 AsP",
            "constant": 8,
            "recurring": null
        },
        "duration": "aufrechterhaltend",
        "durationLong": "aufrechterhaltend",
        "enhancements": [],
        "group": "magicalDance",
        "modifications": {
            "canModCastingTime": false,
            "canModCost": false,
            "canModRange": false
        },
        "property": "healing",
        "range": "",
        "rangeLong": "",
        "requirementText": "keine",
        "sources": [
            "BOSPARANS_KATAKOMBEN",
            "LIBER_EXTENSIONUM"
        ],
        "subTraditions": "Rahkisa, Sharisad",
        "targetCategory": "Kulturschaffende",
        "traditions": {
            "all": false,
            "values": [
                "Compendium.tde5e.magic.Item.TR24231133849412"
            ]
        },
        "improvement": {
            "column": "B",
            "value": 0
        },
        "notes": "",
        "gmNotes": "",
        "flavor": "",
        "rule": "Die Haut der Rahkisa wird mit einem magischen Schutz versehen, der regeltechnisch wie ein @UUID[Compendium.tde5e.magic.Item.GA21221115314781]{Gardianum} wirkt, aber TP von Waffen abfängt, statt durch AsP verursachte n Schaden. Allerdings ist der Schild nur auf ihren Körper beschränkt und hat eine Schildstärke von 2 + (QS x 2 ). Der Schild hält, bis die Schildstärke auf 0 oder darunter gesunken ist, oder 30 Minuten vergangen sind (je nachdem, was zuerst eintritt). Die Wirkung bleibt nach dem Ende des Tanzes bestehen, auch wenn die Rahkisa den Radius des Tanzes verlässt.",
        "parents": []
    },
    "effects": [],
    "folder": "SP11375187358168",
    "_key": "!items!TA24265015714115"
}
