{
    "_id": "TA18315714128121",
    "name": "Tauschrausch",
    "type": "spell",
    "img": "systems/tde5e/assets/defaultItems/spell.svg",
    "system": {
        "castingTime": "2 Akt",
        "castingTimeLong": "2 Aktion",
        "check": {
            "resistedBySpirit": false,
            "resistedByToughness": false,
            "resistanceIsHalfed": false,
            "attributes": [
                "intuition",
                "charisma",
                "dexterity"
            ]
        },
        "checkedSkill": null,
        "cid": "TAUSCHRAUSCH",
        "cost": {
            "text": "4 AsP",
            "textLong": "4 AsP",
            "constant": 4,
            "recurring": null
        },
        "duration": "sofort",
        "durationLong": "sofort",
        "enhancements": [],
        "group": "rogueSpell",
        "modifications": {
            "canModCastingTime": false,
            "canModCost": false,
            "canModRange": false
        },
        "property": "spheres",
        "range": "8 m",
        "rangeLong": "8 Schritt",
        "requirementText": "keine",
        "sources": [
            "BOSPARANS_KATAKOMBEN",
            "LIBER_EXTENSIONUM"
        ],
        "subTraditions": "",
        "targetCategory": "Objekte",
        "traditions": {
            "all": false,
            "values": [
                "Compendium.tde5e.magic.Item.TR44241162842057"
            ]
        },
        "improvement": {
            "column": "B",
            "value": 0
        },
        "notes": "",
        "gmNotes": "",
        "flavor": "",
        "rule": "Zwei Objekte innerhalb der Reichweite tauschen ihren Platz. Der Schelm muss nicht beide Objekte sehen können, aber er muss wissen, wo sich das ein Objekt, dass er nicht sehen kann, befindet. Da der Tauschvorgang mittels einer Teleportation durch den Limbus geschieht, ist er nur für solche Wesen zu bemerken, die das Objekt im Blickfeld haben. Das Maximalgewicht beider Objekte zusammen beträgt jeweils QS Stein. Zudem dürfen sie nicht festgehalten werden oder an etwas anderem befestigt sein, sodass man sie nicht ohne größeren Kraftaufwand mit der Hand entfernen könnte.",
        "parents": []
    },
    "effects": [],
    "folder": "SP86191882251241",
    "_key": "!items!TA18315714128121"
}
