{
    "_id": "TE16068195214244",
    "name": "Telekinetische Schale",
    "type": "artifactAbility",
    "img": "systems/tde5e/assets/defaultItems/artifact_ability.svg",
    "system": {
        "aspects": [],
        "binding": {
            "cost": "",
            "volume": "5 Punkte"
        },
        "brewType": null,
        "cid": "TELEKINETISCHE_SCHALE",
        "cost": {
            "text": "3 AsP pro 30 Minuten",
            "constant": 3,
            "recurring": {
                "interval": 3,
                "unit": "30 Minuten"
            }
        },
        "group": "alchemistBowl",
        "property": "telekinesis",
        "purchase": {
            "cost": [
                10
            ],
            "description": "10 Abenteuerpunkte",
            "levels": 1,
            "maxTimeBuyable": 1
        },
        "requirementText": "keine",
        "sources": [
            "BOSPARANS_KATAKOMBEN",
            "LIBER_EXTENSIONUM"
        ],
        "tradition": "Compendium.tde5e.magic.Item.TR21232425518411",
        "variant": {
            "categories": [],
            "input": false,
            "level": 1,
            "selected": null,
            "available": null
        },
        "flavor": "",
        "notes": "",
        "gmNotes": "",
        "parents": [
            "Compendium.tde5e.magic.Item.BI22131281721611"
        ],
        "rule": "<p>Der Inhalt der Schale wird in ihr festgehalten und kann nur mit einer Probe auf @UUID[Compendium.tde5e.skills.Item.KR28631591116621]{Kraftakt} aus ihr entfernt werden. Flüssigkeiten in der Schale werden nicht verschüttet.</p>"
    },
    "effects": [],
    "folder": "ZA20922218743141",
    "_key": "!items!TE16068195214244"
}
