{
    "_id": "TE84128881705711",
    "name": "Temporalbann",
    "type": "spell",
    "img": "systems/tde5e/assets/defaultItems/spell.svg",
    "system": {
        "castingTime": "4 Akt",
        "castingTimeLong": "4 Aktionen",
        "check": {
            "resistedBySpirit": false,
            "resistedByToughness": false,
            "resistanceIsHalfed": false,
            "attributes": [
                "courage",
                "intuition",
                "charisma"
            ]
        },
        "cid": "TEMPORALBANN",
        "cost": {
            "text": "8 / 16 AsP (Zone)",
            "textLong": "8 AsP bzw. 16 AsP für Zauber mit Zielkategorie Zone",
            "constant": 8,
            "recurring": null
        },
        "duration": "sofort",
        "durationLong": "sofort",
        "enhancements": [
            {
                "name": "Schwächung",
                "effect": "Die QS des Zielzaubers wird um QS/2 des Banns reduziert. Sinkt der Zauber dadurch auf weniger als QS 1, wird dessen Wirkung aufgehoben.",
                "skillPoints": 8,
                "owned": false
            },
            {
                "name": "Präventiver Bann",
                "effect": "Der Bann wird auf ein Ziel gelegt und wirkt innerhalb von QS Stunden gegen den nächsten Zauber des Merkmals, der auf das Ziel gewirkt wird. Hat dieser eine höhere QS, verfällt der Effekt des Banns.",
                "skillPoints": 11,
                "owned": false
            },
            {
                "name": "Zauber umleiten",
                "effect": "Der Zauber kann innerhalb der Reichweite auf ein Ziel derselben Kategorie umgeleitet werden. Die Wirkung wird vom ursprünglichen Ziel aufgehoben und mit QS 1 auf das neue Ziel angewendet. Das neue Ziel kann nicht wieder geändert werden.",
                "skillPoints": 14,
                "owned": false
            }
        ],
        "group": "incantation",
        "modifications": {
            "canModCastingTime": true,
            "canModCost": true,
            "canModRange": true
        },
        "property": "antiMagic",
        "range": "8 Schritt",
        "rangeLong": "8 Schritt",
        "requirementText": "keine",
        "sources": [
            "BOSPARANS_KATAKOMBEN"
        ],
        "targetCategory": "alle",
        "traditions": {
            "all": false,
            "values": [
                "Compendium.tde5e.magic.Item.TR20562116246223",
                "Compendium.tde5e.magic.Item.TR60602241216130",
                "Compendium.tde5e.magic.Item.TR10415123625209",
                "Compendium.tde5e.magic.Item.TR93186147562399",
                "Compendium.tde5e.magic.Item.TR98672441157616"
            ]
        },
        "improvement": {
            "column": "B",
            "value": 0
        },
        "notes": "",
        "gmNotes": "",
        "flavor": "",
        "checkedSkill": null,
        "rule": "Ein Zauber des Merkmals Temporal wird aufgehoben, solange dessen QS nicht höher ist als die QS des Zaubers. Der Bann entfaltet keine Wirkung gegen Zauber, deren Wirkung sofort eintritt (z.B. einmaliger Schaden). Auch gegen Zauber, deren Wirkung bereits vollendet ist, oder permanent wirkende Sprüche hilft er nicht. Wird der Dämonenbann gegen einen Zauber der Zielkategorie Zone eingesetzt, genügt es, wenn sich ein Teil von dieser innerhalb der Reichweite befindet.",
        "parents": []
    },
    "effects": [],
    "folder": "SP15718021520213",
    "_key": "!items!TE84128881705711"
}
