{
    "_id": "TI11346224120202",
    "name": "Tiertrick",
    "type": "cantrip",
    "img": "systems/tde5e/assets/defaultItems/spell.svg",
    "system": {
        "cid": "TIERTRICK",
        "duration": "1 M",
        "durationLong": "1 Minute",
        "property": "spheres",
        "range": "Berührung",
        "rangeLong": "Berührung",
        "requirementText": "",
        "sources": [
            "BOSPARANS_KATAKOMBEN",
            "LIBER_EXTENSIONUM"
        ],
        "targetCategory": "Kulturschaffende",
        "traditions": {
            "all": false,
            "values": [
                "Compendium.tde5e.magic.Item.TR52194209152352",
                "Compendium.tde5e.magic.Item.TR18517324589268",
                "Compendium.tde5e.magic.Item.TR44241162842057",
                "Compendium.tde5e.magic.Item.TR23524614818820"
            ]
        },
        "notes": "",
        "gmNotes": "",
        "flavor": "",
        "rule": "Der Zauberer kann ein harmloses Tier der Größenkategorie winzig aus einem Hut oder hinter dem Ohr einer anderen Person herbeizaubern (z. B. eine Maus oder Küchenschabe). Das Tier löst sich am Ende der Wirkungsdauer auf, falls es nicht vorher getötet wird.",
        "parents": []
    },
    "effects": [],
    "folder": "SP45861142482726",
    "_key": "!items!TI11346224120202"
}
