{
    "_id": "TI15657148013883",
    "name": "Tiergeistsprache",
    "type": "spell",
    "img": "systems/tde5e/assets/defaultItems/spell.svg",
    "system": {
        "castingTime": "1 Akt",
        "castingTimeLong": "1 Aktion",
        "check": {
            "resistedBySpirit": false,
            "resistedByToughness": false,
            "resistanceIsHalfed": false,
            "attributes": [
                "intuition",
                "constitution",
                "strength"
            ]
        },
        "checkedSkill": null,
        "cid": "TIERGEISTSPRACHE",
        "cost": {
            "text": "8 AsP",
            "textLong": "8 AsP",
            "constant": 8,
            "recurring": null
        },
        "duration": "QS x 3 M",
        "durationLong": "QS x 3 Minuten",
        "enhancements": [],
        "group": "animistForce",
        "modifications": {
            "canModCastingTime": true,
            "canModCost": true,
            "canModRange": true
        },
        "property": "clairvoyance",
        "range": "selbst",
        "rangeLong": "selbst",
        "requirementText": "keine",
        "sources": [
            "KODEX_DER_MAGIE"
        ],
        "subTraditions": "Ferkinas, Gjalsker, Nivesen, Tahaya",
        "targetCategory": "Kulturschaffende",
        "traditions": {
            "all": false,
            "values": [
                "Compendium.tde5e.magic.Item.TR22473791851201"
            ]
        },
        "improvement": {
            "column": "A",
            "value": 0
        },
        "notes": "",
        "gmNotes": "",
        "flavor": "",
        "rule": "Die Animistenkraft gestattet es dem Animisten, mit Tieren, die seinem primären Tierpatron entsprechen, zu reden. Das Tier kann dem Animisten auf Fragen antworten, jedoch sind diese Antworten stets aus der Sicht des Tieres geschildert und daher manchmal für Menschen schwer verständlich.",
        "parents": []
    },
    "effects": [],
    "folder": "SP15718021520213",
    "_key": "!items!TI15657148013883"
}
