{
    "_id": "TO11831496927135",
    "name": "Tor in den Limbus",
    "type": "magicalAbility",
    "img": "systems/tde5e/assets/defaultItems/special_ability_magical.svg",
    "system": {
        "cid": "TOR_IN_DEN_LIMBUS",
        "cost": {
            "text": "",
            "constant": 0,
            "recurring": null
        },
        "group": "pactGift",
        "property": "",
        "purchase": {
            "cost": [
                20
            ],
            "description": "20 Abenteuerpunkte",
            "levels": 1,
            "maxTimeBuyable": 1
        },
        "requirementText": "Dämonenpakt Stufe 1 (Heskatet)",
        "sources": [
            "AVENTURISCHE_MAGIE_3"
        ],
        "styleAbilities": [],
        "variant": {
            "categories": [],
            "input": false,
            "available": [],
            "level": 1,
            "selected": null
        },
        "flavor": "",
        "notes": "",
        "gmNotes": "",
        "rule": "Die Paktiererin kann ein Tor in den Limbus oder im Limbus ein Tor in eine angrenzende Sphäre öffnen. Das Tor bleibt KdV Minuten offnen, schließt sich aber auch nach dem Willen der Paktiererin beim Einsatz 1 freien Aktion. Der Einsatz dieser Fähigkeit kostet 1 Aktion und verursacht 2 Stufen @UUID[Compendium.tde5e.conditions.Item.DA21528191859282]{Dämonische Auszehrung}.",
        "parents": []
    },
    "effects": [],
    "folder": "DA30309060912592",
    "_key": "!items!TO11831496927135"
}
