{
    "_id": "TR98672441157616",
    "name": "Tradition (Kristallomanten)",
    "type": "tradition",
    "img": "modules/tde5e-assets/assets/traditions/TRADITION_KRISTALLOMANTEN.png",
    "system": {
        "allowMultipleTraditions": true,
        "aspects": [],
        "cid": "TRADITION_KRISTALLOMANTEN",
        "favoredSkills": [],
        "group": "magical",
        "primaryAttribute": "sagacity",
        "purchase": {
            "cost": [
                115
            ],
            "description": "115 Abenteuerpunkte"
        },
        "requirementText": "Vorteil Zauberer, üblicherweise Spezies Achaz",
        "rules": "<ul><li>Ein Zauber der kristallomantischen Tradition erfordert Sicht auf das Ziel und eine magische Geste. Eine Formel ist nicht notwendig.</li><li>Kristallomanten verwenden bei ihren Zaubern in der Hand gehaltene Kristalle (wobei es sich um echte Kristalle oder Edelsteine handeln kann), die jeweils einem Merkmal zugeordnet sind. Hat der Kristallomant keinen entsprechenden Kristall in der Hand, erleidet er eine Erschwernis von –3 auf den Zauber.</li><li>Durch die materielle Komponente der Kristalle sparen Kristallomanten bei der Anwendung von Zaubern 1 AsP, sofern sie einen passenden Kristall des Merkmals in der Hand halten und mit ihm alle erforderlichen Gesten durchführen. Diese Ersparnis wird nach allen anderen Ersparnissen verrechnet und betrifft sowohl Zauber mit fixen AsP-Kosten als auch die Kosten für eine Aktivierung und die Kosten für eine Aufrechterhaltung. Die AsP können dadurch nie unter 1 AsP sinken und werden nach der Verrechnung aller übrigen Kostenberechnungen abgezogen.</li><li>Nutzen die Kristallomanten die Modifikation Zauber-/Ritualdauer erhöhen, so erhalten sie eine Erleichterung von +2 (statt +1).</li><li>Kristallomanten können keine Zauber mit dem Merkmal Dämonisch erlernen. Eine Ausnahme stellen Zauber mit der Verbreitung Kristallomanten dar. In diesem Fall wird das Merkmal Dämonisch durch Sphären ersetzt.</li><li>Kristallomantische Zauber können in Thesiskristallen verankert und aus ihnen ohne Lehrmeister erlernt werden. Thesiskristalle sind im Grunde nichts weiter als eine Art kristallomantisches Zauberbuch.</li><li>Kristallomanten können folgende Traditionsartefakte herstellen und nutzen: Schuppenbeutel, kristallomantische Kristallkugel und Echsenhaube.</li><li>Die Leiteigenschaft der Tradition ist Klugheit.</li></ul><table><thead><tr><th><strong>Merkmal</strong></th><th><strong>Stein</strong></th></tr></thead><tbody><tr><td><strong>Antimagie</strong></td><td>Magnetit</td></tr><tr><td><strong>Dämonisch </strong></td><td>keine</td></tr><tr><td><strong>Einfluss</strong></td><td>Amethyst</td></tr><tr><td><strong>Elementar </strong></td><td>Baryt (Eis) oder Granat (Erz) oder Feueropal (Feuer) oder Achat (Humus) oder Coelestin (Luft) oder Aquamarin (Wasser)</td></tr><tr><td><strong>Heilung</strong></td><td>Malachit</td></tr><tr><td><strong>Hellsicht</strong></td><td>Bergkristall</td></tr><tr><td><strong>Illusion</strong></td><td>Opal</td></tr><tr><td><strong>Objekt</strong></td><td>Smaragd</td></tr><tr><td><strong>Sphären </strong></td><td>Rauchquarz (Beschwörung) oder Saphir (Limbus) oder Mondstein (Herbeirufung) oder Karneol (Geisterwesen)</td></tr><tr><td><strong>Telekinese</strong></td><td>Türkis</td></tr><tr><td><strong>Temporal</strong></td><td>Diamant</td></tr><tr><td><strong>Verwandlung</strong></td><td>Lapislazuli</td></tr></tbody></table><h2>Kristalle aus dem Schuppenbeutel herausziehen</h2>Um einen passenden Kristall aus dem Schuppenbeutel zu ziehen, muss der Kristallomant 1 Aktion aufwenden. Dies kann durch die SF Suchende Finger auf 1 freie Aktion reduziert werden. Sollte der Kristallomant seinen Kristall an einem anderen Ort lagern, so braucht er dafür meistens mehr als 1 Aktion, um den Kristall in die Hände zu bekommen. Die genaue Zeit muss die Meisterin festlegen.",
        "shortName": "Kristallomanten",
        "sources": [
            "GRIMORUM_CANTIONES",
            "KODEX_DER_MAGIE"
        ],
        "notes": "",
        "gmNotes": "",
        "flavor": "",
        "learnableTypes": {
            "cantrips": true,
            "spells": true,
            "rituals": true
        }
    },
    "effects": [],
    "folder": "TR14912013644134",
    "_key": "!items!TR98672441157616"
}
