{
    "_id": "TR10415123625209",
    "name": "Tradition (Druiden)",
    "type": "tradition",
    "img": "modules/tde5e-assets/assets/traditions/TRADITION_DRUIDEN.png",
    "system": {
        "allowMultipleTraditions": true,
        "aspects": [],
        "cid": "TRADITION_DRUIDEN",
        "favoredSkills": [],
        "group": "magical",
        "primaryAttribute": "sagacity",
        "purchase": {
            "cost": [
                125
            ],
            "description": "125 Abenteuerpunkte"
        },
        "requirementText": "Vorteil Zauberer, nicht Vorteil Eisenaffine Aura",
        "shortName": "Druiden",
        "sources": [
            "DIE_STREITENDEN_KONIGREICHE",
            "AVENTURISCHE_MAGIE_3"
        ],
        "notes": "",
        "gmNotes": "",
        "flavor": "",
        "learnableTypes": {
            "cantrips": true,
            "spells": true,
            "rituals": true
        },
        "rule": "<ul><li><p>Ein Zauber der druidischen Tradition erfordert Sicht auf das Ziel und eine magische Geste. Je nach Denkschule sind auch gesprochene Worte Teil des Zaubers, aber sie sind nicht zwingend notwendig.</p></li><li>Druiden erhalten eine Erleichterung von 2 statt nur von 1, wenn sie die Modifikation Erzwingen bei einem Zauber ausführen.</li><li><p><em>Starker Bann des Eisens</em>: Körperkontakt mit verhütteten Metallen wirkt sich negativ sowohl auf die Regeneration von AsP als auch auf das Wirken von Zaubern aus. Pro angefangenem Stein verhütteten Metalls, die der Druide trägt oder berührt, ist das Wirken von Zaubern um je 1 erschwert. Trägt er eine solche Menge mehr als eine halbe Stunde mit sich herum, sinkt die Regeneration von AsP pro Regenerationsphase um 1 pro angefangenem Stein Metall. Diese Regel ersetzt die sonst für Zauberkundige geltende Regel für Bann des Eisens (siehe <strong>Regelwerk</strong> Seite <strong>256</strong>).</p></li><li>Druiden können spezielle druidische Traditionsartefakte herstellen und nutzen (z. B. den Druidendolch).</li></ul>",
        "parents": []
    },
    "effects": [],
    "folder": "TR14912013644134",
    "_key": "!items!TR10415123625209"
}
