{
    "_id": "TR23524614818820",
    "name": "Tradition (Zibiljas)",
    "type": "tradition",
    "img": "modules/tde5e-assets/assets/traditions/TRADITION_ZIBILJAS.png",
    "system": {
        "allowMultipleTraditions": false,
        "aspects": [],
        "cid": "TRADITION_ZIBILJAS",
        "favoredSkills": [],
        "group": "magical",
        "primaryAttribute": "intuition",
        "purchase": {
            "cost": [
                100
            ],
            "description": "100 Abenteuerpunkte"
        },
        "requirementText": "Vorteil Zauberer, Kultur Norbarden",
        "shortName": "Zibiljas",
        "sources": [
            "AVENTURISCHE_MAGIE_3"
        ],
        "notes": "",
        "gmNotes": "",
        "flavor": "",
        "learnableTypes": {
            "cantrips": true,
            "spells": false,
            "rituals": false
        },
        "parents": [
            "Compendium.tde5e.raceCultureProfessions.Item.NO13639416410113"
        ],
        "rule": "<ul><li><p>Die Magie in der Tradition der Zibiljas erfordert Sicht auf das Ziel, eine magische Geste und das gesprochene Wort.</p></li><li>Zibiljas wirken ausschließlich magische Handlungen, die sogenannten Zibiljarituale. Die Zibiljarituale funktionieren regeltechnisch wie normale Rituale, sind aber als magische Handlungen nicht von anderen Traditionen erlernbar.</li><li><p>Sie können keine Zaubersprüche oder Rituale erlernen. Zaubertricks sind von dieser Begrenzung ausgeschlossen.</p></li><li>Wirken sie die Zibiljarituale innerhalb ihrer Sippe, sind Proben auf Rituale um 1 erleichtert. Dazu müssen sich mindestens 5 weitere Mitglieder ihrer Sippe in einem Umkreis von 100 Schritt aufhalten.</li><li><p>Zibiljas können keine weiteren magischen Traditionen erlernen, und kein Held mit einer anderen Tradition kann sich die Tradition der Zibiljas aneignen.</p></li><li>Sie können keine Vor- und Nachteile wählen, die nur für Zaubersprüche und Rituale gelten, sondern nur jene, die auch ihre magischen Handlungen wie Zibiljarituale beeinflussen.</li><li><p>Zibiljas können Zibiljarituale erlernen und Traditionsartefakte ihrer Kultur herstellen und benutzen (z. B. die Sippenchronik).</p></li></ul>"
    },
    "effects": [],
    "folder": "TR14912013644134",
    "_key": "!items!TR23524614818820"
}
