{
    "_id": "TR94321048617158",
    "name": "Tradition (Runenschöpfer)",
    "type": "tradition",
    "img": "modules/tde5e-assets/assets/traditions/TRADITION_RUNENSCHOPFER.png",
    "system": {
        "allowMultipleTraditions": true,
        "aspects": [],
        "cid": "TRADITION_RUNENSCHOPFER",
        "favoredSkills": [],
        "group": "magical",
        "primaryAttribute": null,
        "purchase": {
            "cost": [
                85
            ],
            "description": "75 Abenteuerpunkte"
        },
        "requirementText": "Vorteil Zauberer",
        "rules": "<ul><li>Runenschöpfer können Zauberrunen erlernen, an Objekten oder Lebewesen anbringen und mit Astralenergie aufladen. Als Zaubertechnik benutzen sie üblicherweise Gesänge auf Saga-Thorwalsch und hjaldingsche Runen. Es ist nicht zwingend erforderlich, die Sprache und Schrift zu beherrschen, um die Zauberrunen einsetzen zu können, solange man die SF und die entsprechenden Zauberrunen beherrscht. Dies kann bedeuten, dass man die Runen und die Gesänge auswendig gelernt hat, ohne ihren Sinn dem Wortlaut nach zu verstehen.</li><li>Einzelne Zauberrunen werden als Fertigkeiten aktiviert und können wie diese gesteigert werden. Alle Runen weisen einen eigenen Steigerungsfaktor auf.</li><li>Runenschöpfer können Zauberrunen, je nach Untergrund und Material, mit folgenden Talenten anbringen: @UUID[Compendium.tde5e.skills.Item.HO17697115856124]{Holzbearbeitung}, @UUID[Compendium.tde5e.skills.Item.ST18887227775891]{Lederbearbeitung}, @UUID[Compendium.tde5e.skills.Item.MA17821721188237]{Malen & Zeichnen} (nur für Blutrunen und Tätowierungen) und @UUID[Compendium.tde5e.skills.Item.MI11215015715762]{Mineralbearbeitung}.</li><li>Runenschöpfer können maximal 3 Zaubersprüche erlernen (keine Rituale). Diese Zaubersprüche können aus jeder Tradition stammen oder allgemein sein, aber sie dürfen keinen Steigerungsfaktor von mehr als B aufweisen. Ein einziger Zauber darf der Kategorie C entstammen. Diese Zauber gelten für sie dann als Zaubersprüche ihrer eigenen Tradition. Die Meisterin hat das letzte Wort darüber, ob ein Runenschöpfer einen bestimmten Spruch wählen darf. Zaubertricks sind von dieser Begrenzung ausgeschlossen.</li><li>Runenschöpfer können Zauber modifizieren, können dabei aber nur maximal 3 Modifikationen pro Zauber anwenden.</li><li>Runenschöpfer können keine weiteren magischen Traditionen erlernen und kein Held mit einer anderen Tradition kann sich die Tradition des Runenschöpfers aneignen; es ist für Letztere jedoch mit Einschränkungen möglich, die Kunst der Runenzauberei durch die SF Zauberrunenkunde zu erlernen.</li><li>Runenschöpfer besitzen kein Traditionsartefakt.</li><li>Runenschöpfer können maximal 30 AP in magische Vorteile (neben dem Vorteil Zauberer) stecken und maximal 30 AP durch magische Nachteile gewinnen. Sie dürfen keine Vor- und Nachteile wählen, die nur für Zaubersprüche oder Rituale gelten, sondern nur jene, die auch ihre magischen Handlungen, wie das Runenschnitzen, beeinflussen.</li><li>Runenschöpfer verfügen über keine Leiteigenschaft. Das bedeutet auch, dass sie keinen Bonus auf ihren AsP-Vorrat erhalten und sich keine weiteren AsP dazukaufen können.</li></ul>",
        "shortName": "Runenschöpfer",
        "sources": [
            "GRIMORUM_CANTIONES",
            "KODEX_DER_MAGIE"
        ],
        "notes": "",
        "gmNotes": "",
        "flavor": "",
        "learnableTypes": {
            "cantrips": true,
            "spells": true,
            "rituals": false
        }
    },
    "effects": [],
    "folder": "TR14912013644134",
    "_key": "!items!TR94321048617158"
}
