{
    "_id": "TR18420623752213",
    "name": "Transversalis",
    "type": "spell",
    "img": "systems/tde5e/assets/defaultItems/spell.svg",
    "system": {
        "castingTime": "8 Akt",
        "castingTimeLong": "8 Aktionen",
        "check": {
            "resistedBySpirit": false,
            "resistedByToughness": false,
            "resistanceIsHalfed": false,
            "attributes": [
                "courage",
                "charisma",
                "constitution"
            ]
        },
        "checkedSkill": null,
        "cid": "TRANSVERSALIS",
        "cost": {
            "text": "8 + 1 / km",
            "textLong": "8 AsP + 1 AsP pro Meile",
            "constant": 0,
            "recurring": {
                "interval": 1,
                "unit": "Meile"
            }
        },
        "duration": "sofort",
        "durationLong": "sofort",
        "enhancements": [
            {
                "name": "Mehr Gewicht",
                "effect": "Der Zauberer kann zusätzlich QS x 5 Stein an Gegenständen mitnehmen. Diese Erweiterung kann mehrfach angewendet werden.",
                "skillPoints": 8,
                "owned": false
            },
            {
                "name": "Fernreise",
                "effect": "Die Teleportation reicht bis zu QS x 15 Meilen weit und kostet 1 AsP pro 3 Meilen. Dafür ist das maximale Zusatzgewicht halbiert.",
                "skillPoints": 11,
                "owned": false
            },
            {
                "name": "Transport",
                "effect": "Der Zauberer kann ein zusätzliches Lebewesen bis zu seiner Größenkategorie mitteleportieren, was 8 AsP extra kostet. Diese Erweiterung kann mehrfach angewendet werden. Das Maximalgewicht gilt für alle Teilnehmer zusammen. Die Ziele müssen sich bei Eintreten der Wirkung berühren.",
                "skillPoints": 14,
                "owned": false
            }
        ],
        "group": "incantation",
        "modifications": {
            "canModCastingTime": true,
            "canModCost": false,
            "canModRange": true
        },
        "property": "spheres",
        "range": "selbst",
        "rangeLong": "selbst",
        "requirementText": "keine",
        "sources": [
            "BOSPARANS_KATAKOMBEN",
            "LIBER_EXTENSIONUM"
        ],
        "subTraditions": "",
        "targetCategory": "Objekt, Wesen",
        "traditions": {
            "all": false,
            "values": [
                "Compendium.tde5e.magic.Item.TR20562116246223"
            ]
        },
        "improvement": {
            "column": "C",
            "value": 0
        },
        "notes": "",
        "gmNotes": "",
        "flavor": "",
        "rule": "Mittels dieses Zaubers kann ein Held sich und maximal QS x 5 Stein Gegenstände (Kleidung, Waffen usw.) an einen anderen Ort teleportieren. Je näher Gegenstände am Körper liegen (meist die Kleidung), desto eher reisen sie mit dem Zaubernden mit. Sie reisen entweder am Stück mit oder bleiben zurück, werden jedoch nicht zerteilt. Die exakte Auswahl trifft der Meister. Der Held muss schon einmal an dem Zielort des Zaubers gewesen sein oder ihn sehen können. Der Ort darf maximal QS x 3 Meilen vom Zaubernden entfernt sein und wird erst am Ende der Zauberdauer festgelegt (also nachdem die Probe geworfen wurde und die QS feststehen).",
        "parents": []
    },
    "effects": [],
    "folder": "SP15718021520213",
    "_key": "!items!TR18420623752213"
}
