{
    "_id": "TR45110231237712",
    "name": "Trösten",
    "type": "artifactAbility",
    "img": "systems/tde5e/assets/defaultItems/artifact_ability.svg",
    "system": {
        "aspects": [],
        "binding": {
            "cost": "",
            "volume": "2 Punkte"
        },
        "brewType": null,
        "cid": "TROSTEN",
        "cost": {
            "text": "3 AsP pro Minute",
            "constant": 3,
            "recurring": null
        },
        "group": "rogueToy",
        "property": "healing",
        "purchase": {
            "cost": [
                5
            ],
            "description": "5 Abenteuerpunkte",
            "levels": 1,
            "maxTimeBuyable": 1
        },
        "requirementText": "Beweg dich!",
        "sources": [
            "BOSPARANS_KATAKOMBEN",
            "LIBER_EXTENSIONUM"
        ],
        "tradition": "Compendium.tde5e.magic.Item.TR44241162842057",
        "variant": {
            "categories": [],
            "input": false,
            "level": 1,
            "selected": null,
            "available": null
        },
        "flavor": "",
        "notes": "",
        "gmNotes": "",
        "parents": [
            "Compendium.tde5e.magic.Item.BE14111841136111"
        ],
        "rule": "<p>Das Spielzeug nähert sich einem ausgewählten Kulturschaffenden. Durch eine Berührung fängt das Spielzeug an, ihn zu trösten, beispielsweise durch Streicheln oder Gesang. Pro Minute des Tröstens kann der Kulturschaffende 1 Stufe @UUID[Compendium.tde5e.conditions.Item.FU13915517420459]{Furcht} abbauen. Der Schelm kann jede Minute entscheiden, ob die Wirkung aufrechterhalten werden soll.</p>"
    },
    "effects": [],
    "folder": "SC13023613233678",
    "_key": "!items!TR45110231237712"
}
