{
    "_id": "UN64157165264423",
    "name": "Unentflammbarkeit",
    "type": "spell",
    "img": "systems/tde5e/assets/defaultItems/spell.svg",
    "system": {
        "castingTime": "4 Akt",
        "castingTimeLong": "4 Aktionen",
        "check": {
            "resistedBySpirit": false,
            "resistedByToughness": false,
            "resistanceIsHalfed": false,
            "attributes": [
                "courage",
                "intuition",
                "constitution"
            ]
        },
        "checkedSkill": null,
        "cid": "UNENTFLAMMBARKEIT",
        "cost": {
            "text": "4 + 2 / 10 M",
            "textLong": "4 AsP (Aktivierung) + 2 AsP pro 10 Minuten",
            "constant": 4,
            "recurring": {
                "interval": 2,
                "unit": "10 Minuten"
            }
        },
        "duration": "aufrechterhaltend",
        "durationLong": "aufrechterhaltend",
        "enhancements": [
            {
                "name": "Feuerfestes Vertrautentier",
                "effect": "Solange das Vertrautentier mit der Hexe Körperkontakt hält, wirkt der Zauber auch auf das Tier.",
                "skillPoints": 8,
                "owned": false
            },
            {
                "name": "Schutzhülle",
                "effect": "Die Hexe kann ein Lebewesen berühren, um den Schutz auch auf das Ziel zu übertragen. Sobald sie sich nicht mehr berühren, endet die Wirkung für das Ziel.",
                "skillPoints": 11,
                "owned": false
            },
            {
                "name": "Brennsichere Kleidung",
                "effect": "Auch die Kleidung und am Körper getragene Ausrüstung sind immun gegen Feuer.",
                "skillPoints": 14,
                "owned": false
            }
        ],
        "group": "incantation",
        "modifications": {
            "canModCastingTime": true,
            "canModCost": false,
            "canModRange": true
        },
        "property": "elemental",
        "range": "selbst",
        "rangeLong": "selbst",
        "requirementText": "keine",
        "sources": [
            "BOSPARANS_KATAKOMBEN",
            "LIBER_EXTENSIONUM"
        ],
        "subTraditions": "",
        "targetCategory": "Kulturschaffende",
        "traditions": {
            "all": false,
            "values": [
                "Compendium.tde5e.magic.Item.TR60602241216130"
            ]
        },
        "improvement": {
            "column": "B",
            "value": 0
        },
        "notes": "",
        "gmNotes": "",
        "flavor": "",
        "rule": "Wirkt die Hexe den Zauber auf sich, erhält sie QS x 5 RS gegen Feuer. Ausgenommen hiervon ist magisches Feuer. Auch einen Sturz in glühende Lava übersteht die Hexe nicht. Die Kleidung und Ausrüstung der Hexe ist von der Wirkung nicht betroffen und brennt ganz normal. Die Hexe kann zwar den Status @UUID[Compendium.tde5e.conditions.Item.BR21523817083921]{Brand} erleiden, allerdings fügt er ihr keinen Schaden zu, solange der Zauber wirkt.",
        "parents": []
    },
    "effects": [],
    "folder": "SP15718021520213",
    "_key": "!items!UN64157165264423"
}
