{
    "_id": "UN98154673817020",
    "name": "Unheiligtum errichten",
    "type": "magicalAbility",
    "img": "systems/tde5e/assets/defaultItems/special_ability_magical.svg",
    "system": {
        "cid": "UNHEILIGTUM_ERRICHTEN",
        "cost": {
            "text": "",
            "constant": 0,
            "recurring": null
        },
        "group": "pactGift",
        "property": "",
        "purchase": {
            "cost": [
                25
            ],
            "description": "25 Abenteuerpunkte",
            "levels": 1,
            "maxTimeBuyable": 1
        },
        "requirementText": "Dämonenpakt Stufe 2",
        "sources": [
            "UNENDLICHKEIT_UND_TIEFENRAUSCH",
            "AVENTURISCHE_MAGIE_3"
        ],
        "styleAbilities": [],
        "variant": {
            "categories": [],
            "input": false,
            "available": [],
            "level": 1,
            "selected": null
        },
        "flavor": "",
        "notes": "",
        "gmNotes": "",
        "rule": "Der Paktierer kann einen Ort, der maximal die Größe eines durchschnittlichen Tempels aufweisen darf, zu einem Unheiligtum seines Erzdämons machen. Das entsprechende Ritual dauert 7 Stunden. Danach gilt der Ort für KdV Monate als Unheiligtum. Geweihte haben beim Wirken von Zeremonien zu beachten, dass für sie an diesem Ort Erschwernisse gelten (siehe <strong>Regelwerk</strong> Seite <strong>313</strong>). Paktierer des Erzdämons, dem das Unheiligtum geweiht ist, regenerieren in ihrer Regenerationsphase 1W6 LeP zusätzlich (nach Anrechnung des Verlustes durch @UUID[Compendium.tde5e.conditions.Item.DA21528191859282]{Dämonische Auszehrung}). Zudem ist hier das Beschwören von Dämonen aus der Domäne des Erzdämons um 1 erleichtert. Ein Paktierer kann kein weiteres Unheiligtum erschaffen, während das vorherige noch aktiv ist. Der Einsatz dieser Fähigkeit verursacht 3 Stufen @UUID[Compendium.tde5e.conditions.Item.DA21528191859282]{Dämonische Auszehrung}.",
        "parents": []
    },
    "effects": [],
    "folder": "DA73976415352799",
    "_key": "!items!UN98154673817020"
}
