{
    "_id": "VE12810466822815",
    "name": "Verborgenes Wissen erspüren",
    "type": "magicalAbility",
    "img": "systems/tde5e/assets/defaultItems/special_ability_magical.svg",
    "system": {
        "cid": "VERBORGENES_WISSEN_ERSPUREN",
        "cost": {
            "text": "",
            "constant": 0,
            "recurring": null
        },
        "group": "pactGift",
        "property": "",
        "purchase": {
            "cost": [
                10
            ],
            "description": "10 Abenteuerpunkte",
            "levels": 1,
            "maxTimeBuyable": 1
        },
        "requirementText": "Dämonenpakt Stufe 1 (Amazeroth)",
        "sources": [
            "AVENTURISCHE_MAGIE_3"
        ],
        "styleAbilities": [],
        "variant": {
            "categories": [],
            "input": false,
            "available": [],
            "level": 1,
            "selected": null
        },
        "flavor": "",
        "notes": "",
        "gmNotes": "",
        "rule": "Durch dieses Paktgeschenk kann der Paktierer eine Probe auf @UUID[Compendium.tde5e.skills.Item.SI80193235230167]{Sinnesschärfe} erleichtert um KdV/2 ablegen. Bei Gelingen erspürt er sämtliche Schriftstücke in einem Radius von 8 Schritt um sich herum. Auf ein einzelnes Buch angewandt weiß er zugleich grob, um was es in dem Buch geht, und kann für ihn interessante Passagen sofort entdecken. Der Einsatz dieser Fähigkeit kostet 1 Aktion und verursacht 1 Stufe @UUID[Compendium.tde5e.conditions.Item.DA21528191859282]{Dämonische Auszehrung}.",
        "parents": []
    },
    "effects": [],
    "folder": "DA30309060912592",
    "_key": "!items!VE12810466822815"
}
