{
    "_id": "VE22147415443141",
    "name": "Verbotene Pforten",
    "type": "magicalAbility",
    "img": "systems/tde5e/assets/defaultItems/special_ability_magical.svg",
    "system": {
        "cid": "VERBOTENE_PFORTEN",
        "cost": {
            "text": "",
            "constant": 0,
            "recurring": null
        },
        "group": "magical",
        "property": "",
        "purchase": {
            "cost": [
                10
            ],
            "description": "10 Abenteuerpunkte",
            "levels": 1,
            "maxTimeBuyable": 1
        },
        "requirementText": "Vorteil Zauberer,  Mut 12",
        "sources": [
            "REGELWERK"
        ],
        "styleAbilities": [],
        "variant": {
            "categories": [],
            "input": false,
            "available": [],
            "level": 1,
            "selected": null
        },
        "flavor": "",
        "notes": "",
        "gmNotes": "",
        "rule": "Ein Zauberer kann Anstelle von AsP auch LeP für die Zauberkosten aufwenden. Es muss jedoch pro Zauber mindestens 1 AsP aufgewendet werden. Dies ist ausgesprochen schmerzhaft und erfordert daher eine Probe auf das Talent @UUID[Compendium.tde5e.skills.Item.SE24510070128212]{Selbstbeherrschung}. Misslingt diese, misslingt auch der Zauber. Der Zauberkundige muss dann wie sonst die Hälfte der Kosten aufbringen, wobei diese zuerst von den AsP und, sollten diese nicht ausreichen, dann von seinen LE abgezogen werden.",
        "parents": []
    },
    "effects": [],
    "folder": "PA20111051426896",
    "_key": "!items!VE22147415443141"
}
