{
    "_id": "VE16623113319118",
    "name": "Verjüngung",
    "type": "magicalAbility",
    "img": "systems/tde5e/assets/defaultItems/special_ability_magical.svg",
    "system": {
        "cid": "VERJUNGUNG",
        "cost": {
            "text": "",
            "constant": 0,
            "recurring": null
        },
        "group": "pactGift",
        "property": "",
        "purchase": {
            "cost": [
                5
            ],
            "description": "5 Abenteuerpunkte",
            "levels": 1,
            "maxTimeBuyable": 1
        },
        "requirementText": "Dämonenpakt Stufe 1 (Asfaloth)",
        "sources": [
            "AVENTURISCHE_MAGIE_3"
        ],
        "styleAbilities": [],
        "variant": {
            "categories": [],
            "input": false,
            "available": [],
            "level": 1,
            "selected": null
        },
        "flavor": "",
        "notes": "",
        "gmNotes": "",
        "rule": "Die Paktiererin kann sich um bis zu KdV x 5 Jahre verjüngen. Nachteile ihres echten Alters entfallen. Die Wirkung ist permanent, das Paktgeschenk kann danach nicht mehr von ihr eingesetzt werden. Der Einsatz dieser Fähigkeit kostet 1 Aktion und verursacht 1 permanente Stufe @UUID[Compendium.tde5e.conditions.Item.DA21528191859282]{Dämonische Auszehrung} pro angefangenen 10 Jahren Jahren Verjüngung.",
        "parents": []
    },
    "effects": [],
    "folder": "DA30309060912592",
    "_key": "!items!VE16623113319118"
}
