{
    "_id": "VE73194104254164",
    "name": "Verrücktes Kichern",
    "type": "cantrip",
    "img": "systems/tde5e/assets/defaultItems/spell.svg",
    "system": {
        "cid": "VERRUCKTES_KICHERN",
        "duration": "sofort",
        "durationLong": "sofort",
        "property": "influence",
        "range": "selbst",
        "rangeLong": "selbst",
        "requirementText": "",
        "sources": [
            "BOSPARANS_KATAKOMBEN",
            "LIBER_EXTENSIONUM"
        ],
        "targetCategory": "Kulturschaffende",
        "traditions": {
            "all": false,
            "values": [
                "Compendium.tde5e.magic.Item.TR60602241216130"
            ]
        },
        "notes": "",
        "gmNotes": "",
        "flavor": "",
        "rule": "Mit diesem Zaubertrick kann die Hexe ein irres, verrücktes Kichern ausstoßen, das durch den gesamten Raum hallt. Regeltechnische Auswirkungen hat das verrückte Kichern nicht.",
        "parents": []
    },
    "effects": [],
    "folder": "SP45861142482726",
    "_key": "!items!VE73194104254164"
}
