{
    "_id": "VO20920969214517",
    "name": "Vogelzwitschern",
    "type": "spell",
    "img": "systems/tde5e/assets/defaultItems/spell.svg",
    "system": {
        "castingTime": "2 Akt",
        "castingTimeLong": "2 Aktion",
        "check": {
            "resistedBySpirit": false,
            "resistedByToughness": false,
            "resistanceIsHalfed": false,
            "attributes": [
                "courage",
                "intuition",
                "agility"
            ]
        },
        "checkedSkill": null,
        "cid": "VOGELZWITSCHERN",
        "cost": {
            "text": "4 AsP",
            "textLong": "4 AsP",
            "constant": 4,
            "recurring": null
        },
        "duration": "QS x 3 M",
        "durationLong": "QS x 3 Minuten",
        "enhancements": [
            {
                "name": "Gute Illusion",
                "effect": "Die @UUID[Compendium.tde5e.skills.Item.SI80193235230167]{Sinnesschärfe}-Probe, um die Illusion zu durchschauen, ist zusätzlich um 1 erschwert. Diese Erweiterung kann mehrfach angewendet werden.",
                "skillPoints": 8,
                "owned": false
            },
            {
                "name": "Zielkategorie Lebewesen",
                "effect": "Als Zielkategorie gilt Lebewesen. Der Zauberer muss vor der Wirkung entscheiden, welche Geräusche des Ziels wodurch ersetzt werden.",
                "skillPoints": 11,
                "owned": false
            },
            {
                "name": "Stille Post",
                "effect": "Der Scharlatan kann ein Ziel wählen, welches die Illusion nicht wahrnimmt. Stattdessen hört es die ursprünglichen Geräusche.",
                "skillPoints": 14,
                "owned": false
            }
        ],
        "group": "incantation",
        "modifications": {
            "canModCastingTime": true,
            "canModCost": true,
            "canModRange": true
        },
        "property": "illusion",
        "range": "selbst",
        "rangeLong": "selbst",
        "requirementText": "keine",
        "sources": [
            "BOSPARANS_KATAKOMBEN",
            "LIBER_EXTENSIONUM"
        ],
        "subTraditions": "",
        "targetCategory": "Zone",
        "traditions": {
            "all": false,
            "values": [
                "Compendium.tde5e.magic.Item.TR18517324589268"
            ]
        },
        "improvement": {
            "column": "A",
            "value": 0
        },
        "notes": "",
        "gmNotes": "",
        "flavor": "",
        "rule": "Innerhalb von QS x 2 Schritt um sich herum kann der Zauberer jedes beliebige Geräusch durch ein anderes ersetzen. Die Lautstärke bleibt dabei jedoch unverändert. Eine Stimme kann so etwa deutlich höher oder das Auftreten mit dem Fuß wie leiser Donner oder Fanfarenschall klingen (<a href=\"https://dsa.ulisses-regelwiki.de/Magie_Spezielle-Regeln-fuer-Spruchzauber_Illusionsregeln.html\" target=\"blank\" rel=\"noopener noreferrer\">Siehe Illusionen</a>).",
        "parents": []
    },
    "effects": [],
    "folder": "SP15718021520213",
    "_key": "!items!VO20920969214517"
}
