{
    "_id": "VO02392529213389",
    "name": "Volumenerweiterung des Rings",
    "type": "artifactAbility",
    "img": "systems/tde5e/assets/defaultItems/artifact_ability.svg",
    "system": {
        "aspects": [],
        "binding": {
            "cost": "",
            "volume": "0 Punkte"
        },
        "brewType": null,
        "cid": "VOLUMENERWEITERUNG_DES_RINGS",
        "cost": {
            "text": "1 permanenter AsP",
            "constant": 1,
            "recurring": null
        },
        "group": "geodeRing",
        "property": "object",
        "purchase": {
            "cost": [
                5,
                5,
                5,
                5,
                5
            ],
            "description": "5 Abenteuerpunkte pro Stufe",
            "levels": 5,
            "maxTimeBuyable": 5
        },
        "requirementText": "keine, bei höheren Stufen die jeweils vorige Stufe der SF",
        "sources": [
            "BOSPARANS_KATAKOMBEN",
            "LIBER_EXTENSIONUM"
        ],
        "tradition": "Compendium.tde5e.magic.Item.TR93186147562399",
        "variant": {
            "categories": [],
            "input": false,
            "level": 1,
            "selected": null,
            "available": null
        },
        "flavor": "",
        "notes": "",
        "gmNotes": "",
        "parents": [
            "Compendium.tde5e.magic.Item.BI24918214052114"
        ],
        "rule": "<p>Das Volumen des Rings steigt permanent um 1 Punkt. Dieser Ringzauber kann mehrfach gewählt werden, um die jeweils nächsthöhere Stufe zu erhalten</p>"
    },
    "effects": [],
    "folder": "GE36248242761091",
    "_key": "!items!VO02392529213389"
}
