{
    "_id": "VO11312910325122",
    "name": "Volumenerweiterung des Dolches",
    "type": "artifactAbility",
    "img": "systems/tde5e/assets/defaultItems/artifact_ability.svg",
    "system": {
        "aspects": [],
        "binding": {
            "cost": "",
            "volume": "0 Punkte"
        },
        "brewType": null,
        "cid": "VOLUMENERWEITERUNG_DES_DOLCHES",
        "cost": {
            "text": "1 permanenter AsP",
            "constant": 1,
            "recurring": null
        },
        "group": "druidDagger",
        "property": "object",
        "purchase": {
            "cost": [
                5,
                5,
                5,
                5,
                5
            ],
            "description": "5 Abenteuerpunkte pro Stufe",
            "levels": 5,
            "maxTimeBuyable": 5
        },
        "requirementText": "keine, bei höheren Stufen die jeweils vorige Stufe der SF",
        "sources": [
            "BOSPARANS_KATAKOMBEN",
            "LIBER_EXTENSIONUM"
        ],
        "tradition": "Compendium.tde5e.magic.Item.TR10415123625209",
        "variant": {
            "categories": [],
            "input": false,
            "level": 1,
            "selected": null,
            "available": null
        },
        "flavor": "",
        "notes": "",
        "gmNotes": "",
        "parents": [
            "Compendium.tde5e.magic.Item.BI11910663912251"
        ],
        "rule": "<p>Das Volumen des Dolchs steigt permanent um 1 Punkt. Dieses Dolchritual kann mehrfach gewählt werden, um die jeweils nächsthöhere Stufe zu erhalten.</p>"
    },
    "effects": [],
    "folder": "DR17331238762122",
    "_key": "!items!VO11312910325122"
}
