{
    "_id": "VO37170124851332",
    "name": "Volumenerweiterung der Zauberkleidung",
    "type": "artifactAbility",
    "img": "systems/tde5e/assets/defaultItems/artifact_ability.svg",
    "system": {
        "aspects": [],
        "binding": {
            "cost": "",
            "volume": "0 Punkte"
        },
        "brewType": null,
        "cid": "VOLUMENERWEITERUNG_DER_ZAUBERKLEIDUNG",
        "cost": {
            "text": "1 permanenter AsP",
            "constant": 1,
            "recurring": null
        },
        "group": "dancerAttire",
        "property": "object",
        "purchase": {
            "cost": [
                5,
                0,
                0,
                0,
                0
            ],
            "description": "5 Abenteuerpunkte",
            "levels": 5,
            "maxTimeBuyable": 5
        },
        "requirementText": "keine, bei höheren Stufen die jeweils vorige Stufe der SF",
        "sources": [
            "BOSPARANS_KATAKOMBEN",
            "LIBER_EXTENSIONUM"
        ],
        "tradition": "Compendium.tde5e.magic.Item.TR24231133849412",
        "variant": {
            "categories": [],
            "input": false,
            "level": 1,
            "selected": null,
            "available": null
        },
        "flavor": "",
        "notes": "",
        "gmNotes": "",
        "parents": [
            "Compendium.tde5e.magic.Item.BI31164839517010"
        ],
        "rule": "<p>Das Volumen der Zauberkleidung steigt permanent um 1 Punkt. Diese Gewandmagie kann mehrfach gewählt werden, um die jeweils nächsthöhere Stufe zu erhalten.</p>"
    },
    "effects": [],
    "folder": "ZA22018418563657",
    "_key": "!items!VO37170124851332"
}
