{
    "_id": "VO19317017762392",
    "name": "Volumenerweiterung der Krallenkette",
    "type": "artifactAbility",
    "img": "systems/tde5e/assets/defaultItems/artifact_ability.svg",
    "system": {
        "aspects": [],
        "binding": {
            "cost": "",
            "volume": "0 Punkte"
        },
        "brewType": null,
        "cid": "VOLUMENERWEITERUNG_DER_KRALLENKETTE",
        "cost": {
            "text": "1 permanenter AsP pro Stufe",
            "constant": 0,
            "recurring": null
        },
        "group": "animistClawChain",
        "property": null,
        "purchase": {
            "cost": [
                5,
                5,
                5,
                5,
                5
            ],
            "description": "5 Abenteuerpunkte pro Stufe",
            "levels": 5,
            "maxTimeBuyable": 1
        },
        "requirementText": "SF Bindung der Krallenkette",
        "sources": [
            "GEISTERWALD_UND_KNOCHENKLIPPEN"
        ],
        "tradition": "Compendium.tde5e.magic.Item.TR22473791851201",
        "variant": {
            "categories": [],
            "input": false,
            "level": 1,
            "selected": null,
            "available": null
        },
        "flavor": "",
        "notes": "",
        "gmNotes": "",
        "parents": [
            "Compendium.tde5e.magic.Item.BI46152119524428"
        ],
        "rule": "<p>Das Volumen der Krallenkette steigt permanent um 1 Punkt. Dieser Krallenkettenzauber kann mehrfach gewählt werden, um die jeweils nächsthöhere Stufe zu erhalten.</p>"
    },
    "effects": [],
    "folder": "AN29112102313266",
    "_key": "!items!VO19317017762392"
}
