{
    "_id": "VO10216923102392",
    "name": "Volumenerweiterung des Schelmenspielzeugs",
    "type": "artifactAbility",
    "img": "systems/tde5e/assets/defaultItems/artifact_ability.svg",
    "system": {
        "aspects": [],
        "binding": {
            "cost": "",
            "volume": "0 Punkte"
        },
        "brewType": null,
        "cid": "VOLUMENERWEITERUNG_DES_SCHELMENSPIELZEUGS",
        "cost": {
            "text": "1 permanenter AsP",
            "constant": 1,
            "recurring": null
        },
        "group": "rogueToy",
        "property": "object",
        "purchase": {
            "cost": [
                5,
                0,
                0,
                0,
                0
            ],
            "description": "5 Abenteuerpunkte",
            "levels": 5,
            "maxTimeBuyable": 5
        },
        "requirementText": "keine, bei höheren Stufen die jeweils vorige Stufe der SF",
        "sources": [
            "BOSPARANS_KATAKOMBEN",
            "LIBER_EXTENSIONUM"
        ],
        "tradition": "Compendium.tde5e.magic.Item.TR44241162842057",
        "variant": {
            "categories": [],
            "input": false,
            "level": 1,
            "selected": null,
            "available": null
        },
        "flavor": "",
        "notes": "",
        "gmNotes": "",
        "parents": [
            "Compendium.tde5e.magic.Item.BI28173119237106"
        ],
        "rule": "<p>Das Volumen des Schelmenspielzeugs steigt permanent um 1 Punkt. Diese Spielzeugmagie kann mehrfach gewählt werden, um die jeweils nächsthöhere Stufe zu erhalten.</p>"
    },
    "effects": [],
    "folder": "SC13023613233678",
    "_key": "!items!VO10216923102392"
}
