{
    "_id": "WA21113919912117",
    "name": "Wachsmumie",
    "type": "spell",
    "img": "systems/tde5e/assets/defaultItems/spell.svg",
    "system": {
        "castingTime": "2 ST",
        "castingTimeLong": "2 Stunden",
        "check": {
            "resistedBySpirit": false,
            "resistedByToughness": false,
            "resistanceIsHalfed": false,
            "attributes": [
                "courage",
                "charisma",
                "constitution"
            ]
        },
        "checkedSkill": null,
        "cid": "WACHSMUMIE",
        "cost": {
            "text": "16 AsP",
            "textLong": "16 AsP",
            "constant": 16,
            "recurring": null
        },
        "duration": "QS x 100 J",
        "durationLong": "QS Jahrhunderte",
        "enhancements": [],
        "group": "zibiljaRitual",
        "modifications": {
            "canModCastingTime": true,
            "canModCost": false,
            "canModRange": true
        },
        "property": "demonic",
        "range": "Berührung",
        "rangeLong": "Berührung",
        "requirementText": "keine",
        "sources": [
            "BOSPARANS_KATAKOMBEN",
            "LIBER_EXTENSIONUM"
        ],
        "subTraditions": "",
        "targetCategory": "Objekte (Leichen)",
        "traditions": {
            "all": false,
            "values": [
                "Compendium.tde5e.magic.Item.TR23524614818820"
            ]
        },
        "improvement": {
            "column": "C",
            "value": 0
        },
        "notes": "",
        "gmNotes": "",
        "flavor": "",
        "rule": "Ein Leichnam wird durch Magie mumifiziert und verteidigt ein von der Zibilja benanntes Grab. Die Mumie greift alle Eindringlinge an, die nicht der Sippe der Zibilja angehören, sobald sie sich ihm bis auf 8 Schritt genähert haben. Das Grab verlässt die Mumie jedoch nicht.",
        "parents": []
    },
    "effects": [],
    "folder": "SP20228137234218",
    "_key": "!items!WA21113919912117"
}
