{
    "_id": "WA10899244218220",
    "name": "Wachendes Auge",
    "type": "artifactAbility",
    "img": "systems/tde5e/assets/defaultItems/artifact_ability.svg",
    "system": {
        "aspects": [],
        "binding": {
            "cost": "",
            "volume": "6 Punkte"
        },
        "brewType": null,
        "cid": "WACHENDES_AUGE",
        "cost": {
            "text": "4 AsP pro Minute",
            "constant": 4,
            "recurring": null
        },
        "group": "charlatanBall",
        "property": "clairvoyance",
        "purchase": {
            "cost": [
                10
            ],
            "description": "10 Abenteuerpunkte",
            "levels": 1,
            "maxTimeBuyable": 1
        },
        "requirementText": "keine",
        "sources": [
            "BOSPARANS_KATAKOMBEN",
            "LIBER_EXTENSIONUM"
        ],
        "tradition": "Compendium.tde5e.magic.Item.TR18517324589268",
        "variant": {
            "categories": [],
            "input": false,
            "level": 1,
            "selected": null,
            "available": null
        },
        "flavor": "",
        "notes": "",
        "gmNotes": "",
        "parents": [
            "Compendium.tde5e.magic.Item.BI25320487236112"
        ],
        "rule": "<p>Der Scharlatan kann alles sehen (und nur sehen), was sich in bis zu 16 Schritt um die Zauberkugel herum befindet. Körperkontakt ist dazu nicht erforderlich, die Kugel darf jedoch maximal 100 Schritt entfernt sein. Der Scharlatan nimmt die Umgebung leicht gekrümmt wahr. Details zu erkennen, die weiter als 8 Schritt entfernt sind, erfordert eine Probe auf @UUID[Compendium.tde5e.skills.Item.SI80193235230167]{Sinnesschärfe (Suchen)}. Durch Drehen seines Kopfes kann der Scharlatan auch seinen Blickwinkel ändern. Solange er durch die Kugel sieht, erleidet er den Status @UUID[Compendium.tde5e.states.Item.BL22229164212381]{Blind} für seine eigentliche Umgebung.</p>"
    },
    "effects": [],
    "folder": "SC17321712817524",
    "_key": "!items!WA10899244218220"
}
