{
    "_id": "WA18814910115722",
    "name": "Wasserbrücke",
    "type": "magicalAbility",
    "img": "systems/tde5e/assets/defaultItems/special_ability_magical.svg",
    "system": {
        "cid": "WASSERBRUCKE",
        "cost": {
            "text": "",
            "constant": 0,
            "recurring": null
        },
        "group": "pactGift",
        "property": "",
        "purchase": {
            "cost": [
                15
            ],
            "description": "15 Abenteuerpunkte",
            "levels": 1,
            "maxTimeBuyable": 1
        },
        "requirementText": "Dämonenpakt Stufe 2 (Charyptoroth)",
        "sources": [
            "UNENDLICHKEIT_UND_TIEFENRAUSCH",
            "AVENTURISCHE_MAGIE_3"
        ],
        "styleAbilities": [],
        "variant": {
            "categories": [],
            "input": false,
            "available": [],
            "level": 1,
            "selected": null
        },
        "flavor": "",
        "notes": "",
        "gmNotes": "",
        "rule": "Von den Füßen des Paktierers ausgehend erscheint eine Brücke aus fauligem Wasser. Ihre maximale Länge beträgt KdV x 5 Schritt, die maximale Breite 1 Schritt. Sie ist entweder waagerecht oder leicht gewölbt, muss aber an keiner Stelle den Boden berühren. Die Wasserbrücke hält für 15 Minuten. Wird sie auf ihrer gesamten Fläche mit einem höheren Gewicht als 500 Stein belastet, bricht sie zusammen und der Einsatz des Paktgeschenkes endet vorzeitig. Das Gleiche geschieht, wenn sie mit Waffengewalt zerstört wird, wobei sie insgesamt 100 Strukturpunkte aufweist. Der Einsatz dieser Fähigkeit verursacht 1 Stufe @UUID[Compendium.tde5e.conditions.Item.DA21528191859282]{Dämonische Auszehrung}.",
        "parents": []
    },
    "effects": [],
    "folder": "DA73976415352799",
    "_key": "!items!WA18814910115722"
}
