{
    "_id": "WE66119010012321",
    "name": "Weg des Dolches",
    "type": "artifactAbility",
    "img": "systems/tde5e/assets/defaultItems/artifact_ability.svg",
    "system": {
        "aspects": [],
        "binding": {
            "cost": "",
            "volume": "2 Punkte"
        },
        "brewType": null,
        "cid": "WEG_DES_DOLCHES",
        "cost": {
            "text": "8 AsP (+1 LeP, siehe oben)",
            "constant": 8,
            "recurring": null
        },
        "group": "druidDagger",
        "property": "elemental",
        "purchase": {
            "cost": [
                10
            ],
            "description": "10 Abenteuerpunkte",
            "levels": 1,
            "maxTimeBuyable": 1
        },
        "requirementText": "keine",
        "sources": [
            "BOSPARANS_KATAKOMBEN",
            "LIBER_EXTENSIONUM"
        ],
        "tradition": "Compendium.tde5e.magic.Item.TR10415123625209",
        "variant": {
            "categories": [],
            "input": false,
            "level": 1,
            "selected": null,
            "available": null
        },
        "flavor": "",
        "notes": "",
        "gmNotes": "",
        "parents": [
            "Compendium.tde5e.magic.Item.BI11910663912251"
        ],
        "rule": "<p>Der Druide ritzt sich mit dem Dolch in die Oberschenkel und verliert dabei 1 LeP. Anschließend kann er für die nächsten 6 Stunden seine GS für ein Gelände seiner Wahl um 2 erhöhen. Als Gelände kommen alle Geländetypen der Sonderfertigkeit @UUID[Compendium.tde5e.mundaneSpecialAbilities.Item.GE68056138432073]{Geländekunde} infrage (siehe <strong>Regelwerk</strong> Seite <strong>217</strong>).</p>"
    },
    "effects": [],
    "folder": "DR17331238762122",
    "_key": "!items!WE66119010012321"
}
