{
    "_id": "WE10276140118113",
    "name": "Weisheit des Leytfadens",
    "type": "cantrip",
    "img": "systems/tde5e/assets/defaultItems/spell.svg",
    "system": {
        "cid": "WEISHEIT_DES_LEYTFADENS",
        "duration": "max. 10 Sekunden",
        "durationLong": "max. 10 Sekunden",
        "property": "illusion",
        "range": "selbst",
        "rangeLong": "selbst",
        "requirementText": "",
        "sources": [
            "BOSPARANS_KATAKOMBEN",
            "LIBER_EXTENSIONUM"
        ],
        "targetCategory": "Kulturschaffende",
        "traditions": {
            "all": false,
            "values": [
                "Compendium.tde5e.magic.Item.TR20562116246223"
            ]
        },
        "notes": "",
        "gmNotes": "",
        "flavor": "",
        "rule": "Die Hörer innerhalb einer Reichweite von 8 Schritt Radius um den Zauberer vernehmen eine Stimme, die ihnen eine Passage aus einem Zauberbuch vorliest. Der Text muss dem Zaubernden bekannt sein. Die Passage kann er selbst auswählen, sie muss aber innerhalb von 10 Sekunden vorlesbar sein. Nur die Personen, die die Passage hören sollen, hören sie auch, alle übrigen bekommen von der Belehrung nichts mit.",
        "parents": []
    },
    "effects": [],
    "folder": "SP45861142482726",
    "_key": "!items!WE10276140118113"
}
