{
    "_id": "WE15199538580194",
    "name": "Weissagung",
    "type": "magicalAbility",
    "img": "systems/tde5e/assets/defaultItems/special_ability_magical.svg",
    "system": {
        "cid": "WEISSAGUNG",
        "cost": {
            "text": "",
            "constant": 0,
            "recurring": null
        },
        "group": "spellStyleExtended",
        "property": "",
        "purchase": {
            "cost": [
                15
            ],
            "description": "15 Abenteuerpunkte",
            "levels": 1,
            "maxTimeBuyable": 1
        },
        "requirementText": "keine",
        "sources": [
            "AVENTURISCHE_MAGIE_2"
        ],
        "styleAbilities": [],
        "variant": {
            "categories": [],
            "input": false,
            "available": [],
            "level": 1,
            "selected": null
        },
        "flavor": "",
        "notes": "",
        "gmNotes": "",
        "parents": [
            "Compendium.tde5e.magic.Item.BE13411413119617",
            "Compendium.tde5e.magic.Item.GE20415781511082",
            "Compendium.tde5e.magic.Item.WA10693762610125",
            "Compendium.tde5e.magic.Item.RA11524821626203",
            "Compendium.tde5e.magic.Item.KO19918015978236",
            "Compendium.tde5e.magic.Item.WA38227148230142"
        ],
        "rule": "<p>Die Hexe kann eine Weissagung aussprechen. Diese ist immer mit einem guten und einem schlechten Omen verbunden. Das freiwillige Ziel, für das die Weissagung bestimmt ist, bekommt bis zum Ende der Wirkungsdauer 1 Schip. Dieser Schip kann auch das Maximum der Person übersteigen. Allerdings erhält die Person auch auf alle Fertigkeitsproben, bei denen mindestens eine Teilprobe auf IN geht, bis zum Ende der Wirkungsdauer eine Erschwernis von 1. Die Hexe kann die Weissagung auch auf sich selbst anwenden. Die Wirkung der Prophezeiung hält bis zum Ende des aktuellen Abenteuers an.</p>"
    },
    "effects": [],
    "folder": "ZA17820398219817",
    "_key": "!items!WE15199538580194"
}
