{
    "_id": "WI21919516021458",
    "name": "Widerwille",
    "type": "spell",
    "img": "systems/tde5e/assets/defaultItems/spell.svg",
    "system": {
        "castingTime": "30 M",
        "castingTimeLong": "30 Minuten",
        "check": {
            "resistedBySpirit": false,
            "resistedByToughness": false,
            "resistanceIsHalfed": false,
            "attributes": [
                "intuition",
                "charisma",
                "agility"
            ]
        },
        "checkedSkill": null,
        "cid": "WIDERWILLE",
        "cost": {
            "text": "8 AsP",
            "textLong": "8 AsP",
            "constant": 8,
            "recurring": null
        },
        "duration": "QS ST",
        "durationLong": "QS Stunden",
        "enhancements": [
            {
                "name": "Nicht alle",
                "effect": "Der Zauberer kann beliebig viele Leute benennen, die nicht von der Wirkung betroffen sind.",
                "skillPoints": 8,
                "owned": false
            },
            {
                "name": "Längere Wirkungsdauer",
                "effect": "Die Wirkungsdauer beträgt QS Tage.",
                "skillPoints": 11,
                "owned": false
            },
            {
                "name": "Größere Objekte",
                "effect": "Das Ritual kann auf Gegenstände von der Größe einer Truhe gewirkt werden. Die se Zaubererweiterung kann mehrfach angewendet werden, um Gegenstände von der Größe einer Tür (zweifach), eines Bücherregals (dreifach) bzw. eines Burgtors (vierfach) zu verstärken.",
                "skillPoints": 14,
                "owned": false
            }
        ],
        "group": "ritual",
        "modifications": {
            "canModCastingTime": true,
            "canModCost": true,
            "canModRange": true
        },
        "property": "influence",
        "range": "16 m",
        "rangeLong": "16 Schritt",
        "requirementText": "keine",
        "sources": [
            "BOSPARANS_KATAKOMBEN",
            "LIBER_EXTENSIONUM"
        ],
        "subTraditions": "",
        "targetCategory": "Objekte",
        "traditions": {
            "all": false,
            "values": [
                "Compendium.tde5e.magic.Item.TR20562116246223",
                "Compendium.tde5e.magic.Item.TR18517324589268"
            ]
        },
        "improvement": {
            "column": "B",
            "value": 0
        },
        "notes": "",
        "gmNotes": "",
        "flavor": "",
        "rule": "Personen mit SK 2 oder schlechter ignorieren ein vom Zauberer bestimmtes Objekt, selbst wenn es sich direkt vor ihnen befindet. Kommt es zu einer Interaktion mit dem Opfer, etwa wenn dieses mit einem bislang ignorierten Schwert angegriffen wird, endet die Wirkung jedoch. Ein einfaches Berühren oder Ertasten reicht hierfür aber nicht aus. Der Zauberer selbst nimmt das Objekt immer wahr, auch wenn der Zauber wirkt. Es können lediglich kleinere Gegenstände bis zur Größe einer Zweihandwaffe oder eines Seils verzaubert werden.",
        "parents": []
    },
    "effects": [],
    "folder": "SP18396136219154",
    "_key": "!items!WI21919516021458"
}
