{
    "_id": "WI25072461321841",
    "name": "Wildschweineruf",
    "type": "spell",
    "img": "systems/tde5e/assets/defaultItems/spell.svg",
    "system": {
        "castingTime": "4 Akt",
        "castingTimeLong": "4 Aktionen",
        "check": {
            "resistedBySpirit": false,
            "resistedByToughness": false,
            "resistanceIsHalfed": false,
            "attributes": [
                "courage",
                "intuition",
                "charisma"
            ]
        },
        "checkedSkill": null,
        "cid": "WILDSCHWEINERUF",
        "cost": {
            "text": "16 AsP",
            "textLong": "16 AsP",
            "constant": 16,
            "recurring": null
        },
        "duration": "15 M",
        "durationLong": "15 Minuten",
        "rule": "Mit diesem Ritual kann die Goblinzauberin QS Wildschweine herbeirufen. Die Wildschweine müssen sich nicht in der Nähe aufgehalten haben, sondern sie werden auf übernatürliche Weise in die Nähe der Zauberin gebracht. Dennoch dauert ihre Ankunft 7-QS KR. Die Goblinzauberin kann den Tieren einen gemeinsamen Befehl erteilen („Beschützt mich“, „Greift folgende Gegner an“, etc.), den die Tiere dann bis zum Ende der Wirkungsdauer ausführen. Anschließend verschwinden sie wieder, falls sie noch leben, und kehren augenblicklich an den Ort zurück, von dem sie kamen.",
        "enhancements": [],
        "group": "goblinRitual",
        "modifications": {
            "canModCastingTime": false,
            "canModCost": false,
            "canModRange": false
        },
        "property": "spheres",
        "range": "selbst",
        "rangeLong": "selbst",
        "requirementText": "keine",
        "sources": [
            "KODEX_DER_MAGIE"
        ],
        "subTraditions": "",
        "targetCategory": "Tiere (Wildschweine)",
        "traditions": {
            "all": false,
            "values": [
                "Compendium.tde5e.magic.Item.TR52194209152352"
            ]
        },
        "improvement": {
            "column": "B",
            "value": 0
        },
        "notes": "",
        "gmNotes": "",
        "flavor": ""
    },
    "effects": [],
    "folder": "GO33132696188521",
    "_key": "!items!WI25072461321841"
}
