{
    "_id": "WI27124215502338",
    "name": "Wind im Haar",
    "type": "cantrip",
    "img": "systems/tde5e/assets/defaultItems/spell.svg",
    "system": {
        "cid": "WIND_IM_HAAR",
        "duration": "1 ST",
        "durationLong": "1 Stunde",
        "property": "elemental",
        "range": "selbst",
        "rangeLong": "selbst",
        "requirementText": "",
        "sources": [
            "BOSPARANS_KATAKOMBEN",
            "LIBER_EXTENSIONUM"
        ],
        "targetCategory": "Kulturschaffende",
        "traditions": {
            "all": false,
            "values": [
                "Compendium.tde5e.magic.Item.TR12613614461225",
                "Compendium.tde5e.magic.Item.TR10415123625209",
                "Compendium.tde5e.magic.Item.TR20562116246223"
            ]
        },
        "notes": "",
        "gmNotes": "",
        "flavor": "",
        "rule": "Der Zauberer wird von Wind umspielt, was dazu führt, dass seine Kleidung und sein Haar während der Wirkungsdauer ständig in Bewegung sind.",
        "parents": []
    },
    "effects": [],
    "folder": "SP45861142482726",
    "_key": "!items!WI27124215502338"
}
