{
    "_id": "WI37747014416515",
    "name": "Wirbelsturm",
    "type": "spell",
    "img": "systems/tde5e/assets/defaultItems/spell.svg",
    "system": {
        "castingTime": "16 Akt",
        "castingTimeLong": "16 Aktionen",
        "check": {
            "resistedBySpirit": false,
            "resistedByToughness": false,
            "resistanceIsHalfed": false,
            "attributes": [
                "courage",
                "intuition",
                "strength"
            ]
        },
        "cid": "WIRBELSTURM",
        "cost": {
            "text": "32 AsP",
            "textLong": "32 AsP",
            "constant": 2,
            "recurring": null
        },
        "duration": "QS KR",
        "durationLong": "QS Kampfrunden",
        "enhancements": [
            {
                "name": "Großer Sturm",
                "effect": "Die Reichweite steigt um 1 Schritt. Diese Erweiterung kann mehrfach angewendet werden.",
                "skillPoints": 8,
                "owned": false
            },
            {
                "name": "Starker Sturm",
                "effect": "Die Probe auf Kraftakt ist um zusätzlich –1 erschwert. Diese Erweiterung kann mehrfach angewendet werden.",
                "skillPoints": 11,
                "owned": false
            },
            {
                "name": "Lebender Sturm",
                "effect": "Der Sturm kann mit GS 2 nach Willen des Zauberers bewegt werden.",
                "skillPoints": 14,
                "owned": false
            }
        ],
        "group": "incantation",
        "modifications": {
            "canModCastingTime": true,
            "canModCost": false,
            "canModRange": true
        },
        "property": "elemental",
        "range": "selbst",
        "rangeLong": "selbst",
        "requirementText": "keine",
        "sources": [
            "GRIMORUM_CANTIONES"
        ],
        "targetCategory": "Zone",
        "traditions": {
            "all": false,
            "values": [
                "Compendium.tde5e.magic.Item.TR10415123625209",
                "Compendium.tde5e.magic.Item.TR93186147562399"
            ]
        },
        "improvement": {
            "column": "D",
            "value": 0
        },
        "notes": "",
        "gmNotes": "",
        "flavor": "",
        "checkedSkill": null,
        "rule": "Der Zauberer erzeugt einen Wirbelsturm mit einem Radius von 3 Schritt. Innerhalb dieser Windhose erleiden alle Lebewesen pro angefangenen 5 KR 1W6 SP. Zudem erleiden alle den Status @UUID[Compendium.tde5e.states.Item.LI27509315183188]{Liegend} und werden jede KR 1 Schritt weit über den Boden geschleift (aber immer innerhalb des Wirbelsturms). Aufzustehen und sich mit maximal GS/2 zu bewegen, erfordert jede KR 2 Aktionspunkte und eine gelungene Probe auf @UUID[Compendium.tde5e.skills.Item.KR28631591116621]{Kraftakt}. Manöver erleiden eine reduzierte Qualität um 3, FK ist nicht möglich.",
        "parents": []
    },
    "effects": [],
    "folder": "SP15718021520213",
    "_key": "!items!WI37747014416515"
}
