{
    "_id": "WO32561626319117",
    "name": "Wohlgeruch",
    "type": "cantrip",
    "img": "systems/tde5e/assets/defaultItems/spell.svg",
    "system": {
        "cid": "WOHLGERUCH",
        "duration": "1 ST",
        "durationLong": "1 Stunde",
        "property": "transformation",
        "range": "selbst",
        "rangeLong": "selbst",
        "requirementText": "",
        "sources": [
            "BOSPARANS_KATAKOMBEN",
            "LIBER_EXTENSIONUM"
        ],
        "targetCategory": "Kulturschaffende",
        "traditions": {
            "all": false,
            "values": [
                "Compendium.tde5e.magic.Item.TR37561943665255"
            ]
        },
        "notes": "",
        "gmNotes": "",
        "flavor": "",
        "rule": "Der Elf riecht nach einer belieben Blumensorte. Dies verschafft ihm keinen regeltechnischen Vorteil wie @UUID[Compendium.tde5e.advantagesDisadvantages.Item.AN57113501872471]{Angenehmer Geruch}, aber er kann z. B. den Status @UUID[Compendium.tde5e.states.Item.UB23391668123359]{Übler Geruch} für die Wirkungsdauer überdecken.",
        "parents": []
    },
    "effects": [],
    "folder": "SP45861142482726",
    "_key": "!items!WO32561626319117"
}
