{
    "_id": "WO14220115155186",
    "name": "Wolfstatze",
    "type": "spell",
    "img": "systems/tde5e/assets/defaultItems/spell.svg",
    "system": {
        "castingTime": "8 Akt",
        "castingTimeLong": "8 Aktionen",
        "check": {
            "resistedBySpirit": false,
            "resistedByToughness": false,
            "resistanceIsHalfed": false,
            "attributes": [
                "courage",
                "intuition",
                "agility"
            ]
        },
        "cid": "WOLFSTATZE",
        "cost": {
            "text": "8 + 4 / Stunde",
            "textLong": "8 AsP (Aktivierung) + 4 AsP pro Stunde",
            "constant": 8,
            "recurring": {
                "interval": 4,
                "unit": "Stunde"
            }
        },
        "duration": "aufrechterhaltend",
        "durationLong": "aufrechterhaltend",
        "enhancements": [
            {
                "name": "Mächtiges Tier",
                "effect": "Das Tier erhält einen Bonus von einem Punkt auf ein beliebiges Attribut. Diese Erweiterung kann mehrfach angewendet werden.",
                "skillPoints": 8,
                "owned": false
            },
            {
                "name": "Große Tiere",
                "effect": "Der Zauberer kann sich auch in Fluglebewesen der Größenkategorie mittel verwandeln. Es entstehen zusätzliche Kosten in Höhe von 6 AsP. Diese Erweiterung kann zweifach verwendet werden, um sich in ein großes Fluglebewesen zu verwandeln.",
                "skillPoints": 11,
                "owned": false
            },
            {
                "name": "Elan",
                "effect": "Bei der Verwandlung erhält das Tier QS x 10 % LeP zusätzlich, wobei es nicht mehr als seine maximalen Lebenspunkte haben kann. Wenn die LeP unter den Originalwert sinken, wirkt sich dies auch auf die relativen LeP des Zauberers aus. Ansonsten wird bei der Rückverwandlung der ursprüngliche Wert wiederhergestellt.",
                "skillPoints": 14,
                "owned": false
            }
        ],
        "group": "incantation",
        "modifications": {
            "canModCastingTime": true,
            "canModCost": true,
            "canModRange": true
        },
        "property": "transformation",
        "range": "selbst",
        "rangeLong": "selbst",
        "requirementText": "keine",
        "sources": [
            "BOSPARANS_KATAKOMBEN"
        ],
        "targetCategory": "Kulturschaffende",
        "traditions": {
            "all": true,
            "values": []
        },
        "improvement": {
            "column": "C",
            "value": 0
        },
        "notes": "",
        "gmNotes": "",
        "flavor": "",
        "checkedSkill": null,
        "rule": "Der Zauberer verwandelt sich in ein Landlebewesen seiner Wahl, das jedoch maximal die Größenkategorie klein aufweisen darf. Während der Wirkungsdauer verwendet der Zauberer die körperlichen Werte des Tieres, einschließlich seiner Eigenschaften, Talente und Kampfwerte. Die maximalen Lebenspunkte des Wesens entsprechen einem üblichen Vertreter seiner Art, werden aber bei Verwandlung auf QS x 15 limitiert. Eine niedrige LE wird bei der Verwandlung anteilsmäßig angerechnet, gleiches geschieht bei der Rückverwandlung. Die geistigen Werte des Zauberers bleiben ebenso wie sein Bewusstsein erhalten. Die Verwandlung betrifft nur den Zauberer selbst, nicht seine Kleidung oder Ausrüstung. Es ist keine Verwandlung in ein kulturschaffendes Wesen möglich.",
        "parents": []
    },
    "effects": [],
    "folder": "SP15718021520213",
    "_key": "!items!WO14220115155186"
}
