{
    "_id": "WU45182127431034",
    "name": "Wunden lecken",
    "type": "artifactAbility",
    "img": "systems/tde5e/assets/defaultItems/artifact_ability.svg",
    "system": {
        "aspects": [],
        "binding": {
            "cost": "",
            "volume": "4 Punkte"
        },
        "brewType": null,
        "cid": "WUNDEN_LECKEN",
        "cost": {
            "text": "3 AsP",
            "constant": 3,
            "recurring": null
        },
        "group": "animistClawChain",
        "property": null,
        "purchase": {
            "cost": [
                12
            ],
            "description": "12 Abenteuerpunkte",
            "levels": 1,
            "maxTimeBuyable": 1
        },
        "requirementText": "SF Bindung der Krallenkette",
        "sources": [
            "GEISTERWALD_UND_KNOCHENKLIPPEN"
        ],
        "tradition": "Compendium.tde5e.magic.Item.TR22473791851201",
        "variant": {
            "categories": [],
            "input": false,
            "level": 1,
            "selected": null,
            "available": null
        },
        "flavor": "",
        "notes": "",
        "gmNotes": "",
        "parents": [
            "Compendium.tde5e.magic.Item.BI46152119524428"
        ],
        "rule": "<p>Die Animistin kann über die Wunden eines Lebewesens lecken und so die Verletzung heilen. Sie muss die AsP-Kosten bezahlen, danach kann sie ihre eigenen LeP in das Lebewesen fließen lassen (im Verhältnis 1 zu 1). Der Vorgang dauert 1 Minute.</p>"
    },
    "effects": [],
    "folder": "AN29112102313266",
    "_key": "!items!WU45182127431034"
}
