{
    "_id": "WU16716464146187",
    "name": "Wundschmerz",
    "type": "magicalAbility",
    "img": "systems/tde5e/assets/defaultItems/special_ability_magical.svg",
    "system": {
        "cid": "WUNDSCHMERZ",
        "cost": {
            "text": "",
            "constant": 0,
            "recurring": null
        },
        "group": "pactGift",
        "property": "",
        "purchase": {
            "cost": [
                20
            ],
            "description": "20 Abenteuerpunkte",
            "levels": 1,
            "maxTimeBuyable": 1
        },
        "requirementText": "Dämonenpakt Stufe 2 (Belhalhar)",
        "sources": [
            "AVENTURISCHE_MAGIE_3"
        ],
        "styleAbilities": [],
        "variant": {
            "categories": [],
            "input": false,
            "available": [],
            "level": 1,
            "selected": null
        },
        "flavor": "",
        "notes": "",
        "gmNotes": "",
        "rule": "Der Paktierer kann vor einer Attacke oder einem Fernkampfangriff dieses Paktgeschenk einsetzen. Die Wirkung hält 13 KR an. Erzielt der Paktierer in dieser Zeit durch AT oder FK SP bei einem Lebewesen, so muss es eine Probe auf @UUID[Compendium.tde5e.skills.Item.SE24510070128212]{Selbstbeherrschung (Handlungsfähigkeit bewahren)} erschwert um KdV ablegen, sonst erhält es 1 Stufe @UUID[Compendium.tde5e.conditions.Item.SC72173204142222]{Schmerz} für 1 Stunde. Jedes Lebewesen kann durch diese Fähigkeit nur 1 Stufe @UUID[Compendium.tde5e.conditions.Item.SC72173204142222]{Schmerz} erleiden, auch wenn es mehrfach getroffen wird. Allerdings muss es, sofern es noch keinen Schmerz durch die Fähigkeit erlitten hat, jedes Mal innerhalb der Wirkungsdauer bei SP eine Probe ablegen. Innerhalb der Wirkungsdauer können jedoch mehrere Lebewesen angegriffen werden, sodass der Paktierer mit der Fähigkeit bei ihnen allen Schmerzen auslösen kann. Der Einsatz dieser Fähigkeit kostet 1 freie Aktion und verursacht 1 Stufe @UUID[Compendium.tde5e.conditions.Item.DA21528191859282]{Dämonische Auszehrung}.",
        "parents": []
    },
    "effects": [],
    "folder": "DA73976415352799",
    "_key": "!items!WU16716464146187"
}
