{
    "_id": "WU21111891952872",
    "name": "Wurzel des Blutes",
    "type": "spell",
    "img": "systems/tde5e/assets/defaultItems/spell.svg",
    "system": {
        "castingTime": "8 ST",
        "castingTimeLong": "8 Stunden",
        "check": {
            "resistedBySpirit": true,
            "resistedByToughness": false,
            "resistanceIsHalfed": false,
            "attributes": [
                "courage",
                "courage",
                "intuition"
            ]
        },
        "checkedSkill": null,
        "cid": "WURZEL_DES_BLUTES",
        "cost": {
            "text": "8 AsP",
            "textLong": "8 AsP",
            "constant": 8,
            "recurring": null
        },
        "duration": "4 ST",
        "durationLong": "4 Stunden (innerhalb dieser Frist muss der Schaden entstehen)",
        "enhancements": [],
        "group": "dominationRitual",
        "modifications": {
            "canModCastingTime": false,
            "canModCost": false,
            "canModRange": false
        },
        "property": "influence",
        "range": "selbst",
        "rangeLong": "selbst",
        "requirementText": "keine",
        "sources": [
            "BOSPARANS_KATAKOMBEN",
            "LIBER_EXTENSIONUM"
        ],
        "subTraditions": "",
        "targetCategory": "",
        "traditions": {
            "all": false,
            "values": [
                "Compendium.tde5e.magic.Item.TR10415123625209"
            ]
        },
        "improvement": {
            "column": "B",
            "value": 0
        },
        "notes": "",
        "gmNotes": "",
        "flavor": "",
        "rule": "Fügt der Druide sich selbst Schaden zu und verliert dadurch LeP, verliert das Opfer die doppelte Anzahl an Lebenspunkten. Der Druide kann dem Opfer pro Tag allerdings nur maximal QS x 2 SP anrichten. Darüberhinausgehender Schaden wird nicht von den LeP des Opfers abgezogen. Die Reichweite des Rituals beträgt bei der Wurzel des Blutes maximal 30 Meilen.",
        "parents": []
    },
    "effects": [],
    "folder": "SP14518315814024",
    "_key": "!items!WU21111891952872"
}
