{
    "_id": "WU56765328199666",
    "name": "Wüstenlauf",
    "type": "spell",
    "img": "systems/tde5e/assets/defaultItems/spell.svg",
    "system": {
        "castingTime": "16 Akt",
        "castingTimeLong": "16 Aktionen",
        "check": {
            "resistedBySpirit": false,
            "resistedByToughness": false,
            "resistanceIsHalfed": false,
            "attributes": [
                "courage",
                "sagacity",
                "agility"
            ]
        },
        "cid": "WUSTENLAUF",
        "cost": {
            "text": "8 AsP",
            "textLong": "8 AsP",
            "constant": 8,
            "recurring": null
        },
        "duration": "QS x 3 M",
        "durationLong": "QS x 3 Minuten",
        "enhancements": [
            {
                "name": "Längere Wirkungsdauer",
                "effect": "Die Wirkungsdauer erhöht sich auf QS x 30 Minuten.",
                "skillPoints": 8,
                "owned": false
            },
            {
                "name": "Kette",
                "effect": "Der Zauber wirkt auf eine zusätzliche Person, die in einer Menschenkette mit ihm verbunden ist. Diese Erweiterung kann mehrfach angewendet werden.",
                "skillPoints": 11,
                "owned": false
            },
            {
                "name": "Durch das Element",
                "effect": "Der Zauberer kann bis zu QS/2 Schritt durch eine Wand des Elements gehen.",
                "skillPoints": 14,
                "owned": false
            }
        ],
        "group": "incantation",
        "modifications": {
            "canModCastingTime": true,
            "canModCost": true,
            "canModRange": true
        },
        "property": "elemental",
        "range": "selbst",
        "rangeLong": "selbst",
        "requirementText": "keine",
        "sources": [
            "BOSPARANS_KATAKOMBEN"
        ],
        "targetCategory": "Kulturschaffende",
        "traditions": {
            "all": false,
            "values": [
                "Compendium.tde5e.magic.Item.TR37561943665255"
            ]
        },
        "improvement": {
            "column": "B",
            "value": 0
        },
        "notes": "",
        "gmNotes": "",
        "flavor": "",
        "checkedSkill": null,
        "rule": "Dem Zauberer ist eine problemlose Überquerung von Oberflächen des Elements Erz möglich, seien es Geröll-oder Treibsandfelder. Seine GS wird durch die Beschaffenheit des Untergrunds nicht vermindert, zudem wird er weder einsinken noch einbrechen noch ausrutschen. Er kann so unbeschwert Steigungen von bis zu 45 Grad ablaufen.",
        "parents": []
    },
    "effects": [],
    "folder": "SP15718021520213",
    "_key": "!items!WU56765328199666"
}
