{
    "_id": "ZA72149157165106",
    "name": "Zauberinstrument-Apport",
    "type": "artifactAbility",
    "img": "systems/tde5e/assets/defaultItems/artifact_ability.svg",
    "system": {
        "aspects": [],
        "binding": {
            "cost": "",
            "volume": "3 Punkte"
        },
        "brewType": null,
        "cid": "ZAUBERINSTRUMENTAPPORT",
        "cost": {
            "text": "1 AsP",
            "constant": 1,
            "recurring": null
        },
        "group": "bardInstrument",
        "property": "telekinesis",
        "purchase": {
            "cost": [
                15
            ],
            "description": "15 Abenteuerpunkte",
            "levels": 1,
            "maxTimeBuyable": 1
        },
        "requirementText": "keine",
        "sources": [
            "BOSPARANS_KATAKOMBEN",
            "LIBER_EXTENSIONUM"
        ],
        "tradition": "Compendium.tde5e.magic.Item.TR24181571692532",
        "variant": {
            "categories": [],
            "input": false,
            "level": 1,
            "selected": null,
            "available": null
        },
        "flavor": "",
        "notes": "",
        "gmNotes": "",
        "parents": [
            "Compendium.tde5e.magic.Item.BI11518208151817"
        ],
        "rule": "<p>Das Zauberinstrument kann vom Zauberbarden zu sich gerufen werden. Es fliegt auf dem kürzesten Weg mit Geschwindigkeit 15 zum Zauberbarden und umfliegt selbstständig Hindernisse. Fenster durchschlägt das Instrument, Wände aus Holz oder Stein halten es jedoch auf. Der Zauberbarde muss für den Einsatz des Zauberinstrument-Apports sein Zauberinstrument nicht sehen.</p>"
    },
    "effects": [],
    "folder": "ZA11881417936252",
    "_key": "!items!ZA72149157165106"
}
