{
    "_id": "ZA17918072464913",
    "name": "Zauber bereithalten",
    "type": "magicalAbility",
    "img": "systems/tde5e/assets/defaultItems/special_ability_magical.svg",
    "system": {
        "cid": "ZAUBER_BEREITHALTEN",
        "cost": {
            "text": "",
            "constant": 0,
            "recurring": null
        },
        "group": "magical",
        "property": "",
        "purchase": {
            "cost": [
                20
            ],
            "description": "20 Abenteuerpunkte",
            "levels": 1,
            "maxTimeBuyable": 1
        },
        "requirementText": "Vorteil Zauberer, SF Zauber unterbrechen,  17",
        "sources": [
            "AVENTURISCHE_MAGIE_1"
        ],
        "styleAbilities": [],
        "variant": {
            "categories": [],
            "input": false,
            "available": [],
            "level": 1,
            "selected": null
        },
        "flavor": "",
        "notes": "",
        "gmNotes": "",
        "parents": [
            "Compendium.tde5e.magic.Item.ZA22838221681731"
        ],
        "rule": "<p>Der Held kann die Wirkung eines Zauberspruchs kurz unterdrücken, um sie erst einige Augenblicke später zu entfesseln. Der Spieler muss beim Würfeln der Zauberprobe ankündigen, dass er den Spruch bereithalten will. Gelingt sie, würfelt er zusätzlich eine Probe auf @UUID[Compendium.tde5e.skills.Item.SE24510070128212]{Selbstbeherrschung (Störungen ignorieren)}. Gelingt diese, so kann sein Held den Zauber bis zu QS Minuten bereithalten. Auch ein willentlich früheres Auslösen des bereitgehaltenen Spruchs ist möglich. Der Zauberspruch kostet so eine Kostenkategorie mehr als üblich. Das Ziel des Zaubers muss beim Ablegen der Probe und während des Auslösens in Reichweite sein. Zwischendurch darf es sich beliebig weit entfernen.</p><p>Am Ende der Wirkungsdauer muss der Zauberer eine Probe auf @UUID[Compendium.tde5e.skills.Item.SE24510070128212]{Selbstbeherrschung (Handlungsfähigkeit bewahren)} ablegen.</p><p>Diese ist um die Anzahl der unterdrückten Minuten erschwert. Bei Misslingen erleidet er 1 Stufe @UUID[Compendium.tde5e.conditions.Item.BE91425088509929]{Betäubung}. Während des Bereithaltens kann der Zauberer keinen anderen Zauber wirken.</p>"
    },
    "effects": [],
    "folder": "PA20111051426896",
    "_key": "!items!ZA17918072464913"
}
