{
    "_id": "ZA10175100106792",
    "name": "Zauberschnurren",
    "type": "spell",
    "img": "systems/tde5e/assets/defaultItems/spell.svg",
    "system": {
        "castingTime": "5 M",
        "castingTimeLong": "5 Minuten",
        "check": {
            "resistedBySpirit": false,
            "resistedByToughness": false,
            "resistanceIsHalfed": false,
            "attributes": [
                "courage",
                "intuition",
                "charisma"
            ]
        },
        "checkedSkill": null,
        "cid": "ZAUBERSCHNURREN",
        "cost": {
            "text": "8 AsP",
            "textLong": "8 AsP",
            "constant": 8,
            "recurring": null
        },
        "duration": "sofort",
        "durationLong": "sofort",
        "enhancements": [
            {
                "name": "Überträger",
                "effect": "Der Zauber kann auf das Vertrautentier übertragen werden, das statt der Zauberin das Ziel anschnurrt (oder je nach Tierart andere Geräusche von sich gibt), während die Hexe sich fortbewegen kann.",
                "skillPoints": 8,
                "owned": false
            },
            {
                "name": "Zielkategorie Lebewesen",
                "effect": "Als Zielkategorie gilt Lebewesen.",
                "skillPoints": 11,
                "owned": false
            },
            {
                "name": "Heilsames Schnurren",
                "effect": "Das Ziel bekommt bei der Regeneration zusätzlich 1 LeP oder AsP nach Wahl der Hexe zurück. Diese Erweiterung kann bis zu 3 Mal angewendet werden.",
                "skillPoints": 14,
                "owned": false
            }
        ],
        "group": "ritual",
        "modifications": {
            "canModCastingTime": true,
            "canModCost": false,
            "canModRange": true
        },
        "property": "healing",
        "range": "4 m",
        "rangeLong": "4 Schritt",
        "requirementText": "keine",
        "sources": [
            "BOSPARANS_KATAKOMBEN",
            "LIBER_EXTENSIONUM"
        ],
        "subTraditions": "",
        "targetCategory": "Kulturschaffende",
        "traditions": {
            "all": false,
            "values": [
                "Compendium.tde5e.magic.Item.TR60602241216130",
                "Compendium.tde5e.magic.Item.TR52194209152352"
            ]
        },
        "improvement": {
            "column": "C",
            "value": 0
        },
        "notes": "",
        "gmNotes": "",
        "flavor": "",
        "rule": "Die Hexe beginnt, ein kaum wahrnehmbares Schnurren von sich zu geben, welches die meisten Kulturschaffenden als angenehm und beruhigend empfinden. Derjenige, den die Hexe während der Wirkungsdauer des Zaubers zudem berührt, erhält Boni. Diese Boni sind kumulativ.<ul><li><strong>QS 1</strong>: In der nächsten Regenerationsphase regeneriert das Ziel +2 LeP und +2 AsP.</li><li><strong>QS 2</strong>: Das Ziel kann 1 Stufe Betäubung oder Verwirrung abbauen.</li><li><strong>QS 3</strong>: Ein Hexenfluch, der auf das Ziel wirkt, wird aufgehoben.</li><li><strong>QS 4</strong>: Eine magische Handlung, die auf das Ziel wirkt, wird aufgehoben.</li><li><strong>QS 5</strong>: In der nächsten Regenerationsphase regeneriert das Ziel +2 LeP und +2 AsP.</li><li><strong>QS 6</strong>: Das Ziel kann 1 weitere Stufe Betäubung oder Verwirrung abbauen.</li></ul>",
        "parents": []
    },
    "effects": [],
    "folder": "SP18396136219154",
    "_key": "!items!ZA10175100106792"
}
