{
    "_id": "ZA50897215325253",
    "name": "Zauberkugel-Apport",
    "type": "artifactAbility",
    "img": "systems/tde5e/assets/defaultItems/artifact_ability.svg",
    "system": {
        "aspects": [],
        "binding": {
            "cost": "",
            "volume": "3 Punkte"
        },
        "brewType": null,
        "cid": "ZAUBERKUGELAPPORT",
        "cost": {
            "text": "1 AsP",
            "constant": 1,
            "recurring": null
        },
        "group": "charlatanBall",
        "property": "telekinesis",
        "purchase": {
            "cost": [
                15
            ],
            "description": "15 Abenteuerpunkte",
            "levels": 1,
            "maxTimeBuyable": 1
        },
        "requirementText": "keine",
        "sources": [
            "BOSPARANS_KATAKOMBEN",
            "LIBER_EXTENSIONUM"
        ],
        "tradition": "Compendium.tde5e.magic.Item.TR18517324589268",
        "variant": {
            "categories": [],
            "input": false,
            "level": 1,
            "selected": null,
            "available": null
        },
        "flavor": "",
        "notes": "",
        "gmNotes": "",
        "parents": [
            "Compendium.tde5e.magic.Item.BI25320487236112"
        ],
        "rule": "<p>Die Zauberkugel kann vom Scharlatan zu sich gerufen werden. Sie fliegt auf dem kürzesten Weg mit Geschwindigkeit 15 zum Zauberer und umfliegt selbstständig Hindernisse. Fenster durchschlägt die Kugel, Wände aus Holz oder Stein halten sie jedoch auf. Der Zauberer muss für den Einsatz des Zauberkugel-Apports seine Zauberkugel nicht sehen.</p>"
    },
    "effects": [],
    "folder": "SC17321712817524",
    "_key": "!items!ZA50897215325253"
}
