{
    "_id": "ZA56702521382082",
    "name": "Zauberpferd herbeirufen",
    "type": "spell",
    "img": "systems/tde5e/assets/defaultItems/spell.svg",
    "system": {
        "castingTime": "16 Akt",
        "castingTimeLong": "16 Aktionen",
        "check": {
            "resistedBySpirit": false,
            "resistedByToughness": false,
            "resistanceIsHalfed": false,
            "attributes": [
                "sagacity",
                "intuition",
                "charisma"
            ]
        },
        "checkedSkill": null,
        "cid": "ZAUBERPFERD_HERBEIRUFEN",
        "cost": {
            "text": "16 AsP",
            "textLong": "16 AsP",
            "constant": 16,
            "recurring": null
        },
        "duration": "sofort",
        "durationLong": "sofort",
        "enhancements": [
            {
                "name": "Renntier",
                "effect": "Das Pferd verfügt über + 1 GS. Diese Erweiterung kann mehrfach angewendet werden.",
                "skillPoints": 8,
                "owned": false
            },
            {
                "name": "Reittier",
                "effect": "Proben auf @UUID[Compendium.tde5e.skills.Item.RE23213215098822]{Reiten} sind mit dem Pferd um 1 erleichtert. Diese Erweiterung kann mehrfach angewendet werden.",
                "skillPoints": 11,
                "owned": false
            },
            {
                "name": "Sphärenritt",
                "effect": "Das Pferd bleibt QS Tage. Die Elfe kann es jederzeit zu sich rufen. Es erscheint an einer unbeobachteten Stelle in seiner Nähe, selbst wenn dorthin kein passierbarer Pfad führt.",
                "skillPoints": 14,
                "owned": false
            }
        ],
        "group": "incantation",
        "modifications": {
            "canModCastingTime": true,
            "canModCost": true,
            "canModRange": true
        },
        "property": "spheres",
        "range": "1 m",
        "rangeLong": "1 Schritt",
        "requirementText": "keine",
        "sources": [
            "BOSPARANS_KATAKOMBEN",
            "LIBER_EXTENSIONUM"
        ],
        "subTraditions": "",
        "targetCategory": "Lebewesen (Zauberpferd)",
        "traditions": {
            "all": false,
            "values": [
                "Compendium.tde5e.magic.Item.TR37561943665255"
            ]
        },
        "improvement": {
            "column": "B",
            "value": 0
        },
        "notes": "",
        "gmNotes": "",
        "flavor": "",
        "rule": "Neben dem Zauberer manifestiert sich ein Zauberpferd von den Inseln im Nebel. Das Tier steht zwar nicht unter magischer Kontrolle, ist aber zutraulich und kann ganz normal geritten oder für andere Zwecke eingesetzt werden. Das Pferd wird vom Zauberer nicht erschaffen, sondern durch den Limbus an seine Seite teleportiert. Nach QS Stunden wird das Tier wieder an seinen Ursprungsort transportiert, selbst wenn es in der Zwischenzeit verstorben ist. Gleiches gilt für eventuell abgetrennte oder entnommene Körperteile. Sollten sich am Ende der Wirkungsdauer noch Reiter oder Ausrüstung auf dem Pferd befinden, fallen diese zu Boden. Der Zauberer ruft kein bestimmtes Pferd von den Inseln, sondern ein zufällig bestimmtes.<p><div class=\"stat-block\"><h1>Zauberpferd</h1><span class=\"stats\"><span><b>MU</b> 10</span><span><b>KL</b> 10(t)</span><span><b>IN</b> 12</span><span><b>CH</b> 12</span><span><b>FF</b> 8</span><span><b>GE</b> 14</span><span><b>KO</b> 22</span><span><b>KK</b> 24</span></span><span class=\"stats\"><span><b>LE</b> +21</span><span><b>SK</b> -5</span><span><b>ZK</b> -7</span><span><b>GS</b> 12</span><span><b>KTW</b> 10 (Schlagwaffen)</span><span><b>RS</b> 0/0/0</span><span><b>BE</b> 0</span><span><b>Adr</b> 1</span><span><b>TP</b> 1W6-5</span></span><div><b>Talente</b> @UUID[Compendium.tde5e.skills.Item.EI23914229134172]{Einschüchtern} 2,  @UUID[Compendium.tde5e.skills.Item.AT01742720744548]{Athlethik} 4, @UUID[Compendium.tde5e.skills.Item.AK92342342043211]{Akrobatik} 4, @UUID[Compendium.tde5e.skills.Item.KR28631591116621]{Kraftakt} 8, @UUID[Compendium.tde5e.skills.Item.SC13286236249101]{Schwimmen} 4, @UUID[Compendium.tde5e.skills.Item.SE24510070128212]{Selbstbeherrschung} 4, @UUID[Compendium.tde5e.skills.Item.SI80193235230167]{Sinnesschärfe} 4, @UUID[Compendium.tde5e.skills.Item.VE22425218425144]{Verbergen} 2, @UUID[Compendium.tde5e.skills.Item.WI13315915718951]{Willenskraft} 130</div><div><b>Größenkategorie</b> groß</div><div><b>Typus</b> Tier, nicht humanoid</div><div><b>Flucht</b> fliehen nicht.</div><div><b>Sonderregel Packesel</b> Pferde können ein Gewicht von bis zu 150 Stein tragen.</div></span></div></p>",
        "parents": []
    },
    "effects": [],
    "folder": "SP15718021520213",
    "_key": "!items!ZA56702521382082"
}
