{
    "_id": "ZA43200102122173",
    "name": "Zauberklinge Geisterspeer",
    "type": "spell",
    "img": "systems/tde5e/assets/defaultItems/spell.svg",
    "system": {
        "castingTime": "8 ST",
        "castingTimeLong": "8 Stunden",
        "check": {
            "resistedBySpirit": false,
            "resistedByToughness": false,
            "resistanceIsHalfed": false,
            "attributes": [
                "sagacity",
                "intuition",
                "dexterity"
            ]
        },
        "checkedSkill": null,
        "cid": "ZAUBERKLINGE_GEISTERSPEER",
        "cost": {
            "text": "abhängig von Waffe",
            "textLong": "abhängig von der Waffe",
            "constant": 0,
            "recurring": null
        },
        "duration": "FP T",
        "durationLong": "FP in Tage",
        "enhancements": [
            {
                "name": "Längere Wirkungsdauer",
                "effect": "Die Wirkungsdauer beträgt QS x 30 Jahre. Die AsP-Kosten sind fünffach so hoch, wobei 1/20 davon permanent verloren gehen.",
                "skillPoints": 8,
                "owned": false
            },
            {
                "name": "Trägerwahl",
                "effect": "Die Waffe gilt nur dann als magisch, wenn sie von Personen geführt wird, die der Zauberer bestimmt hat.",
                "skillPoints": 11,
                "owned": false
            },
            {
                "name": "Hass auf",
                "effect": "Gegen eine bestimmte Art von Wesen richtet die Waffe +1 TP an. Der Typus des Wesens muss vor der Verzauberung ausgewählt werden (Dämonen, Untote, Menschen usw.). Die Kosten des Rituals steigen dadurch um 4 AsP.",
                "skillPoints": 14,
                "owned": false
            }
        ],
        "group": "ritual",
        "modifications": {
            "canModCastingTime": true,
            "canModCost": false,
            "canModRange": true
        },
        "property": "object",
        "range": "8 m",
        "rangeLong": "8 Schritt",
        "requirementText": "keine",
        "sources": [
            "BOSPARANS_KATAKOMBEN",
            "LIBER_EXTENSIONUM"
        ],
        "subTraditions": "",
        "targetCategory": "Objekt",
        "traditions": {
            "all": true,
            "values": []
        },
        "improvement": {
            "column": "C",
            "value": 0
        },
        "notes": "",
        "gmNotes": "",
        "flavor": "",
        "rule": "Mit diesem Ritual lassen sich arkane Kräfte in eine Waffe binden. Diese gilt dann als magische Waffe.<table><thead><tr><th><strong>Beispielgröße</strong></th><th><strong>Kosten</strong></th></tr></thead><tbody><tr><td>Dolche, Fechtwaffen, Kurzschwerter</td><td>10 AsP</td></tr><tr><td>Hiebwaffen, Kettenwaffen, Schwerter</td><td>20 AsP</td></tr><tr><td>Zweihändig geführte Waffen</td><td>35 AsP</td></tr></tbody></table>",
        "parents": []
    },
    "effects": [],
    "folder": "SP18396136219154",
    "_key": "!items!ZA43200102122173"
}
