{
    "_id": "ZE34168185246232",
    "name": "Zeichen der ewigen Wacht",
    "type": "spellGlyphAbility",
    "img": "systems/tde5e/assets/defaultItems/spell_glyph_ability.svg",
    "system": {
        "cid": "ZEICHEN_DER_EWIGEN_WACHT",
        "cost": {
            "text": "10 AsP",
            "constant": 10,
            "recurring": null
        },
        "group": "alhanicSigns",
        "property": "demonic",
        "purchase": {
            "cost": [
                8
            ],
            "description": "8 Abenteuerpunkte",
            "levels": 1,
            "maxTimeBuyable": 1
        },
        "requirementText": "SF Zauberzeichen",
        "sources": [
            "BOSPARANS_KATAKOMBEN",
            "LIBER_EXTENSIONUM"
        ],
        "variant": {
            "input": false,
            "level": 1,
            "selected": null,
            "available": null,
            "categories": null
        },
        "flavor": "",
        "notes": "",
        "gmNotes": "",
        "rule": "<p><strong>Allgemein:</strong> Das Zauberzeichen kann einen Dämon in einem Gefäß einsperren, sodass er nicht ohne Weiteres entkommen kann. Voraussetzung ist jedoch, dass der Erschaffer des Zeichens den Wahren Namen des Dämons kennt.</p>",
        "parents": []
    },
    "effects": [],
    "folder": "AL21288187214213",
    "_key": "!items!ZE34168185246232"
}
