{
    "_id": "ZE53310222925311",
    "name": "Zeichen der Konservierung",
    "type": "spellGlyphAbility",
    "img": "systems/tde5e/assets/defaultItems/spell_glyph_ability.svg",
    "system": {
        "cid": "ZEICHEN_DER_KONSERVIERUNG",
        "cost": {
            "text": "8 AsP",
            "constant": 8,
            "recurring": null
        },
        "group": "alhanicSigns",
        "property": "temporal",
        "purchase": {
            "cost": [
                8
            ],
            "description": "8 Abenteuerpunkte",
            "levels": 1,
            "maxTimeBuyable": 1
        },
        "requirementText": "SF Zauberzeichen",
        "sources": [
            "BOSPARANS_KATAKOMBEN",
            "LIBER_EXTENSIONUM"
        ],
        "variant": {
            "input": false,
            "level": 1,
            "selected": null,
            "available": null,
            "categories": null
        },
        "flavor": "",
        "notes": "",
        "gmNotes": "",
        "rule": "<p><strong>Allgemein:</strong> Dieses Zauberzeichen konserviert Gift, sodass es eine unendliche Haltbarkeit aufweist.</p>",
        "parents": []
    },
    "effects": [],
    "folder": "AL21288187214213",
    "_key": "!items!ZE53310222925311"
}
