{
    "_id": "ZE10311713515610",
    "name": "Zeichen der Angst",
    "type": "spellGlyphAbility",
    "img": "systems/tde5e/assets/defaultItems/spell_glyph_ability.svg",
    "system": {
        "cid": "ZEICHEN_DER_ANGST",
        "cost": {
            "text": "16 AsP",
            "constant": 16,
            "recurring": null
        },
        "group": "ancestralSign",
        "property": "",
        "purchase": {
            "cost": [
                8
            ],
            "description": "8 Abenteuerpunkte",
            "levels": 1,
            "maxTimeBuyable": 1
        },
        "requirementText": "SF Zauberzeichen",
        "sources": [
            "BOSPARANS_KATAKOMBEN",
            "LIBER_EXTENSIONUM"
        ],
        "variant": {
            "input": false,
            "level": 1,
            "selected": null,
            "available": null,
            "categories": null
        },
        "flavor": "",
        "notes": "",
        "gmNotes": "",
        "rule": "<p><strong>Allgemein:</strong> Das Zeichen der Angst kann an einen Baum oder einen Felsen aufgetragen werden. Man muss nicht wissen, was das Zeichen ist, man muss es lediglich sehen können, damit es seine Wirkung entfaltet. Mit Ausnahme des Erschaffers des Zeichens haben alle Personen, die das Zeichen sehen und sich in einem Radius von 8 Schritt aufhalten, ein mulmiges Gefühl und wollen den Ort so schnell wie möglich verlassen. Jeder Betroffene muss eine Probe auf @UUID[Compendium.tde5e.skills.Item.WI13315915718951]{Willenskraft (Bedrohungen standhalten)} ablegen, bei deren Misslingen er 1 Stufe @UUID[Compendium.tde5e.conditions.Item.FU13915517420459]{Furcht} erleidet. Das Zeichen ist aber nicht stark genug, um jemanden direkt davon abzuhalten, sich dem Zeichen zu nähern.</p>",
        "parents": []
    },
    "effects": [],
    "folder": "AH17023945891721",
    "_key": "!items!ZE10311713515610"
}
