{
    "_id": "ZE13070892212261",
    "name": "Zerspringendes Glas",
    "type": "artifactAbility",
    "img": "systems/tde5e/assets/defaultItems/artifact_ability.svg",
    "system": {
        "aspects": [],
        "binding": {
            "cost": "",
            "volume": "5 Punkte"
        },
        "brewType": null,
        "cid": "ZERSPRINGENDES_GLAS",
        "cost": {
            "text": "4 AsP",
            "constant": 4,
            "recurring": null
        },
        "group": "bardInstrument",
        "property": "telekinesis",
        "purchase": {
            "cost": [
                5
            ],
            "description": "5 Abenteuerpunkte",
            "levels": 1,
            "maxTimeBuyable": 1
        },
        "requirementText": "keine",
        "sources": [
            "BOSPARANS_KATAKOMBEN",
            "LIBER_EXTENSIONUM"
        ],
        "tradition": "Compendium.tde5e.magic.Item.TR24181571692532",
        "variant": {
            "categories": [],
            "input": false,
            "level": 1,
            "selected": null,
            "available": null
        },
        "flavor": "",
        "notes": "",
        "gmNotes": "",
        "parents": [
            "Compendium.tde5e.magic.Item.BI11518208151817"
        ],
        "rule": "<p>Beim Spielen des Instrumentes kann der Zauberbarde in einem Radius von 8 Schritt Glasgegenstände schädigen. Sie erleiden 100 Strukturpunkte Schaden, was meist mit ihrem Zerspringen und somit vollständiger Zerstörung einhergeht.</p>"
    },
    "effects": [],
    "folder": "ZA11881417936252",
    "_key": "!items!ZE13070892212261"
}
