{
    "_id": "ZW58124236221531",
    "name": "Zwei linke Hände",
    "type": "spell",
    "img": "systems/tde5e/assets/defaultItems/spell.svg",
    "system": {
        "castingTime": "1 Akt",
        "castingTimeLong": "1 Aktion",
        "check": {
            "resistedBySpirit": false,
            "resistedByToughness": true,
            "resistanceIsHalfed": false,
            "attributes": [
                "courage",
                "intuition",
                "dexterity"
            ]
        },
        "checkedSkill": null,
        "cid": "ZWEI_LINKE_HANDE",
        "cost": {
            "text": "7 AsP",
            "textLong": "7 AsP",
            "constant": 7,
            "recurring": null
        },
        "duration": "QS x 3 ST",
        "durationLong": "QS x 3 Stunden",
        "enhancements": [],
        "group": "curse",
        "modifications": {
            "canModCastingTime": false,
            "canModCost": false,
            "canModRange": false
        },
        "property": "transformation",
        "range": "64 m",
        "rangeLong": "64 Schritt",
        "requirementText": "keine",
        "sources": [
            "BOSPARANS_KATAKOMBEN",
            "LIBER_EXTENSIONUM"
        ],
        "subTraditions": "",
        "targetCategory": "",
        "traditions": {
            "all": false,
            "values": [
                "Compendium.tde5e.magic.Item.TR60602241216130"
            ]
        },
        "improvement": {
            "column": "B",
            "value": 0
        },
        "notes": "",
        "gmNotes": "",
        "flavor": "",
        "rule": "Durch diesen Fluch ist das Opfer kaum noch in der Lage, seine handwerklichen Fähigkeiten einzusetzen. Seine rechte Hand verwandelt sich während der Dauer des Fluchs in eine linke (bei Linkshändern: in eine rechte, bei Beidhändigkeit werden beide Hände ausgetauscht). Alle Proben auf Handwerkstalente sind dadurch um 2 erschwert und jede gewürfelte 19 wird als 20 gewertet.",
        "parents": []
    },
    "effects": [],
    "folder": "SP58654619110814",
    "_key": "!items!ZW58124236221531"
}
