{
    "_id": "MO22917195149107",
    "name": "Mondamulet",
    "type": "Item",
    "sorting": "a",
    "folder": "TR62166154609724",
    "sort": 0,
    "color": "#000000",
    "_key": "!folders!MO22917195149107"
}
