{
    "_id": "IF87176116102541",
    "name": "Ifirnsmantel",
    "type": "Item",
    "sorting": "a",
    "folder": "TR62166154609724",
    "sort": 0,
    "color": "#000000",
    "_key": "!folders!IF87176116102541"
}
