{
    "_id": "PA34841261181223",
    "name": "Passive Sonderfertigkeiten",
    "type": "Item",
    "sorting": "a",
    "folder": null,
    "sort": 0,
    "color": "#000000",
    "_key": "!folders!PA34841261181223"
}
