{
    "_id": "FI11749591097310",
    "name": "Firunsmesser",
    "type": "Item",
    "sorting": "a",
    "folder": "TR62166154609724",
    "sort": 0,
    "color": "#000000",
    "_key": "!folders!FI11749591097310"
}
