{
    "_id": "TR56121211911256",
    "name": "Traditionen",
    "type": "Item",
    "sorting": "a",
    "folder": null,
    "sort": 0,
    "color": "#000000",
    "_key": "!folders!TR56121211911256"
}
