{
    "_id": "TR62166154609724",
    "name": "Traditionsartefakte",
    "type": "Item",
    "sorting": "a",
    "folder": null,
    "sort": 0,
    "color": "#000000",
    "_key": "!folders!TR62166154609724"
}
