{
    "_id": "NA16022588151485",
    "name": "Namenloser Dolch",
    "type": "Item",
    "sorting": "a",
    "folder": "TR62166154609724",
    "sort": 0,
    "color": "#000000",
    "_key": "!folders!NA16022588151485"
}
