{
    "_id": "RO19129183127225",
    "name": "Roter Schleier",
    "type": "Item",
    "sorting": "a",
    "folder": "TR62166154609724",
    "sort": 0,
    "color": "#000000",
    "_key": "!folders!RO19129183127225"
}
