{
    "_id": "AV17611317425123",
    "name": "Avesstab",
    "type": "Item",
    "sorting": "a",
    "folder": "TR62166154609724",
    "sort": 0,
    "color": "#000000",
    "_key": "!folders!AV17611317425123"
}
