{
    "_id": "AB22112213432154",
    "name": "Abgeschwächte Liturgie",
    "type": "karmaAbility",
    "img": "systems/tde5e/assets/defaultItems/special_ability_blessed.svg",
    "system": {
        "aspect": "",
        "cid": "ABGESCHWACHTE_LITURGIE",
        "cost": {
            "text": "",
            "constant": 0,
            "recurring": null
        },
        "group": "blessed",
        "purchase": {
            "cost": [
                5
            ],
            "description": "5 Abenteuerpunkte",
            "levels": 1,
            "maxTimeBuyable": 1
        },
        "requirementText": "Vorteil Geweihter,  13",
        "sources": [
            "AVENTURISCHES_GOTTERWIRKEN_1"
        ],
        "styleAbilities": [],
        "variant": {
            "categories": [],
            "input": false,
            "available": [],
            "level": 1,
            "selected": null
        },
        "flavor": "",
        "notes": "",
        "gmNotes": "",
        "rule": "Der Held kann nach dem Ablegen einer Liturgieprobe QS zurückbehalten und muss nicht alle erzielten QS einsetzen. Hat er beispielsweise 3 QS erreicht, kann er sich auch dafür entscheiden, dass die Liturgie nur mit einer QS von 2 oder 1 wirken soll.",
        "parents": []
    },
    "effects": [],
    "folder": "PA34841261181223",
    "_key": "!items!AB22112213432154"
}
