{
    "_id": "BA61161124249185",
    "name": "Band des Umsorgens",
    "type": "artifactAbility",
    "img": "systems/tde5e/assets/defaultItems/artifact_ability.svg",
    "system": {
        "aspects": [
            "home"
        ],
        "binding": {
            "cost": "",
            "volume": ""
        },
        "brewType": null,
        "cid": "BAND_DES_UMSORGENS",
        "cost": {
            "text": "",
            "constant": 0,
            "recurring": null
        },
        "group": "gooseBag",
        "property": null,
        "purchase": {
            "cost": [
                3
            ],
            "description": "3 Abenteuerpunkte",
            "levels": 1,
            "maxTimeBuyable": 1
        },
        "requirementText": "SF Tradition (Traviakirche), nicht SF Kleine Mahlzeit",
        "sources": [
            "AVENTURISCHES_GOTTERWIRKEN_1"
        ],
        "tradition": "Compendium.tde5e.karma.Item.TR68134102136219",
        "variant": {
            "categories": [],
            "input": false,
            "level": 1,
            "selected": null,
            "available": null
        },
        "flavor": "",
        "notes": "",
        "gmNotes": "",
        "parents": [
            "Compendium.tde5e.karma.Item.TR68134102136219"
        ],
        "rule": "<p>Legt die Traviageweihte zwei kleine Gegenstände (z. B. Ringe) in den Gänsebeutel und übergibt sie nach 12 Stunden an zwei Kulturschaffende, können diese jeweils bis zu 12 Meilen spüren, ob der andere unfreiwillig verletzt, krank oder vergiftet ist, wenn sie sich 1 Aktion konzentrieren (man kann sich also nicht selbst verletzten und dies dann an den Partner übermitteln). Sie können die Wirkung jederzeit unterbrechen, welche auch nur einsetzt, wenn beide Partner dem zustimmen. Voraussetzung ist zudem, dass beide den Gegenstand bei sich tragen. Die Wirkung hält 6 Tage an. In dieser Zeit kann die Traviageweihte die Fähigkeit nicht noch einmal anwenden, um zwei Gegenstände mit @UUID[Compendium.tde5e.karma.Item.BA61161124249185]{Band des Umsorgens} zu segnen.</p>"
    },
    "effects": [],
    "folder": "GA17925520667159",
    "_key": "!items!BA61161124249185"
}
