{
    "_id": "BA44254212155831",
    "name": "Bann des Lichts",
    "type": "liturgy",
    "img": "systems/tde5e/assets/defaultItems/liturgical_chant.svg",
    "system": {
        "aspects": [
            "death",
            "dream",
            "shadow"
        ],
        "castingTime": "4 Akt",
        "castingTimeLong": "4 Aktionen",
        "check": {
            "resistedBySpirit": false,
            "resistedByToughness": false,
            "resistanceIsHalfed": false,
            "attributes": [
                "courage",
                "sagacity",
                "charisma"
            ]
        },
        "cid": "BANN_DES_LICHTS",
        "cost": {
            "text": "16 KaP + 8 KaP pro 5 min",
            "textLong": "16 KaP (Aktivierung) + 8 KaP pro 5 Minuten",
            "constant": 16,
            "recurring": null
        },
        "duration": "(A)",
        "durationLong": "aufrechterhaltend",
        "enhancements": [
            {
                "name": "Längeres Intervall",
                "effect": "Das Intervall beträgt 15 Minuten.",
                "skillPoints": 6,
                "owned": false
            },
            {
                "name": "Größerer Radius",
                "effect": "Der Radius beträgt QS x 5 Schritt.",
                "skillPoints": 11,
                "owned": false
            },
            {
                "name": "Keine Aufrechterhaltung",
                "effect": "Die Liturgie gilt nicht als aufrechterhaltend. Die Wirkungsdauer und damit die KaP-Kosten müssen beim Wirken der Liturgie festgelegt werden.",
                "skillPoints": 14,
                "owned": false
            }
        ],
        "group": "liturgicalChant",
        "modifications": {
            "canModCastingTime": true,
            "canModCost": true,
            "canModRange": true
        },
        "range": "selbst",
        "rangeLong": "selbst",
        "requirementText": "keine",
        "sources": [
            "REGELWERK"
        ],
        "targetCategory": "Zone",
        "traditions": {
            "all": false,
            "values": [
                "Compendium.tde5e.karma.Item.TR17410819190129",
                "Compendium.tde5e.karma.Item.TR21286138721491"
            ]
        },
        "improvement": {
            "column": "B",
            "value": 0
        },
        "notes": "",
        "gmNotes": "",
        "flavor": "",
        "rule": "Um den Geweihten herum bildet sich eine Kugel aus Dunkelheit mit einem Durchmesser von QS x 3 Schritt. Pro QS erschweren sich die Sichtverhältnisse um eine Stufe. Natürliche und magische Lichtquellen können die Dunkelheit nicht erhellen. Bei karmalen Lichtquellen entscheidet die höhere QS (wie bei einer Vergleichsprobe), ob das Licht zu sehen ist oder nicht. Hierbei gilt alles oder nichts: Das Licht wird nicht um die QS der Liturgie gedämpft, sondern die höhere QS entscheidet darüber ob Licht zu sehen ist oder nicht. Für den Geweihten werden die Sichtverhältnisse durch die Liturgie nicht erschwert. Der Geweihte muss vor dem Wirken der Liturgie entscheiden, ob die Zone der Dunkelheit an Ort und Stelle verbleiben oder sich mit ihm als Zentrum bewegen soll.",
        "parents": []
    },
    "effects": [],
    "folder": "LI20236437819314",
    "_key": "!items!BA44254212155831"
}
