{
    "_id": "BE12154551081823",
    "name": "Beschwörung der gemeinen Diener des Rattenkindes",
    "type": "liturgy",
    "img": "systems/tde5e/assets/defaultItems/liturgical_chant.svg",
    "system": {
        "aspects": [],
        "castingTime": "4 Akt",
        "castingTimeLong": "4 Aktionen",
        "check": {
            "resistedBySpirit": false,
            "resistedByToughness": false,
            "resistanceIsHalfed": false,
            "attributes": [
                "courage",
                "charisma",
                "constitution"
            ]
        },
        "cid": "BESCHWORUNG_DER_GEMEINEN_DIENER_DES_RATTENKINDES",
        "cost": {
            "text": "8 KaP",
            "textLong": "8 KaP",
            "constant": 8,
            "recurring": null
        },
        "duration": "sofort",
        "durationLong": "sofort",
        "enhancements": [
            {
                "name": "Mehr Dienste",
                "effect": "Der Geweihte kann QS +2 Dienste von dem Wesen verlangen.",
                "skillPoints": 6,
                "owned": false
            },
            {
                "name": "Längerer Dienst",
                "effect": "Das Wesen verliert erst am Ende einer Woche (statt am Ende eines Tages) automatisch einen Dienst.",
                "skillPoints": 11,
                "owned": false
            },
            {
                "name": "Mächtiges Wesen",
                "effect": "Dem Wesen können zweimal die gleichen Verbesserungen beim Beschwören gegeben werden.",
                "skillPoints": 14,
                "owned": false
            }
        ],
        "group": "liturgicalChant",
        "modifications": {
            "canModCastingTime": true,
            "canModCost": false,
            "canModRange": true
        },
        "range": "8 m",
        "rangeLong": "8 Schritt",
        "requirementText": "keine",
        "sources": [
            "AVENTURISCHES_GOTTERWIRKEN_1"
        ],
        "targetCategory": "Dämonen",
        "traditions": {
            "all": false,
            "values": [
                "Compendium.tde5e.karma.Item.TR82251814625381"
            ]
        },
        "improvement": {
            "column": "B",
            "value": 0
        },
        "notes": "",
        "gmNotes": "",
        "flavor": "",
        "rule": "Ein zuvor ausgewählter gemeiner Dämon des Namenlosen erscheint (beispielsweise ein Ivash). Die Probe ist um die Anrufungsschwierigkeit des Dämons erschwert (mehr zu Beschwörungen siehe <strong>Regelwerk</strong> Seite <strong>262</strong>).",
        "parents": []
    },
    "effects": [],
    "folder": "LI20236437819314",
    "_key": "!items!BE12154551081823"
}
