{
    "_id": "BL66109225754172",
    "name": "Blick in die Flammen",
    "type": "liturgy",
    "img": "systems/tde5e/assets/defaultItems/liturgical_chant.svg",
    "system": {
        "aspects": [
            "fire"
        ],
        "castingTime": "5 min",
        "castingTimeLong": "5 Minuten",
        "check": {
            "resistedBySpirit": false,
            "resistedByToughness": false,
            "resistanceIsHalfed": false,
            "attributes": [
                "courage",
                "sagacity",
                "intuition"
            ]
        },
        "cid": "BLICK_IN_DIE_FLAMMEN",
        "cost": {
            "text": "2 KaP",
            "textLong": "2 KaP",
            "constant": 2,
            "recurring": null
        },
        "duration": "sofort",
        "durationLong": "sofort",
        "enhancements": [
            {
                "name": "Visionen",
                "effect": "Der Geweihte sieht in den Flammen unzusammenhängende Visionen, was rund um das Entzünden und Löschen der Flammen geschehen ist. Diese sind allerdings undeutlich.",
                "skillPoints": 6,
                "owned": false
            },
            {
                "name": "Erkenntnis",
                "effect": "Der Geweihte erkennt die genaue Ursache des Feuers, beispielsweise Brandstiftung, Ingerimms Wirken oder einen Unfall. Voraussetzung: Liturgieerweiterung <em>Visionen</em>.",
                "skillPoints": 11,
                "owned": false
            },
            {
                "name": "Klarheit",
                "effect": "Der Geweihte kann zusätzliche Aussagen über die Hitze des Feuers treffen, wie schnell es sich ausgebreitet hat und ob Brandmittel eingesetzt wurden. Voraussetzung: Liturgieerweiterung <em>Erkenntnis</em>.",
                "skillPoints": 14,
                "owned": false
            }
        ],
        "group": "ceremony",
        "modifications": {
            "canModCastingTime": true,
            "canModCost": false,
            "canModRange": true
        },
        "range": "4 m",
        "rangeLong": "4 Schritt",
        "requirementText": "keine",
        "sources": [
            "AVENTURISCHES_GOTTERWIRKEN_1",
            "DIE_FLUSSLANDE"
        ],
        "targetCategory": "alle",
        "traditions": {
            "all": false,
            "values": [
                "Compendium.tde5e.karma.Item.TR20212175199223"
            ]
        },
        "improvement": {
            "column": "A",
            "value": 0
        },
        "notes": "",
        "gmNotes": "",
        "flavor": "",
        "rule": "Der Geweihte vermag in schemenhaften Visionen zu erkennen, wodurch ein noch loderndes oder schon lange erloschenes Feuer ausgelöst wurde. Er kann ganz genau sagen, wann es entzündet und wann es gelöscht wurde. Details wie das Gesicht eines eventuellen Brandstifters lassen sich jedoch nicht ausmachen.",
        "parents": []
    },
    "effects": [],
    "folder": "ZE22182316147170",
    "_key": "!items!BL66109225754172"
}
