{
    "_id": "BL34126251183521",
    "name": "Blick auf den Meeresgrund",
    "type": "liturgy",
    "img": "systems/tde5e/assets/defaultItems/liturgical_chant.svg",
    "system": {
        "aspects": [
            "unendingDeep"
        ],
        "castingTime": "1 Akt",
        "castingTimeLong": "1 Aktion",
        "check": {
            "resistedBySpirit": false,
            "resistedByToughness": false,
            "resistanceIsHalfed": false,
            "attributes": [
                "sagacity",
                "intuition",
                "intuition"
            ]
        },
        "cid": "BLICK_AUF_DEN_MEERESGRUND",
        "cost": {
            "text": "4 KaP",
            "textLong": "4 KaP",
            "constant": 4,
            "recurring": null
        },
        "duration": "QS x 2 KR",
        "durationLong": "QS x 2 KR",
        "enhancements": [
            {
                "effect": "",
                "skillPoints": 6,
                "owned": false
            },
            {
                "effect": "",
                "skillPoints": 11,
                "owned": false
            },
            {
                "effect": "",
                "skillPoints": 14,
                "owned": false
            }
        ],
        "group": "liturgicalChant",
        "modifications": {
            "canModCastingTime": true,
            "canModCost": true,
            "canModRange": true
        },
        "range": "selbst",
        "rangeLong": "selbst",
        "requirementText": "keine",
        "sources": [
            "UNENDLICHKEIT_UND_TIEFENRAUSCH"
        ],
        "targetCategory": "Kulturschaffende",
        "traditions": {
            "all": false,
            "values": [
                "Compendium.tde5e.karma.Item.TR10867221095867"
            ]
        },
        "improvement": {
            "column": "A",
            "value": 0
        },
        "notes": "",
        "gmNotes": "",
        "flavor": "",
        "rule": "Der Priester kann Wasser als Sichtmodifikator ignorieren, so als wäre es nicht vorhanden. Er muss sich dazu außerhalb des Wassers befinden (beispielsweise auf einem Floß oder Boot) und ins Wasser schauen. Um Details auszumachen, kann nach Meisterentscheid eine Probe auf <em>Sinnesschärfe</em> notwendig sein. Der Priester kann sich während der Wirkungsdauer bewegen und somit seinen Sichtbereich ändern, darf aber nicht ins Wasser eintauchen, sonst endet die Liturgie augenblicklich.",
        "parents": []
    },
    "effects": [],
    "folder": "LI20236437819314",
    "_key": "!items!BL34126251183521"
}
