{
    "_id": "BL18716016472120",
    "name": "Blitzschlag",
    "type": "liturgy",
    "img": "systems/tde5e/assets/defaultItems/liturgical_chant.svg",
    "system": {
        "aspects": [
            "storm"
        ],
        "castingTime": "4 Akt",
        "castingTimeLong": "4 Aktionen",
        "check": {
            "resistedBySpirit": false,
            "resistedByToughness": false,
            "resistanceIsHalfed": false,
            "attributes": [
                "courage",
                "intuition",
                "charisma"
            ]
        },
        "cid": "BLITZSCHLAG_LITURGIE",
        "cost": {
            "text": "16 KaP",
            "textLong": "16 KaP",
            "constant": 16,
            "recurring": null
        },
        "duration": "sofort",
        "durationLong": "sofort",
        "enhancements": [
            {
                "name": "Verwirrender Blitz",
                "effect": "Das Ziel des Blitzschlags erhält automatisch 1 Stufe <em>Verwirrung</em>.",
                "skillPoints": 6,
                "owned": false
            },
            {
                "name": "Betäubender Blitz",
                "effect": "Das Ziel des Blitzschlags erhält automatisch 1 Stufe <em>Betäubung</em>.",
                "skillPoints": 11,
                "owned": false
            },
            {
                "name": "Brandblitz",
                "effect": "Das Ziel erhält den Status <em>Brennend</em> auf großer Fläche.",
                "skillPoints": 14,
                "owned": false
            }
        ],
        "group": "liturgicalChant",
        "modifications": {
            "canModCastingTime": true,
            "canModCost": true,
            "canModRange": true
        },
        "range": "16 m",
        "rangeLong": "16 Schritt",
        "requirementText": "keine",
        "sources": [
            "AVENTURISCHES_GOTTERWIRKEN_1"
        ],
        "targetCategory": "Wesen",
        "traditions": {
            "all": false,
            "values": [
                "Compendium.tde5e.karma.Item.TR12692281461643"
            ]
        },
        "improvement": {
            "column": "D",
            "value": 0
        },
        "notes": "",
        "gmNotes": "",
        "flavor": "",
        "rule": "Aus dem Himmel fährt ein greller Blitz zur Erde nieder und trifft das vom Geweihten ausgewählte Ziel. Befindet es sich innerhalb eines Gebäudes, geht der Blitz von der Decke aus. Das getroffene Ziel erleidet 2W6+(QS x 2) SP, ein Ausweichen oder Abwehren ist nicht möglich.",
        "parents": []
    },
    "effects": [],
    "folder": "LI20236437819314",
    "_key": "!items!BL18716016472120"
}
