{
    "_id": "BL20452882091311",
    "name": "Blütenregen",
    "type": "artifactAbility",
    "img": "systems/tde5e/assets/defaultItems/artifact_ability.svg",
    "system": {
        "aspects": [
            "change"
        ],
        "binding": {
            "cost": "",
            "volume": ""
        },
        "brewType": null,
        "cid": "BLUTENREGEN",
        "cost": {
            "text": "",
            "constant": 0,
            "recurring": null
        },
        "group": "tsaPrisma",
        "property": null,
        "purchase": {
            "cost": [
                8
            ],
            "description": "8 Abenteuerpunkte",
            "levels": 1,
            "maxTimeBuyable": 1
        },
        "requirementText": "SF Aura der Friedfertigkeit, nicht SF Eidechsenhaut",
        "sources": [
            "AVENTURISCHES_GOTTERWIRKEN_1"
        ],
        "tradition": "Compendium.tde5e.karma.Item.TR18472241511241",
        "variant": {
            "categories": [],
            "input": false,
            "level": 1,
            "selected": null,
            "available": null
        },
        "flavor": "",
        "notes": "",
        "gmNotes": "",
        "parents": [
            "Compendium.tde5e.karma.Item.AU19116217040219"
        ],
        "rule": "<p>In einem Radius von 4 Schritt um die Tsageweihte regnen Blüten vom Himmel, die einige unheilige Wesen verletzen können. Bestimmte Wesen erleiden 1W3 SP pro KR, solange sie sich in der Zone aufhalten. Nur folgende Wesen sind davon betroffen: Chimären, Daimonide und Dämonen. Die Zone verharrt an Ort und Stelle, die Tsageweihte darf sich aus der Zone fortbewegen. Die Wirkung hält 5 KR an. Der Einsatz dieser Fähigkeit kostet 1 Aktion und verursacht 1 Stufe @UUID[Compendium.tde5e.conditions.Item.TR16167149904659]{Trance}.</p>"
    },
    "effects": [],
    "folder": "PR23823991491222",
    "_key": "!items!BL20452882091311"
}
