{
    "_id": "BO13611824323423",
    "name": "Bollwerk wider Zauberei",
    "type": "artifactAbility",
    "img": "systems/tde5e/assets/defaultItems/artifact_ability.svg",
    "system": {
        "aspects": [
            "antiMagic"
        ],
        "binding": {
            "cost": "",
            "volume": ""
        },
        "brewType": null,
        "cid": "BOLLWERK_WIDER_ZAUBEREI",
        "cost": {
            "text": "",
            "constant": 0,
            "recurring": null
        },
        "group": "sunScepter",
        "property": null,
        "purchase": {
            "cost": [
                15
            ],
            "description": "15 Abenteuerpunkte",
            "levels": 1,
            "maxTimeBuyable": 1
        },
        "requirementText": "SF Zepter der Furcht, nicht SF Schutz wider Schadensmagie",
        "sources": [
            "AVENTURISCHES_GOTTERWIRKEN_1"
        ],
        "tradition": "Compendium.tde5e.karma.Item.TR21011142168121",
        "variant": {
            "categories": [],
            "input": false,
            "level": 1,
            "selected": null,
            "available": null
        },
        "flavor": "",
        "notes": "",
        "gmNotes": "",
        "parents": [
            "Compendium.tde5e.karma.Item.ZE23011113233511"
        ],
        "rule": "<p>Alle Zauber und magischen Handlungen wirken gegen den Praiosgeweihten mit 1 QS weniger (bis zu einem Minimum von 1 QS).</p>"
    },
    "effects": [],
    "folder": "SO55161491975023",
    "_key": "!items!BO13611824323423"
}
