{
    "_id": "BR20882689224016",
    "name": "Brandschutz",
    "type": "artifactAbility",
    "img": "systems/tde5e/assets/defaultItems/artifact_ability.svg",
    "system": {
        "aspects": [
            "fire"
        ],
        "binding": {
            "cost": "",
            "volume": ""
        },
        "brewType": null,
        "cid": "BRANDSCHUTZ",
        "cost": {
            "text": "",
            "constant": 0,
            "recurring": null
        },
        "group": "ifirnsMantle",
        "property": null,
        "purchase": {
            "cost": [
                8
            ],
            "description": "8 Abenteuerpunkte",
            "levels": 1,
            "maxTimeBuyable": 1
        },
        "requirementText": "SF Tradition (Ingerimmkirche), nicht SF Werkzeug der Beständigkeit",
        "sources": [
            "AVENTURISCHES_GOTTERWIRKEN_1"
        ],
        "tradition": "Compendium.tde5e.karma.Item.TR20212175199223",
        "variant": {
            "categories": [],
            "input": false,
            "level": 1,
            "selected": null,
            "available": null
        },
        "flavor": "",
        "notes": "",
        "gmNotes": "",
        "parents": [
            "Compendium.tde5e.karma.Item.TR20212175199223"
        ],
        "rule": "<p>Der Ingerimmgeweihte kann eine Person auswählen. Der Status <em>Brennend</em> wirkt weniger stark gegen diese Person. Sollte der ganze Körper in Flammen stehen, wirkt der Status nur so, als ob eine große Fläche betroffen ist. Bei einer großen Fläche gilt nur der Schaden einer kleinen Fläche. Bei einer kleinen Fläche verursacht <em>Brennend</em> bei der Person nur 1 SP pro KR. Die Wirkung hält 2 Stunden. Der Einsatz dieser Fähigkeit dauert 5 Minuten und verursacht 1 Stufe @UUID[Compendium.tde5e.conditions.Item.TR16167149904659]{Trance}.</p>"
    },
    "effects": [],
    "folder": "IN12813816718125",
    "_key": "!items!BR20882689224016"
}
