{
    "_id": "BR72166817717050",
    "name": "Braniborier",
    "type": "karmaAbility",
    "img": "systems/tde5e/assets/defaultItems/special_ability_blessed.svg",
    "system": {
        "aspect": "",
        "cid": "BRANIBORIER",
        "cost": {
            "text": "",
            "constant": 0,
            "recurring": null
        },
        "group": "liturgyStyle",
        "purchase": {
            "cost": [
                20
            ],
            "description": "20 Abenteuerpunkte",
            "levels": 1,
            "maxTimeBuyable": 1
        },
        "requirementText": "SF Tradition (Praioskirche)",
        "sources": [
            "AVENTURISCHES_GOTTERWIRKEN_1"
        ],
        "styleAbilities": [
            "Compendium.tde5e.karma.Item.HA12420890153153",
            "Compendium.tde5e.karma.Item.MI88591261672217"
        ],
        "variant": {
            "categories": [],
            "input": false,
            "available": [],
            "level": 1,
            "selected": null
        },
        "flavor": "",
        "notes": "",
        "gmNotes": "",
        "parents": [
            "Compendium.tde5e.karma.Item.TR21011142168121"
        ],
        "rule": "<p>Misslingt eine Liturgie, müssen Braniborier statt der Hälfte nur ein Drittel der KaP aufwenden.</p>"
    },
    "effects": [],
    "folder": "LI12721068429537",
    "_key": "!items!BR72166817717050"
}
