{
    "_id": "BU68701971571613",
    "name": "Bund der Heilung",
    "type": "artifactAbility",
    "img": "systems/tde5e/assets/defaultItems/artifact_ability.svg",
    "system": {
        "aspects": [
            "home"
        ],
        "binding": {
            "cost": "",
            "volume": ""
        },
        "brewType": null,
        "cid": "BUND_DER_HEILUNG",
        "cost": {
            "text": "",
            "constant": 0,
            "recurring": null
        },
        "group": "gooseBag",
        "property": null,
        "purchase": {
            "cost": [
                12
            ],
            "description": "12 Abenteuerpunkte",
            "levels": 1,
            "maxTimeBuyable": 1
        },
        "requirementText": "SF Band des Umsorgens, nicht SF Brot der Erfrischung",
        "sources": [
            "AVENTURISCHES_GOTTERWIRKEN_1"
        ],
        "tradition": "Compendium.tde5e.karma.Item.TR68134102136219",
        "variant": {
            "categories": [],
            "input": false,
            "level": 1,
            "selected": null,
            "available": null
        },
        "flavor": "",
        "notes": "",
        "gmNotes": "",
        "parents": [
            "Compendium.tde5e.karma.Item.BA61161124249185"
        ],
        "rule": "<p>Legt die Traviageweihte zwei kleine Stücke Essen (z. B. Brotscheiben oder Äpfel) in den Gänsebeutel und übergibt sie nach 12 Stunden an zwei Kulturschaffende, können diese, wenn sie während der nächsten Regenerationsphase zeitgleich schlafen, Lebenspunkte, die sie regenerieren würden, aber nicht benötigen, auf den Freund übertragen, mit dem sie zusammen das Essen geteilt haben. Der Partner kann sich aussuchen, wie viele seiner LeP er verschenkt. Die Wirkung hält an, bis die Regeneration von beiden Partnern einmal verschenkt wurde, maximal aber 6 Tage. In dieser Zeit kann die Traviageweihte die Fähigkeit nicht noch einmal anwenden, um zwei Gegenstände mit @UUID[Compendium.tde5e.karma.Item.BU68701971571613]{Bund der Heilung} zu segnen. AsP oder KaP können so nicht verschenkt werden. Die Traviageweihte selbst kann von der Speise nicht profitieren, sondern nur die beiden anderen Kulturschaffenden.</p>"
    },
    "effects": [],
    "folder": "GA17925520667159",
    "_key": "!items!BU68701971571613"
}
