{
    "_id": "DO17115221516891",
    "name": "Donner-Schlag",
    "type": "artifactAbility",
    "img": "systems/tde5e/assets/defaultItems/artifact_ability.svg",
    "system": {
        "aspects": [
            "storm"
        ],
        "binding": {
            "cost": "",
            "volume": ""
        },
        "brewType": null,
        "cid": "DONNERSCHLAG",
        "cost": {
            "text": "",
            "constant": 0,
            "recurring": null
        },
        "group": "rondraComb",
        "property": null,
        "purchase": {
            "cost": [
                20
            ],
            "description": "20 Abenteuerpunkte",
            "levels": 1,
            "maxTimeBuyable": 1
        },
        "requirementText": "SF Blitz-Schlag, nicht SF Heftiger Angriff",
        "sources": [
            "AVENTURISCHES_GOTTERWIRKEN_1"
        ],
        "tradition": "Compendium.tde5e.karma.Item.TR12692281461643",
        "variant": {
            "categories": [],
            "input": false,
            "level": 1,
            "selected": null,
            "available": null
        },
        "flavor": "",
        "notes": "",
        "gmNotes": "",
        "parents": [
            "Compendium.tde5e.karma.Item.BL17215916810717"
        ],
        "rule": "<p>Der Spieler der Rondrageweihten würfelt zu Beginn einer KR eine Probe auf @UUID[Compendium.tde5e.skills.Item.KR28631591116621]{Kraftakt}. Bei Gelingen bekommt die Geweihte für 3 KR einen Bonus von QS/2 auf die TP. Dieser Bonus gilt nur, wenn die Geweihte mit dem Rondrakamm kämpft und verfällt augenblicklich, wenn sie die Waffe verliert oder wechselt. Der Einsatz dieser Fähigkeit kostet 1 freie Aktion und verursacht 1 Stufe @UUID[Compendium.tde5e.conditions.Item.TR16167149904659]{Trance}.</p>"
    },
    "effects": [],
    "folder": "RO59250226421425",
    "_key": "!items!DO17115221516891"
}
