{
    "_id": "EH23992250151121",
    "name": "Ehrliche Geschäfte",
    "type": "artifactAbility",
    "img": "systems/tde5e/assets/defaultItems/artifact_ability.svg",
    "system": {
        "aspects": [
            "commerce"
        ],
        "binding": {
            "cost": "",
            "volume": ""
        },
        "brewType": null,
        "cid": "EHRLICHE_GESCHAFTE",
        "cost": {
            "text": "",
            "constant": 0,
            "recurring": null
        },
        "group": "moonAmulet",
        "property": null,
        "purchase": {
            "cost": [
                8
            ],
            "description": "8 Abenteuerpunkte",
            "levels": 1,
            "maxTimeBuyable": 1
        },
        "requirementText": "SF Gespür für Geld, nicht SF Sinn für den Wert",
        "sources": [
            "AVENTURISCHES_GOTTERWIRKEN_1"
        ],
        "tradition": "Compendium.tde5e.karma.Item.TR21286138721491",
        "variant": {
            "categories": [],
            "input": false,
            "level": 1,
            "selected": null,
            "available": null
        },
        "flavor": "",
        "notes": "",
        "gmNotes": "",
        "parents": [
            "Compendium.tde5e.karma.Item.GE60170271702366"
        ],
        "rule": "<p>Der Phexgeweihte kann das Mondamulett dazu nutzen, eine Zone von 3 Schritt Radius um sich selbst zu erschaffen, die jeden Kulturschaffenden dazu bringt, unehrliche Geschäfte zu vermeiden. Alle Proben auf @UUID[Compendium.tde5e.skills.Item.HA19014124211567]{Handel}, die Betrug oder ähnlichen unehrlichen Handel beinhalten, sind um 2 erschwert. Verlässt der Phexgeweihte die Zone, endet die Wirkung augenblicklich. Der Einsatz dieser Fähigkeit kostet 5 Aktionen und verursacht 1 Stufe @UUID[Compendium.tde5e.conditions.Item.TR16167149904659]{Trance}.</p>"
    },
    "effects": [],
    "folder": "MO22917195149107",
    "_key": "!items!EH23992250151121"
}
