{
    "_id": "EI71157201138133",
    "name": "Eisbärgestalt",
    "type": "liturgy",
    "img": "systems/tde5e/assets/defaultItems/liturgical_chant.svg",
    "system": {
        "aspects": [
            "theHunt",
            "cold"
        ],
        "castingTime": "30 min",
        "castingTimeLong": "30 Minuten",
        "check": {
            "resistedBySpirit": false,
            "resistedByToughness": false,
            "resistanceIsHalfed": false,
            "attributes": [
                "courage",
                "sagacity",
                "intuition"
            ]
        },
        "cid": "EISBARGESTALT",
        "cost": {
            "text": "16 KaP",
            "textLong": "16 KaP",
            "constant": 16,
            "recurring": null
        },
        "duration": "QS x 3 h",
        "durationLong": "QS x 3 Stunden",
        "enhancements": [
            {
                "name": "Aufrechterhaltend",
                "effect": "Die Zeremonie ist aufrechterhaltend mit Aktivierungskosten von 8 KaP und 4 KaP pro 3 Stunden.",
                "skillPoints": 6,
                "owned": false
            },
            {
                "name": "Sprachfähigkeit",
                "effect": "Der Geweihte kann in Tiergestalt sprechen.",
                "skillPoints": 11,
                "owned": false
            },
            {
                "name": "Klerikales Tier",
                "effect": "Liturgien können gewirkt werden, notwendige Gesten entfallen dabei. Für KaP gilt dann: wie Geweihter. Voraussetzung: Liturgieerweiterung <em>Sprachfähigkeit</em>.",
                "skillPoints": 14,
                "owned": false
            }
        ],
        "group": "ceremony",
        "modifications": {
            "canModCastingTime": true,
            "canModCost": true,
            "canModRange": true
        },
        "range": "selbst",
        "rangeLong": "selbst",
        "requirementText": "keine",
        "sources": [
            "AVENTURISCHES_GOTTERWIRKEN_1"
        ],
        "targetCategory": "Lebewesen (nur der Geweihte selbst)",
        "traditions": {
            "all": false,
            "values": [
                "Compendium.tde5e.karma.Item.TR16914674421017"
            ]
        },
        "improvement": {
            "column": "C",
            "value": 0
        },
        "notes": "",
        "gmNotes": "",
        "flavor": "",
        "rule": "Der Geweihte verwandelt sich in einen Eisbären. Hierbei wird die Kleidung nicht mitverwandelt. In der Eisbärengestalt behält der Geweihte seine geistigen Eigenschaften und erhält die körperlichen Eigenschaften sowie die Fähigkeiten des Bären. Zudem kann er QS x 2 Punkte zusätzlich auf die körperlichen Eigenschaften des Bären verteilen. In der Bärengestalt vermag er keine übernatürlichen Fähigkeiten wie Zauber und Liturgien zu wirken, gilt jedoch als gesegnet.",
        "parents": []
    },
    "effects": [],
    "folder": "ZE22182316147170",
    "_key": "!items!EI71157201138133"
}
