{
    "_id": "ER58138101973319",
    "name": "Erdbeben-Schlag",
    "type": "artifactAbility",
    "img": "systems/tde5e/assets/defaultItems/artifact_ability.svg",
    "system": {
        "aspects": [
            "fire"
        ],
        "binding": {
            "cost": "",
            "volume": ""
        },
        "brewType": null,
        "cid": "ERDBEBENSCHLAG",
        "cost": {
            "text": "",
            "constant": 0,
            "recurring": null
        },
        "group": "ifirnsMantle",
        "property": null,
        "purchase": {
            "cost": [
                8
            ],
            "description": "8 Abenteuerpunkte",
            "levels": 1,
            "maxTimeBuyable": 1
        },
        "requirementText": "SF Brandschutz, nicht SF Glut des Hammers",
        "sources": [
            "AVENTURISCHES_GOTTERWIRKEN_1"
        ],
        "tradition": "Compendium.tde5e.karma.Item.TR20212175199223",
        "variant": {
            "categories": [],
            "input": false,
            "level": 1,
            "selected": null,
            "available": null
        },
        "flavor": "",
        "notes": "",
        "gmNotes": "",
        "parents": [
            "Compendium.tde5e.karma.Item.BR20882689224016"
        ],
        "rule": "<p>Der Ingerimmgeweihte kann ein Wesen der Größenkategorie mittel oder kleiner in einer Reichweite von bis zu 8 Schritt auswählen. Der Ingerimmgeweihte schlägt den Hammer auf den Boden und erzeugt damit ein kleines Erdbeben direkt bei dem betroffenen Wesen. Dieses muss eine Probe auf @UUID[Compendium.tde5e.skills.Item.AK92342342043211]{Akrobatik (Balance)} bestehen. Misslingt die Probe, so erleidet es den Status @UUID[Compendium.tde5e.states.Item.LI27509315183188]{Liegend}. Der Einsatz dieser Fähigkeit kostet 1 Aktion und verursacht 1 Stufe @UUID[Compendium.tde5e.conditions.Item.TR16167149904659]{Trance}.</p>"
    },
    "effects": [],
    "folder": "IN12813816718125",
    "_key": "!items!ER58138101973319"
}
