{
    "_id": "ER15823416716461",
    "name": "Erforscher des Rausches",
    "type": "karmaAbility",
    "img": "systems/tde5e/assets/defaultItems/special_ability_blessed.svg",
    "system": {
        "aspect": "",
        "cid": "ERFORSCHER_DES_RAUSCHES",
        "cost": {
            "text": "",
            "constant": 0,
            "recurring": null
        },
        "purchase": {
            "cost": [
                15
            ],
            "description": "15 Abenteuerpunkte",
            "levels": 1,
            "maxTimeBuyable": 1
        },
        "requirementText": "keine",
        "sources": [
            "AVENTURISCHES_GOTTERWIRKEN_1"
        ],
        "styleAbilities": [],
        "variant": {
            "categories": [],
            "input": false,
            "available": [],
            "level": 1,
            "selected": null
        },
        "flavor": "",
        "notes": "",
        "gmNotes": "",
        "group": "liturgyStyleExtended",
        "parents": [
            "Compendium.tde5e.karma.Item.DE11620723195651",
            "Compendium.tde5e.karma.Item.LE12210743177851",
            "Compendium.tde5e.karma.Item.RA36153408810374"
        ],
        "rule": "<p>Würde die Geweihte durch Rauschmittel eine Stufe @UUID[Compendium.tde5e.conditions.Item.BE91425088509929]{Betäubung}, @UUID[Compendium.tde5e.conditions.Item.SC72173204142222]{Schmerz} oder @UUID[Compendium.tde5e.conditions.Item.VE73175641105112]{Verwirrung} erhalten, kann sie stattdessen entscheiden, dass sie eine Stufe Entrückung erhält. Der Einsatz dieser Sonderfertigkeit verursacht 1 Stufe @UUID[Compendium.tde5e.conditions.Item.TR16167149904659]{Trance}.</p>"
    },
    "effects": [],
    "folder": "LI23938824414420",
    "_key": "!items!ER15823416716461"
}
