{
    "_id": "ER18223420942225",
    "name": "Ernüchterung",
    "type": "liturgy",
    "img": "systems/tde5e/assets/defaultItems/liturgical_chant.svg",
    "system": {
        "aspects": [
            "harmony"
        ],
        "castingTime": "2 Akt",
        "castingTimeLong": "2 Aktionen",
        "check": {
            "resistedBySpirit": false,
            "resistedByToughness": false,
            "resistanceIsHalfed": false,
            "attributes": [
                "courage",
                "sagacity",
                "charisma"
            ]
        },
        "cid": "ERNUCHTERUNG",
        "cost": {
            "text": "4 KaP",
            "textLong": "4 KaP",
            "constant": 4,
            "recurring": null
        },
        "duration": "sofort",
        "durationLong": "sofort",
        "enhancements": [
            {
                "name": "Reichweite Berührung",
                "effect": "Als Reichweite gilt Berührung. Die Liturgie kann nur auf Kulturschaffende übertragen werden.",
                "skillPoints": 6,
                "owned": false
            },
            {
                "name": "Beseitigung von Verwirrung",
                "effect": "Neben <em>Betäubung</em> kann auch <em>Verwirrung</em>, die durch Rauschmittel verursacht wurde, abgebaut werden. Die QS/2 Stufen müssen hierbei zwischen den Zuständen aufgeteilt werden.",
                "skillPoints": 11,
                "owned": false
            },
            {
                "name": "Beseitigung von Schmerz",
                "effect": "Neben <em>Betäubung</em> kann auch <em>Schmerz</em>, der durch Rauschmittel verursacht wurde, abgebaut werden. Die QS/2 Stufen müssen hierbei zwischen den Zuständen aufgeteilt werden.",
                "skillPoints": 14,
                "owned": false
            }
        ],
        "group": "liturgicalChant",
        "modifications": {
            "canModCastingTime": true,
            "canModCost": false,
            "canModRange": true
        },
        "range": "selbst",
        "rangeLong": "selbst",
        "requirementText": "keine",
        "sources": [
            "AVENTURISCHES_GOTTERWIRKEN_1"
        ],
        "targetCategory": "Kulturschaffende",
        "traditions": {
            "all": false,
            "values": [
                "Compendium.tde5e.karma.Item.TR14913419421824"
            ]
        },
        "improvement": {
            "column": "A",
            "value": 0
        },
        "notes": "",
        "gmNotes": "",
        "flavor": "",
        "rule": "QS/2 Stufen <em>Betäubung</em>, die durch Rauschmittel verursacht wurden, werden sofort abgebaut.",
        "parents": []
    },
    "effects": [],
    "folder": "LI20236437819314",
    "_key": "!items!ER18223420942225"
}
