{
    "_id": "EX23021569305938",
    "name": "Extrem starker Segnungsbruch",
    "type": "karmaAbility",
    "img": "systems/tde5e/assets/defaultItems/special_ability_blessed.svg",
    "system": {
        "aspect": "",
        "cid": "EXTREM_STARKER_SEGNUNGSBRUCH",
        "cost": {
            "text": "",
            "constant": 0,
            "recurring": null
        },
        "group": "blessed",
        "purchase": {
            "cost": [
                6
            ],
            "description": "6 Abenteuerpunkte",
            "levels": 1,
            "maxTimeBuyable": 1
        },
        "requirementText": "SF Starker Segnungsbruch",
        "sources": [
            "AVENTURISCHES_GOTTERWIRKEN_1"
        ],
        "styleAbilities": [],
        "variant": {
            "categories": [],
            "input": false,
            "available": [],
            "level": 1,
            "selected": null
        },
        "flavor": "",
        "notes": "",
        "gmNotes": "",
        "parents": [
            "Compendium.tde5e.karma.Item.ST17714718665114"
        ],
        "rule": "<p>Segnungen jeglicher QS können aufgehoben werden. Dies kostet 1 KaP (+ KaP in Höhe einer eventuell vorhandenen Stufe der SF Hauptsegnung auf der Segnung) und 1 freie Aktion.</p>"
    },
    "effects": [],
    "folder": "PA34841261181223",
    "_key": "!items!EX23021569305938"
}
