{
    "_id": "FR12221020365372",
    "name": "Friedensfreunde",
    "type": "karmaAbility",
    "img": "systems/tde5e/assets/defaultItems/special_ability_blessed.svg",
    "system": {
        "aspect": "",
        "cid": "FRIEDENSFREUNDE",
        "cost": {
            "text": "",
            "constant": 0,
            "recurring": null
        },
        "group": "liturgyStyle",
        "purchase": {
            "cost": [
                12
            ],
            "description": "12 Abenteuerpunkte",
            "levels": 1,
            "maxTimeBuyable": 1
        },
        "requirementText": "SF Tradition (Tsakirche)",
        "sources": [
            "AVENTURISCHES_GOTTERWIRKEN_1"
        ],
        "styleAbilities": [
            "Compendium.tde5e.karma.Item.GE17921755173568",
            "Compendium.tde5e.karma.Item.HA12420890153153"
        ],
        "variant": {
            "categories": [],
            "input": false,
            "available": [],
            "level": 1,
            "selected": null
        },
        "flavor": "",
        "notes": "",
        "gmNotes": "",
        "parents": [
            "Compendium.tde5e.karma.Item.TR18472241511241"
        ],
        "rule": "<p>Friedensfreunde bekommen eine Erleichterung von 1 bei Proben auf @UUID[Compendium.tde5e.skills.Item.BE59962162225121]{Bekehren &amp; Überzeugen}, wenn es darum geht, dass sie sich für Konfliktlösungen und Frieden einsetzen.<br /><br />Außerdem ist für den Gegner die Probe auf @UUID[Compendium.tde5e.skills.Item.WI13315915718951]{Willenskraft} um 2 erschwert, wenn Friedensfreunde die Liturgie Friedvolle Aura nutzen (siehe <strong>Regelwerk</strong> Seite <strong>325</strong>).</p>"
    },
    "effects": [],
    "folder": "LI12721068429537",
    "_key": "!items!FR12221020365372"
}
