{
    "_id": "FR20820282130992",
    "name": "Friedvolle Aura",
    "type": "liturgy",
    "img": "systems/tde5e/assets/defaultItems/liturgical_chant.svg",
    "system": {
        "aspects": [
            "freedom",
            "friendship",
            "harmony",
            "healing",
            "helpfulness",
            "insight",
            "knowledge",
            "unendingDeep"
        ],
        "castingTime": "1 Akt",
        "castingTimeLong": "1 Aktion",
        "check": {
            "resistedBySpirit": false,
            "resistedByToughness": false,
            "resistanceIsHalfed": false,
            "attributes": [
                "courage",
                "intuition",
                "charisma"
            ]
        },
        "cid": "FRIEDVOLLE_AURA",
        "cost": {
            "text": "8 KaP",
            "textLong": "8 KaP",
            "constant": 8,
            "recurring": null
        },
        "duration": "QS x 2 KR",
        "durationLong": "QS x 2 in KR",
        "enhancements": [
            {
                "owned": false,
                "name": "Aufrechterhaltung",
                "skillPoints": 5,
                "effect": "Die Liturgie kann aufrechterhalten werden mit Aktivierungskosten von 8 KaP und 4 KaP pro 5 Minuten."
            },
            {
                "owned": false,
                "name": "Reichweite Berührung",
                "skillPoints": 11,
                "effect": "Als Reichweite gilt Berührung. Die Liturgie kann nur auf Kulturschaffende übertragen werden, was allerdings nur freiwillig geschehen kann."
            },
            {
                "owned": false,
                "name": "Aufopferung",
                "skillPoints": 14,
                "effect": "Die vergleichende Probe der Angreifer gilt automatisch als gelungen. Reaktionen des Geweihten kosten einen Aktionspunkt weniger und können dadurch auch kostenfrei werden (allerdings keine AkP generieren)."
            }
        ],
        "group": "liturgicalChant",
        "modifications": {
            "canModCastingTime": true,
            "canModCost": true,
            "canModRange": true
        },
        "range": "selbst",
        "rangeLong": "selbst",
        "requirementText": "keine",
        "sources": [
            "REGELWERK"
        ],
        "targetCategory": "Kulturschaffende",
        "traditions": {
            "all": false,
            "values": [
                "Compendium.tde5e.karma.Item.TR80205813365143",
                "Compendium.tde5e.karma.Item.TR16979719214025",
                "Compendium.tde5e.karma.Item.TR64186251234162",
                "Compendium.tde5e.karma.Item.TR36198994619012",
                "Compendium.tde5e.karma.Item.TR14913419421824",
                "Compendium.tde5e.karma.Item.TR68134102136219",
                "Compendium.tde5e.karma.Item.TR18472241511241",
                "Compendium.tde5e.karma.Item.TR10867221095867"
            ]
        },
        "improvement": {
            "column": "B",
            "value": 0
        },
        "notes": "",
        "gmNotes": "",
        "flavor": "",
        "rule": "<p>Um den Geweihten anzugreifen, muss der Gegner eine vergleichende Probe auf @UUID[Compendium.tde5e.skills.Item.WI13315915718951]{Willenskraft (Bedrohungen standhalten)} gegen die QS der Liturgie werfen. Verliert er (oder bei einem Gleichstand), kann der Angriff nicht ausgeführt werden. Gewinnt er den Vergleich, sinkt die Qualität des Angriffs um QS/2 der Liturgie.</p><p>Während der Dauer kann der Geweihte keine Angriffe oder sonstige offensive Handlungen ausführen, aber seine Kampfgefährten unterstützen.</p>",
        "parents": []
    },
    "effects": [],
    "folder": "LI20236437819314",
    "_key": "!items!FR20820282130992"
}
