{
    "_id": "GE51130145249461",
    "name": "Gefestigter Zeremonieablauf",
    "type": "karmaAbility",
    "img": "systems/tde5e/assets/defaultItems/special_ability_blessed.svg",
    "system": {
        "aspect": "",
        "cid": "GEFESTIGTER_ZEREMONIEABLAUF",
        "cost": {
            "text": "",
            "constant": 0,
            "recurring": null
        },
        "group": "blessed",
        "purchase": {
            "cost": [
                8
            ],
            "description": "8 Abenteuerpunkte",
            "levels": 1,
            "maxTimeBuyable": 1
        },
        "requirementText": "Vorteil Geweihter,  13",
        "sources": [
            "AVENTURISCHES_GOTTERWIRKEN_1"
        ],
        "styleAbilities": [],
        "variant": {
            "categories": [],
            "input": false,
            "available": [],
            "level": 1,
            "selected": null
        },
        "flavor": "",
        "notes": "",
        "gmNotes": "",
        "rule": "Ein Geweihter kann Erschwernisse für eine Zeremonieprobe, die durch Ort oder Zeit entstanden sind, um insgesamt 1 senken (bis zu einem Maximum von +/–0).",
        "parents": []
    },
    "effects": [],
    "folder": "PA34841261181223",
    "_key": "!items!GE51130145249461"
}
