{
    "_id": "GL01896106237802",
    "name": "Glut des Hammers",
    "type": "artifactAbility",
    "img": "systems/tde5e/assets/defaultItems/artifact_ability.svg",
    "system": {
        "aspects": [
            "fire"
        ],
        "binding": {
            "cost": "",
            "volume": ""
        },
        "brewType": null,
        "cid": "GLUT_DES_HAMMERS",
        "cost": {
            "text": "",
            "constant": 0,
            "recurring": null
        },
        "group": "ifirnsMantle",
        "property": null,
        "purchase": {
            "cost": [
                8
            ],
            "description": "8 Abenteuerpunkte",
            "levels": 1,
            "maxTimeBuyable": 1
        },
        "requirementText": "SF Brandschutz, nicht SF Erdbeben-Schlag",
        "sources": [
            "AVENTURISCHES_GOTTERWIRKEN_1"
        ],
        "tradition": "Compendium.tde5e.karma.Item.TR20212175199223",
        "variant": {
            "categories": [],
            "input": false,
            "level": 1,
            "selected": null,
            "available": null
        },
        "flavor": "",
        "notes": "",
        "gmNotes": "",
        "parents": [
            "Compendium.tde5e.karma.Item.BR20882689224016"
        ],
        "rule": "<p>Dämonen, Pflanzen, Objekte aus Holz und Wesen mit dem Nachteil Hitzeempfindlich erleiden durch den Ingerimmshammer +2 TP.</p>"
    },
    "effects": [],
    "folder": "IN12813816718125",
    "_key": "!items!GL01896106237802"
}
