{
    "_id": "GO25571911432115",
    "name": "Goldene Hand",
    "type": "liturgy",
    "img": "systems/tde5e/assets/defaultItems/liturgical_chant.svg",
    "system": {
        "aspects": [],
        "castingTime": "4 Akt",
        "castingTimeLong": "4 Aktionen",
        "check": {
            "resistedBySpirit": false,
            "resistedByToughness": false,
            "resistanceIsHalfed": false,
            "attributes": [
                "sagacity",
                "intuition",
                "charisma"
            ]
        },
        "cid": "GOLDENE_HAND",
        "cost": {
            "text": "8 KaP",
            "textLong": "8 KaP",
            "constant": 8,
            "recurring": null
        },
        "duration": "QS h",
        "durationLong": "QS Stunden",
        "enhancements": [
            {
                "name": "Höherer Wert 1",
                "effect": "Der Wert des Gegenstandes entspricht 100 Dukaten.",
                "skillPoints": 6,
                "owned": false
            },
            {
                "name": "Höherer Wert 2",
                "effect": "Der Wert des Gegenstandes entspricht 250 Dukaten. Voraussetzung: Liturgieerweiterung <em>Höherer Wert 1</em>.",
                "skillPoints": 11,
                "owned": false
            },
            {
                "name": "Höherer Wert 3",
                "effect": "Der Wert des Gegenstandes entspricht 1.000 Dukaten. Voraussetzung: Liturgieerweiterung <em>Höherer Wert 2</em>.",
                "skillPoints": 14,
                "owned": false
            }
        ],
        "group": "liturgicalChant",
        "modifications": {
            "canModCastingTime": true,
            "canModCost": true,
            "canModRange": true
        },
        "range": "Berührung",
        "rangeLong": "Berührung",
        "requirementText": "keine",
        "sources": [
            "AVENTURISCHES_GOTTERWIRKEN_1"
        ],
        "targetCategory": "Objekt (profane Objekte, maximal so groß wie ein Apfel)",
        "traditions": {
            "all": false,
            "values": [
                "Compendium.tde5e.karma.Item.TR82251814625381"
            ]
        },
        "improvement": {
            "column": "C",
            "value": 0
        },
        "notes": "",
        "gmNotes": "",
        "flavor": "",
        "rule": "Durch eine Berührung kann ein Objekt bis zur Größe eines Apfels in Gold, Silber oder Edelsteine verwandelt werden. Der Wert des veränderten Objektes entspricht 50 Dukaten.",
        "parents": []
    },
    "effects": [],
    "folder": "LI20236437819314",
    "_key": "!items!GO25571911432115"
}
