{
    "_id": "GO23318515512017",
    "name": "Goldene Rüstung",
    "type": "liturgy",
    "img": "systems/tde5e/assets/defaultItems/liturgical_chant.svg",
    "system": {
        "aspects": [
            "antiMagic",
            "order"
        ],
        "castingTime": "2 Akt",
        "castingTimeLong": "2 Aktionen",
        "check": {
            "resistedBySpirit": false,
            "resistedByToughness": false,
            "resistanceIsHalfed": false,
            "attributes": [
                "courage",
                "sagacity",
                "intuition"
            ]
        },
        "cid": "GOLDENE_RUSTUNG",
        "cost": {
            "text": "4/8/16 KaP",
            "textLong": "4 KaP für RS 1, 8 KaP für RS 2, 16 KaP für RS 3",
            "constant": 16,
            "recurring": null
        },
        "duration": "QS x 3 min",
        "durationLong": "QS x 3 Minuten",
        "enhancements": [
            {
                "name": "Liturgiedauer modifizierbar",
                "effect": "Die Liturgiedauer darf doch modifiziert werden.",
                "skillPoints": 6,
                "owned": false
            },
            {
                "name": "Harte Schale",
                "effect": "Der Geweihte kann sich auch einen RS von 4 verleihen. Die Kosten dafür betragen 32 KaP (nicht modifizierbar, selbst wenn Liturgieerweiterung <em>Liturgiedauer modifizierbar</em> vorhanden ist).",
                "skillPoints": 11,
                "owned": false
            },
            {
                "name": "Reichweite Berührung",
                "effect": "Als Reichweite gilt Berührung. Die Liturgie kann nur auf Kulturschaffende übertragen werden. Die Kosten steigen dabei um eine Kategorie (von 4 auf 8, von 8 auf 16 usw.).",
                "skillPoints": 14,
                "owned": false
            }
        ],
        "group": "liturgicalChant",
        "modifications": {
            "canModCastingTime": true,
            "canModCost": false,
            "canModRange": true
        },
        "range": "selbst",
        "rangeLong": "selbst",
        "requirementText": "keine",
        "sources": [
            "AVENTURISCHES_GOTTERWIRKEN_1"
        ],
        "targetCategory": "Kulturschaffende",
        "traditions": {
            "all": false,
            "values": [
                "Compendium.tde5e.karma.Item.TR21011142168121"
            ]
        },
        "improvement": {
            "column": "C",
            "value": 0
        },
        "notes": "",
        "gmNotes": "",
        "flavor": "",
        "rule": "Die Haut des Betroffenen überzieht sich mit einem golden leuchtenden Schein, der ihm RS verleiht. Die Höhe des gewünschten RS muss der Geweihte vor der Probe festlegen. Maximal ist so ein RS von 3 möglich. Der RS ist kombinierbar mit anderem, profanem RS, nicht aber mit magischem RS. Gegen Dämonen und magische Angriffe verleiht die Liturgie noch einen Punkt zusätzlichen RS.",
        "parents": []
    },
    "effects": [],
    "folder": "LI20236437819314",
    "_key": "!items!GO23318515512017"
}
