{
    "_id": "GR97513820323624",
    "name": "Greifenruf",
    "type": "liturgy",
    "img": "systems/tde5e/assets/defaultItems/liturgical_chant.svg",
    "system": {
        "aspects": [
            "order"
        ],
        "castingTime": "8 h",
        "castingTimeLong": "8 Stunden",
        "check": {
            "resistedBySpirit": false,
            "resistedByToughness": false,
            "resistanceIsHalfed": false,
            "attributes": [
                "sagacity",
                "intuition",
                "charisma"
            ]
        },
        "cid": "GREIFENRUF",
        "cost": {
            "text": "32 KaP",
            "textLong": "32 KaP",
            "constant": 32,
            "recurring": null
        },
        "duration": "QS/2 h",
        "durationLong": "QS/2 Stunden",
        "enhancements": [
            {
                "name": "Zeremoniedauer modifizierbar",
                "effect": "Die Zeremoniedauer ist doch modifizierbar.",
                "skillPoints": 6,
                "owned": false
            },
            {
                "name": "Längere Wirkungsdauer",
                "effect": "Die Wirkungsdauer beträgt QS Stunden.",
                "skillPoints": 11,
                "owned": false
            },
            {
                "name": "Karmaspende",
                "effect": "Der Greif nutzt auch sein eigenes Karma, um den Geweihten zu unterstützen.",
                "skillPoints": 14,
                "owned": false
            }
        ],
        "group": "ceremony",
        "modifications": {
            "canModCastingTime": false,
            "canModCost": true,
            "canModRange": true
        },
        "range": "selbst",
        "rangeLong": "selbst",
        "requirementText": "keine",
        "sources": [
            "AVENTURISCHES_GOTTERWIRKEN_1"
        ],
        "targetCategory": "Kulturschaffende",
        "traditions": {
            "all": false,
            "values": [
                "Compendium.tde5e.karma.Item.TR21011142168121"
            ]
        },
        "improvement": {
            "column": "D",
            "value": 0
        },
        "notes": "",
        "gmNotes": "",
        "flavor": "",
        "rule": "Durch diese Zeremonie kann der Geweihte einen Greifen rufen, der ihn oder eine andere Person in seiner Nähe durch die Lüfte zu tragen vermag oder an seiner Seite kämpft. Karma wird dieser jedoch nicht für den Geweihten einsetzen. Der Greif erscheint am Ende der Zeremoniedauer.",
        "parents": []
    },
    "effects": [],
    "folder": "ZE22182316147170",
    "_key": "!items!GR97513820323624"
}
