{
    "_id": "HA14498542225319",
    "name": "Haltbare Trophäen",
    "type": "artifactAbility",
    "img": "systems/tde5e/assets/defaultItems/artifact_ability.svg",
    "system": {
        "aspects": [
            "nature"
        ],
        "binding": {
            "cost": "",
            "volume": ""
        },
        "brewType": null,
        "cid": "HALTBARE_TROPHAEN",
        "cost": {
            "text": "",
            "constant": 0,
            "recurring": null
        },
        "group": "ifirnsMantle",
        "property": null,
        "purchase": {
            "cost": [
                3
            ],
            "description": "3 Abenteuerpunkte",
            "levels": 1,
            "maxTimeBuyable": 1
        },
        "requirementText": "SF Tradition (Ifirnkirche), nicht SF Warmer Mantel",
        "sources": [
            "AVENTURISCHES_GOTTERWIRKEN_1"
        ],
        "tradition": "Compendium.tde5e.karma.Item.TR64186251234162",
        "variant": {
            "categories": [],
            "input": false,
            "level": 1,
            "selected": null,
            "available": null
        },
        "flavor": "",
        "notes": "",
        "gmNotes": "",
        "parents": [
            "Compendium.tde5e.karma.Item.TR64186251234162"
        ],
        "rule": "<p>Felle, Pelze und andere Jagdtrophäen, die die Ifirngeweihte haltbar machen will, sind 50 % länger haltbar als üblich.</p>"
    },
    "effects": [],
    "folder": "IF87176116102541",
    "_key": "!items!HA14498542225319"
}
