{
    "_id": "HA19212962531681",
    "name": "Hammer der Furcht",
    "type": "artifactAbility",
    "img": "systems/tde5e/assets/defaultItems/artifact_ability.svg",
    "system": {
        "aspects": [
            "death"
        ],
        "binding": {
            "cost": "",
            "volume": ""
        },
        "brewType": null,
        "cid": "HAMMER_DER_FURCHT",
        "cost": {
            "text": "",
            "constant": 0,
            "recurring": null
        },
        "group": "ravenbeak",
        "property": null,
        "purchase": {
            "cost": [
                10
            ],
            "description": "10 Abenteuerpunkte",
            "levels": 1,
            "maxTimeBuyable": 1
        },
        "requirementText": "SF Tradition (Boronkirche), nicht SF Fokus der Schattenwelt",
        "sources": [
            "AVENTURISCHES_GOTTERWIRKEN_1"
        ],
        "tradition": "Compendium.tde5e.karma.Item.TR17410819190129",
        "variant": {
            "categories": [],
            "input": false,
            "level": 1,
            "selected": null,
            "available": null
        },
        "flavor": "",
        "notes": "",
        "gmNotes": "",
        "parents": [
            "Compendium.tde5e.karma.Item.TR17410819190129"
        ],
        "rule": "<p>Der Borongeweihte kann auf bis zu 32 Schritt ein Ziel benennen. Dieses erleidet 1 Stufe @UUID[Compendium.tde5e.conditions.Item.FU13915517420459]{Furcht}. Nur folgende Wesen können davon betroffen sein: Geister und Untote. Die Wirkung tritt ein, auch wenn diese Wesen üblicherweise keine @UUID[Compendium.tde5e.conditions.Item.FU13915517420459]{Furcht} erleiden können. Der Einsatz dieser Fähigkeit kostet 1 Aktion und verursacht 1 Stufe @UUID[Compendium.tde5e.conditions.Item.TR16167149904659]{Trance}.</p>"
    },
    "effects": [],
    "folder": "RA65243142245234",
    "_key": "!items!HA19212962531681"
}
