{
    "_id": "HA25156169216199",
    "name": "Harmonisten",
    "type": "karmaAbility",
    "img": "systems/tde5e/assets/defaultItems/special_ability_blessed.svg",
    "system": {
        "aspect": "",
        "cid": "HARMONISTEN",
        "cost": {
            "text": "",
            "constant": 0,
            "recurring": null
        },
        "group": "liturgyStyle",
        "purchase": {
            "cost": [
                15
            ],
            "description": "15 Abenteuerpunkte",
            "levels": 1,
            "maxTimeBuyable": 1
        },
        "requirementText": "SF Tradition (Rahjakirche)",
        "sources": [
            "AVENTURISCHES_GOTTERWIRKEN_1"
        ],
        "styleAbilities": [
            "Compendium.tde5e.karma.Item.GE11868684219486",
            "Compendium.tde5e.karma.Item.WO24221616125483"
        ],
        "variant": {
            "categories": [],
            "input": false,
            "available": [],
            "level": 1,
            "selected": null
        },
        "flavor": "",
        "notes": "",
        "gmNotes": "",
        "parents": [
            "Compendium.tde5e.karma.Item.TR14913419421824"
        ],
        "rule": "<p>Mittels einer Berührung können Harmonisten ein Mirakel auf einen anderen Kulturschaffenden wirken, der dann statt des Geweihten von einer Verbesserung seiner Talente profitiert. Als wohlgefällige Talente gelten jene Talente, die auch bei der Tradition der Rahjageweihten angegeben sind. Das ausgegebene Karma zählt bei der Feststellung der Entrückung nur für den Geweihten. Statt 4 KaP kostet das Mirakel 8 KaP. Der Einsatz dieser Fähigkeit kostet 1 freie Aktion.</p>"
    },
    "effects": [],
    "folder": "LI12721068429537",
    "_key": "!items!HA25156169216199"
}
