{
    "_id": "HA18660215150235",
    "name": "Harmoniesegen",
    "type": "blessing",
    "img": "systems/tde5e/assets/defaultItems/liturgical_chant.svg",
    "system": {
        "cid": "HARMONIESEGEN",
        "duration": "12 Stunden",
        "durationLong": "12 Stunden",
        "range": "Berührung",
        "rangeLong": "Berührung",
        "requirementText": "keine",
        "sources": [
            "REGELWERK"
        ],
        "targetCategory": "Kulturschaffende",
        "traditions": {
            "all": false,
            "values": [
                "Compendium.tde5e.karma.Item.TR21011142168121",
                "Compendium.tde5e.karma.Item.TR12692281461643",
                "Compendium.tde5e.karma.Item.TR17410819190129",
                "Compendium.tde5e.karma.Item.TR80205813365143",
                "Compendium.tde5e.karma.Item.TR21286138721491",
                "Compendium.tde5e.karma.Item.TR16979719214025",
                "Compendium.tde5e.karma.Item.TR14524224316711",
                "Compendium.tde5e.karma.Item.TR68134102136219",
                "Compendium.tde5e.karma.Item.TR16914674421017",
                "Compendium.tde5e.karma.Item.TR18472241511241",
                "Compendium.tde5e.karma.Item.TR20212175199223",
                "Compendium.tde5e.karma.Item.TR14913419421824",
                "Compendium.tde5e.karma.Item.TR82251814625381",
                "Compendium.tde5e.karma.Item.TR92636512615322",
                "Compendium.tde5e.karma.Item.TR64186251234162",
                "Compendium.tde5e.karma.Item.TR36198994619012",
                "Compendium.tde5e.karma.Item.TR16618813570601",
                "Compendium.tde5e.karma.Item.TR10867221095867"
            ]
        },
        "notes": "",
        "gmNotes": "",
        "flavor": "",
        "rule": "Wer durch einen Harmoniesegen gesegnet wurde, der erfreut sich einen ganzen Tag lang positiver Gefühle. Alle Effekte, die Furcht auslösen, erhalten eine Erschwernis von 1.<br />.",
        "parents": []
    },
    "effects": [],
    "folder": "SE14214524515212",
    "_key": "!items!HA18660215150235"
}
