{
    "_id": "HO15930971419060",
    "name": "Hohe Weihe",
    "type": "karmaAbility",
    "img": "systems/tde5e/assets/defaultItems/special_ability_blessed.svg",
    "system": {
        "aspect": "",
        "cid": "HOHE_WEIHE",
        "cost": {
            "text": "",
            "constant": 0,
            "recurring": null
        },
        "group": "blessed",
        "purchase": {
            "cost": [
                30,
                30,
                30
            ],
            "description": "30 Abenteuerpunkte pro Stufe",
            "levels": 3,
            "maxTimeBuyable": 1
        },
        "requirementText": "Stufe I:  Vorteil Geweihter,  13, Stufe II:  15, Stufe III:  17",
        "sources": [
            "AVENTURISCHES_GOTTERWIRKEN_1"
        ],
        "styleAbilities": [],
        "variant": {
            "categories": [],
            "input": false,
            "available": [],
            "level": 1,
            "selected": null
        },
        "flavor": "",
        "notes": "",
        "gmNotes": "",
        "rule": "Durch die Sonderfertigkeit bekommt der Held pro Stufe der Hohen Weihe 6 zusätzliche KaP, die seinen Grundwert der Karmaenergie erhöhen und ihm somit erlauben, ein höheres Maximum zu erreichen.",
        "parents": []
    },
    "effects": [],
    "folder": "PA34841261181223",
    "_key": "!items!HO15930971419060"
}
