{
    "_id": "IM15613914485291",
    "name": "Improvisierte Liturgie (Gebet)",
    "type": "karmaAbility",
    "img": "systems/tde5e/assets/defaultItems/special_ability_blessed.svg",
    "system": {
        "aspect": "",
        "cid": "IMPROVISIERTE_LITURGIE_GEBET",
        "cost": {
            "text": "",
            "constant": 0,
            "recurring": null
        },
        "group": "blessed",
        "purchase": {
            "cost": [
                15
            ],
            "description": "15 Abenteuerpunkte",
            "levels": 1,
            "maxTimeBuyable": 1
        },
        "requirementText": "Vorteil Geweihter,  15",
        "sources": [
            "AVENTURISCHES_GOTTERWIRKEN_1"
        ],
        "styleAbilities": [],
        "variant": {
            "categories": [],
            "input": false,
            "available": [],
            "level": 1,
            "selected": null
        },
        "flavor": "",
        "notes": "",
        "gmNotes": "",
        "rule": "Der Held kann das gesprochene Gebet einer Liturgie weglassen und erleidet dafür nur eine Erschwernis von 1 (siehe <strong>Regelwerk</strong> Seite <strong>310</strong>).",
        "parents": []
    },
    "effects": [],
    "folder": "PA34841261181223",
    "_key": "!items!IM15613914485291"
}
