{
    "_id": "JA64204641682514",
    "name": "Jäger der Seeschlangen",
    "type": "karmaAbility",
    "img": "systems/tde5e/assets/defaultItems/special_ability_blessed.svg",
    "system": {
        "aspect": "",
        "cid": "JAGER_DER_SEESCHLANGEN",
        "cost": {
            "text": "",
            "constant": 0,
            "recurring": null
        },
        "group": "liturgyStyle",
        "purchase": {
            "cost": [
                10
            ],
            "description": "10 Abenteuerpunkte",
            "levels": 1,
            "maxTimeBuyable": 1
        },
        "requirementText": "SF Tradition (Swafnirkirche)",
        "sources": [
            "AVENTURISCHES_GOTTERWIRKEN_1"
        ],
        "styleAbilities": [
            "Compendium.tde5e.karma.Item.OM21324011616812",
            "Compendium.tde5e.karma.Item.TA17214419013926"
        ],
        "variant": {
            "categories": [],
            "input": false,
            "available": [],
            "level": 1,
            "selected": null
        },
        "flavor": "",
        "notes": "",
        "gmNotes": "",
        "parents": [
            "Compendium.tde5e.karma.Item.TR16618813570601"
        ],
        "rule": "<p>Jäger der Seeschlangen können sich bei einer erfolgreichen AT entscheiden, lieber selbst eine Stufe @UUID[Compendium.tde5e.conditions.Item.EN23119351162444]{Entrückung} zu erlangen, als TP für ihren Gegner auszuwürfeln. Eingesetzt werden kann diese Fähigkeit nur gegen Meereslebewesen. Diese Fähigkeit kann nur einmal alle 24 Stunden eingesetzt werden.<br /><br />Jäger der Seeschlangen können bei Wasserdämonen aller Art und Meeresungeheuern eine Probe auf @UUID[Compendium.tde5e.skills.Item.WI13315915718951]{Willenskraft (Bedrohungen standhalten)} ablegen, falls diese Wesen bei ihnen Zustände verursacht haben. QS/2 Stufen beliebiger Zustände (außer @UUID[Compendium.tde5e.conditions.Item.BE46206219376213]{Belastung} und @UUID[Compendium.tde5e.conditions.Item.EN23119351162444]{Entrückung}) werden unterdrückt, solange der Kampf anhält. Die Stufen müssen auf die Zustände verteilt werden.</p>"
    },
    "effects": [],
    "folder": "LI12721068429537",
    "_key": "!items!JA64204641682514"
}
