{
    "_id": "JU13320669701676",
    "name": "Jugendlichkeit",
    "type": "liturgy",
    "img": "systems/tde5e/assets/defaultItems/liturgical_chant.svg",
    "system": {
        "aspects": [
            "harmony",
            "change"
        ],
        "castingTime": "32 h",
        "castingTimeLong": "32 Stunden",
        "check": {
            "resistedBySpirit": false,
            "resistedByToughness": false,
            "resistanceIsHalfed": false,
            "attributes": [
                "courage",
                "intuition",
                "charisma"
            ]
        },
        "cid": "JUGENDLICHKEIT",
        "cost": {
            "text": "32 KaP",
            "textLong": "32 KaP",
            "constant": 32,
            "recurring": null
        },
        "duration": "QS Monate",
        "durationLong": "QS Monate",
        "enhancements": [
            {
                "name": "Reichweite Berührung",
                "effect": "Als Reichweite gilt Berührung. Die Zeremonie kann nur auf Kulturschaffende übertragen werden.",
                "skillPoints": 6,
                "owned": false
            },
            {
                "name": "Zielkategorie Lebewesen",
                "effect": "Die Zeremonie umfasst auch die Zielkategorie Lebewesen.",
                "skillPoints": 11,
                "owned": false
            },
            {
                "name": "Längere Wirkungsdauer",
                "effect": "Die Wirkungsdauer beträgt QS Jahre. Die KaP-Kosten steigen auf 64.",
                "skillPoints": 14,
                "owned": false
            }
        ],
        "group": "ceremony",
        "modifications": {
            "canModCastingTime": true,
            "canModCost": false,
            "canModRange": true
        },
        "range": "selbst",
        "rangeLong": "selbst",
        "requirementText": "keine",
        "sources": [
            "AVENTURISCHES_GOTTERWIRKEN_1"
        ],
        "targetCategory": "Kulturschaffende",
        "traditions": {
            "all": false,
            "values": [
                "Compendium.tde5e.karma.Item.TR82251814625381",
                "Compendium.tde5e.karma.Item.TR14913419421824",
                "Compendium.tde5e.karma.Item.TR18472241511241"
            ]
        },
        "improvement": {
            "column": "D",
            "value": 0
        },
        "notes": "",
        "gmNotes": "",
        "flavor": "",
        "rule": "Während der Wirkungsdauer wird die Alterung der betroffenen Person ausgesetzt.",
        "parents": []
    },
    "effects": [],
    "folder": "ZE22182316147170",
    "_key": "!items!JU13320669701676"
}
