{
    "_id": "KL18209209154242",
    "name": "Klinge des Jägers",
    "type": "artifactAbility",
    "img": "systems/tde5e/assets/defaultItems/artifact_ability.svg",
    "system": {
        "aspects": [
            "theHunt"
        ],
        "binding": {
            "cost": "",
            "volume": ""
        },
        "brewType": null,
        "cid": "KLINGE_DES_JAGERS",
        "cost": {
            "text": "",
            "constant": 0,
            "recurring": null
        },
        "group": "firunsKnife",
        "property": null,
        "purchase": {
            "cost": [
                10
            ],
            "description": "10 Abenteuerpunkte",
            "levels": 1,
            "maxTimeBuyable": 1
        },
        "requirementText": "SF Klinge des Waidmanns, nicht SF Klinge des Pirschers",
        "sources": [
            "AVENTURISCHES_GOTTERWIRKEN_1"
        ],
        "tradition": "Compendium.tde5e.karma.Item.TR16914674421017",
        "variant": {
            "categories": [],
            "input": false,
            "level": 1,
            "selected": null,
            "available": null
        },
        "flavor": "",
        "notes": "",
        "gmNotes": "",
        "parents": [
            "Compendium.tde5e.karma.Item.KL16534191251228"
        ],
        "rule": "<p>Das Firunsmesser richtet gegen Tiere +2 TP an.</p>"
    },
    "effects": [],
    "folder": "FI11749591097310",
    "_key": "!items!KL18209209154242"
}
