{
    "_id": "KO62432319393157",
    "name": "Kontrolle des Wassers",
    "type": "artifactAbility",
    "img": "systems/tde5e/assets/defaultItems/artifact_ability.svg",
    "system": {
        "aspects": [
            "wave"
        ],
        "binding": {
            "cost": "",
            "volume": ""
        },
        "brewType": null,
        "cid": "KONTROLLE_DES_WASSERS",
        "cost": {
            "text": "",
            "constant": 0,
            "recurring": null
        },
        "group": "efferdBeard",
        "property": null,
        "purchase": {
            "cost": [
                3
            ],
            "description": "3 Abenteuerpunkte",
            "levels": 1,
            "maxTimeBuyable": 1
        },
        "requirementText": "SF Tradition (Efferdkirche), nicht SF Flug des Dreizacks",
        "sources": [
            "AVENTURISCHES_GOTTERWIRKEN_1"
        ],
        "tradition": "Compendium.tde5e.karma.Item.TR14524224316711",
        "variant": {
            "categories": [],
            "input": false,
            "level": 1,
            "selected": null,
            "available": null
        },
        "flavor": "",
        "notes": "",
        "gmNotes": "",
        "parents": [
            "Compendium.tde5e.karma.Item.TR14524224316711"
        ],
        "rule": "<p>Der Efferdgeweihte kann mit einer Berührung seines Efferdbarts eine kleine Wassermenge (bis zu 10 Liter) beliebig in einem Radius von bis zu 2 Schritt um sich verformen. Das Wasser kann sich langsam durch die Luft bewegen (GS 2) und eine beliebige Form nach Wunsch des Efferdgeweihten annehmen (beispielsweise eine kleine humanoide Gestalt, eine Röhre oder einen Fisch). Die Dauer der Kontrolle beträgt 10 KR, danach zerfällt die Form und das Wasser fällt zu Boden. Der Einsatz dieser Fähigkeit kostet 1 Aktion.</p>"
    },
    "effects": [],
    "folder": "EF72761414614931",
    "_key": "!items!KO62432319393157"
}
