{
    "_id": "KR19418525619719",
    "name": "Kraftvoller Vorstoß",
    "type": "artifactAbility",
    "img": "systems/tde5e/assets/defaultItems/artifact_ability.svg",
    "system": {
        "aspects": [
            "strength"
        ],
        "binding": {
            "cost": "",
            "volume": ""
        },
        "brewType": null,
        "cid": "KRAFTVOLLER_VORSTOSS",
        "cost": {
            "text": "",
            "constant": 0,
            "recurring": null
        },
        "group": "waleShield",
        "property": null,
        "purchase": {
            "cost": [
                10
            ],
            "description": "10 Abenteuerpunkte",
            "levels": 1,
            "maxTimeBuyable": 1
        },
        "requirementText": "SF Flukenschlag, nicht SF Hass des Grünwals",
        "sources": [
            "AVENTURISCHES_GOTTERWIRKEN_1"
        ],
        "tradition": "Compendium.tde5e.karma.Item.TR16618813570601",
        "variant": {
            "categories": [],
            "input": false,
            "level": 1,
            "selected": null,
            "available": null
        },
        "flavor": "",
        "notes": "",
        "gmNotes": "",
        "parents": [
            "Compendium.tde5e.karma.Item.FL19713270151631"
        ],
        "rule": "<p>Der Swafnirgeweihte erhält die Möglichkeit, eine Probe auf @UUID[Compendium.tde5e.skills.Item.BE59962162225121]{Bekehren &amp; Überzeugen (öffentliche Rede)} abzulegen und bis zu QS/2 Ziele in seiner Hör- und Sichtreichweite für den Angriff zu wappnen. Er verleiht allen Zielen +2 AT. Der Bonus verfällt, wenn das angegriffene Ziel sich erfolgreich verteidigt oder die AT misslingt, spätestens aber nach dem Ende der folgenden KR. Die Wirkung ist nicht kumulativ mit weiteren Anwendungen der SF @UUID[$1]{$3}. Der Einsatz dieser Fähigkeit kostet 1 Aktion und verursacht 1 Stufe @UUID[Compendium.tde5e.conditions.Item.TR16167149904659]{Trance}.</p>"
    },
    "effects": [],
    "folder": "WA17164281971661",
    "_key": "!items!KR19418525619719"
}
