{
    "_id": "KU53923946394937",
    "name": "Küstenwächter",
    "type": "karmaAbility",
    "img": "systems/tde5e/assets/defaultItems/special_ability_blessed.svg",
    "system": {
        "aspect": "",
        "cid": "KUSTENWACHTER",
        "cost": {
            "text": "",
            "constant": 0,
            "recurring": null
        },
        "group": "liturgyStyle",
        "purchase": {
            "cost": [
                10
            ],
            "description": "10 Abenteuerpunkte",
            "levels": 1,
            "maxTimeBuyable": 1
        },
        "requirementText": "SF Tradition (Efferdkirche)",
        "sources": [
            "AVENTURISCHES_GOTTERWIRKEN_1",
            "GLAUBE_MACHT_UND_HELDENMUT_DIE_SIEBENWINDKUSTE"
        ],
        "styleAbilities": [
            "Compendium.tde5e.karma.Item.KA23511011182182"
        ],
        "variant": {
            "categories": [],
            "input": false,
            "available": [],
            "level": 1,
            "selected": null
        },
        "flavor": "",
        "notes": "",
        "gmNotes": "",
        "parents": [
            "Compendium.tde5e.karma.Item.TR14524224316711"
        ],
        "rule": "<p>Wenn Flusswächter die Liturgiemodifikation <em>Erzwingen</em> einsetzen, so erhalten sie bei Gelingen der Liturgie +1 FP (bis zu einem Maximum von 18 FP).</p>"
    },
    "effects": [],
    "folder": "LI12721068429537",
    "_key": "!items!KU53923946394937"
}
