{
    "_id": "LE10121621484201",
    "name": "Leitende Strömung",
    "type": "liturgy",
    "img": "systems/tde5e/assets/defaultItems/liturgical_chant.svg",
    "system": {
        "aspects": [
            "unendingDeep"
        ],
        "castingTime": "30 Min",
        "castingTimeLong": "30 Minuten",
        "check": {
            "resistedBySpirit": false,
            "resistedByToughness": false,
            "resistanceIsHalfed": false,
            "attributes": [
                "sagacity",
                "sagacity",
                "intuition"
            ]
        },
        "cid": "LEITENDE_STROMUNG",
        "cost": {
            "text": "16 KaP",
            "textLong": "16 KaP",
            "constant": 16,
            "recurring": null
        },
        "duration": "QS h",
        "durationLong": "QS Stunden",
        "enhancements": [
            {
                "effect": "",
                "skillPoints": 6,
                "owned": false
            },
            {
                "effect": "",
                "skillPoints": 11,
                "owned": false
            },
            {
                "effect": "",
                "skillPoints": 14,
                "owned": false
            }
        ],
        "group": "ceremony",
        "modifications": {
            "canModCastingTime": true,
            "canModCost": true,
            "canModRange": true
        },
        "range": "Berührung",
        "rangeLong": "Berührung",
        "requirementText": "keine",
        "sources": [
            "UNENDLICHKEIT_UND_TIEFENRAUSCH"
        ],
        "targetCategory": "Objekt (Schiff)",
        "traditions": {
            "all": false,
            "values": [
                "Compendium.tde5e.karma.Item.TR10867221095867"
            ]
        },
        "improvement": {
            "column": "C",
            "value": 0
        },
        "notes": "",
        "gmNotes": "",
        "flavor": "",
        "rule": "Ein Schiff wird von Meeresströmungen für die Wirkungsdauer in die vom Priester gewünschte Richtung getragen. Es kann sich dabei mit halber Geschwindigkeit auch unabhängig vom Wind bewegen. Für besonders schwierige Manöver muss der Priester eine Probe auf <em>Boote &amp; Schiffe</em> ablegen.",
        "parents": []
    },
    "effects": [],
    "folder": "ZE22182316147170",
    "_key": "!items!LE10121621484201"
}
