{
    "_id": "LE12210743177851",
    "name": "Levthansfreunde",
    "type": "karmaAbility",
    "img": "systems/tde5e/assets/defaultItems/special_ability_blessed.svg",
    "system": {
        "aspect": "",
        "cid": "LEVTHANSFREUNDE",
        "cost": {
            "text": "",
            "constant": 0,
            "recurring": null
        },
        "group": "liturgyStyle",
        "purchase": {
            "cost": [
                15
            ],
            "description": "15 Abenteuerpunkte",
            "levels": 1,
            "maxTimeBuyable": 1
        },
        "requirementText": "SF Tradition (Rahjakirche)",
        "sources": [
            "AVENTURISCHES_GOTTERWIRKEN_1"
        ],
        "styleAbilities": [
            "Compendium.tde5e.karma.Item.ER15823416716461",
            "Compendium.tde5e.karma.Item.HA12420890153153",
            "Compendium.tde5e.karma.Item.WO24221616125483"
        ],
        "variant": {
            "categories": [],
            "input": false,
            "available": [],
            "level": 1,
            "selected": null
        },
        "flavor": "",
        "notes": "",
        "gmNotes": "",
        "parents": [
            "Compendium.tde5e.karma.Item.TR14913419421824"
        ],
        "rule": "<p>Während der Nacht widmen sich die Levthansfreunde einem Kulturschaffenden und begeistern ihn mit Tanz, Musik, dem Liebesspiel oder einer anderen rahjagefälligen Handlung. Sie übertragen so ihre LeP-Regeneration komplett an den Kulturschaffenden, damit dieser in der nächsten Regenerationsphase mehr regeneriert. Diese Fähigkeit kann der Geweihte nur einmal alle 24 Stunden einsetzen.</p>"
    },
    "effects": [],
    "folder": "LI12721068429537",
    "_key": "!items!LE12210743177851"
}
