{
    "_id": "LI20615816122117",
    "name": "Licht des Götterfürsten",
    "type": "artifactAbility",
    "img": "systems/tde5e/assets/defaultItems/artifact_ability.svg",
    "system": {
        "aspects": [
            "order"
        ],
        "binding": {
            "cost": "",
            "volume": ""
        },
        "brewType": null,
        "cid": "LICHT_DES_GOTTERFURSTEN",
        "cost": {
            "text": "",
            "constant": 0,
            "recurring": null
        },
        "group": "sunScepter",
        "property": null,
        "purchase": {
            "cost": [
                5
            ],
            "description": "5 Abenteuerpunkte",
            "levels": 1,
            "maxTimeBuyable": 1
        },
        "requirementText": "SF Tradition (Praioskirche), nicht SF Zepter der Furcht",
        "sources": [
            "AVENTURISCHES_GOTTERWIRKEN_1"
        ],
        "tradition": "Compendium.tde5e.karma.Item.TR21011142168121",
        "variant": {
            "categories": [],
            "input": false,
            "level": 1,
            "selected": null,
            "available": null
        },
        "flavor": "",
        "notes": "",
        "gmNotes": "",
        "parents": [
            "Compendium.tde5e.karma.Item.TR21011142168121"
        ],
        "rule": "<p>Das Sonnenzepter beginnt zu leuchten und spendet für 30 Minuten so viel Licht wie eine Fackel (siehe <strong>Regelwerk</strong> Seite <strong>324</strong>, Bann der Dunkelheit mit QS 2). Das Licht gilt als Sonnenlicht und kann Wesen schaden, die dagegen empfindsam reagieren. Der Einsatz dieser Fähigkeit kostet 1 freie Aktion und verursacht 1 Stufe @UUID[Compendium.tde5e.conditions.Item.TR16167149904659]{Trance}.</p>"
    },
    "effects": [],
    "folder": "SO55161491975023",
    "_key": "!items!LI20615816122117"
}
