{
    "_id": "LI80786312115522",
    "name": "Liturgie abbrechen",
    "type": "karmaAbility",
    "img": "systems/tde5e/assets/defaultItems/special_ability_blessed.svg",
    "system": {
        "aspect": "",
        "cid": "LITURGIE_ABBRECHEN",
        "cost": {
            "text": "",
            "constant": 0,
            "recurring": null
        },
        "group": "blessed",
        "purchase": {
            "cost": [
                8
            ],
            "description": "8 Abenteuerpunkte",
            "levels": 1,
            "maxTimeBuyable": 1
        },
        "requirementText": "Vorteil Geweihter,  13",
        "sources": [
            "AVENTURISCHES_GOTTERWIRKEN_1"
        ],
        "styleAbilities": [],
        "variant": {
            "categories": [],
            "input": false,
            "available": [],
            "level": 1,
            "selected": null
        },
        "flavor": "",
        "notes": "",
        "gmNotes": "",
        "rule": "Die Geweihte kann jede ihrer gewirkten Liturgien zu einem beliebigen Zeitpunkt der Wirkungsdauer beenden. Sie muss also nicht bis zum Ende der Wirkungsdauer warten, ehe die Auswirkungen enden. Um eine ihrer Liturgien abzubrechen, muss die Heldin 1 freie Aktion aufwenden.",
        "parents": []
    },
    "effects": [],
    "folder": "PA34841261181223",
    "_key": "!items!LI80786312115522"
}
