{
    "_id": "MA11886233104229",
    "name": "Macht des Schicksals",
    "type": "artifactAbility",
    "img": "systems/tde5e/assets/defaultItems/artifact_ability.svg",
    "system": {
        "aspects": [
            "fate"
        ],
        "binding": {
            "cost": "",
            "volume": ""
        },
        "brewType": null,
        "cid": "MACHT_DES_SCHICKSALS",
        "cost": {
            "text": "",
            "constant": 0,
            "recurring": null
        },
        "group": "avesStaff",
        "property": null,
        "purchase": {
            "cost": [
                15
            ],
            "description": "15 Abenteuerpunkte",
            "levels": 1,
            "maxTimeBuyable": 1
        },
        "requirementText": "SF Glückskind, nicht SF Zeichen der Vorhersehung",
        "sources": [
            "AVENTURISCHES_GOTTERWIRKEN_1"
        ],
        "tradition": "Compendium.tde5e.karma.Item.TR92636512615322",
        "variant": {
            "categories": [],
            "input": false,
            "level": 1,
            "selected": null,
            "available": null
        },
        "flavor": "",
        "notes": "",
        "gmNotes": "",
        "parents": [
            "Compendium.tde5e.karma.Item.GL82239619354151"
        ],
        "rule": "<p>Bei Anwendungen auf Proben kann der Avesgeweihte auch mehrere Schips für die gleiche oder unterschiedliche Anwendungen einsetzen. Er kann z. B. <em>Neu würfeln</em> zweimal auf die gleiche Probe einsetzen, oder einmal <em>Neu würfeln</em> und einmal <em>Qualität verbessern</em>.</p>"
    },
    "effects": [],
    "folder": "AV17611317425123",
    "_key": "!items!MA11886233104229"
}
