{
    "_id": "MA86741481165167",
    "name": "Mächtige Kontrolle des Karmalkörpers",
    "type": "karmaAbility",
    "img": "systems/tde5e/assets/defaultItems/special_ability_blessed.svg",
    "system": {
        "aspect": "",
        "cid": "MACHTIGE_KONTROLLE_DES_KARMALKORPERS",
        "cost": {
            "text": "",
            "constant": 0,
            "recurring": null
        },
        "group": "blessed",
        "purchase": {
            "cost": [
                20
            ],
            "description": "20 Abenteuerpunkte",
            "levels": 1,
            "maxTimeBuyable": 1
        },
        "requirementText": "SF Kontrolle des Karmalkörpers,  15",
        "sources": [
            "AVENTURISCHES_GOTTERWIRKEN_1"
        ],
        "styleAbilities": [],
        "variant": {
            "categories": [],
            "input": false,
            "available": [],
            "level": 1,
            "selected": null
        },
        "flavor": "",
        "notes": "",
        "gmNotes": "",
        "parents": [
            "Compendium.tde5e.karma.Item.KO19418513641451"
        ],
        "rule": "<p>Wirkt der Held erfolgreich eine Liturgie, sinken die Gesamtkosten um 1 KaP. Die Kosten können dadurch nicht unter 1 KaP sinken.</p>"
    },
    "effects": [],
    "folder": "PA34841261181223",
    "_key": "!items!MA86741481165167"
}
