{
    "_id": "ME64109118143189",
    "name": "Messer des Eises",
    "type": "artifactAbility",
    "img": "systems/tde5e/assets/defaultItems/artifact_ability.svg",
    "system": {
        "aspects": [
            "cold"
        ],
        "binding": {
            "cost": "",
            "volume": ""
        },
        "brewType": null,
        "cid": "MESSER_DES_EISES",
        "cost": {
            "text": "",
            "constant": 0,
            "recurring": null
        },
        "group": "firunsKnife",
        "property": null,
        "purchase": {
            "cost": [
                10
            ],
            "description": "10 Abenteuerpunkte",
            "levels": 1,
            "maxTimeBuyable": 1
        },
        "requirementText": "SF Messer des Frosts, nicht SF Messer der Kälte",
        "sources": [
            "AVENTURISCHES_GOTTERWIRKEN_1"
        ],
        "tradition": "Compendium.tde5e.karma.Item.TR16914674421017",
        "variant": {
            "categories": [],
            "input": false,
            "level": 1,
            "selected": null,
            "available": null
        },
        "flavor": "",
        "notes": "",
        "gmNotes": "",
        "parents": [
            "Compendium.tde5e.karma.Item.ME11548170169245"
        ],
        "rule": "<p>Der Firungeweihte kann mühelos durch Eis schneiden.</p>"
    },
    "effects": [],
    "folder": "FI11749591097310",
    "_key": "!items!ME64109118143189"
}
