{
    "_id": "MI18622314282412",
    "name": "Mirakelmacht",
    "type": "karmaAbility",
    "img": "systems/tde5e/assets/defaultItems/special_ability_blessed.svg",
    "system": {
        "aspect": "",
        "cid": "MIRAKELMACHT",
        "cost": {
            "text": "",
            "constant": 0,
            "recurring": null
        },
        "group": "blessed",
        "purchase": {
            "cost": [
                15
            ],
            "description": "15 Abenteuerpunkte",
            "levels": 1,
            "maxTimeBuyable": 1
        },
        "requirementText": "Vorteil Geweihter,  15",
        "sources": [
            "AVENTURISCHES_GOTTERWIRKEN_1"
        ],
        "styleAbilities": [],
        "variant": {
            "categories": [],
            "input": false,
            "available": [],
            "level": 1,
            "selected": null
        },
        "flavor": "",
        "notes": "",
        "gmNotes": "",
        "rule": "Der Geweihte gibt bei seinem Mirakel zusätzlich 2 KaP aus (insgesamt also 6 KaP), dafür erhält er einen FW-Bonus von +3 (statt von +2). Der FW-Bonus kann auch für AT, PA oder FK gelten, sofern der Geweihte entsprechende Kampftechniken als wohlgefällige Talente seiner Tradition gelistet hat (siehe <strong>Regelwerk</strong> Seite <strong>315</strong>). Er kann vor dem Einsatz eines Mirakels immer wählen, ob er nur 4 KaP ausgibt und dafür nur einen Bonus von +2 erhält.",
        "parents": []
    },
    "effects": [],
    "folder": "PA34841261181223",
    "_key": "!items!MI18622314282412"
}
