{
    "_id": "MO17211433143110",
    "name": "Motivation",
    "type": "liturgy",
    "img": "systems/tde5e/assets/defaultItems/liturgical_chant.svg",
    "system": {
        "aspects": [
            "freedom"
        ],
        "castingTime": "4 Akt",
        "castingTimeLong": "4 Aktionen",
        "check": {
            "resistedBySpirit": false,
            "resistedByToughness": false,
            "resistanceIsHalfed": false,
            "attributes": [
                "courage",
                "intuition",
                "charisma"
            ]
        },
        "cid": "MOTIVATION",
        "cost": {
            "text": "4 KaP",
            "textLong": "4 KaP",
            "constant": 4,
            "recurring": null
        },
        "duration": "2 h",
        "durationLong": "2 Stunden",
        "enhancements": [
            {
                "name": "Größere Reichweite",
                "effect": "Die Reichweite beträgt 4 Schritt.",
                "skillPoints": 6,
                "owned": false
            },
            {
                "name": "Längere Wirkungsdauer",
                "effect": "Die Wirkungsdauer beträgt 8 Stunden.",
                "skillPoints": 11,
                "owned": false
            },
            {
                "name": "Mehrere Ziele",
                "effect": "Die Geweihte kann beliebig viele Ziele gleichzeitig motivieren. Jedes Ziel nach dem ersten kostet zusätzlich 2 KaP.",
                "skillPoints": 14,
                "owned": false
            }
        ],
        "group": "liturgicalChant",
        "modifications": {
            "canModCastingTime": true,
            "canModCost": false,
            "canModRange": true
        },
        "range": "Berührung",
        "rangeLong": "Berührung",
        "requirementText": "keine",
        "sources": [
            "AVENTURISCHES_GOTTERWIRKEN_1"
        ],
        "targetCategory": "Kulturschaffende",
        "traditions": {
            "all": false,
            "values": [
                "Compendium.tde5e.karma.Item.TR18472241511241"
            ]
        },
        "improvement": {
            "column": "A",
            "value": 0
        },
        "notes": "",
        "gmNotes": "",
        "flavor": "",
        "rule": "Bis zu QS Wiederholungsproben innerhalb der Wirkungsdauer sind nicht erschwert. Es können dabei unterschiedliche Talente und Proben von der Wirkung profitieren. Voraussetzung der Proben ist jedoch immer, dass die Talente unter tsagefälligen Aspekten eingesetzt werden.",
        "parents": []
    },
    "effects": [],
    "folder": "LI20236437819314",
    "_key": "!items!MO17211433143110"
}
