{
    "_id": "PE16196204881612",
    "name": "Pech und Schwefel",
    "type": "liturgy",
    "img": "systems/tde5e/assets/defaultItems/liturgical_chant.svg",
    "system": {
        "aspects": [],
        "castingTime": "2 Akt",
        "castingTimeLong": "2 Aktionen",
        "check": {
            "resistedBySpirit": true,
            "resistedByToughness": false,
            "resistanceIsHalfed": false,
            "attributes": [
                "courage",
                "sagacity",
                "charisma"
            ]
        },
        "cid": "PECH_UND_SCHWEFEL",
        "cost": {
            "text": "8 KaP",
            "textLong": "8 KaP",
            "constant": 8,
            "recurring": null
        },
        "duration": "sofort",
        "durationLong": "sofort",
        "enhancements": [
            {
                "name": "Intensiver Strahl",
                "effect": "Es muss nicht gewürfelt werden, ob das Ziel <em>Furcht</em> erleidet. Dies geschieht bei einem Treffer stattdessen automatisch. Es entstehen zusätzliche Kosten in Höhe von 2 KaP.",
                "skillPoints": 6,
                "owned": false
            },
            {
                "name": "Windender Strahl",
                "effect": "Das Ziel kann kaum noch ausweichen. Das Ausweichen ist um weitere 2 erschwert. Es entstehen zusätzliche Kosten in Höhe von 2 KaP.",
                "skillPoints": 11,
                "owned": false
            },
            {
                "name": "Zwei Ziele",
                "effect": "Der Geweihte kann bis zu 2 Ziele gleichzeitig treffen. Die KaP-Kosten der Liturgie verdoppeln sich.",
                "skillPoints": 14,
                "owned": false
            }
        ],
        "group": "liturgicalChant",
        "modifications": {
            "canModCastingTime": true,
            "canModCost": false,
            "canModRange": true
        },
        "range": "16 m",
        "rangeLong": "16 Schritt",
        "requirementText": "keine",
        "sources": [
            "AVENTURISCHES_GOTTERWIRKEN_1"
        ],
        "targetCategory": "alle",
        "traditions": {
            "all": false,
            "values": [
                "Compendium.tde5e.karma.Item.TR82251814625381"
            ]
        },
        "improvement": {
            "column": "C",
            "value": 0
        },
        "notes": "",
        "gmNotes": "",
        "flavor": "",
        "rule": "Aus den Fingern des Geweihten schießt ein Strahl schwarzer oder purpurner Flammen, der in gerader Linie sein Ziel trifft. Der Geweihte muss keine zusätzliche Aktion aufwenden, um nach dem Wirken der Liturgie zu treffen. Das Treffen ist in der Liturgiedauer inbegriffen. Das getroffene Ziel erleidet 2W6+(QS x 2) TP Schaden. Trifft der Flammenstrahl sein Ziel, werden die TP durch den RS des Ziels vermindert. Das Ziel erhält zudem bei 1-3 auf 1W6 1 Stufe des Zustands <em>Furcht</em>. Der Strahl trifft automatisch, wenn man sich nicht verteidigt. Er zählt jedoch als Fernkampfangriff mit einer Schusswaffe und kann dementsprechend auch geblockt werden. Ausweichen ist ebenso möglich. An Schilden erzeugt er Strukturschaden, wenn er auf sie trifft.",
        "parents": []
    },
    "effects": [],
    "folder": "LI20236437819314",
    "_key": "!items!PE16196204881612"
}
