{
    "_id": "QU18016018251194",
    "name": "Quallenruf",
    "type": "liturgy",
    "img": "systems/tde5e/assets/defaultItems/liturgical_chant.svg",
    "system": {
        "aspects": [
            "maelstrom",
            "unendingDeep"
        ],
        "castingTime": "2 Akt",
        "castingTimeLong": "2 Aktionen",
        "check": {
            "resistedBySpirit": false,
            "resistedByToughness": false,
            "resistanceIsHalfed": false,
            "attributes": [
                "courage",
                "intuition",
                "charisma"
            ]
        },
        "cid": "QUALLENRUF",
        "cost": {
            "text": "16 KaP",
            "textLong": "16 KaP",
            "constant": 16,
            "recurring": null
        },
        "duration": "QS h",
        "durationLong": "QS Stunden",
        "enhancements": [
            {
                "effect": "",
                "skillPoints": 6,
                "owned": false
            },
            {
                "effect": "",
                "skillPoints": 11,
                "owned": false
            },
            {
                "effect": "",
                "skillPoints": 14,
                "owned": false
            }
        ],
        "group": "liturgicalChant",
        "modifications": {
            "canModCastingTime": true,
            "canModCost": true,
            "canModRange": true
        },
        "range": "32 m",
        "rangeLong": "32 Schritt",
        "requirementText": "keine",
        "sources": [
            "UNENDLICHKEIT_UND_TIEFENRAUSCH"
        ],
        "targetCategory": "Tiere (Quallen)",
        "traditions": {
            "all": false,
            "values": [
                "Compendium.tde5e.karma.Item.TR10867221095867"
            ]
        },
        "improvement": {
            "column": "C",
            "value": 0
        },
        "notes": "",
        "gmNotes": "",
        "flavor": "",
        "rule": "Der Priester ruft einen Schwarm von QS x 3 Quallen herbei, die das Wasser um ihn herum bevölkern. Die Tiere stehen unter vollständiger Kontrolle des Priesters. Er kann sie dazu bringen, andere Wesen in Hör- und Sehweite anzugreifen oder irgendwo zu verharren. Die Quallen können sich nicht weiter als 32 Schritt vom Priester entfernen.",
        "parents": []
    },
    "effects": [],
    "folder": "LI20236437819314",
    "_key": "!items!QU18016018251194"
}
