{
    "_id": "SA15521513272219",
    "name": "Satori",
    "type": "karmaAbility",
    "img": "systems/tde5e/assets/defaultItems/special_ability_blessed.svg",
    "system": {
        "aspect": "",
        "cid": "SATORI",
        "cost": {
            "text": "",
            "constant": 0,
            "recurring": null
        },
        "group": "liturgyStyle",
        "purchase": {
            "cost": [
                15
            ],
            "description": "15 Abenteuerpunkte",
            "levels": 1,
            "maxTimeBuyable": 1
        },
        "requirementText": "SF Tradition (Hesindekirche)",
        "sources": [
            "AVENTURISCHES_GOTTERWIRKEN_1"
        ],
        "styleAbilities": [
            "Compendium.tde5e.karma.Item.LA11788522947178",
            "Compendium.tde5e.karma.Item.ST19434132246170"
        ],
        "variant": {
            "categories": [],
            "input": false,
            "available": [],
            "level": 1,
            "selected": null
        },
        "flavor": "",
        "notes": "",
        "gmNotes": "",
        "parents": [
            "Compendium.tde5e.karma.Item.TR80205813365143"
        ],
        "rule": "<p>Mittels einer Berührung können Satori ein Mirakel auf einen anderen Kulturschaffenden wirken, der dann statt des Geweihten von einer Verbesserung seiner Talente profitiert. Als wohlgefällige Talente gelten jene Talente, die auch bei der Tradition der Hesindegeweihten angegeben sind. Das ausgegebene Karma zählt bei der Feststellung der Entrückung nur für den Geweihten. Statt 4 KaP kostet das Mirakel 8 KaP. Der Einsatz dieser Fähigkeit kostet 1 freie Aktion.</p>"
    },
    "effects": [],
    "folder": "LI12721068429537",
    "_key": "!items!SA15521513272219"
}
