{
    "_id": "SC14249232247206",
    "name": "Schattenrochengestalt",
    "type": "liturgy",
    "img": "systems/tde5e/assets/defaultItems/liturgical_chant.svg",
    "system": {
        "aspects": [
            "maelstrom",
            "unendingDeep"
        ],
        "castingTime": "30 min",
        "castingTimeLong": "30 Minuten",
        "check": {
            "resistedBySpirit": false,
            "resistedByToughness": false,
            "resistanceIsHalfed": false,
            "attributes": [
                "courage",
                "sagacity",
                "charisma"
            ]
        },
        "cid": "SCHATTENROCHENGESTALT",
        "cost": {
            "text": "16 KaP",
            "textLong": "16 KaP",
            "constant": 16,
            "recurring": null
        },
        "duration": "QS x 3 h",
        "durationLong": "QS x 3 Stunden",
        "enhancements": [
            {
                "effect": "",
                "skillPoints": 6,
                "owned": false
            },
            {
                "effect": "",
                "skillPoints": 11,
                "owned": false
            },
            {
                "effect": "",
                "skillPoints": 14,
                "owned": false
            }
        ],
        "group": "ceremony",
        "modifications": {
            "canModCastingTime": true,
            "canModCost": true,
            "canModRange": true
        },
        "range": "selbst",
        "rangeLong": "selbst",
        "requirementText": "keine",
        "sources": [
            "UNENDLICHKEIT_UND_TIEFENRAUSCH"
        ],
        "targetCategory": "Lebewesen (nur der Priester selbst)",
        "traditions": {
            "all": false,
            "values": [
                "Compendium.tde5e.karma.Item.TR10867221095867"
            ]
        },
        "improvement": {
            "column": "C",
            "value": 0
        },
        "notes": "",
        "gmNotes": "",
        "flavor": "",
        "rule": "Der Priester verwandelt sich in einen Schattenrochen. Hierbei wird die Kleidung nicht mitverwandelt. In der Schattenrochengestalt behält der Priester seine geistigen Eigenschaften und erhält die körperlichen Eigenschaften sowie die Fähigkeiten des Schattenrochens. Zudem kann er QS x 2 Punkte zusätzlich auf die körperlichen Eigenschaften des Schattenrochens verteilen. Abgeleitete Werte ändern sich dadurch nicht. In der Schattenrochengestalt vermag er keine übernatürlichen Fähigkeiten wie Zauber und Liturgien zu wirken, gilt jedoch als gesegnet (siehe <strong>Regelwerk</strong> Seite <strong>316</strong>).",
        "parents": []
    },
    "effects": [],
    "folder": "ZE22182316147170",
    "_key": "!items!SC14249232247206"
}
