{
    "_id": "SC21327847725469",
    "name": "Schiffsgespür",
    "type": "liturgy",
    "img": "systems/tde5e/assets/defaultItems/liturgical_chant.svg",
    "system": {
        "aspects": [
            "unendingDeep"
        ],
        "castingTime": "4 Akt",
        "castingTimeLong": "4 Aktionen",
        "check": {
            "resistedBySpirit": false,
            "resistedByToughness": false,
            "resistanceIsHalfed": false,
            "attributes": [
                "sagacity",
                "intuition",
                "intuition"
            ]
        },
        "cid": "SCHIFFSGESPUR",
        "cost": {
            "text": "4 KaP",
            "textLong": "4 KaP",
            "constant": 4,
            "recurring": null
        },
        "duration": "QS min",
        "durationLong": "QS Minuten",
        "enhancements": [
            {
                "effect": "",
                "skillPoints": 6,
                "owned": false
            },
            {
                "effect": "",
                "skillPoints": 11,
                "owned": false
            },
            {
                "effect": "",
                "skillPoints": 14,
                "owned": false
            }
        ],
        "group": "liturgicalChant",
        "modifications": {
            "canModCastingTime": true,
            "canModCost": false,
            "canModRange": true
        },
        "range": "50 km",
        "rangeLong": "50 Meilen",
        "requirementText": "keine",
        "sources": [
            "UNENDLICHKEIT_UND_TIEFENRAUSCH"
        ],
        "targetCategory": "Objekt (Schiff)",
        "traditions": {
            "all": false,
            "values": [
                "Compendium.tde5e.karma.Item.TR10867221095867"
            ]
        },
        "improvement": {
            "column": "A",
            "value": 0
        },
        "notes": "",
        "gmNotes": "",
        "flavor": "",
        "rule": "Der Priester spürt, in welcher Richtung sich das nächste hochseetaugliche Schiff auf dem Meer befindet und ob es sich von ihm entfernt oder auf ihn zubewegt, solange es sich in der Reichweite der Liturgie befindet.",
        "parents": []
    },
    "effects": [],
    "folder": "LI20236437819314",
    "_key": "!items!SC21327847725469"
}
