{
    "_id": "SC25101136939249",
    "name": "Schleier der Unempfindlichkeit",
    "type": "artifactAbility",
    "img": "systems/tde5e/assets/defaultItems/artifact_ability.svg",
    "system": {
        "aspects": [
            "ecstasy"
        ],
        "binding": {
            "cost": "",
            "volume": ""
        },
        "brewType": null,
        "cid": "SCHLEIER_DER_UNEMPFINDLICHKEIT",
        "cost": {
            "text": "",
            "constant": 0,
            "recurring": null
        },
        "group": "redVeil",
        "property": null,
        "purchase": {
            "cost": [
                20
            ],
            "description": "20 Abenteuerpunkte",
            "levels": 1,
            "maxTimeBuyable": 1
        },
        "requirementText": "SF Schleier der Fesselung, nicht SF Schleier der Träume",
        "sources": [
            "AVENTURISCHES_GOTTERWIRKEN_1"
        ],
        "tradition": "Compendium.tde5e.karma.Item.TR14913419421824",
        "variant": {
            "categories": [],
            "input": false,
            "level": 1,
            "selected": null,
            "available": null
        },
        "flavor": "",
        "notes": "",
        "gmNotes": "",
        "parents": [
            "Compendium.tde5e.karma.Item.SC18786145183108"
        ],
        "rule": "<p>Immer, wenn die Rahjageweihte körperlichen Schaden erleidet, fängt der Schleier diesen auf. Der Schleier kann bis zu 5 SP abfangen. Sind die „LeP“ des Schleiers auf 0 gesunken, werden überzählige SP auf die Rahjageweihte übertragen. Der Schleier regeneriert 1 LeP pro Tag. Beschädigungen am Schleier verschwinden durch die Regeneration. Er kann die Geweihte nicht vor Schaden bewahren, der nicht körperlich ist (beispielsweise durch einen FULMINICTUS).</p>"
    },
    "effects": [],
    "folder": "RO19129183127225",
    "_key": "!items!SC25101136939249"
}
