{
    "_id": "SC13197015190228",
    "name": "Schutz der Löwin",
    "type": "artifactAbility",
    "img": "systems/tde5e/assets/defaultItems/artifact_ability.svg",
    "system": {
        "aspects": [
            "shield"
        ],
        "binding": {
            "cost": "",
            "volume": ""
        },
        "brewType": null,
        "cid": "SCHUTZ_DER_LOWIN",
        "cost": {
            "text": "",
            "constant": 0,
            "recurring": null
        },
        "group": "rondraComb",
        "property": null,
        "purchase": {
            "cost": [
                8
            ],
            "description": "8 Abenteuerpunkte",
            "levels": 1,
            "maxTimeBuyable": 1
        },
        "requirementText": "SF Tradition (Rondrakirche), nicht SF Blitz-Schlag",
        "sources": [
            "AVENTURISCHES_GOTTERWIRKEN_1"
        ],
        "tradition": "Compendium.tde5e.karma.Item.TR12692281461643",
        "variant": {
            "categories": [],
            "input": false,
            "level": 1,
            "selected": null,
            "available": null
        },
        "flavor": "",
        "notes": "",
        "gmNotes": "",
        "parents": [
            "Compendium.tde5e.karma.Item.TR12692281461643"
        ],
        "rule": "<p>Die Rondrageweihte erhält beim Kampf mit dem Rondrakamm +1 PA.</p>"
    },
    "effects": [],
    "folder": "RO59250226421425",
    "_key": "!items!SC13197015190228"
}
