{
    "_id": "SE91848120171575",
    "name": "Seelenprüfung",
    "type": "liturgy",
    "img": "systems/tde5e/assets/defaultItems/liturgical_chant.svg",
    "system": {
        "aspects": [
            "general"
        ],
        "castingTime": "8 Akt",
        "castingTimeLong": "8 Aktionen",
        "check": {
            "resistedBySpirit": false,
            "resistedByToughness": false,
            "resistanceIsHalfed": false,
            "attributes": [
                "courage",
                "sagacity",
                "intuition"
            ]
        },
        "cid": "SEELENPRUFUNG",
        "cost": {
            "text": "8 KaP",
            "textLong": "8 KaP",
            "constant": 8,
            "recurring": null
        },
        "duration": "sofort",
        "durationLong": "sofort",
        "enhancements": [
            {
                "owned": false,
                "name": "Zeit der Wirkung",
                "skillPoints": 5,
                "effect": "Der Geweihte spürt, wie lange der erkannte Effekt bereits wirkt. Er kann den Zeitpunkt der Wirkung ungefähr auf eine Woche genau einschätzen."
            },
            {
                "owned": false,
                "name": "Seelenblick",
                "skillPoints": 11,
                "effect": "Der Geweihte kann den Effekt auf sich selbst wirken und innerhalb von QS Minuten ein Ziel in 4 Schritt Reichweite damit begutachten."
            },
            {
                "owned": false,
                "name": "Vorgeschichte",
                "skillPoints": 14,
                "effect": "Der Geweihte erhält eine kurze Vision der Handlungen, die zur Weihe oder zum Frevel geführt haben. Es handelt sich dabei um Ausschnitte aus der Erinnerung des Ziels, nicht um eine exakte Wiedergabe der Ereignisse."
            }
        ],
        "group": "liturgicalChant",
        "modifications": {
            "canModCastingTime": true,
            "canModCost": true,
            "canModRange": true
        },
        "range": "4 m",
        "rangeLong": "4 Schritt",
        "requirementText": "keine",
        "sources": [
            "AVENTURISCHES_GOTTERWIRKEN_1"
        ],
        "targetCategory": "Kulturschaffende",
        "traditions": {
            "all": true,
            "values": []
        },
        "improvement": {
            "column": "B",
            "value": 0
        },
        "notes": "",
        "gmNotes": "",
        "flavor": "",
        "rule": "<p>Der Geweihte kann erkennen, ob irgendwann im Leben des Ziels eine @UUID[Compendium.tde5e.karma.Item.AU21211817242181]{Initiation} des eigenen Pantheons oder sogar @UUID[Compendium.tde5e.karma.Item.PR47665525171712]{Ordination} eines Gottes seines Pantheons auf dieses gewirkt wurde. Die genaue Gottheit der Ordination wird nicht erkannt, falls das Pantheon mehrere umfasst.</p><p>Außerdem sieht der Geweihte, ob aktuell ein Makel (@UUID[Compendium.tde5e.karma.Item.EI41049222522715]{Eidbrecher}, @UUID[Compendium.tde5e.karma.Item.HE19310278122322]{Schwurbrecher}, @UUID[Compendium.tde5e.karma.Item.AC69216982441742]{Frevler} oder @UUID[Compendium.tde5e.karma.Item.BA16113542362091]{Verdammter}) auf seinem Gegenüber liegt. Dabei spielt es keine Rolle, durch welches Pantheon der Makel zustande gekommen ist.</p>",
        "parents": []
    },
    "effects": [],
    "folder": "ZE22182316147170",
    "_key": "!items!SE91848120171575"
}
