{
    "_id": "SE59621621415922",
    "name": "Seemonsterruf",
    "type": "liturgy",
    "img": "systems/tde5e/assets/defaultItems/liturgical_chant.svg",
    "system": {
        "aspects": [
            "maelstrom"
        ],
        "castingTime": "5 min",
        "castingTimeLong": "5 Minuten",
        "check": {
            "resistedBySpirit": false,
            "resistedByToughness": false,
            "resistanceIsHalfed": false,
            "attributes": [
                "courage",
                "charisma",
                "constitution"
            ]
        },
        "cid": "SEEMONSTERRUF",
        "cost": {
            "text": "32 KaP",
            "textLong": "32 KaP",
            "constant": 32,
            "recurring": null
        },
        "duration": "2 h",
        "durationLong": "2 Stunden",
        "enhancements": [
            {
                "effect": "",
                "skillPoints": 6,
                "owned": false
            },
            {
                "effect": "",
                "skillPoints": 11,
                "owned": false
            },
            {
                "effect": "",
                "skillPoints": 14,
                "owned": false
            }
        ],
        "group": "ceremony",
        "modifications": {
            "canModCastingTime": true,
            "canModCost": false,
            "canModRange": true
        },
        "range": "64 m",
        "rangeLong": "64 Schritt",
        "requirementText": "keine",
        "sources": [
            "UNENDLICHKEIT_UND_TIEFENRAUSCH"
        ],
        "targetCategory": "Lebewesen (Meeresungeheuer)",
        "traditions": {
            "all": false,
            "values": [
                "Compendium.tde5e.karma.Item.TR10867221095867"
            ]
        },
        "improvement": {
            "column": "D",
            "value": 0
        },
        "notes": "",
        "gmNotes": "",
        "flavor": "",
        "rule": "Ein vom Spielleiter bestimmtes Seeungeheuer erscheint beim Priester. Dabei werden sich Wesen, die nicht außerhalb des Wassers überleben können, nicht an Land begeben. Der Meister kann die Zeremonieprobe je nach Art der Kreatur erschweren.Der Numinorupriester kann Wasserungeheuer in einem Radius von QS Meilen zu sich rufen. Er kann dabei bestimmte, ihm bekannte Kreaturen rufen. Arten von Wasserungeheuern, die er nicht kennt, kann er nicht rufen. Das Wesen bewegt sich umgehend zu ihm und erscheint innerhalb der Reichweite der Zeremonie. Das Seemonster lässt sich vom Priester berühren und ist diesem freundlich gesonnen. Wird der Priester während der Wirkungsdauer angegriffen, verteidigt die Bestie ihn. Sie wird aber nicht vom Priester kontrolliert oder beherrscht. Befindet sich kein passendes Geschöpf innerhalb des maximalen Radius, hat die Zeremonie keine Wirkung.",
        "parents": []
    },
    "effects": [],
    "folder": "ZE22182316147170",
    "_key": "!items!SE59621621415922"
}
