{
    "_id": "SE31142072022518",
    "name": "Seuchenhandschuh",
    "type": "artifactAbility",
    "img": "systems/tde5e/assets/defaultItems/artifact_ability.svg",
    "system": {
        "aspects": [
            "healing"
        ],
        "binding": {
            "cost": "",
            "volume": ""
        },
        "brewType": null,
        "cid": "SEUCHENHANDSCHUH",
        "cost": {
            "text": "",
            "constant": 0,
            "recurring": null
        },
        "group": "greenGlove",
        "property": null,
        "purchase": {
            "cost": [
                5
            ],
            "description": "5 Abenteuerpunkte",
            "levels": 1,
            "maxTimeBuyable": 1
        },
        "requirementText": "SF Tradition (Perainekirche), nicht SF Pflanzenkonservierung",
        "sources": [
            "AVENTURISCHES_GOTTERWIRKEN_1"
        ],
        "tradition": "Compendium.tde5e.karma.Item.TR16979719214025",
        "variant": {
            "categories": [],
            "input": false,
            "level": 1,
            "selected": null,
            "available": null
        },
        "flavor": "",
        "notes": "",
        "gmNotes": "",
        "parents": [
            "Compendium.tde5e.karma.Item.TR16979719214025"
        ],
        "rule": "<p>Bei der Pflege von Kranken sinkt das Ansteckungsrisiko für die Perainegeweihte um 10 % (bis zu einem Minimum von 5 %).</p>"
    },
    "effects": [],
    "folder": "GR71514320574120",
    "_key": "!items!SE31142072022518"
}
