{
    "_id": "SI42722689177148",
    "name": "Sicherer Tritt",
    "type": "liturgy",
    "img": "systems/tde5e/assets/defaultItems/liturgical_chant.svg",
    "system": {
        "aspects": [
            "cold"
        ],
        "castingTime": "5 min",
        "castingTimeLong": "5 Minuten",
        "check": {
            "resistedBySpirit": false,
            "resistedByToughness": false,
            "resistanceIsHalfed": false,
            "attributes": [
                "intuition",
                "charisma",
                "agility"
            ]
        },
        "cid": "SICHERER_TRITT",
        "cost": {
            "text": "8 KaP + 4 KaP pro 4 h",
            "textLong": "8 KaP (Aktivierung der Zeremonie) + 4 KaP pro 4 Stunden",
            "constant": 8,
            "recurring": null
        },
        "duration": "(A)",
        "durationLong": "aufrechterhaltend",
        "enhancements": [
            {
                "name": "Größere Erleichterung",
                "effect": "Es können (QS/2)+1 Erschwernisse ignoriert werden.",
                "skillPoints": 6,
                "owned": false
            },
            {
                "name": "Keine Aufrechterhaltung",
                "effect": "Die Zeremonie gilt nicht als aufrechterhaltend. Die Wirkungsdauer und damit die KaP-Kosten müssen beim Wirken der Zeremonie festgelegt werden.",
                "skillPoints": 11,
                "owned": false
            },
            {
                "name": "Reichweite Berührung",
                "effect": "Als Reichweite gilt Berührung. Die Zeremonie kann nur auf Kulturschaffende übertragen werden.",
                "skillPoints": 14,
                "owned": false
            }
        ],
        "group": "ceremony",
        "modifications": {
            "canModCastingTime": true,
            "canModCost": true,
            "canModRange": true
        },
        "range": "selbst",
        "rangeLong": "selbst",
        "requirementText": "keine",
        "sources": [
            "AVENTURISCHES_GOTTERWIRKEN_1"
        ],
        "targetCategory": "Zone",
        "traditions": {
            "all": false,
            "values": [
                "Compendium.tde5e.karma.Item.TR16914674421017"
            ]
        },
        "improvement": {
            "column": "B",
            "value": 0
        },
        "notes": "",
        "gmNotes": "",
        "flavor": "",
        "rule": "Innerhalb eines Radius von QS x 2 Schritt um den Geweihten können sich alle Wesen problemlos über Eis und Schnee bewegen. Sie sinken oder brechen nicht ein und rutschen nicht aus. Betroffene Wesen dürfen ihre volle GS verwenden. Bei Proben auf die Talente <em>Klettern</em> und <em>Körperbeherrschung</em> können jeweils Erschwernisse durch die Vereisung des Hindernisses in Höhe von QS/2 ignoriert werden. Danach noch vorhandene Erschwernis modifiziert die Probe wie üblich.",
        "parents": []
    },
    "effects": [],
    "folder": "ZE22182316147170",
    "_key": "!items!SI42722689177148"
}
