{
    "_id": "ST15561244324638",
    "name": "Steinhaut",
    "type": "liturgy",
    "img": "systems/tde5e/assets/defaultItems/liturgical_chant.svg",
    "system": {
        "aspects": [
            "fire",
            "craft"
        ],
        "castingTime": "2 Akt",
        "castingTimeLong": "2 Aktionen",
        "check": {
            "resistedBySpirit": false,
            "resistedByToughness": false,
            "resistanceIsHalfed": false,
            "attributes": [
                "intuition",
                "charisma",
                "constitution"
            ]
        },
        "cid": "STEINHAUT",
        "cost": {
            "text": "16 KaP",
            "textLong": "16 KaP",
            "constant": 16,
            "recurring": null
        },
        "duration": "QS x 2 KR",
        "durationLong": "QS x 2 KR",
        "enhancements": [
            {
                "effect": "",
                "skillPoints": 6,
                "owned": false
            },
            {
                "effect": "",
                "skillPoints": 11,
                "owned": false
            },
            {
                "effect": "",
                "skillPoints": 14,
                "owned": false
            }
        ],
        "group": "liturgicalChant",
        "modifications": {
            "canModCastingTime": true,
            "canModCost": true,
            "canModRange": true
        },
        "range": "Selbst",
        "rangeLong": "Selbst",
        "requirementText": "keine",
        "sources": [
            "DIE_FLUSSLANDE"
        ],
        "targetCategory": "Kulturschaffende",
        "traditions": {
            "all": false,
            "values": [
                "Compendium.tde5e.karma.Item.TR20212175199223"
            ]
        },
        "improvement": {
            "column": "C",
            "value": 0
        },
        "notes": "",
        "gmNotes": "",
        "flavor": "",
        "rule": "Die Haut des Geweihten überzieht sich mit einer Schicht aus Stein und verleiht ihm so einen Rüstungsschutz von 5. Dieser Rüstungsschutz kann mit externen Rüstungen kombiniert werden, nicht aber mit anderen übernatürlichen Verbesserungen des RS.",
        "parents": []
    },
    "effects": [],
    "folder": "LI20236437819314",
    "_key": "!items!ST15561244324638"
}
