{
    "_id": "ST11414954114378",
    "name": "Sturmhorn",
    "type": "artifactAbility",
    "img": "systems/tde5e/assets/defaultItems/artifact_ability.svg",
    "system": {
        "aspects": [
            "maelstrom"
        ],
        "binding": {
            "cost": "",
            "volume": ""
        },
        "brewType": null,
        "cid": "STURMHORN",
        "cost": {
            "text": "",
            "constant": 0,
            "recurring": null
        },
        "group": "shellHorn",
        "property": null,
        "purchase": {
            "cost": [
                15
            ],
            "description": "15 Abenteuerpunkte",
            "levels": 1,
            "maxTimeBuyable": 1
        },
        "requirementText": "SF Donnerndes Horn, nicht SF Treibendes Horn",
        "sources": [
            "UNENDLICHKEIT_UND_TIEFENRAUSCH"
        ],
        "tradition": "Compendium.tde5e.karma.Item.TR10867221095867",
        "variant": {
            "categories": [],
            "input": false,
            "level": 1,
            "selected": null,
            "available": null
        },
        "flavor": "",
        "notes": "",
        "gmNotes": "",
        "parents": [
            "Compendium.tde5e.karma.Item.DO13415824768605"
        ],
        "rule": "<p>Ein ohrenbetäubender Hornstoß wirft ein Ziel der Größenkategorie <em>mittel</em> oder kleiner 3 Schritt zurück und verursacht für 5 Kampfrunden den Status @UUID[Compendium.tde5e.states.Item.TA24725415965165]{Taub} (siehe <strong>Regelwerk</strong> auf Seite <strong>36</strong>). Wenn dem Ziel eine Probe auf @UUID[Compendium.tde5e.skills.Item.AK92342342043211]{Akrobatik (Balance)} misslingt, erhält es außerdem den Status @UUID[Compendium.tde5e.states.Item.LI27509315183188]{Liegend} (siehe <strong>Regelwerk</strong> auf Seite <strong>36</strong>). Der Einsatz dieser Fähigkeit kostet 1 Aktion und verursacht 1 Stufe @UUID[Compendium.tde5e.conditions.Item.TR16167149904659]{Trance}.</p>"
    },
    "effects": [],
    "folder": "MU18820179551860",
    "_key": "!items!ST11414954114378"
}
