{
    "_id": "TR16979719214025",
    "name": "Tradition (Perainekirche)",
    "type": "tradition",
    "img": "modules/tde5e-assets/assets/traditions/TRADITION_PERAINEKIRCHE.png",
    "system": {
        "allowMultipleTraditions": true,
        "aspects": [
            "healing",
            "agriculture"
        ],
        "cid": "TRADITION_PERAINEKIRCHE",
        "favoredSkills": [
            "Compendium.tde5e.skills.Item.BE59962162225121",
            "Compendium.tde5e.skills.Item.FI19073611316822",
            "Compendium.tde5e.skills.Item.GO56118173851518",
            "Compendium.tde5e.skills.Item.GI10061193216729",
            "Compendium.tde5e.skills.Item.SE14121889129156",
            "Compendium.tde5e.skills.Item.WU20148128101311",
            "Compendium.tde5e.skills.Item.ME10520624750192",
            "Compendium.tde5e.skills.Item.PF16158106247128",
            "Compendium.tde5e.skills.Item.GE11982549772436",
            "Compendium.tde5e.skills.Item.TI20015091191414",
            "Compendium.tde5e.skills.Item.WI13315915718951"
        ],
        "group": "blessed",
        "primaryAttribute": "intuition",
        "purchase": {
            "cost": [
                110
            ],
            "description": "110 Abenteuerpunkte"
        },
        "requirementText": "Vorteil Geweihter",
        "shortName": "Perainekirche",
        "sources": [
            "REGELWERK",
            "AVENTURISCHES_GOTTERWIRKEN_1"
        ],
        "notes": "",
        "gmNotes": "",
        "flavor": "",
        "learnableTypes": {
            "cantrips": false,
            "spells": false,
            "rituals": false
        },
        "rule": "<ul><br /><li><em>Machtvoller Kleiner Heilsegen:</em> Die Segnung Kleiner Heilsegen bringt 2 LeP anstatt 1 LeP.</li><br /><li><em>Widerstandsfähigkeit gegen Krankheiten:</em> Sollte eine Krankheitsprobe gegen den Geweihten gelingen, nimmt die Krankheit nur den leichten Verlauf, misslingt die Krankheitsprobe, so steckt sich der Perainegeweihte nicht mit der Krankheit an.</li><br /><li>Ein Perainegeweihter muss sich an den Moralkodex (Prinzipientreue) halten. Die Wahl des Nachteils ist Voraussetzung, wenn der Spieler einen Geweihten der Kirche spielen will.</li><br /><li>Wohlgefällige Talente: Bekehren &amp; Überzeugen, Fischen &amp; Angeln, Götter &amp; Kulte, Heilkunde Gift, Heilkunde Krankheiten, Heilkunde Seele, Heilkunde Wunden, Menschenkenntnis, Pflanzenkunde, Sagen &amp; Legenden, Tierkunde, Willenskraft, Zechen</li><br /><li>Leiteigenschaft der Tradition ist Intuition.</li><br /></ul>",
        "parents": []
    },
    "effects": [],
    "folder": "TR56121211911256",
    "_key": "!items!TR16979719214025"
}
