{
    "_id": "TR14913419421824",
    "name": "Tradition (Rahjakirche)",
    "type": "tradition",
    "img": "modules/tde5e-assets/assets/traditions/TRADITION_RAHJAKIRCHE.png",
    "system": {
        "allowMultipleTraditions": true,
        "aspects": [
            "ecstasy",
            "harmony"
        ],
        "cid": "TRADITION_RAHJAKIRCHE",
        "favoredSkills": [
            "Compendium.tde5e.skills.Item.BE59962162225121",
            "Compendium.tde5e.skills.Item.BE22019221941182",
            "Compendium.tde5e.skills.Item.ET92146421911932",
            "Compendium.tde5e.skills.Item.GA21320742225217",
            "Compendium.tde5e.skills.Item.SE14121889129156",
            "Compendium.tde5e.skills.Item.AT01742720744548",
            "Compendium.tde5e.skills.Item.LE21912211415814",
            "Compendium.tde5e.skills.Item.ME10520624750192",
            "Compendium.tde5e.skills.Item.MU14419753218980",
            "Compendium.tde5e.skills.Item.RE23213215098822",
            "Compendium.tde5e.skills.Item.SI13425148507115",
            "Compendium.tde5e.skills.Item.SI80193235230167",
            "Compendium.tde5e.skills.Item.ST18887227775891",
            "Compendium.tde5e.skills.Item.UB25018415118918"
        ],
        "group": "blessed",
        "primaryAttribute": "charisma",
        "purchase": {
            "cost": [
                125
            ],
            "description": "125 Abenteuerpunkte"
        },
        "requirementText": "Vorteil Geweihter",
        "shortName": "Rahjakirche",
        "sources": [
            "AVENTURISCHES_GOTTERWIRKEN_1"
        ],
        "notes": "",
        "gmNotes": "",
        "flavor": "",
        "learnableTypes": {
            "cantrips": false,
            "spells": false,
            "rituals": false
        },
        "rule": "<ul><br /><li><em>Geschenk der Freude:</em> Die Rahjageweihte kann durch ein Geschenk der Freude (z. B. ein materielles Geschenk oder einen Kuss) einem anderen Kulturschaffenden 1 Stufe eines Zustands (außer @UUID[Compendium.tde5e.conditions.Item.BE46206219376213]{Belastung} und @UUID[Compendium.tde5e.conditions.Item.EN23119351162444]{Entrückung} und ggf. nach Meisterentscheid) nehmen. Diese Fähigkeit kann nicht im Kampf eingesetzt werden. Diese Fähigkeit funktioniert nur einmal alle 24 Stunden. Die Geweihte erleidet dadurch 1 Stufe @UUID[Compendium.tde5e.conditions.Item.EN23119351162444]{Entrückung}.</li><br /><li><em>Durchhaltevermögen:</em> Dieser Vorteil sorgt dafür, dass die Rahjageweihtedie Auswirkungen der höchsten Stufe des Zustands @UUID[Compendium.tde5e.conditions.Item.BE91425088509929]{Betäubung} ignorieren darf. Sie erleidet lediglich die Auswirkungen der nächstniedrigeren Stufe. Wenn sie also beispielsweise drei Stufen @UUID[Compendium.tde5e.conditions.Item.BE91425088509929]{Betäubung} erlitten hat, gelten für sie nur die Auswirkungen von Stufe II. Bei @UUID[Compendium.tde5e.conditions.Item.BE91425088509929]{Betäubung} Stufe IV wird die Rahjageweihte dennoch @UUID[Compendium.tde5e.states.Item.HA24618251831622]{handlungsunfähig}.</li><br /><li>Eine Rahjageweihte muss sich an den Moralkodex (Prinzipientreue) halten. Die Wahl des Nachteils ist Voraussetzung, wenn die Spielerin eine Geweihte der Kirche spielen will.</li><br /><li>Wohlgefällige Talente: Bekehren &amp; Überzeugen, Betören, Etikette, Gaukeleien, Heilkunde Seele, Körperbeherrschung, Lebensmittelbearbeitung, Menschenkenntnis, Musizieren, Reiten, Singen, Sinnesschärfe, Stoffbearbeitung, Überreden, Zechen</li><br /><li>Leiteigenschaft der Tradition ist Charisma.</li><br /></ul>",
        "parents": []
    },
    "effects": [],
    "folder": "TR56121211911256",
    "_key": "!items!TR14913419421824"
}
