{
    "_id": "TR11043249207177",
    "name": "Treuer Begleiter",
    "type": "liturgy",
    "img": "systems/tde5e/assets/defaultItems/liturgical_chant.svg",
    "system": {
        "aspects": [
            "fate"
        ],
        "castingTime": "8 Akt",
        "castingTimeLong": "8 Aktionen",
        "check": {
            "resistedBySpirit": false,
            "resistedByToughness": false,
            "resistanceIsHalfed": false,
            "attributes": [
                "courage",
                "sagacity",
                "intuition"
            ]
        },
        "cid": "TREUER_BEGLEITER",
        "cost": {
            "text": "4 KaP",
            "textLong": "4 KaP",
            "constant": 4,
            "recurring": null
        },
        "duration": "QS/2 Tage",
        "durationLong": "QS/2 Tage",
        "enhancements": [
            {
                "owned": false,
                "name": "Längere Dauer",
                "skillPoints": 5,
                "effect": "Die Dauer beträgt einen Tag zusätzlich. Diese Erweiterung kann bis zu 3 Mal angewendet werden."
            },
            {
                "owned": false,
                "name": "Größere Tiere",
                "skillPoints": 11,
                "effect": "Der Geweihte kann auch Tiere der Größenkategorie klein zu seinem Begleiter machen."
            },
            {
                "owned": false,
                "name": "Intuitive Ausbildung",
                "skillPoints": 14,
                "effect": "Das Tier erhält für die Dauer der Liturgie einen Ausbildungsaufsatz nach Wahl des Geweihten."
            }
        ],
        "group": "liturgicalChant",
        "modifications": {
            "canModCastingTime": true,
            "canModCost": true,
            "canModRange": true
        },
        "range": "selbst",
        "rangeLong": "selbst",
        "requirementText": "keine",
        "sources": [
            "AVENTURISCHES_GOTTERWIRKEN_1"
        ],
        "targetCategory": "Kulturschaffende",
        "traditions": {
            "all": false,
            "values": [
                "Compendium.tde5e.karma.Item.TR92636512615322"
            ]
        },
        "improvement": {
            "column": "A",
            "value": 0
        },
        "notes": "",
        "gmNotes": "",
        "flavor": "",
        "rule": "<p>Das nächste harmlose Tier, das den Weg des Geweihten kreuzt, ist so neugierig auf ihn, dass es sich ihm freiwillig als Begleiter anschließt. Das Tier hält sich gern in der Nähe des Geweihten auf und folgt einfachen Bitten, sofern es dazu in der Lage ist. Es wird sich allerdings nicht in Lebensgefahr begeben und flieht, wenn es schlecht behandelt wird. Die Wirkung endet in diesem Fall vorzeitig.</p><p>Das Tier muss die Größenkategorie winzig aufweisen. Als Tiere kommen z. B. Eichhörnchen, Vögel oder andere Kleintiere infrage. Sie dürfen aber keine größere Gefahr darstellen (also beispielsweise keine giftigen Skorpione o. Ä.).</p>",
        "parents": []
    },
    "effects": [],
    "folder": "LI20236437819314",
    "_key": "!items!TR11043249207177"
}
