{
    "_id": "WA20423619321524",
    "name": "Wahrer Glaube",
    "type": "karmaAbility",
    "img": "systems/tde5e/assets/defaultItems/special_ability_blessed.svg",
    "system": {
        "aspect": "",
        "cid": "WAHRER_GLAUBE",
        "cost": {
            "text": "",
            "constant": 0,
            "recurring": null
        },
        "group": "blessed",
        "purchase": {
            "cost": [
                20
            ],
            "description": "20 Abenteuerpunkte",
            "levels": 1,
            "maxTimeBuyable": 1
        },
        "requirementText": "SF Stärke des Glaubens,  Mut 17,  15",
        "sources": [
            "AVENTURISCHES_GOTTERWIRKEN_1"
        ],
        "styleAbilities": [],
        "variant": {
            "categories": [],
            "input": false,
            "available": [],
            "level": 1,
            "selected": null
        },
        "flavor": "",
        "notes": "",
        "gmNotes": "",
        "parents": [
            "Compendium.tde5e.karma.Item.ST24885417913585"
        ],
        "rule": "<p>Solange die Geweihte in einer Position verharrt, ihre Gottheit anruft und sich konzentriert, können niedere Dämonen sie nicht berühren oder direkt wie auch indirekt angreifen. Nötig ist dafür, dass sie sich weiter konzentriert, betet und sich nicht bewegt. Gehörnte Dämonen bis zu 5 Hörnern können die Geweihte nicht berühren oder direkt angreifen. Indirekte Angriffe sind aber möglich.<br /><br />Als direkte Angriffe zählen Angriffe, bei denen ein Dämon eine AT oder FK ausführen muss (beispielsweise um seinen Körper, aus den Niederhöllen mitgebrachte Waffen oder Fernwaffen einzusetzen). Indirekte Angriffe können z. B. die Zerstörung der Decke über der Geweihten oder Flächenzauber, die nicht auf die Geweihte gerichtet sind, sie aber dennoch umfassen, sowie vergleichbare Handlungen sein.</p>"
    },
    "effects": [],
    "folder": "PA34841261181223",
    "_key": "!items!WA20423619321524"
}
