{
    "_id": "WA11221724327124",
    "name": "Warmer Mantel",
    "type": "artifactAbility",
    "img": "systems/tde5e/assets/defaultItems/artifact_ability.svg",
    "system": {
        "aspects": [
            "helpfulness"
        ],
        "binding": {
            "cost": "",
            "volume": ""
        },
        "brewType": null,
        "cid": "WARMER_MANTEL",
        "cost": {
            "text": "",
            "constant": 0,
            "recurring": null
        },
        "group": "ifirnsMantle",
        "property": null,
        "purchase": {
            "cost": [
                8
            ],
            "description": "8 Abenteuerpunkte",
            "levels": 1,
            "maxTimeBuyable": 1
        },
        "requirementText": "SF Tradition (Ifirnkirche), nicht SF Haltbare Trophäen",
        "sources": [
            "AVENTURISCHES_GOTTERWIRKEN_1"
        ],
        "tradition": "Compendium.tde5e.karma.Item.TR64186251234162",
        "variant": {
            "categories": [],
            "input": false,
            "level": 1,
            "selected": null,
            "available": null
        },
        "flavor": "",
        "notes": "",
        "gmNotes": "",
        "parents": [
            "Compendium.tde5e.karma.Item.TR64186251234162"
        ],
        "rule": "<p>Die Ifirngeweihte kann ihren Mantel einem Kulturschaffenden anziehen. Solange der Kulturschaffende den Mantel trägt, verdoppelt sich das Intervall, in dem er eine Unterkühlungsstufe bekommen würde. Die Wirkung hält 24 Stunden an. Der Einsatz dieser Fähigkeit verursacht 1 Stufe @UUID[Compendium.tde5e.conditions.Item.TR16167149904659]{Trance}.</p>"
    },
    "effects": [],
    "folder": "IF87176116102541",
    "_key": "!items!WA11221724327124"
}
