{
    "_id": "WA21224417314422",
    "name": "Wasserlauf",
    "type": "liturgy",
    "img": "systems/tde5e/assets/defaultItems/liturgical_chant.svg",
    "system": {
        "aspects": [
            "wave",
            "unendingDeep",
            "general"
        ],
        "castingTime": "8 Akt",
        "castingTimeLong": "8 Aktionen",
        "check": {
            "resistedBySpirit": false,
            "resistedByToughness": false,
            "resistanceIsHalfed": false,
            "attributes": [
                "courage",
                "intuition",
                "agility"
            ]
        },
        "cid": "WASSERLAUF",
        "cost": {
            "text": "8 KaP",
            "textLong": "8 KaP",
            "constant": 8,
            "recurring": null
        },
        "duration": "QS x 3 min",
        "durationLong": "QS x 3 Minuten",
        "enhancements": [
            {
                "name": "Längere Wirkungsdauer",
                "effect": "Die Wirkungsdauer beträgt QS x 10 Minuten.",
                "skillPoints": 6,
                "owned": false
            },
            {
                "name": "Mitnahme",
                "effect": "Die Geweihte kann jemanden mitnehmen, allerdings muss eine ständige Berührung während der Wirkung der Liturgie aufrechterhalten werden.",
                "skillPoints": 11,
                "owned": false
            },
            {
                "name": "Reichweite Berührung",
                "effect": "Als Reichweite gilt Berührung. Die Liturgie kann nur auf Lebewesen übertragen werden.",
                "skillPoints": 14,
                "owned": false
            }
        ],
        "group": "liturgicalChant",
        "modifications": {
            "canModCastingTime": true,
            "canModCost": true,
            "canModRange": true
        },
        "range": "selbst",
        "rangeLong": "selbst",
        "requirementText": "keine",
        "sources": [
            "AVENTURISCHES_GOTTERWIRKEN_1",
            "DIE_SIEBENWINDKUSTE",
            "HAVENA_VERSUNKENE_GEHEIMNISSE",
            "UNENDLICHKEIT_UND_TIEFENRAUSCH"
        ],
        "targetCategory": "Lebewesen",
        "traditions": {
            "all": false,
            "values": [
                "Compendium.tde5e.karma.Item.TR14524224316711",
                "Compendium.tde5e.karma.Item.TR10867221095867"
            ]
        },
        "improvement": {
            "column": "B",
            "value": 0
        },
        "notes": "",
        "gmNotes": "",
        "flavor": "",
        "rule": "Mit Hilfe dieser Liturgie kann der Geweihte über Wasser laufen, ganz so, als ob er über Erde gehen würde. Bei starkem Wellengang kann der Meister entscheiden, dass die GS des Geweihten sinkt.",
        "parents": []
    },
    "effects": [],
    "folder": "LI20236437819314",
    "_key": "!items!WA21224417314422"
}
