{
    "_id": "WE14312207130133",
    "name": "Weihe des Heims",
    "type": "liturgy",
    "img": "systems/tde5e/assets/defaultItems/liturgical_chant.svg",
    "system": {
        "aspects": [
            "craft",
            "home",
            "shield"
        ],
        "castingTime": "5 min",
        "castingTimeLong": "5 Minuten",
        "check": {
            "resistedBySpirit": false,
            "resistedByToughness": false,
            "resistanceIsHalfed": false,
            "attributes": [
                "courage",
                "sagacity",
                "intuition"
            ]
        },
        "cid": "WEIHE_DES_HEIMS",
        "cost": {
            "text": "8 KaP",
            "textLong": "8 KaP",
            "constant": 8,
            "recurring": null
        },
        "duration": "12 h",
        "durationLong": "12 Stunden",
        "enhancements": [
            {
                "owned": false,
                "name": "Größere Gebäude",
                "skillPoints": 5,
                "effect": "Das Gebäude kann 100 weitere Rechtschritt umfassen (10 Schritt in jede Richtung). Diese Erweiterung kann mehrfach angewendet werden, wobei jede Anwendung die Kosten um 4 KaP erhöht."
            },
            {
                "owned": false,
                "name": "Verstärkte Struktur",
                "skillPoints": 11,
                "effect": "Angriffe gegen das Gebäude richten 3 Trefferpunkte weniger an. Diese Erweiterung kann bis zu 2 Mal angewendet werden."
            },
            {
                "owned": false,
                "name": "Elementarer Schutz",
                "skillPoints": 14,
                "effect": "Das Gebäude kann nicht durch länger anhaltende elementare Effekte beschädigt werden. So kann ein <em>Ignosphaero</em> beispielsweise die Struktur beschädigen, aber keinen Brand auslösen. Chemikalien wie Säure werden nicht entfernt, fressen sich allerdings nicht durch das Material."
            }
        ],
        "group": "ceremony",
        "modifications": {
            "canModCastingTime": true,
            "canModCost": false,
            "canModRange": true
        },
        "range": "Berührung",
        "rangeLong": "Berührung",
        "requirementText": "keine",
        "sources": [
            "AVENTURISCHES_GOTTERWIRKEN_1",
            "DIE_FLUSSLANDE"
        ],
        "targetCategory": "Zone",
        "traditions": {
            "all": false,
            "values": [
                "Compendium.tde5e.karma.Item.TR20212175199223",
                "Compendium.tde5e.karma.Item.TR12692281461643",
                "Compendium.tde5e.karma.Item.TR68134102136219"
            ]
        },
        "improvement": {
            "column": "B",
            "value": 0
        },
        "notes": "",
        "gmNotes": "",
        "flavor": "",
        "rule": "<p>Die Zeremonie erhöht die Strukturpunkte eines Gebäudes um QS x 50 Punkte gegen jegliche Art von Schaden. Mit der Weihe des Heims lassen sich Gebäude mit einer Fläche von bis zu 100 Rechtschritt (10 Schritt im Quadrat) weihen.</p>",
        "parents": []
    },
    "effects": [],
    "folder": "ZE22182316147170",
    "_key": "!items!WE14312207130133"
}
