{
    "_id": "WI27201234139106",
    "name": "Wiederherstellung",
    "type": "liturgy",
    "img": "systems/tde5e/assets/defaultItems/liturgical_chant.svg",
    "system": {
        "aspects": [
            "craft",
            "freedom",
            "change"
        ],
        "castingTime": "30 min",
        "castingTimeLong": "30 Minuten",
        "check": {
            "resistedBySpirit": false,
            "resistedByToughness": false,
            "resistanceIsHalfed": false,
            "attributes": [
                "courage",
                "dexterity",
                "constitution"
            ]
        },
        "cid": "WIEDERHERSTELLUNG",
        "cost": {
            "text": "8 KaP",
            "textLong": "8 KaP",
            "constant": 8,
            "recurring": null
        },
        "duration": "sofort",
        "durationLong": "sofort",
        "enhancements": [
            {
                "name": "Bessere Reparatur",
                "effect": "Die Zeremonie gibt QS x 30 Strukturpunkte wieder zurück.",
                "skillPoints": 6,
                "owned": false
            },
            {
                "name": "Waffen- und Rüstungsreparatur",
                "effect": "Auch Waffen und Rüstungen können wiederhergestellt werden. Um Rüstungen wiederherzustellen, benötigt der Geweihte so viele QS, wie die Rüstung Rüstungsschutz besitzt. Bei Waffen der Kampftechniken Dolche und Raufen muss 1 QS erzielt werden, bei anderen Waffen mindestens 2 QS. Zweihandwaffen können nur mit mindestens 3 QS wiederhergestellt werden.",
                "skillPoints": 11,
                "owned": false
            },
            {
                "name": "Perfekte Reparatur",
                "effect": "Die Zeremonie gibt QS x 50 Strukturpunkte wieder zurück. Außerdem wird bei Waffen und Rüstungen eine QS weniger benötigt. Voraussetzung: Liturgieerweiterung <em>Bessere Reparatur und Waffen- und Rüstungsreparatur</em>.",
                "skillPoints": 14,
                "owned": false
            }
        ],
        "group": "ceremony",
        "modifications": {
            "canModCastingTime": true,
            "canModCost": true,
            "canModRange": true
        },
        "range": "Berührung",
        "rangeLong": "Berührung",
        "requirementText": "keine",
        "sources": [
            "AVENTURISCHES_GOTTERWIRKEN_1",
            "DIE_FLUSSLANDE"
        ],
        "targetCategory": "Objekt (profane Objekte)",
        "traditions": {
            "all": false,
            "values": [
                "Compendium.tde5e.karma.Item.TR20212175199223",
                "Compendium.tde5e.karma.Item.TR18472241511241"
            ]
        },
        "improvement": {
            "column": "B",
            "value": 0
        },
        "notes": "",
        "gmNotes": "",
        "flavor": "",
        "rule": "Die Zeremonie repariert ein beschädigtes oder zerstörtes Objekt, indem sie ihm QS x 20 Strukturpunkte zurückgibt. Waffen und Rüstungen sind davon ausgenommen.",
        "parents": []
    },
    "effects": [],
    "folder": "ZE22182316147170",
    "_key": "!items!WI27201234139106"
}
