{
    "_id": "WI41682425016122",
    "name": "Wissenssammlung",
    "type": "artifactAbility",
    "img": "systems/tde5e/assets/defaultItems/artifact_ability.svg",
    "system": {
        "aspects": [
            "knowledge"
        ],
        "binding": {
            "cost": "",
            "volume": ""
        },
        "brewType": null,
        "cid": "WISSENSSAMMLUNG",
        "cost": {
            "text": "",
            "constant": 0,
            "recurring": null
        },
        "group": "bookOfTheSnake",
        "property": null,
        "purchase": {
            "cost": [
                3
            ],
            "description": "3 Abenteuerpunkte",
            "levels": 1,
            "maxTimeBuyable": 1
        },
        "requirementText": "SF Tradition (Hesindekirche), nicht SF Wall gegen Schadensmagie",
        "sources": [
            "AVENTURISCHES_GOTTERWIRKEN_1"
        ],
        "tradition": "Compendium.tde5e.karma.Item.TR80205813365143",
        "variant": {
            "categories": [],
            "input": false,
            "level": 1,
            "selected": null,
            "available": null
        },
        "flavor": "",
        "notes": "",
        "gmNotes": "",
        "parents": [
            "Compendium.tde5e.karma.Item.TR80205813365143"
        ],
        "rule": "<p>Die Hesindegeweihte erinnert sich immer daran, was sie im Buch der Schlange niedergeschrieben hat, selbst wenn sie die entsprechende Seite nicht aufgeschlagen hat.</p>"
    },
    "effects": [],
    "folder": "BU32198931271072",
    "_key": "!items!WI41682425016122"
}
