{
    "_id": "ZE23011113233511",
    "name": "Zepter der Furcht",
    "type": "artifactAbility",
    "img": "systems/tde5e/assets/defaultItems/artifact_ability.svg",
    "system": {
        "aspects": [
            "antiMagic"
        ],
        "binding": {
            "cost": "",
            "volume": ""
        },
        "brewType": null,
        "cid": "ZEPTER_DER_FURCHT",
        "cost": {
            "text": "",
            "constant": 0,
            "recurring": null
        },
        "group": "sunScepter",
        "property": null,
        "purchase": {
            "cost": [
                12
            ],
            "description": "12 Abenteuerpunkte",
            "levels": 1,
            "maxTimeBuyable": 1
        },
        "requirementText": "SF Tradition (Praioskirche), nicht SF Licht des Götterfürsten",
        "sources": [
            "AVENTURISCHES_GOTTERWIRKEN_1"
        ],
        "tradition": "Compendium.tde5e.karma.Item.TR21011142168121",
        "variant": {
            "categories": [],
            "input": false,
            "level": 1,
            "selected": null,
            "available": null
        },
        "flavor": "",
        "notes": "",
        "gmNotes": "",
        "parents": [
            "Compendium.tde5e.karma.Item.TR21011142168121"
        ],
        "rule": "<p>Der Praiosgeweihte kann auf bis zu 32 Schritt Entfernung ein Ziel benennen. Dieses erleidet 1 Stufe @UUID[Compendium.tde5e.conditions.Item.FU13915517420459]{Furcht}. Nur folgende Wesen können davon betroffen sein: Daimonide und Dämonen. Die Wirkung tritt ein, auch wenn diese Wesen üblicherweise keine Furcht erleiden können. Ein Wesen kann nicht durch mehrere Sonnenzepter mit @UUID[Compendium.tde5e.karma.Item.ZE23011113233511]{Zepter der Furcht} beeinflusst werden. Der Einsatz dieser Fähigkeit kostet 1 Aktion und verursacht 1 Stufe @UUID[Compendium.tde5e.conditions.Item.TR16167149904659]{Trance}.</p>"
    },
    "effects": [],
    "folder": "SO55161491975023",
    "_key": "!items!ZE23011113233511"
}
