{
    "_id": "ZU15914299901199",
    "name": "Zurück in die Niederhöllen",
    "type": "karmaAbility",
    "img": "systems/tde5e/assets/defaultItems/special_ability_blessed.svg",
    "system": {
        "aspect": "",
        "cid": "ZURUCK_IN_DIE_NIEDERHOLLEN",
        "cost": {
            "text": "",
            "constant": 0,
            "recurring": null
        },
        "group": "blessed",
        "purchase": {
            "cost": [
                2
            ],
            "description": "2 Abenteuerpunkte",
            "levels": 1,
            "maxTimeBuyable": 1
        },
        "requirementText": "Vorteil Geweihter",
        "sources": [
            "AVENTURISCHES_GOTTERWIRKEN_1"
        ],
        "styleAbilities": [],
        "variant": {
            "categories": [],
            "input": false,
            "available": [],
            "level": 1,
            "selected": null
        },
        "flavor": "",
        "notes": "",
        "gmNotes": "",
        "rule": "Mit einer einfachen Berührung und 1 Aktion kann der Geweihte niederhöllische Essenzen wieder in die 7. Sphäre zurückschicken. Die Sonderfertigkeit reicht aus, um beispielsweise das Material, das mit einem INVOCATIO MINIMA beschworen wurde, zu verbannen, für Dämonen und andere dämonisch erschaffene Wesen, Gegenstände und Orte reicht es aber nicht aus.",
        "parents": []
    },
    "effects": [],
    "folder": "PA34841261181223",
    "_key": "!items!ZU15914299901199"
}
