{
    "_id": "CR49101942491561",
    "name": "Wesens-Typen",
    "type": "Item",
    "sorting": "a",
    "folder": null,
    "sort": 0,
    "color": "#000000",
    "_key": "!folders!CR49101942491561"
}
