{
    "_id": "AR25115211371682",
    "name": "Aranier",
    "type": "culture",
    "img": "systems/tde5e/assets/defaultItems/culture.svg",
    "system": {
        "areaKnowledge": "Heimat",
        "areaKnowledgeLong": "je nach Heimatort (z.B. Baburin, Elburum, Llanka, Palmyrabad, Zorgan)",
        "cid": "ARANIER",
        "commonAdvantages": [
            "Compendium.tde5e.advantagesDisadvantages.Item.BE42135171311171",
            "Compendium.tde5e.advantagesDisadvantages.Item.EN25088122196165"
        ],
        "commonBlessedProfessions": "Borongeweihter, Hesindegeweihter, Perainegeweihter, Phexgeweihter, Praiosgeweihter, Rondrageweihter, Efferdgeweihter, Traviageweihter, Firungeweihter, Tsageweihter, Ingerimmgeweihter, Rahjageweihter, Efferdgeweihter der Siebwindküste, Numinorupriester, Levthanpriester",
        "commonDisadvantages": [
            "Compendium.tde5e.advantagesDisadvantages.Item.PE10220389732541",
            "Compendium.tde5e.advantagesDisadvantages.Item.SC16522617226172",
            "Compendium.tde5e.advantagesDisadvantages.Item.ZE94875223412941"
        ],
        "commonMagicalProfessions": "Gildenloser Magier, Graumagier, Schwarzmagier, Weißmagier, Sexualmagier, Rashduler Dämonologe, Katzenhexer, Krötenhexer, Rabenhexer, Eulenhexer, Schlangenhexer, Affenhexer, Spinnenhexer, Tsatuara-Anhänger",
        "commonMundaneProfessions": "Alle außer Gladiator, Ritter, Stammeskrieger",
        "commonNames": "<ul><li><p><em>männlich:</em> Assaf, Djafardeon, Eslam, Faizal, Kazan, Mahdul, Marwamir, Nazir, Seyychaban, Zahir</p></li><li><em>weiblich:</em> Aischanka, Belima, Delilah, Harizeth, Majula, Neraida, Rhayadaque, Shilaldara, Yamira, Zulhaminai</li></ul><p>Namen werden mit <em>ibn</em> bei Männern und <em>saba</em> oder <em>-sunni</em> bei Frauen mit dem Namen des Vaters oder der Mutter verbunden, beispielsweise Yamira saba Delihah, Belima Majulasunni oder Assaf ibn Eslam.</p>",
        "commonSkills": [
            "Compendium.tde5e.skills.Item.BE22019221941182",
            "Compendium.tde5e.skills.Item.BR59227194165173",
            "Compendium.tde5e.skills.Item.GA11115740140204",
            "Compendium.tde5e.skills.Item.HA19014124211567",
            "Compendium.tde5e.skills.Item.MA17821721188237",
            "Compendium.tde5e.skills.Item.ME10520624750192",
            "Compendium.tde5e.skills.Item.RE11679620613319",
            "Compendium.tde5e.skills.Item.RE12513940511866",
            "Compendium.tde5e.skills.Item.RE23213215098822",
            "Compendium.tde5e.skills.Item.GE11982549772436",
            "Compendium.tde5e.skills.Item.SP19452301331538",
            "Compendium.tde5e.skills.Item.ST18887227775891",
            "Compendium.tde5e.skills.Item.TA33101101635723",
            "Compendium.tde5e.skills.Item.UB25018415118918"
        ],
        "culturalPackageSkills": [
            {
                "skill": "Compendium.tde5e.skills.Item.BE22019221941182",
                "value": 1
            },
            {
                "skill": "Compendium.tde5e.skills.Item.BR59227194165173",
                "value": 1
            },
            {
                "skill": "Compendium.tde5e.skills.Item.GA11115740140204",
                "value": 2
            },
            {
                "skill": "Compendium.tde5e.skills.Item.HA19014124211567",
                "value": 2
            },
            {
                "skill": "Compendium.tde5e.skills.Item.ME10520624750192",
                "value": 1
            },
            {
                "skill": "Compendium.tde5e.skills.Item.RE11679620613319",
                "value": 1
            },
            {
                "skill": "Compendium.tde5e.skills.Item.GE11982549772436",
                "value": 1
            },
            {
                "skill": "Compendium.tde5e.skills.Item.ST18887227775891",
                "value": 1
            },
            {
                "skill": "Compendium.tde5e.skills.Item.UB25018415118918",
                "value": 2
            }
        ],
        "languagesSpoken": [
            "Compendium.tde5e.languages.Item.GA18911081534223",
            "Compendium.tde5e.languages.Item.TU17110885136171"
        ],
        "socialStatus": [
            "aristocracy"
        ],
        "sources": [],
        "uncommonAdvantages": [
            "Compendium.tde5e.advantagesDisadvantages.Item.KA16215623520102"
        ],
        "uncommonDisadvantages": [
            "Compendium.tde5e.advantagesDisadvantages.Item.BL10716213420918"
        ],
        "uncommonSkills": [
            "Compendium.tde5e.skills.Item.EI23914229134172",
            "Compendium.tde5e.skills.Item.FA85208238570222",
            "Compendium.tde5e.skills.Item.WI18929716115182"
        ],
        "notes": "",
        "gmNotes": "",
        "flavor": "",
        "parents": [
            "Compendium.tde5e.raceCultureProfessions.Item.ME61492410820414"
        ],
        "rule": ""
    },
    "effects": [],
    "folder": "CU12417112520367",
    "_key": "!items!AR25115211371682"
}
