{
    "_id": "BO20411267254230",
    "name": "Bornländer",
    "type": "culture",
    "img": "systems/tde5e/assets/defaultItems/culture.svg",
    "system": {
        "areaKnowledge": "Heimat",
        "areaKnowledgeLong": "je nach Heimatort (z.B. Festum, Norburg, Notmark, Ouvennmas, Rodebrannt)",
        "cid": "BORNLANDER",
        "commonAdvantages": [
            "Compendium.tde5e.advantagesDisadvantages.Item.KA16215623520102",
            "Compendium.tde5e.advantagesDisadvantages.Item.RI20714562611361",
            "Compendium.tde5e.advantagesDisadvantages.Item.ZA12615914722168"
        ],
        "commonBlessedProfessions": "Borongeweihter, Hesindegeweihter, Perainegeweihter, Phexgeweihter, Praiosgeweihter, Rondrageweihter, Efferdgeweihter, Traviageweihter, Firungeweihter, Tsageweihter, Ingerimmgeweihter, Rahjageweihter, Efferdgeweihter der Siebwindküste, Numinorupriester, Levthanpriester",
        "commonDisadvantages": [
            "Compendium.tde5e.advantagesDisadvantages.Item.HI10811424019012",
            "Compendium.tde5e.advantagesDisadvantages.Item.PE10220389732541",
            "Compendium.tde5e.advantagesDisadvantages.Item.SC16522617226172"
        ],
        "commonMagicalProfessions": "Gildenloser Magier, Graumagier, Schwarzmagier, Weißmagier, Sexualmagier, Rashduler Dämonologe, Katzenhexer, Krötenhexer, Rabenhexer, Eulenhexer, Schlangenhexer, Affenhexer, Spinnenhexer, Tsatuara-Anhänger",
        "commonMundaneProfessions": "Alle außer Gladiator, Stammeskrieger",
        "commonNames": "<ul><li><p><em>männlich:</em> Bosjew, Danow, Elkwin, Firunew, Irjan, Jaakon, Jucho, Oswin, Travin, Vito</p></li><li><em>weiblich:</em> Alwinja, Dunjascha, Elwinja, Hesinja, Irinja, Jadvine, Karinja, Nadjescha, Rowena, Vanjescha</li><li><p><em>Familiennamen:</em> Alwinnen, Baerow, Bornski, Firunkis, Gartimpski, Gerberow, Karenkis, Larinow, Saraski, Timpski</p></li><li><em>Adelsfamilien:</em> von Salderkeim, von Quelldunkel, von Ouvenstam, von Wosna, von Eschenfurt</li></ul>",
        "commonSkills": [
            "Compendium.tde5e.skills.Item.FA85208238570222",
            "Compendium.tde5e.skills.Item.HO17697115856124",
            "Compendium.tde5e.skills.Item.LE21912211415814",
            "Compendium.tde5e.skills.Item.OR16411752231342",
            "Compendium.tde5e.skills.Item.PF16158106247128",
            "Compendium.tde5e.skills.Item.WI18929716115182",
            "Compendium.tde5e.skills.Item.SE24510070128212"
        ],
        "culturalPackageSkills": [
            {
                "skill": "Compendium.tde5e.skills.Item.FA85208238570222",
                "value": 1
            },
            {
                "skill": "Compendium.tde5e.skills.Item.HO17697115856124",
                "value": 2
            },
            {
                "skill": "Compendium.tde5e.skills.Item.LE21912211415814",
                "value": 1
            },
            {
                "skill": "Compendium.tde5e.skills.Item.OR16411752231342",
                "value": 1
            },
            {
                "skill": "Compendium.tde5e.skills.Item.PF16158106247128",
                "value": 1
            },
            {
                "skill": "Compendium.tde5e.skills.Item.WI18929716115182",
                "value": 1
            },
            {
                "skill": "Compendium.tde5e.skills.Item.SE24510070128212",
                "value": 1
            }
        ],
        "languagesSpoken": [
            "Compendium.tde5e.languages.Item.GA18911081534223"
        ],
        "socialStatus": [
            "aristocracy"
        ],
        "sources": [],
        "uncommonAdvantages": [
            "Compendium.tde5e.advantagesDisadvantages.Item.HI18522225311212"
        ],
        "uncommonDisadvantages": [],
        "uncommonSkills": [
            "Compendium.tde5e.skills.Item.FL13615987154130",
            "Compendium.tde5e.skills.Item.GA11115740140204"
        ],
        "notes": "",
        "gmNotes": "",
        "flavor": "",
        "parents": [
            "Compendium.tde5e.raceCultureProfessions.Item.ME61492410820414"
        ],
        "rule": ""
    },
    "effects": [],
    "folder": "CU12417112520367",
    "_key": "!items!BO20411267254230"
}
