{
    "_id": "EL23314618515320",
    "name": "Elementar",
    "type": "creatureType",
    "img": "systems/tde5e/assets/defaultItems/creatureType.svg",
    "system": {
        "calling": {
            "type": "summon",
            "value": 0
        },
        "cid": "ELEMENTAL_TYPE",
        "conditionImmunities": {
            "all": true,
            "values": []
        },
        "group": "notLiving",
        "ignoresPainFromLowHealth": true,
        "magicalImmunities": {
            "all": false,
            "values": [
                "influence",
                "transformation",
                "healing",
                "illusion"
            ]
        },
        "stateImmunities": {
            "all": false,
            "values": [
                "Compendium.tde5e.states.Item.KR30104119184892",
                "Compendium.tde5e.states.Item.VE14411232137155"
            ]
        },
        "sources": [],
        "notes": "",
        "gmNotes": "",
        "flavor": "",
        "rule": "<ul><li>Elementare können nicht durch Zustände beeinträchtigt werden.</li><li>Angriffe mit profanen und geweihten Waffen verursacht nur den halben Schaden. Die Trefferpunkte werden erst halbiert, dann wird der Rüstungsschutz verrechnet.</li><li>Angriffe mit magischen Waffen verursachen regulären Schaden.</li><li>Elementare sind immun gegen Zauber mit den Merkmalen Einfluss, Heilung, Illusion und Verwandlung.</li><li>Gegen alle anderen auf sie gewirkten Zauber gilt ihre Seelenkraft (falls sie nicht ohnehin zu einer Erleichterung führen würde) zusätzlich als Erschwernis (also gegebenenfalls doppelt, falls der Zauber von Natur aus um die Seelenkraft seines Ziels erschwert ist oder zusätzlich, wenn er um die Zähigkeit erschwert ist). Gegen Zauber, die direkt Schaden verursachen, gilt die Seelenkraft stattdessen als zusätzlicher Rüstungsschutz.</li><li>Elementare sind immun gegen Gifte und Krankheiten.</li><li>Elementare sind immun gegen schädliche Wirkungen ihres Elements.  Jedoch  sind sie empfindlich  gegen Schaden durch ihr Gegenelement. Waffen aus dem Gegenelement machen regulären Schaden. Schadenszauber des Gegenelements können den gesamten Rüstungsschutz ignorieren.</li><li>Elementare können aus Liturgien keinen Nutzen ziehen.</li><li>Dschinne beherrschen alle Zauber mit dem Merkmal Elementar, die ihrem Element entsprechen, mit einem Fertigkeitswert von 12. Wenn nicht anders angegeben, werden die Zauberproben auf die Eigenschaftswerte 14/14/14 abgelegt.</li><li>Dschinne können trotz fehlender Schips mehrfach verteidigen.</li></ul>",
        "parents": []
    },
    "effects": [],
    "folder": "CR49101942491561",
    "_key": "!items!EL23314618515320"
}
