{
    "_id": "FI13222539401512",
    "name": "Firnelfen",
    "type": "culture",
    "img": "systems/tde5e/assets/defaultItems/culture.svg",
    "system": {
        "areaKnowledge": "Heimat",
        "areaKnowledgeLong": "je nach Heimatort (z. B. Dorf und angrenzendes Gebiet)",
        "cid": "FIRNELFEN",
        "commonAdvantages": [
            "Compendium.tde5e.advantagesDisadvantages.Item.BE42135171311171",
            "Compendium.tde5e.advantagesDisadvantages.Item.KA16215623520102",
            "Compendium.tde5e.advantagesDisadvantages.Item.MA22957190116992",
            "Compendium.tde5e.advantagesDisadvantages.Item.RI20714562611361"
        ],
        "commonBlessedProfessions": "",
        "commonDisadvantages": [
            "Compendium.tde5e.advantagesDisadvantages.Item.AR17421913213232",
            "Compendium.tde5e.advantagesDisadvantages.Item.PE10220389732541",
            "Compendium.tde5e.advantagesDisadvantages.Item.PR20918505235743",
            "Compendium.tde5e.advantagesDisadvantages.Item.UN78174521056200"
        ],
        "commonMagicalProfessions": "Wildnisläufer, Zauberweber",
        "commonMundaneProfessions": "",
        "commonNames": "<ul><li><p><em>männlich:</em> Alriel, Delavar, Eldariel, Ilcoron, Mandaniel, Mandrion, Osagiel, Sanyarin</p></li><li><em>weiblich:</em> Alari, Calenleya, Elayoé, Fiannon, Mandaniel, Onioniel, Peaolé, Saliniome, Teleria, Zairi</li><li><p><em>Sippenname:</em> Eiskristall, Frostnacht, Pfeilflug, Schnee-auf-den-Gipfeln, Weißherz</p></li></ul><p>Elfen besitzen einen Vornamen sowie einen Sippennamen.</p>",
        "commonSkills": [
            "Compendium.tde5e.skills.Item.FA85208238570222",
            "Compendium.tde5e.skills.Item.FE63961132001614",
            "Compendium.tde5e.skills.Item.FI19073611316822",
            "Compendium.tde5e.skills.Item.KL21110615875233",
            "Compendium.tde5e.skills.Item.AT01742720744548",
            "Compendium.tde5e.skills.Item.MU14419753218980",
            "Compendium.tde5e.skills.Item.OR16411752231342",
            "Compendium.tde5e.skills.Item.PF16158106247128",
            "Compendium.tde5e.skills.Item.SE24510070128212",
            "Compendium.tde5e.skills.Item.SI13425148507115",
            "Compendium.tde5e.skills.Item.SI80193235230167",
            "Compendium.tde5e.skills.Item.TA20629207239217",
            "Compendium.tde5e.skills.Item.TI20015091191414",
            "Compendium.tde5e.skills.Item.VE22425218425144",
            "Compendium.tde5e.skills.Item.WI18929716115182"
        ],
        "culturalPackageSkills": [
            {
                "skill": "Compendium.tde5e.skills.Item.FA85208238570222",
                "value": 2
            },
            {
                "skill": "Compendium.tde5e.skills.Item.FI19073611316822",
                "value": 1
            },
            {
                "skill": "Compendium.tde5e.skills.Item.KL21110615875233",
                "value": 1
            },
            {
                "skill": "Compendium.tde5e.skills.Item.AT01742720744548",
                "value": 2
            },
            {
                "skill": "Compendium.tde5e.skills.Item.MU14419753218980",
                "value": 2
            },
            {
                "skill": "Compendium.tde5e.skills.Item.OR16411752231342",
                "value": 2
            },
            {
                "skill": "Compendium.tde5e.skills.Item.SE24510070128212",
                "value": 1
            },
            {
                "skill": "Compendium.tde5e.skills.Item.SI13425148507115",
                "value": 2
            },
            {
                "skill": "Compendium.tde5e.skills.Item.SI80193235230167",
                "value": 2
            },
            {
                "skill": "Compendium.tde5e.skills.Item.TI20015091191414",
                "value": 2
            },
            {
                "skill": "Compendium.tde5e.skills.Item.VE22425218425144",
                "value": 2
            },
            {
                "skill": "Compendium.tde5e.skills.Item.WI18929716115182",
                "value": 2
            }
        ],
        "languagesSpoken": [
            "Compendium.tde5e.languages.Item.IS11415060105113"
        ],
        "socialStatus": [
            "free"
        ],
        "sources": [],
        "uncommonAdvantages": [
            "Compendium.tde5e.advantagesDisadvantages.Item.BE42135171311171",
            "Compendium.tde5e.advantagesDisadvantages.Item.SO11718010145241"
        ],
        "uncommonDisadvantages": [
            "Compendium.tde5e.advantagesDisadvantages.Item.AN22963184228632",
            "Compendium.tde5e.advantagesDisadvantages.Item.KA15025371721986",
            "Compendium.tde5e.advantagesDisadvantages.Item.SC16522617226172",
            "Compendium.tde5e.advantagesDisadvantages.Item.UN78174521056200"
        ],
        "uncommonSkills": [
            "Compendium.tde5e.skills.Item.AL25553758184166",
            "Compendium.tde5e.skills.Item.BR59227194165173",
            "Compendium.tde5e.skills.Item.FA63117563323454",
            "Compendium.tde5e.skills.Item.FL13615987154130",
            "Compendium.tde5e.skills.Item.RE12513940511866",
            "Compendium.tde5e.skills.Item.SC17244498122558"
        ],
        "notes": "",
        "gmNotes": "",
        "flavor": "",
        "parents": [
            "Compendium.tde5e.raceCultureProfessions.Item.EL11046141242502",
            "Compendium.tde5e.raceCultureProfessions.Item.HA16920911124990"
        ],
        "rule": ""
    },
    "effects": [],
    "folder": "CU12417112520367",
    "_key": "!items!FI13222539401512"
}
