{
    "_id": "FJ13017340343652",
    "name": "Fjarninger",
    "type": "culture",
    "img": "systems/tde5e/assets/defaultItems/culture.svg",
    "system": {
        "areaKnowledge": "Heimat",
        "areaKnowledgeLong": "je nach Heimatort (z.B. Dorf und angrenzendes Gebiet)",
        "cid": "FJARNINGER",
        "commonAdvantages": [
            "Compendium.tde5e.advantagesDisadvantages.Item.EN25088122196165",
            "Compendium.tde5e.advantagesDisadvantages.Item.KA16215623520102",
            "Compendium.tde5e.advantagesDisadvantages.Item.RI20714562611361",
            "Compendium.tde5e.advantagesDisadvantages.Item.VE59235544249433",
            "Compendium.tde5e.advantagesDisadvantages.Item.ZA12615914722168"
        ],
        "commonBlessedProfessions": "",
        "commonDisadvantages": [
            "Compendium.tde5e.advantagesDisadvantages.Item.AN22963184228632",
            "Compendium.tde5e.advantagesDisadvantages.Item.BL10716213420918",
            "Compendium.tde5e.advantagesDisadvantages.Item.HI10811424019012",
            "Compendium.tde5e.advantagesDisadvantages.Item.SC16522617226172",
            "Compendium.tde5e.advantagesDisadvantages.Item.UN78174521056200"
        ],
        "commonMagicalProfessions": "",
        "commonMundaneProfessions": "Händler, Heiler, Jäger, Söldner, Stammeskrieger",
        "commonNames": "<ul><li><p><em>männlich:</em> Asgold, Blotgrim, Engur, Frunobar, Gjallur, Havgrimur, Pandur, Raluf, Surthor, Valbrandar</p></li><li><em>weiblich:</em> Asgora, Dandagard, Funudara, Gunnlaug, Halfga, Jaldrud, Rangra, Svannlaug, Ulfgard, Ylwa</li><li><p><em>Bekannte Stämme:</em> Doppelaxt-Leute, Eisfuchs-Leute, Schreiende-Schwerter-Leute</p></li></ul><p>Nachnamen sind unüblich, Ehrennamen wie Bärentöter, Frostklinge oder Schleichender Tod beliebt.</p>",
        "commonSkills": [
            "Compendium.tde5e.skills.Item.EI23914229134172",
            "Compendium.tde5e.skills.Item.FA85208238570222",
            "Compendium.tde5e.skills.Item.HO17697115856124",
            "Compendium.tde5e.skills.Item.KL21110615875233",
            "Compendium.tde5e.skills.Item.AT01742720744548",
            "Compendium.tde5e.skills.Item.KR28631591116621",
            "Compendium.tde5e.skills.Item.OR16411752231342",
            "Compendium.tde5e.skills.Item.SE24510070128212",
            "Compendium.tde5e.skills.Item.MI11215015715762",
            "Compendium.tde5e.skills.Item.TI20015091191414",
            "Compendium.tde5e.skills.Item.WI18929716115182"
        ],
        "culturalPackageSkills": [
            {
                "skill": "Compendium.tde5e.skills.Item.EI23914229134172",
                "value": 2
            },
            {
                "skill": "Compendium.tde5e.skills.Item.FA85208238570222",
                "value": 1
            },
            {
                "skill": "Compendium.tde5e.skills.Item.AT01742720744548",
                "value": 1
            },
            {
                "skill": "Compendium.tde5e.skills.Item.KR28631591116621",
                "value": 2
            },
            {
                "skill": "Compendium.tde5e.skills.Item.OR16411752231342",
                "value": 2
            },
            {
                "skill": "Compendium.tde5e.skills.Item.SE24510070128212",
                "value": 1
            },
            {
                "skill": "Compendium.tde5e.skills.Item.MI11215015715762",
                "value": 1
            },
            {
                "skill": "Compendium.tde5e.skills.Item.WI18929716115182",
                "value": 2
            }
        ],
        "languagesSpoken": [
            "Compendium.tde5e.languages.Item.FJ16323713547614"
        ],
        "socialStatus": [
            "aristocracy"
        ],
        "sources": [],
        "uncommonAdvantages": [
            "Compendium.tde5e.advantagesDisadvantages.Item.HI18522225311212",
            "Compendium.tde5e.advantagesDisadvantages.Item.SO11718010145241",
            "Compendium.tde5e.advantagesDisadvantages.Item.UN19921719374251"
        ],
        "uncommonDisadvantages": [
            "Compendium.tde5e.advantagesDisadvantages.Item.AN22963184228632",
            "Compendium.tde5e.advantagesDisadvantages.Item.FE12523313613701",
            "Compendium.tde5e.advantagesDisadvantages.Item.KA15025371721986",
            "Compendium.tde5e.advantagesDisadvantages.Item.KR17924123263189",
            "Compendium.tde5e.advantagesDisadvantages.Item.NA14925511601218",
            "Compendium.tde5e.advantagesDisadvantages.Item.PE10220389732541",
            "Compendium.tde5e.advantagesDisadvantages.Item.ZE94875223412941"
        ],
        "uncommonSkills": [
            "Compendium.tde5e.skills.Item.BE22019221941182",
            "Compendium.tde5e.skills.Item.SE18516924155745",
            "Compendium.tde5e.skills.Item.ET92146421911932",
            "Compendium.tde5e.skills.Item.FA63117563323454",
            "Compendium.tde5e.skills.Item.FL13615987154130",
            "Compendium.tde5e.skills.Item.GA11115740140204",
            "Compendium.tde5e.skills.Item.RE23213215098822",
            "Compendium.tde5e.skills.Item.SC17244498122558"
        ],
        "notes": "",
        "gmNotes": "",
        "flavor": "",
        "parents": [
            "Compendium.tde5e.raceCultureProfessions.Item.ME61492410820414"
        ],
        "rule": ""
    },
    "effects": [],
    "folder": "CU12417112520367",
    "_key": "!items!FJ13017340343652"
}
