{
    "_id": "GO54366126253204",
    "name": "Golem",
    "type": "creatureType",
    "img": "systems/tde5e/assets/defaultItems/creatureType.svg",
    "system": {
        "calling": {
            "type": null,
            "value": 0
        },
        "cid": "GOLEM_TYPE",
        "conditionImmunities": {
            "all": true,
            "values": [
                "Compendium.tde5e.conditions.Item.PA39138278624750",
                "Compendium.tde5e.conditions.Item.VE73175641105112"
            ]
        },
        "group": "notLiving",
        "ignoresPainFromLowHealth": true,
        "magicalImmunities": {
            "all": false,
            "values": [
                "transformation"
            ]
        },
        "stateImmunities": {
            "all": false,
            "values": [
                "Compendium.tde5e.states.Item.KR30104119184892",
                "Compendium.tde5e.states.Item.VE14411232137155"
            ]
        },
        "sources": [],
        "notes": "",
        "gmNotes": "",
        "flavor": "",
        "rule": "<ul><li>Golems können nur durch die Zustände Verwirrung und Paralyse beeinträchtigt werden.</li><li>Durch einen niedrigen LeP-Stand erleiden Golems keine Zustandsstufen Schmerz (siehe Regelwerk Seite 34).</li><li>Golems sind körperlich auf Dere existent und dadurch entsprechend verletzlich.</li><li>Angriffe mit geweihten Waffen von Lebensgöttern (z. B. Tsa) erzeugen doppelten Schaden. Die Trefferpunkte werden ausgewürfelt, dann verdoppelt, anschließend der Rüstungsschutz abgezogen.</li><li>Angriffe mit profanen, magischen oder geweihten Waffen aller anderen Götter sowie Zauber und Liturgien verursachen regulären Schaden.</li><li>Golems sind immun gegen Zauber mit den Merkmalen Verwandlung.</li><li>Golems sind immun gegen Gifte und Krankheiten.</li><li>Golems können aus Liturgien keinen Nutzen ziehen.</li><li>Golems nehmen die Welt durch ihren Magiesinn wahr. Sie brauchen dafür weder Licht noch Sinnessorgane wie Augen oder Ohren. Die Reichweite beträgt etwa 200 Schritt.</li><li>Golems sind immun gegen Waffen der Kampftechniken Dolche, Fechtwaffen, Armbrüste und Bögen.</li><li>Golems können keine LeP durch Regenerationsphasen regenerieren.</li></ul>",
        "parents": []
    },
    "effects": [],
    "folder": "CR49101942491561",
    "_key": "!items!GO54366126253204"
}
