{
    "_id": "HA16920911124990",
    "name": "Halbelfen",
    "type": "race",
    "img": "systems/tde5e/assets/defaultItems/race.svg",
    "system": {
        "attributeAdjustments": [
            {
                "attribute": "any",
                "value": 1,
                "of": null
            }
        ],
        "automaticAdvantages": [],
        "cid": "HALBELFEN",
        "commonAdvantages": [
            "Compendium.tde5e.advantagesDisadvantages.Item.BE42135171311171",
            "Compendium.tde5e.advantagesDisadvantages.Item.BE12324825214112",
            "Compendium.tde5e.advantagesDisadvantages.Item.DU23402511285217",
            "Compendium.tde5e.advantagesDisadvantages.Item.FL30115254923214",
            "Compendium.tde5e.advantagesDisadvantages.Item.GU93816821016025",
            "Compendium.tde5e.advantagesDisadvantages.Item.HE35591881565014",
            "Compendium.tde5e.advantagesDisadvantages.Item.IM13115382582141",
            "Compendium.tde5e.advantagesDisadvantages.Item.SC14738209897182",
            "Compendium.tde5e.advantagesDisadvantages.Item.WO24813114613417",
            "Compendium.tde5e.advantagesDisadvantages.Item.ZA11117621141521",
            "Compendium.tde5e.advantagesDisadvantages.Item.ZW19813920813086"
        ],
        "commonDisadvantages": [
            "Compendium.tde5e.advantagesDisadvantages.Item.SE87150572652131",
            "Compendium.tde5e.advantagesDisadvantages.Item.WA14053243225201"
        ],
        "eyeColors": [
            "black",
            "gray",
            "blue",
            "green",
            "darkBrown",
            "lightBrown",
            "amber",
            "spottedGold"
        ],
        "hairColors": [
            "red",
            "brown",
            "darkBlond",
            "lightBlond",
            "whiteBlond",
            "black",
            "blueBlack"
        ],
        "modifiers": {
            "lifePoints": 5,
            "spirit": -4,
            "toughness": -6,
            "movement": 8
        },
        "purchase": {
            "cost": [
                -15
            ],
            "description": "0 Abenteuerpunkte"
        },
        "size": "158+1W20 Halbfinger",
        "sources": [],
        "stronglyRecommendedAdvantages": [],
        "stronglyRecommendedDisadvantages": [],
        "uncommonAdvantages": [
            "Compendium.tde5e.advantagesDisadvantages.Item.SC18184200731788",
            "Compendium.tde5e.advantagesDisadvantages.Item.ZW31118911924511"
        ],
        "uncommonDisadvantages": [
            "Compendium.tde5e.advantagesDisadvantages.Item.BL10716213420918",
            "Compendium.tde5e.advantagesDisadvantages.Item.FE12523313613701",
            "Compendium.tde5e.advantagesDisadvantages.Item.KR17924123263189"
        ],
        "weight": "110-1W6 Stein",
        "variant": {
            "available": [],
            "level": 1,
            "selected": null,
            "input": false,
            "categories": null
        },
        "notes": "",
        "gmNotes": "",
        "flavor": "",
        "rule": "",
        "parents": [
            "Compendium.tde5e.raceCultureProfessions.Item.AN01102187319826",
            "Compendium.tde5e.raceCultureProfessions.Item.AU22119108157420",
            "Compendium.tde5e.raceCultureProfessions.Item.BO20411267254230",
            "Compendium.tde5e.raceCultureProfessions.Item.FI13222539401512",
            "Compendium.tde5e.raceCultureProfessions.Item.HO81704881762517",
            "Compendium.tde5e.raceCultureProfessions.Item.MI25069162771185",
            "Compendium.tde5e.raceCultureProfessions.Item.NI59246100234991",
            "Compendium.tde5e.raceCultureProfessions.Item.NO23047135150136",
            "Compendium.tde5e.raceCultureProfessions.Item.NO24612319724613",
            "Compendium.tde5e.raceCultureProfessions.Item.SV23620218225247",
            "Compendium.tde5e.raceCultureProfessions.Item.TH23292235122211",
            "Compendium.tde5e.raceCultureProfessions.Item.WA24617613048105"
        ],
        "automaticDisadvantages": []
    },
    "effects": [],
    "folder": "RA22240130141999",
    "_key": "!items!HA16920911124990"
}
