{
    "_id": "HO81704881762517",
    "name": "Horasier",
    "type": "culture",
    "img": "systems/tde5e/assets/defaultItems/culture.svg",
    "system": {
        "areaKnowledge": "Heimat",
        "areaKnowledgeLong": "je nach Heimatort (z.B. Belhanka, Bethana, Grangor, Kuslik, Methumis, Neetha, Vinsalt)",
        "cid": "HORASIER",
        "commonAdvantages": [
            "Compendium.tde5e.advantagesDisadvantages.Item.SO11718010145241"
        ],
        "commonBlessedProfessions": "Borongeweihter, Hesindegeweihter, Perainegeweihter, Phexgeweihter, Praiosgeweihter, Rondrageweihter, Efferdgeweihter, Traviageweihter, Firungeweihter, Tsageweihter, Ingerimmgeweihter, Rahjageweihter, Efferdgeweihter der Siebwindküste, Numinorupriester, Levthanpriester",
        "commonDisadvantages": [
            "Compendium.tde5e.advantagesDisadvantages.Item.PE10220389732541"
        ],
        "commonMagicalProfessions": "Gildenloser Magier, Graumagier, Schwarzmagier, Weißmagier, Sexualmagier, Rashduler Dämonologe, Katzenhexer, Krötenhexer, Rabenhexer, Eulenhexer, Schlangenhexer, Affenhexer, Spinnenhexer, Tsatuara-Anhänger",
        "commonMundaneProfessions": "Alle außer Gladiator, Ritter, Stammeskrieger",
        "commonNames": "<ul><li><p><em>männlich:</em> Alricio, Baduin, Carolan, Cusimo, Duardo, Horadan, Jacopo, Phedro, Quendan, Rondrigo</p></li><li><em>weiblich:</em> Ardare, Carisia, Elaria, Gylvana, Hesindiane, Pamina, Quedora, Rahjamande, Sanya, Sharina</li><li><p><em>Familiennamen:</em> Bosvani, Caranda, Delicado, Marnion, Melior, Novacasa, Spinola, Torrean, Ulfaran, Vansanti</p></li><li><p><em>Adelsfamilien:</em> Barazza, Casibelli, Cavarno, Marcia, Sulvano</p></li></ul><p>Bei Adligen wird häufig ein <em>dy</em> zwischen Vor- und Familienname benutzt, beispielsweise Ardare dy Casibelli.</p>",
        "commonSkills": [
            "Compendium.tde5e.skills.Item.BE22019221941182",
            "Compendium.tde5e.skills.Item.SE18516924155745",
            "Compendium.tde5e.skills.Item.ET92146421911932",
            "Compendium.tde5e.skills.Item.FA63117563323454",
            "Compendium.tde5e.skills.Item.GA11115740140204",
            "Compendium.tde5e.skills.Item.GE93168175204121",
            "Compendium.tde5e.skills.Item.GE11982549772436",
            "Compendium.tde5e.skills.Item.HA19014124211567",
            "Compendium.tde5e.skills.Item.MA73963218615382",
            "Compendium.tde5e.skills.Item.ME15896164302262",
            "Compendium.tde5e.skills.Item.RE11679620613319",
            "Compendium.tde5e.skills.Item.RE12513940511866",
            "Compendium.tde5e.skills.Item.TA20629207239217"
        ],
        "culturalPackageSkills": [
            {
                "skill": "Compendium.tde5e.skills.Item.BE22019221941182",
                "value": 1
            },
            {
                "skill": "Compendium.tde5e.skills.Item.SE18516924155745",
                "value": 1
            },
            {
                "skill": "Compendium.tde5e.skills.Item.ET92146421911932",
                "value": 2
            },
            {
                "skill": "Compendium.tde5e.skills.Item.GA11115740140204",
                "value": 2
            },
            {
                "skill": "Compendium.tde5e.skills.Item.GE93168175204121",
                "value": 1
            },
            {
                "skill": "Compendium.tde5e.skills.Item.GE11982549772436",
                "value": 1
            },
            {
                "skill": "Compendium.tde5e.skills.Item.HA19014124211567",
                "value": 1
            },
            {
                "skill": "Compendium.tde5e.skills.Item.ME15896164302262",
                "value": 1
            },
            {
                "skill": "Compendium.tde5e.skills.Item.RE11679620613319",
                "value": 2
            },
            {
                "skill": "Compendium.tde5e.skills.Item.RE12513940511866",
                "value": 2
            },
            {
                "skill": "Compendium.tde5e.skills.Item.TA20629207239217",
                "value": 1
            }
        ],
        "languagesSpoken": [
            "Compendium.tde5e.languages.Item.GA18911081534223"
        ],
        "socialStatus": [
            "aristocracy"
        ],
        "sources": [],
        "uncommonAdvantages": [
            "Compendium.tde5e.advantagesDisadvantages.Item.BE42135171311171"
        ],
        "uncommonDisadvantages": [
            "Compendium.tde5e.advantagesDisadvantages.Item.AN22963184228632"
        ],
        "uncommonSkills": [
            "Compendium.tde5e.skills.Item.FA85208238570222",
            "Compendium.tde5e.skills.Item.FL13615987154130",
            "Compendium.tde5e.skills.Item.PF16158106247128",
            "Compendium.tde5e.skills.Item.TI20015091191414",
            "Compendium.tde5e.skills.Item.WI18929716115182"
        ],
        "notes": "",
        "gmNotes": "",
        "flavor": "",
        "parents": [
            "Compendium.tde5e.raceCultureProfessions.Item.ME61492410820414"
        ],
        "rule": ""
    },
    "effects": [],
    "folder": "CU12417112520367",
    "_key": "!items!HO81704881762517"
}
