{
    "folder": "CU12417112520367",
    "name": "Orkland",
    "type": "culture",
    "img": "systems/tde5e/assets/defaultItems/culture.svg",
    "system": {
        "cid": "KULTUR_ORKLAND",
        "sources": [],
        "notes": "",
        "gmNotes": "",
        "flavor": "",
        "commonAdvantages": [
            "Compendium.tde5e.advantagesDisadvantages.Item.VE59235544249433",
            "Compendium.tde5e.advantagesDisadvantages.Item.ZA12615914722168"
        ],
        "commonDisadvantages": [
            "Compendium.tde5e.advantagesDisadvantages.Item.PE10220389732541",
            "Compendium.tde5e.advantagesDisadvantages.Item.SC16522617226172"
        ],
        "uncommonAdvantages": [
            "Compendium.tde5e.advantagesDisadvantages.Item.SO11718010145241"
        ],
        "uncommonDisadvantages": [
            "Compendium.tde5e.advantagesDisadvantages.Item.KR17924123263189"
        ],
        "socialStatus": [
            "lesserNoble"
        ],
        "languagesSpoken": [
            "Compendium.tde5e.languages.Item.OL74173112249413"
        ],
        "commonSkills": [
            "Compendium.tde5e.skills.Item.EI23914229134172",
            "Compendium.tde5e.skills.Item.HO17697115856124",
            "Compendium.tde5e.skills.Item.KL21110615875233",
            "Compendium.tde5e.skills.Item.AK92342342043211",
            "Compendium.tde5e.skills.Item.KR28631591116621",
            "Compendium.tde5e.skills.Item.KR25251237183482",
            "Compendium.tde5e.skills.Item.ST18887227775891",
            "Compendium.tde5e.skills.Item.OR16411752231342",
            "Compendium.tde5e.skills.Item.SE24510070128212",
            "Compendium.tde5e.skills.Item.SI80193235230167",
            "Compendium.tde5e.skills.Item.MI11215015715762",
            "Compendium.tde5e.skills.Item.TI20015091191414",
            "Compendium.tde5e.skills.Item.WI18929716115182"
        ],
        "uncommonSkills": [
            "Compendium.tde5e.skills.Item.BE22019221941182",
            "Compendium.tde5e.skills.Item.ET92146421911932",
            "Compendium.tde5e.skills.Item.FL13615987154130",
            "Compendium.tde5e.skills.Item.ME15896164302262",
            "Compendium.tde5e.skills.Item.RE11679620613319",
            "Compendium.tde5e.skills.Item.RE12513940511866"
        ],
        "culturalPackageSkills": [
            {
                "skill": "Compendium.tde5e.skills.Item.EI23914229134172",
                "value": 2
            },
            {
                "skill": "Compendium.tde5e.skills.Item.HO17697115856124",
                "value": 1
            },
            {
                "skill": "Compendium.tde5e.skills.Item.KL21110615875233",
                "value": 1
            },
            {
                "skill": "Compendium.tde5e.skills.Item.AK92342342043211",
                "value": 1
            },
            {
                "skill": "Compendium.tde5e.skills.Item.KR28631591116621",
                "value": 2
            },
            {
                "skill": "Compendium.tde5e.skills.Item.KR25251237183482",
                "value": 1
            },
            {
                "skill": "Compendium.tde5e.skills.Item.ST18887227775891",
                "value": 1
            },
            {
                "skill": "Compendium.tde5e.skills.Item.OR16411752231342",
                "value": 1
            },
            {
                "skill": "Compendium.tde5e.skills.Item.SE24510070128212",
                "value": 1
            },
            {
                "skill": "Compendium.tde5e.skills.Item.SI80193235230167",
                "value": 1
            },
            {
                "skill": "Compendium.tde5e.skills.Item.MI11215015715762",
                "value": 1
            },
            {
                "skill": "Compendium.tde5e.skills.Item.TI20015091191414",
                "value": 1
            },
            {
                "skill": "Compendium.tde5e.skills.Item.WI18929716115182",
                "value": 1
            }
        ],
        "areaKnowledgeLong": "je nach Heimatort oder Wegstrecke",
        "commonNames": "<ul><li><p><em>männlich</em>: Azzek, Brazoch, Drugh, Ghartai, Kerschoi, Morak, Nargazz, Orezzar, Sadrak, Thukraz, Thurraz</p></li><li><p><em>weiblich</em>: Frauen sind bei den Orks nicht gleichberechtigt. Wenn sie überhaupt einen Namen tragen, ist dieser meist von körperlichen oder charakterlichen Besonderheiten entlehnt, z. B. Goldauge, Glanz, Leise, Kupfer- oder Silberfell</p></li><li><p><em>Kriegs- und Ehrennamen</em>: Blutfaust, Eisauge, Eisenhammer, Geisterklaue, Kettenreißer, Ogerschlächter, Schädelspalter, Schmerzsucher, Schmiedeglut, Seidenpelz, Stahlbrecher</p></li><li><p><em>Stämme</em>: Gharrachai, Korogai, Mokolash, Olochtai, Orichai, Shurachai, Truanzhai, Tscharshai, Zholochai</p></li></ul>",
        "commonMundaneProfessions": "Bauer, Bogner, Fallensteller, Fleischer, Händler, Heiler, Prospektor, Schmied, Seefahrer (Fischer), Sklave, Söldner, Stammesjäger, Stammeskrieger, Viehtreiber, Wildniskundiger, Zimmermann",
        "commonMagicalProfessions": "Animist (Blutkrieger)",
        "commonBlessedProfessions": "Graveshpriester, Rikaipriester, Tairachschamane",
        "areaKnowledge": "Heimatort",
        "parents": [
            "Compendium.tde5e.raceCultureProfessions.Item.OR16920923013127",
            "Compendium.tde5e.raceCultureProfessions.Item.HA11111014710222"
        ],
        "rule": ""
    },
    "effects": [],
    "_id": "KU99131144932315",
    "_key": "!items!KU99131144932315"
}
