{
    "_id": "MA51976916865131",
    "name": "Maraskaner",
    "type": "culture",
    "img": "systems/tde5e/assets/defaultItems/culture.svg",
    "system": {
        "areaKnowledge": "Heimat",
        "areaKnowledgeLong": "je nach Heimatort (z.B. Boran, Jergan, Sinoda, Tuzak)",
        "cid": "MARASKANER",
        "commonAdvantages": [
            "Compendium.tde5e.advantagesDisadvantages.Item.GI63131572481531",
            "Compendium.tde5e.advantagesDisadvantages.Item.HI18522225311212",
            "Compendium.tde5e.advantagesDisadvantages.Item.KR75190140153224",
            "Compendium.tde5e.advantagesDisadvantages.Item.RI20714562611361",
            "Compendium.tde5e.advantagesDisadvantages.Item.SO11718010145241"
        ],
        "commonBlessedProfessions": "",
        "commonDisadvantages": [
            "Compendium.tde5e.advantagesDisadvantages.Item.PE10220389732541",
            "Compendium.tde5e.advantagesDisadvantages.Item.SC16522617226172"
        ],
        "commonMagicalProfessions": "Gildenloser Magier, Graumagier, Schwarzmagier, Weißmagier, Sexualmagier, Rashduler Dämonologe, Katzenhexer, Krötenhexer, Rabenhexer, Eulenhexer, Schlangenhexer, Affenhexer, Spinnenhexer, Tsatuara-Anhänger",
        "commonMundaneProfessions": "Alle außer Gladiator, Ritter, Stammeskrieger",
        "commonNames": "<ul><li><p><em>männlich:</em> Alrech, Brinziber, Denderan, Dschindziber, Feruziber, Firold, Gerbaldijian, Mulziber, Perjin, Vegsziber</p></li><li><em>weiblich:</em> Bekasabu, Dajida, Fathimajida, Garasab, Harikajida, Madajida, Shinojida, Tsaryscham, Yasindajida, Zulamidjida</li></ul><p>Nachnamen sind nicht üblich, aber oft wird der Heimatort oder ein Spitzname an den Vornamen gehängt, beispielsweise Vegziber von Sinoda oder Dajida die Flinke.</p>",
        "commonSkills": [
            "Compendium.tde5e.skills.Item.GO56118173851518",
            "Compendium.tde5e.skills.Item.GI10061193216729",
            "Compendium.tde5e.skills.Item.OR16411752231342",
            "Compendium.tde5e.skills.Item.PF16158106247128",
            "Compendium.tde5e.skills.Item.TI20015091191414",
            "Compendium.tde5e.skills.Item.VE22425218425144",
            "Compendium.tde5e.skills.Item.WI18929716115182"
        ],
        "culturalPackageSkills": [
            {
                "skill": "Compendium.tde5e.skills.Item.GO56118173851518",
                "value": 1
            },
            {
                "skill": "Compendium.tde5e.skills.Item.GI10061193216729",
                "value": 2
            },
            {
                "skill": "Compendium.tde5e.skills.Item.OR16411752231342",
                "value": 1
            },
            {
                "skill": "Compendium.tde5e.skills.Item.PF16158106247128",
                "value": 2
            },
            {
                "skill": "Compendium.tde5e.skills.Item.TI20015091191414",
                "value": 2
            },
            {
                "skill": "Compendium.tde5e.skills.Item.VE22425218425144",
                "value": 1
            },
            {
                "skill": "Compendium.tde5e.skills.Item.WI18929716115182",
                "value": 1
            }
        ],
        "languagesSpoken": [
            "Compendium.tde5e.languages.Item.GA18911081534223",
            "Compendium.tde5e.languages.Item.TU17110885136171"
        ],
        "socialStatus": [
            "aristocracy"
        ],
        "sources": [],
        "uncommonAdvantages": [
            "Compendium.tde5e.advantagesDisadvantages.Item.KA16215623520102"
        ],
        "uncommonDisadvantages": [
            "Compendium.tde5e.advantagesDisadvantages.Item.AN22963184228632",
            "Compendium.tde5e.advantagesDisadvantages.Item.FA23650871631862",
            "Compendium.tde5e.advantagesDisadvantages.Item.SC16522617226172"
        ],
        "uncommonSkills": [
            "Compendium.tde5e.skills.Item.FA63117563323454",
            "Compendium.tde5e.skills.Item.FL13615987154130"
        ],
        "notes": "",
        "gmNotes": "",
        "flavor": "",
        "parents": [
            "Compendium.tde5e.raceCultureProfessions.Item.ME61492410820414"
        ],
        "rule": ""
    },
    "effects": [],
    "folder": "CU12417112520367",
    "_key": "!items!MA51976916865131"
}
