{
    "_id": "MI25069162771185",
    "name": "Mittelreicher",
    "type": "culture",
    "img": "systems/tde5e/assets/defaultItems/culture.svg",
    "system": {
        "areaKnowledge": "Heimat",
        "areaKnowledgeLong": "je nach Heimatort (z.B. Angbar, Elenvina, Gareth, Greifenfurt, Havena, Punin)",
        "cid": "MITTELREICHER",
        "commonAdvantages": [
            "Compendium.tde5e.advantagesDisadvantages.Item.GL19714105246136"
        ],
        "commonBlessedProfessions": "Borongeweihter, Hesindegeweihter, Perainegeweihter, Phexgeweihter, Praiosgeweihter, Rondrageweihter, Efferdgeweihter, Traviageweihter, Firungeweihter, Tsageweihter, Ingerimmgeweihter, Rahjageweihter, Efferdgeweihter der Siebwindküste, Numinorupriester, Levthanpriester",
        "commonDisadvantages": [
            "Compendium.tde5e.advantagesDisadvantages.Item.PE10220389732541",
            "Compendium.tde5e.advantagesDisadvantages.Item.SC16522617226172"
        ],
        "commonMagicalProfessions": "Gildenloser Magier, Graumagier, Schwarzmagier, Weißmagier, Sexualmagier, Rashduler Dämonologe, Katzenhexer, Krötenhexer, Rabenhexer, Eulenhexer, Schlangenhexer, Affenhexer, Spinnenhexer, Tsatuara-Anhänger",
        "commonMundaneProfessions": "Alle außer Stammeskrieger",
        "commonNames": "<ul><li><p><em>männlich:</em> Alrik, Cordovan, Darian, Erlan, Gerion, Hagen, Praiodan, Refardeon, Viburn, Yendor</p></li><li><em>weiblich:</em> Alena, Caya, Dorlen, Elwene, Fiana, Khorena, Oleana, Quisira, Sannah, Xaviera</li><li><p><em>Familiennamen:</em> Alfaran, Berlind, Damotil, Fuxfell, Grabensalb, Harnischmacher, Meeltheuer, Steinhauer, Winterkalt, Zandor</p></li><li><em>Adelsfamilien:</em> vom Berg, von Galahan, von Mersingen, von Streitzig, von Sturmfels</li></ul>",
        "commonSkills": [
            "Compendium.tde5e.skills.Item.HO17697115856124",
            "Compendium.tde5e.skills.Item.MI11215015715762",
            "Compendium.tde5e.skills.Item.PF16158106247128",
            "Compendium.tde5e.skills.Item.ST18887227775891",
            "Compendium.tde5e.skills.Item.TI20015091191414"
        ],
        "culturalPackageSkills": [
            {
                "skill": "Compendium.tde5e.skills.Item.HO17697115856124",
                "value": 1
            },
            {
                "skill": "Compendium.tde5e.skills.Item.MI11215015715762",
                "value": 1
            },
            {
                "skill": "Compendium.tde5e.skills.Item.PF16158106247128",
                "value": 1
            },
            {
                "skill": "Compendium.tde5e.skills.Item.ST18887227775891",
                "value": 1
            },
            {
                "skill": "Compendium.tde5e.skills.Item.TI20015091191414",
                "value": 1
            }
        ],
        "languagesSpoken": [
            "Compendium.tde5e.languages.Item.GA18911081534223"
        ],
        "socialStatus": [
            "aristocracy"
        ],
        "sources": [],
        "uncommonAdvantages": [
            "Compendium.tde5e.advantagesDisadvantages.Item.HI18522225311212",
            "Compendium.tde5e.advantagesDisadvantages.Item.KA16215623520102"
        ],
        "uncommonDisadvantages": [],
        "uncommonSkills": [
            "Compendium.tde5e.skills.Item.FL13615987154130"
        ],
        "notes": "",
        "gmNotes": "",
        "flavor": "",
        "parents": [
            "Compendium.tde5e.raceCultureProfessions.Item.ME61492410820414"
        ],
        "rule": ""
    },
    "effects": [],
    "folder": "CU12417112520367",
    "_key": "!items!MI25069162771185"
}
