{
    "_id": "MO19144892151551",
    "name": "Mohas",
    "type": "culture",
    "img": "systems/tde5e/assets/defaultItems/culture.svg",
    "system": {
        "areaKnowledge": "Heimat",
        "areaKnowledgeLong": "je nach Heimatort (z.B. Dorf und angrenzendes Gebiet)",
        "cid": "MOHAS",
        "commonAdvantages": [
            "Compendium.tde5e.advantagesDisadvantages.Item.GI63131572481531",
            "Compendium.tde5e.advantagesDisadvantages.Item.GL19714105246136",
            "Compendium.tde5e.advantagesDisadvantages.Item.GU93816821016025",
            "Compendium.tde5e.advantagesDisadvantages.Item.HI18522225311212",
            "Compendium.tde5e.advantagesDisadvantages.Item.RI20714562611361",
            "Compendium.tde5e.advantagesDisadvantages.Item.SC14738209897182"
        ],
        "commonBlessedProfessions": "",
        "commonDisadvantages": [
            "Compendium.tde5e.advantagesDisadvantages.Item.AN22963184228632",
            "Compendium.tde5e.advantagesDisadvantages.Item.KA15025371721986",
            "Compendium.tde5e.advantagesDisadvantages.Item.NI04124021922114",
            "Compendium.tde5e.advantagesDisadvantages.Item.PE10220389732541",
            "Compendium.tde5e.advantagesDisadvantages.Item.SC16522617226172"
        ],
        "commonMagicalProfessions": "",
        "commonMundaneProfessions": "Händler, Heiler, Jäger, Söldner, Stammeskrieger",
        "commonNames": "<ul><li><p><em>Waldmenschen:</em> Cankuna (Flink), Kehala (Schildkröte), Takate (Dessen Hand immer blutig ist), Wapiya (Seine Hände tun Gutes), Yako (Katze, Raubkatze)</p></li><li><em>Utulu:</em> Kalimba, Mangabe, Shasiwatu, Tenkile, Usuthu</li><li><p><em>Tocamuyac:</em> Anakena, Ataranga, Kiri, Miru, Rano</p></li><li><em>Bekannte Stämme:</em> Anoiha, Chirakah, Darna, Haipu, Keke-Wanaq, Miniwatu, Mohaha, Napewanha, Oijaniha, Panaq-Si, Ruwangi, Shokubunga, Tocamuyac</li></ul>",
        "commonSkills": [
            "Compendium.tde5e.skills.Item.FA85208238570222",
            "Compendium.tde5e.skills.Item.GI10061193216729",
            "Compendium.tde5e.skills.Item.KL21110615875233",
            "Compendium.tde5e.skills.Item.AT01742720744548",
            "Compendium.tde5e.skills.Item.OR16411752231342",
            "Compendium.tde5e.skills.Item.PF16158106247128",
            "Compendium.tde5e.skills.Item.GE11982549772436",
            "Compendium.tde5e.skills.Item.SI80193235230167",
            "Compendium.tde5e.skills.Item.TI20015091191414",
            "Compendium.tde5e.skills.Item.VE22425218425144",
            "Compendium.tde5e.skills.Item.WI18929716115182"
        ],
        "culturalPackageSkills": [
            {
                "skill": "Compendium.tde5e.skills.Item.FA85208238570222",
                "value": 1
            },
            {
                "skill": "Compendium.tde5e.skills.Item.GI10061193216729",
                "value": 1
            },
            {
                "skill": "Compendium.tde5e.skills.Item.AT01742720744548",
                "value": 1
            },
            {
                "skill": "Compendium.tde5e.skills.Item.OR16411752231342",
                "value": 1
            },
            {
                "skill": "Compendium.tde5e.skills.Item.PF16158106247128",
                "value": 2
            },
            {
                "skill": "Compendium.tde5e.skills.Item.GE11982549772436",
                "value": 1
            },
            {
                "skill": "Compendium.tde5e.skills.Item.SI80193235230167",
                "value": 1
            },
            {
                "skill": "Compendium.tde5e.skills.Item.TI20015091191414",
                "value": 2
            },
            {
                "skill": "Compendium.tde5e.skills.Item.VE22425218425144",
                "value": 1
            },
            {
                "skill": "Compendium.tde5e.skills.Item.WI18929716115182",
                "value": 2
            }
        ],
        "languagesSpoken": [
            "Compendium.tde5e.languages.Item.MO16895149822855"
        ],
        "socialStatus": [
            "aristocracy"
        ],
        "sources": [],
        "uncommonAdvantages": [
            "Compendium.tde5e.advantagesDisadvantages.Item.KA16215623520102"
        ],
        "uncommonDisadvantages": [
            "Compendium.tde5e.advantagesDisadvantages.Item.AN22963184228632",
            "Compendium.tde5e.advantagesDisadvantages.Item.KR17924123263189",
            "Compendium.tde5e.advantagesDisadvantages.Item.NA14925511601218",
            "Compendium.tde5e.advantagesDisadvantages.Item.PE10220389732541",
            "Compendium.tde5e.advantagesDisadvantages.Item.SC16522617226172",
            "Compendium.tde5e.advantagesDisadvantages.Item.UN78174521056200"
        ],
        "uncommonSkills": [
            "Compendium.tde5e.skills.Item.ET92146421911932",
            "Compendium.tde5e.skills.Item.FA63117563323454",
            "Compendium.tde5e.skills.Item.FL13615987154130",
            "Compendium.tde5e.skills.Item.GA11115740140204",
            "Compendium.tde5e.skills.Item.GE93168175204121",
            "Compendium.tde5e.skills.Item.GE11982549772436",
            "Compendium.tde5e.skills.Item.MI11215015715762",
            "Compendium.tde5e.skills.Item.RE23213215098822",
            "Compendium.tde5e.skills.Item.SC17244498122558"
        ],
        "notes": "",
        "gmNotes": "",
        "flavor": "",
        "parents": [
            "Compendium.tde5e.raceCultureProfessions.Item.ME61492410820414"
        ],
        "rule": ""
    },
    "effects": [],
    "folder": "CU12417112520367",
    "_key": "!items!MO19144892151551"
}
