{
    "_id": "NO23047135150136",
    "name": "Nordaventurier",
    "type": "culture",
    "img": "systems/tde5e/assets/defaultItems/culture.svg",
    "system": {
        "areaKnowledge": "Heimat",
        "areaKnowledgeLong": "je nach Heimatort (z.B. Enqui, Oblarasim, Paavi, Riva, Uhdenberg)",
        "cid": "NORDAVENTURIER",
        "commonAdvantages": [
            "Compendium.tde5e.advantagesDisadvantages.Item.RI20714562611361",
            "Compendium.tde5e.advantagesDisadvantages.Item.ZA12615914722168"
        ],
        "commonBlessedProfessions": "Borongeweihter, Hesindegeweihter, Perainegeweihter, Phexgeweihter, Praiosgeweihter, Rondrageweihter, Efferdgeweihter, Traviageweihter, Firungeweihter, Tsageweihter, Ingerimmgeweihter, Rahjageweihter, Efferdgeweihter der Siebwindküste, Numinorupriester, Levthanpriester",
        "commonDisadvantages": [
            "Compendium.tde5e.advantagesDisadvantages.Item.AN22963184228632",
            "Compendium.tde5e.advantagesDisadvantages.Item.SC16522617226172"
        ],
        "commonMagicalProfessions": "Gildenloser Magier, Graumagier, Schwarzmagier, Weißmagier, Sexualmagier, Rashduler Dämonologe, Katzenhexer, Krötenhexer, Rabenhexer, Eulenhexer, Schlangenhexer, Affenhexer, Spinnenhexer, Tsatuara-Anhänger",
        "commonMundaneProfessions": "Alle außer Gladiator, Stammeskrieger",
        "commonNames": "<p>Die Nordaventurier verwenden je nach Herkunft @UUID[Compendium.tde5e.raceCultureProfessions.Item.MI25069162771185]{mittelreichische}, @UUID[Compendium.tde5e.raceCultureProfessions.Item.NI59246100234991]{nivesische}, @UUID[Compendium.tde5e.raceCultureProfessions.Item.NO13639416410113]{norbardische} und @UUID[Compendium.tde5e.raceCultureProfessions.Item.TH23292235122211]{thorwalsche} Namen.</p>",
        "commonSkills": [
            "Compendium.tde5e.skills.Item.FA85208238570222",
            "Compendium.tde5e.skills.Item.FI19073611316822",
            "Compendium.tde5e.skills.Item.HA19014124211567",
            "Compendium.tde5e.skills.Item.HO17697115856124",
            "Compendium.tde5e.skills.Item.ST18887227775891",
            "Compendium.tde5e.skills.Item.OR16411752231342",
            "Compendium.tde5e.skills.Item.PF16158106247128",
            "Compendium.tde5e.skills.Item.SE24510070128212",
            "Compendium.tde5e.skills.Item.MI11215015715762",
            "Compendium.tde5e.skills.Item.SP19452301331538",
            "Compendium.tde5e.skills.Item.TI20015091191414",
            "Compendium.tde5e.skills.Item.VE22425218425144",
            "Compendium.tde5e.skills.Item.WI18929716115182"
        ],
        "culturalPackageSkills": [
            {
                "skill": "Compendium.tde5e.skills.Item.FA85208238570222",
                "value": 1
            },
            {
                "skill": "Compendium.tde5e.skills.Item.HA19014124211567",
                "value": 1
            },
            {
                "skill": "Compendium.tde5e.skills.Item.HO17697115856124",
                "value": 1
            },
            {
                "skill": "Compendium.tde5e.skills.Item.ST18887227775891",
                "value": 1
            },
            {
                "skill": "Compendium.tde5e.skills.Item.OR16411752231342",
                "value": 1
            },
            {
                "skill": "Compendium.tde5e.skills.Item.PF16158106247128",
                "value": 1
            },
            {
                "skill": "Compendium.tde5e.skills.Item.SE24510070128212",
                "value": 1
            },
            {
                "skill": "Compendium.tde5e.skills.Item.TI20015091191414",
                "value": 1
            },
            {
                "skill": "Compendium.tde5e.skills.Item.WI18929716115182",
                "value": 1
            }
        ],
        "languagesSpoken": [
            "Compendium.tde5e.languages.Item.AL23740195123392",
            "Compendium.tde5e.languages.Item.GA18911081534223",
            "Compendium.tde5e.languages.Item.NU47454112711049",
            "Compendium.tde5e.languages.Item.TH75144402112092"
        ],
        "socialStatus": [
            "aristocracy"
        ],
        "sources": [],
        "uncommonAdvantages": [
            "Compendium.tde5e.advantagesDisadvantages.Item.HI18522225311212"
        ],
        "uncommonDisadvantages": [
            "Compendium.tde5e.advantagesDisadvantages.Item.KR17924123263189"
        ],
        "uncommonSkills": [
            "Compendium.tde5e.skills.Item.BE22019221941182",
            "Compendium.tde5e.skills.Item.FL13615987154130",
            "Compendium.tde5e.skills.Item.GE11982549772436",
            "Compendium.tde5e.skills.Item.MA73963218615382",
            "Compendium.tde5e.skills.Item.ME15896164302262",
            "Compendium.tde5e.skills.Item.RE12513940511866"
        ],
        "notes": "",
        "gmNotes": "",
        "flavor": "",
        "parents": [
            "Compendium.tde5e.raceCultureProfessions.Item.ME61492410820414",
            "Compendium.tde5e.raceCultureProfessions.Item.HA16920911124990",
            "Compendium.tde5e.raceCultureProfessions.Item.HO17927531549215"
        ],
        "rule": ""
    },
    "effects": [],
    "folder": "CU12417112520367",
    "_key": "!items!NO23047135150136"
}
