{
    "_id": "NO24612319724613",
    "name": "Nostrier",
    "type": "culture",
    "img": "systems/tde5e/assets/defaultItems/culture.svg",
    "system": {
        "areaKnowledge": "Heimat",
        "areaKnowledgeLong": "je nach Heimatort (z.B. Nostria-Stadt, Salza, Salzerhaven)",
        "cid": "NOSTRIER",
        "commonAdvantages": [
            "Compendium.tde5e.advantagesDisadvantages.Item.RI20714562611361",
            "Compendium.tde5e.advantagesDisadvantages.Item.ZA12615914722168"
        ],
        "commonBlessedProfessions": "Borongeweihter, Hesindegeweihter, Perainegeweihter, Phexgeweihter, Praiosgeweihter, Rondrageweihter, Efferdgeweihter, Traviageweihter, Firungeweihter, Tsageweihter, Ingerimmgeweihter, Rahjageweihter, Efferdgeweihter der Siebwindküste, Numinorupriester, Levthanpriester",
        "commonDisadvantages": [
            "Compendium.tde5e.advantagesDisadvantages.Item.PE10220389732541",
            "Compendium.tde5e.advantagesDisadvantages.Item.SC16522617226172"
        ],
        "commonMagicalProfessions": "Gildenloser Magier, Graumagier, Schwarzmagier, Weißmagier, Sexualmagier, Rashduler Dämonologe, Katzenhexer, Krötenhexer, Rabenhexer, Eulenhexer, Schlangenhexer, Affenhexer, Spinnenhexer, Tsatuara-Anhänger",
        "commonMundaneProfessions": "Alle außer Gladiator, Stammeskrieger",
        "commonNames": "<ul><li><p><em>männlich:</em> Ablasion, Basilio, Dorleno, Ingvalion, Jasper, Kasimir, Modeno, Sapertyn, Valputrio, Zarquisio</p></li><li><em>weiblich:</em> Asmodette, Caristhea, Doranthe, Elida, Gloranthe, Kasmira, Mafizia, Nostriane, Sieghelmina, Yasmina</li><li><p><em>Familiennamen:</em> Adabasio, Elgeryn, Fischling, Kirschner, Linneweber, Mandelfein, Nosterweiß, Salzerin, Taschenneid, Wilmhold</p></li><li><em>Adelsfamilien:</em> von Fischteich, von Salza, von Salzerhaven, von Sappenstiel, von Vesselbek</li></ul>",
        "commonSkills": [
            "Compendium.tde5e.skills.Item.FI19073611316822",
            "Compendium.tde5e.skills.Item.OR16411752231342",
            "Compendium.tde5e.skills.Item.PF16158106247128",
            "Compendium.tde5e.skills.Item.GE11982549772436",
            "Compendium.tde5e.skills.Item.TI20015091191414",
            "Compendium.tde5e.skills.Item.WI18929716115182"
        ],
        "culturalPackageSkills": [
            {
                "skill": "Compendium.tde5e.skills.Item.FI19073611316822",
                "value": 2
            },
            {
                "skill": "Compendium.tde5e.skills.Item.OR16411752231342",
                "value": 1
            },
            {
                "skill": "Compendium.tde5e.skills.Item.PF16158106247128",
                "value": 1
            },
            {
                "skill": "Compendium.tde5e.skills.Item.GE11982549772436",
                "value": 1
            },
            {
                "skill": "Compendium.tde5e.skills.Item.TI20015091191414",
                "value": 1
            },
            {
                "skill": "Compendium.tde5e.skills.Item.WI18929716115182",
                "value": 1
            }
        ],
        "languagesSpoken": [
            "Compendium.tde5e.languages.Item.GA18911081534223"
        ],
        "socialStatus": [
            "aristocracy"
        ],
        "sources": [],
        "uncommonAdvantages": [
            "Compendium.tde5e.advantagesDisadvantages.Item.SO11718010145241"
        ],
        "uncommonDisadvantages": [
            "Compendium.tde5e.advantagesDisadvantages.Item.KR17924123263189"
        ],
        "uncommonSkills": [
            "Compendium.tde5e.skills.Item.FL13615987154130",
            "Compendium.tde5e.skills.Item.GE93168175204121",
            "Compendium.tde5e.skills.Item.GE11982549772436",
            "Compendium.tde5e.skills.Item.GO56118173851518",
            "Compendium.tde5e.skills.Item.ME15896164302262",
            "Compendium.tde5e.skills.Item.RE11679620613319",
            "Compendium.tde5e.skills.Item.RE12513940511866"
        ],
        "notes": "",
        "gmNotes": "",
        "flavor": "",
        "parents": [
            "Compendium.tde5e.raceCultureProfessions.Item.ME61492410820414"
        ],
        "rule": ""
    },
    "effects": [],
    "folder": "CU12417112520367",
    "_key": "!items!NO24612319724613"
}
