{
    "_id": "NO18020173167536",
    "name": "Novadis",
    "type": "culture",
    "img": "systems/tde5e/assets/defaultItems/culture.svg",
    "system": {
        "areaKnowledge": "Heimat",
        "areaKnowledgeLong": "je nach Heimatort (z. B. Keft, Mherwed, Unau)",
        "cid": "NOVADIS",
        "commonAdvantages": [
            "Compendium.tde5e.advantagesDisadvantages.Item.EN25088122196165",
            "Compendium.tde5e.advantagesDisadvantages.Item.HI18522225311212",
            "Compendium.tde5e.advantagesDisadvantages.Item.RI20714562611361",
            "Compendium.tde5e.advantagesDisadvantages.Item.SC18184200731788",
            "Compendium.tde5e.advantagesDisadvantages.Item.ZA12615914722168"
        ],
        "commonBlessedProfessions": "",
        "commonDisadvantages": [
            "Compendium.tde5e.advantagesDisadvantages.Item.AN22963184228632",
            "Compendium.tde5e.advantagesDisadvantages.Item.PE10220389732541",
            "Compendium.tde5e.advantagesDisadvantages.Item.PR20918505235743",
            "Compendium.tde5e.advantagesDisadvantages.Item.SC16522617226172"
        ],
        "commonMagicalProfessions": "Gildenloser Magier, Graumagier, Schwarzmagier, Weißmagier, Sexualmagier, Rashduler Dämonologe",
        "commonMundaneProfessions": "Alle außer Gladiator, Stammeskrieger",
        "commonNames": "<ul><li><p><em>männlich:</em> Abdul, Chadim, Habled, Khorim, Omar, Mustafa, Nareb, Rashid, Said, Zahir</p></li><li><em>weiblich:</em> Aischa, Eshila, Fadime, Laila, Meriban, Nedime, Oyan, Perishan, Ranchel, Shila</li><li><p><em>Bekannte Stämme:</em> Beni Ankhara, Beni Arrat, Beni Avad, Beni Brachtar, Beni Erkin, Beni Gadang, Beni Kasim, Beni Kharram, Beni Novad, Beni Schebt, Beni Shadif, Beni Szelemjati, Beni Terkui</p><p></p></li></ul><p>Namen werden mit <em>ben</em> bei Männern und <em>saba</em> oder <em>-sunni</em> bei Frauen mit dem Namen des Vaters oder der Mutter verbunden, beispielsweise Nedime saba Shila, Ranchel Oyansunni oder Omar ben Said. Wie bei den Mhanadistani werden auch bei den Novadis Ehrennamen verwendet.</p>",
        "commonSkills": [
            "Compendium.tde5e.skills.Item.EI23914229134172",
            "Compendium.tde5e.skills.Item.FA85208238570222",
            "Compendium.tde5e.skills.Item.KR25251237183482",
            "Compendium.tde5e.skills.Item.OR16411752231342",
            "Compendium.tde5e.skills.Item.PF16158106247128",
            "Compendium.tde5e.skills.Item.RE12513940511866",
            "Compendium.tde5e.skills.Item.RE23213215098822",
            "Compendium.tde5e.skills.Item.SI80193235230167",
            "Compendium.tde5e.skills.Item.TI20015091191414",
            "Compendium.tde5e.skills.Item.WI18929716115182"
        ],
        "culturalPackageSkills": [
            {
                "skill": "Compendium.tde5e.skills.Item.EI23914229134172",
                "value": 2
            },
            {
                "skill": "Compendium.tde5e.skills.Item.FA85208238570222",
                "value": 1
            },
            {
                "skill": "Compendium.tde5e.skills.Item.OR16411752231342",
                "value": 2
            },
            {
                "skill": "Compendium.tde5e.skills.Item.RE12513940511866",
                "value": 1
            },
            {
                "skill": "Compendium.tde5e.skills.Item.RE23213215098822",
                "value": 2
            },
            {
                "skill": "Compendium.tde5e.skills.Item.TI20015091191414",
                "value": 1
            },
            {
                "skill": "Compendium.tde5e.skills.Item.WI18929716115182",
                "value": 2
            }
        ],
        "languagesSpoken": [
            "Compendium.tde5e.languages.Item.TU17110885136171"
        ],
        "socialStatus": [
            "aristocracy"
        ],
        "sources": [],
        "uncommonAdvantages": [
            "Compendium.tde5e.advantagesDisadvantages.Item.KA16215623520102"
        ],
        "uncommonDisadvantages": [
            "Compendium.tde5e.advantagesDisadvantages.Item.HI10811424019012"
        ],
        "uncommonSkills": [
            "Compendium.tde5e.skills.Item.FA63117563323454",
            "Compendium.tde5e.skills.Item.FI19073611316822",
            "Compendium.tde5e.skills.Item.MA73963218615382"
        ],
        "notes": "",
        "gmNotes": "",
        "flavor": "",
        "parents": [
            "Compendium.tde5e.raceCultureProfessions.Item.ME61492410820414"
        ],
        "rule": ""
    },
    "effects": [],
    "folder": "CU12417112520367",
    "_key": "!items!NO18020173167536"
}
