{
    "_id": "TI16520017310432",
    "name": "Tier",
    "type": "creatureType",
    "img": "systems/tde5e/assets/defaultItems/creatureType.svg",
    "system": {
        "calling": {
            "type": "hunting",
            "value": 0
        },
        "cid": "TIER_TYPE",
        "conditionImmunities": {
            "all": false,
            "values": []
        },
        "group": "living",
        "ignoresPainFromLowHealth": false,
        "magicalImmunities": {
            "all": false,
            "values": []
        },
        "stateImmunities": {
            "all": false,
            "values": []
        },
        "sources": [],
        "notes": "",
        "gmNotes": "",
        "flavor": "",
        "rule": "",
        "parents": []
    },
    "effects": [],
    "folder": "CR49101942491561",
    "_key": "!items!TI16520017310432"
}
