{
    "_id": "WI21713417526242",
    "name": "Wildzwerge",
    "type": "culture",
    "img": "systems/tde5e/assets/defaultItems/culture.svg",
    "system": {
        "areaKnowledge": "Heimat",
        "areaKnowledgeLong": "heimisches Höhlensystem",
        "cid": "WILDZWERGE",
        "commonAdvantages": [
            "Compendium.tde5e.advantagesDisadvantages.Item.DU23402511285217",
            "Compendium.tde5e.advantagesDisadvantages.Item.HI18522225311212",
            "Compendium.tde5e.advantagesDisadvantages.Item.RI20714562611361",
            "Compendium.tde5e.advantagesDisadvantages.Item.VE59235544249433",
            "Compendium.tde5e.advantagesDisadvantages.Item.ZA12615914722168"
        ],
        "commonBlessedProfessions": "",
        "commonDisadvantages": [
            "Compendium.tde5e.advantagesDisadvantages.Item.AN22963184228632",
            "Compendium.tde5e.advantagesDisadvantages.Item.HA70198237225182",
            "Compendium.tde5e.advantagesDisadvantages.Item.PE10220389732541",
            "Compendium.tde5e.advantagesDisadvantages.Item.SC16522617226172",
            "Compendium.tde5e.advantagesDisadvantages.Item.UN78174521056200"
        ],
        "commonMagicalProfessions": "Brobim-Geode",
        "commonMundaneProfessions": "Heiler, Jäger, Stammeskrieger",
        "commonNames": "<ul><li><p><em>männlich:</em> Argox, Barosch, Furusch, Gorax, Kadurax, Madasch, Pirox, Saposch, Vandrosch, Zinkopa</p></li><li><em>weiblich:</em> Arda, Bahmutha, Firngara, Gartha, Kudra, Malma</li></ul><p>Die Namen der Brobim setzen sich aus dem Vornamen und dem Namen eines Elternteils zusammen, beispielsweise Argox Sohn des Garox.</p>",
        "commonSkills": [
            "Compendium.tde5e.skills.Item.EI23914229134172",
            "Compendium.tde5e.skills.Item.KL21110615875233",
            "Compendium.tde5e.skills.Item.MI11215015715762",
            "Compendium.tde5e.skills.Item.VE22425218425144"
        ],
        "culturalPackageSkills": [
            {
                "skill": "Compendium.tde5e.skills.Item.KL21110615875233",
                "value": 2
            },
            {
                "skill": "Compendium.tde5e.skills.Item.VE22425218425144",
                "value": 2
            },
            {
                "skill": "Compendium.tde5e.skills.Item.EI23914229134172",
                "value": 2
            },
            {
                "skill": "Compendium.tde5e.skills.Item.MI11215015715762",
                "value": 2
            }
        ],
        "languagesSpoken": [
            "Compendium.tde5e.languages.Item.RO87241351077268"
        ],
        "socialStatus": [
            "aristocracy"
        ],
        "sources": [],
        "uncommonAdvantages": [
            "Compendium.tde5e.advantagesDisadvantages.Item.BE42135171311171",
            "Compendium.tde5e.advantagesDisadvantages.Item.SO11718010145241"
        ],
        "uncommonDisadvantages": [
            "Compendium.tde5e.advantagesDisadvantages.Item.AN22963184228632"
        ],
        "uncommonSkills": [
            "Compendium.tde5e.skills.Item.BE22019221941182",
            "Compendium.tde5e.skills.Item.SE18516924155745",
            "Compendium.tde5e.skills.Item.ET92146421911932",
            "Compendium.tde5e.skills.Item.FL13615987154130",
            "Compendium.tde5e.skills.Item.GA11115740140204",
            "Compendium.tde5e.skills.Item.GE11982549772436",
            "Compendium.tde5e.skills.Item.GO56118173851518",
            "Compendium.tde5e.skills.Item.ME15896164302262",
            "Compendium.tde5e.skills.Item.MI11215015715762",
            "Compendium.tde5e.skills.Item.RE11679620613319",
            "Compendium.tde5e.skills.Item.RE12513940511866",
            "Compendium.tde5e.skills.Item.RE23213215098822",
            "Compendium.tde5e.skills.Item.SC17244498122558"
        ],
        "notes": "",
        "gmNotes": "",
        "flavor": "",
        "parents": [
            "Compendium.tde5e.raceCultureProfessions.Item.ZW10117568221097"
        ],
        "rule": ""
    },
    "effects": [],
    "folder": "CU12417112520367",
    "_key": "!items!WI21713417526242"
}
