{
    "_id": "PU93953190667762",
    "name": "Pugna Magicae",
    "type": "Item",
    "sorting": "a",
    "folder": "KA71031651731511",
    "color": "#000000",
    "_key": "!folders!PU93953190667762"
}
