{
    "_id": "PL77437314404143",
    "name": "Plattenrüstung",
    "type": "Item",
    "sorting": "a",
    "folder": "RU25218200492109",
    "color": "#000000",
    "_key": "!folders!PL77437314404143"
}
