{
    "_id": "KE59922787836312",
    "name": "Ketten- und Schuppenrüstung",
    "type": "Item",
    "sorting": "a",
    "folder": "RU25218200492109",
    "color": "#000000",
    "_key": "!folders!KE59922787836312"
}
