{
    "name": "Scharfschütze",
    "sorting": "a",
    "folder": "KA71031651731511",
    "type": "Item",
    "_id": "SC70842192196242",
    "description": "",
    "sort": 0,
    "color": "#000000",
    "_key": "!folders!SC70842192196242"
}
