{
    "_id": "AN10113818143821",
    "name": "Anfeuern",
    "type": "action",
    "img": "systems/tde5e/assets/defaultItems/action.svg",
    "system": {
        "sources": [],
        "cid": "ANFEUERN",
        "notes": "",
        "gmNotes": "",
        "prerequisites": {
            "combatStyle": [
                "Compendium.tde5e.combat.Item.GL24516464187121"
            ],
            "equipment": [],
            "quality": 1
        },
        "cost": {
            "resources": {
                "actionPoints": 4,
                "adrenaline": 0,
                "style": 0
            },
            "description": "4 AkP"
        },
        "requirementText": "Kampfstil <em>Gladiator</em>",
        "purchase": {
            "cost": [
                3
            ],
            "description": "3 Abenteuerpunkte"
        },
        "quality": {
            "limited": "",
            "disadvantaged": "",
            "advantaged": "",
            "overreached": ""
        },
        "empowerments": [
            "Compendium.tde5e.combat.Item.AN11767206872274"
        ],
        "isAttack": false,
        "isRanged": null,
        "flavor": "",
        "parents": [
            "Compendium.tde5e.combat.Item.GL24516464187121"
        ],
        "ruleShort": "1 AkP für 3 Verbündete in Hörreichweite",
        "rule": "<p>Bis zu 3 Verbündete in Hörreichweite (nach Wahl des Kämpfers) erhalten jeweils einen Aktionspunkt.</p>"
    },
    "effects": [],
    "folder": "GL80269429954248",
    "_key": "!items!AN10113818143821"
}
