{
    "_id": "BA20306715818424",
    "name": "Bal Honaks Mantel",
    "type": "combatAbility",
    "img": "systems/tde5e/assets/defaultItems/special_ability_combat.svg",
    "system": {
        "group": "passive",
        "purchase": {
            "cost": [
                10
            ],
            "maxTimeBuyable": 1,
            "levels": 1,
            "description": "10 Abenteuerpunkte"
        },
        "sources": [
            "BOSPARANS_KATAKOMBEN"
        ],
        "cid": "BAL_HONAKS_MANTEL",
        "notes": "",
        "gmNotes": "",
        "variant": {
            "level": 1,
            "categories": [],
            "input": false,
            "available": [],
            "selected": null
        },
        "combat": {
            "combatTechniques": {
                "all": true,
                "values": []
            },
            "armorGroups": []
        },
        "requirementText": "Kampfstil <em>Scharfrichter</em>",
        "flavor": "",
        "parents": [
            "Compendium.tde5e.combat.Item.SC16224161238165"
        ],
        "rule": "<p>Während ein Angriff des Scharfrichters aufgeladen wird, erhöht sich sein Rüstschutz um die bereits gewirkten Aktionspunkte.</p>"
    },
    "effects": [],
    "folder": "SC89810497808876",
    "_key": "!items!BA20306715818424"
}
