{
    "_id": "BE10024248199514",
    "name": "Bellum Iustum",
    "type": "combatAbility",
    "img": "systems/tde5e/assets/defaultItems/special_ability_combat.svg",
    "system": {
        "group": "combatStyle",
        "purchase": {
            "cost": [
                5
            ],
            "description": "5 Abenteuerpunkte",
            "levels": 1,
            "maxTimeBuyable": 1
        },
        "sources": [
            "BOSPARANS_KATAKOMBEN"
        ],
        "cid": "BELLUM_IUSTUM",
        "notes": "",
        "gmNotes": "",
        "variant": {
            "level": 1,
            "categories": [],
            "input": false,
            "available": [],
            "selected": null
        },
        "combat": {
            "armorGroups": [],
            "combatTechniques": {
                "all": false,
                "values": [
                    "Compendium.tde5e.skills.Item.SC43947299610730"
                ]
            }
        },
        "requirementText": "Vorteil Geweihter",
        "flavor": "<p>Mit beachtlicher spiritueller Kraft prügeln sich eukolizanische Mönche durch Horden von ungläubigen Eindringlingen. Dabei kommen lediglich von den Göttern so erschaffene Mittel zum Einsatz – der Einsatz von Klingen oder anderen hergestellten Waffen ist für die Eukolizaner nicht göttergefällig.</p>",
        "parents": [
            "Compendium.tde5e.skills.Item.SC43947299610730"
        ],
        "rule": "<p>Die Gewandheit der @UUID[Compendium.tde5e.skills.Item.SC43947299610730]{Schlagwaffen}-Kampftechnikprobe wird durch die Leiteigenschaft des Geweihten ersetzt, wird also auf MU/KK/Leiteigenschaft abgelegt.</p>"
    },
    "effects": [],
    "folder": "BE06785369040561",
    "_key": "!items!BE10024248199514"
}
