{
    "name": "Bindung schnell lösen +1",
    "type": "action",
    "img": "systems/tde5e/assets/defaultItems/action.svg",
    "system": {
        "sources": [
            "BOSPARANS_KATAKOMBEN"
        ],
        "cid": "BINDUNG_SCHNELL_LOSEN+1",
        "notes": "",
        "gmNotes": "",
        "prerequisites": {
            "combatStyle": [
                "Compendium.tde5e.combat.Item.WI50100991011914"
            ],
            "equipment": [],
            "quality": 1
        },
        "cost": {
            "resources": {
                "actionPoints": 2,
                "adrenaline": 4,
                "style": 0
            },
            "description": "2 AkP + 4 Adr"
        },
        "requirementText": "Kampfstil <em>Wirbelwind</em>",
        "purchase": {
            "cost": [
                0
            ],
            "description": "0 Abenteuerpunkte"
        },
        "quality": {
            "limited": "",
            "disadvantaged": "",
            "advantaged": "",
            "overreached": ""
        },
        "empowerments": [],
        "isAttack": false,
        "isRanged": null,
        "flavor": "",
        "parents": [
            "Compendium.tde5e.combat.Item.BI35238156190381"
        ],
        "ruleShort": "Gegnerische Bindungen von Verbündetem lösen",
        "rule": "<p>Der Kämpfer entfernt den Status @UUID[Compendium.tde5e.states.Item.GE43106981779018]{Gebunden} mit sofortiger Wirkung von einem Verbündeten in Hörreichweite.</p>"
    },
    "effects": [],
    "folder": "WI20558731743843",
    "_id": "BI16513076431988",
    "_key": "!items!BI16513076431988"
}
