{
    "_id": "BI35238156190381",
    "name": "Bindung schnell lösen",
    "type": "action",
    "img": "systems/tde5e/assets/defaultItems/action.svg",
    "system": {
        "sources": [
            "BOSPARANS_KATAKOMBEN"
        ],
        "cid": "BINDUNG_SCHNELL_LOSEN",
        "notes": "",
        "gmNotes": "",
        "prerequisites": {
            "combatStyle": [
                "Compendium.tde5e.combat.Item.WI50100991011914"
            ],
            "equipment": [],
            "quality": 1
        },
        "cost": {
            "resources": {
                "actionPoints": 2,
                "adrenaline": 0,
                "style": 0
            },
            "description": "2 AkP"
        },
        "requirementText": "Kampfstil <em>Wirbelwind</em>",
        "purchase": {
            "cost": [
                0
            ],
            "description": "0 Abenteuerpunkte"
        },
        "quality": {
            "limited": "",
            "disadvantaged": "",
            "advantaged": "",
            "overreached": ""
        },
        "empowerments": [
            "Compendium.tde5e.combat.Item.BI16513076431988"
        ],
        "isAttack": false,
        "isRanged": null,
        "flavor": "",
        "parents": [
            "Compendium.tde5e.combat.Item.WI50100991011914"
        ],
        "ruleShort": "Gegnerische Bindungen lösen",
        "rule": "<p>Der Kämpfer entfernt den Status @UUID[Compendium.tde5e.states.Item.GE43106981779018]{Gebunden} mit sofortiger Wirkung von sich selbst.</p>"
    },
    "effects": [],
    "folder": "WI20558731743843",
    "_key": "!items!BI35238156190381"
}
