{
    "_id": "BR53213523225423",
    "name": "Brand löschen",
    "type": "action",
    "img": "systems/tde5e/assets/defaultItems/action.svg",
    "system": {
        "sources": [],
        "cid": "BRAND_LOSCHEN",
        "notes": "",
        "gmNotes": "",
        "prerequisites": {
            "combatStyle": [],
            "equipment": [],
            "quality": 1
        },
        "cost": {
            "resources": {
                "actionPoints": 2,
                "adrenaline": 0,
                "style": 0
            },
            "description": "2 AkP (1 AkP mit Wasser)"
        },
        "requirementText": "",
        "purchase": {
            "cost": [
                0
            ],
            "description": "0 Abenteuerpunkte"
        },
        "quality": {
            "limited": "",
            "disadvantaged": "",
            "advantaged": "",
            "overreached": ""
        },
        "empowerments": [],
        "isAttack": false,
        "isRanged": null,
        "flavor": "Ob mit Wasser, einer Decke oder einfach beim Herumrollen auf dem Boden -- das Löschen eines Feuers benötigt etwas Zeit. Brennende Leute investieren diese jedoch meistens sehr bereitwillig.",
        "ruleShort": "<em>Brand</em> um 1 Stufe reduzieren",
        "rule": "Der Kämpfer entfernt eine Stufe des Zustands @UUID[Compendium.tde5e.conditions.Item.BR21523817083921]{Brand} von sich selbst oder einem Verbündeten im Nahkampf. Falls eine ausreichende Menge Wasser griffbereit ist, werden die Kosten um einen Aktionspunkt reduziert.",
        "parents": []
    },
    "effects": [],
    "folder": "TA16785819642176",
    "_key": "!items!BR53213523225423"
}
