{
    "_id": "DO24874241191131",
    "name": "Doppelschuss",
    "type": "action",
    "img": "systems/tde5e/assets/defaultItems/action.svg",
    "system": {
        "sources": [],
        "cid": "DOPPELSCHUSS",
        "notes": "",
        "gmNotes": "",
        "prerequisites": {
            "combatStyle": [
                "Compendium.tde5e.combat.Item.PF12099342281178"
            ],
            "equipment": [],
            "quality": 1
        },
        "cost": {
            "resources": {
                "actionPoints": 3,
                "adrenaline": 0,
                "style": 0
            },
            "description": "3 AkP"
        },
        "requirementText": "Kampfstil <em>Pfeiltänzer</em>, FF 14 oder GE 14",
        "purchase": {
            "cost": [
                3
            ],
            "description": "3 Abenteuerpunkte"
        },
        "quality": {
            "limited": "",
            "disadvantaged": "",
            "advantaged": "",
            "overreached": ""
        },
        "empowerments": [],
        "isAttack": true,
        "isRanged": true,
        "flavor": "<p>Den Ansturm eines Bogenschützen erwartet in der Regel niemand. Und den Moment der Überraschung verwenden mutige Schützen, um gleich noch einen zweiten Treffer in der Brust des Gegners zu versenken.</p>",
        "parents": [
            "Compendium.tde5e.combat.Item.PF12099342281178"
        ],
        "ruleShort": "Nach Wechsel zu Defensive: TP und TP - 2 (selbes Ziel)",
        "rule": "<p>Das Ziel wird von zwei Pfeilen getroffen, wobei der erste die Trefferpunkte der Waffe und der zweite die Trefferpunkte reduziert um 2 anrichtet. Die Treffer gelten als separate Angriffe und müssen individuell ausgewürfelt und abgewehrt werden.</p><p>Dieses Manöver kann nur eingesetzt werden, wenn sich der Pfeiltänzer unmittelbar zuvor von der offensiven in eine defensive Position bewegt hat.</p>"
    },
    "effects": [],
    "folder": "PF40205454866827",
    "_key": "!items!DO24874241191131"
}
