{
    "_id": "DU67167253866122",
    "name": "Duell",
    "type": "action",
    "img": "systems/tde5e/assets/defaultItems/action.svg",
    "system": {
        "sources": [],
        "cid": "DUELL",
        "notes": "",
        "gmNotes": "",
        "prerequisites": {
            "combatStyle": [
                "Compendium.tde5e.combat.Item.GL24516464187121"
            ],
            "equipment": [],
            "quality": 1
        },
        "cost": {
            "resources": {
                "actionPoints": 0,
                "adrenaline": 0,
                "style": 2
            },
            "description": "2 Vergeltung"
        },
        "requirementText": "Kampfstil <em>Gladiator</em>",
        "purchase": {
            "cost": [
                2
            ],
            "description": "2 Abenteuerpunkte"
        },
        "quality": {
            "limited": "",
            "disadvantaged": "",
            "advantaged": "",
            "overreached": ""
        },
        "empowerments": [],
        "isAttack": false,
        "isRanged": null,
        "flavor": "",
        "parents": [
            "Compendium.tde5e.combat.Item.GL14877167143152"
        ],
        "ruleShort": "Nicht gebunden: Gegenseitige Bindung an Gegner",
        "rule": "<p>Die Gladiatorin und ein ausgewählter Gegner im Nahkampf erhalten den Status @UUID[Compendium.tde5e.states.Item.GE43106981779018]{Gebunden}.</p><p>Dieses Manöver kann nicht eingesetzt werden, wenn die Kämpferin bereits gebunden ist. Es ist jedoch möglich, ein bereits gebundenes Ziel herauszufordern, wodurch dessen vorherige Bindung ersetzt wird.</p>"
    },
    "effects": [],
    "folder": "GL80269429954248",
    "_key": "!items!DU67167253866122"
}
