{
    "_id": "EI13204142208931",
    "name": "Einfacher Block",
    "type": "reaction",
    "img": "systems/tde5e/assets/defaultItems/reaction.svg",
    "system": {
        "sources": [],
        "cid": "EINFACHER_BLOCK",
        "notes": "",
        "gmNotes": "",
        "prerequisites": {
            "combatStyle": [],
            "equipment": [],
            "quality": 1
        },
        "cost": {
            "resources": {
                "actionPoints": 2,
                "adrenaline": 0,
                "style": 0
            },
            "description": "2 AkP"
        },
        "requirementText": "",
        "purchase": {
            "cost": [
                0
            ],
            "description": "0 Abenteuerpunkte"
        },
        "quality": {
            "limited": "",
            "disadvantaged": "",
            "advantaged": "",
            "overreached": ""
        },
        "empowerments": [],
        "target": {
            "category": [
                "meleeAttack"
            ],
            "other": false
        },
        "flavor": "Selbst dem dümmsten Kämpfer ist klar, warum es hilfreich ist, seine eigene Waffe zwischen sich und den Gegner zu halten. Das ist noch immer nicht ganz ungefährlich, aber besser als nichts.",
        "isAttack": false,
        "isRanged": null,
        "ruleShort": "Gegnerische TP - 6",
        "rule": "Die Trefferpunkte eines gegnerischen Nahkampfangriffs werden um 6 reduziert.",
        "parents": []
    },
    "effects": [],
    "folder": "RE98582131741356",
    "_key": "!items!EI13204142208931"
}
