{
    "_id": "EN30147238301141",
    "name": "Entwinden",
    "type": "reaction",
    "img": "systems/tde5e/assets/defaultItems/reaction.svg",
    "system": {
        "sources": [
            "BOSPARANS_KATAKOMBEN"
        ],
        "cid": "ENTWINDEN",
        "notes": "",
        "gmNotes": "",
        "prerequisites": {
            "combatStyle": [
                "Compendium.tde5e.combat.Item.EI13011923221724"
            ],
            "equipment": [],
            "quality": 1
        },
        "cost": {
            "resources": {
                "actionPoints": 3,
                "adrenaline": 0,
                "style": 0
            },
            "description": "3 AkP"
        },
        "requirementText": "Kampfstil <em>Eisenfaust</em>",
        "purchase": {
            "cost": [
                5
            ],
            "description": "5 Abenteuerpunkte"
        },
        "quality": {
            "limited": "",
            "disadvantaged": "",
            "advantaged": "",
            "overreached": ""
        },
        "empowerments": [],
        "target": {
            "category": [
                "meleeAttack"
            ],
            "other": true
        },
        "flavor": "",
        "isAttack": false,
        "isRanged": false,
        "parents": [
            "Compendium.tde5e.combat.Item.EI13011923221724"
        ],
        "ruleShort": "Für Verbündeten im NK: Gegnerische TP / 2, absorbierte Hälfte - 3 gegen selbst",
        "rule": "<p>Wird ein Verbündeter in Nahkampfreichweite zum Ziel eines Angriffs, so kann dieses Manöver eingesetzt werden, um einen Teil des Schadens umzuleiten. Die Hälfte der gegnerischen Trefferpunkte wird auf die Eisenfaust umgeleitet und um 3 reduziert. Auf die verbleibende Hälfte kann der Verbündete selbst reagieren (jedoch nicht vor der Aufteilung).</p>"
    },
    "effects": [],
    "folder": "EI07223845296198",
    "_key": "!items!EN30147238301141"
}
