{
    "_id": "FO11818624639180",
    "name": "Folgeschlag",
    "type": "reaction",
    "img": "systems/tde5e/assets/defaultItems/reaction.svg",
    "system": {
        "sources": [],
        "cid": "FOLGESCHLAG",
        "notes": "",
        "gmNotes": "",
        "prerequisites": {
            "combatStyle": [
                "Compendium.tde5e.combat.Item.KL12757751982513"
            ],
            "equipment": [],
            "quality": 1
        },
        "cost": {
            "resources": {
                "actionPoints": 1,
                "adrenaline": 0,
                "style": 1
            },
            "description": "1 AkP + 1 Fokus"
        },
        "requirementText": "Kampfstil <em>Klingensturm</em>",
        "purchase": {
            "cost": [
                5
            ],
            "description": "5 Abenteuerpunkte"
        },
        "quality": {
            "limited": "",
            "disadvantaged": "",
            "advantaged": "",
            "overreached": ""
        },
        "empowerments": [],
        "target": {
            "category": [
                "meleeAttack"
            ],
            "other": false
        },
        "flavor": "",
        "isAttack": true,
        "isRanged": false,
        "parents": [
            "Compendium.tde5e.combat.Item.KL21512532168200"
        ],
        "ruleShort": "Nebenhand: TP",
        "rule": "<p>Die Diebin reagiert auf einen gegnerischen Nahkampfangriff mit einem Gegenangriff, der die Trefferpunkte der Nebenhandwaffe verursacht. Als Ziel kann nur der Angreifer gewählt werden. Das Manöver kostet eine Stufe Fokus, gilt als Nahkampfangriff, wird nach der Reaktion ausgeführt und kann entsprechend abgewehrt werden.</p><p>Der Einsatz dieses Manövers erfordert das Führen einer zweiten Waffe in der Nebenhand.</p>"
    },
    "effects": [],
    "folder": "KL25458525352008",
    "_key": "!items!FO11818624639180"
}
