{
    "name": "Vergeltung",
    "type": "condition",
    "_id": "GL14877167143152",
    "img": "systems/tde5e/assets/combatStyles/gladiator-retribution.svg",
    "system": {
        "sources": [],
        "cid": "GLADIATOR_VERGELTUNG",
        "notes": "",
        "gmNotes": "",
        "isDefault": false,
        "value": 0,
        "maxLevel": 5,
        "levelEffects": [
            "",
            "",
            "",
            "",
            ""
        ],
        "levelEffectsShort": [
            "",
            "",
            "",
            "",
            ""
        ],
        "duration": "Alle Stufen verfallen zum Ende des Kampfes.",
        "removal": "",
        "flavor": "",
        "parents": [
            "Compendium.tde5e.combat.Item.GL24516464187121"
        ],
        "rule": "<p>Der Gladiator erhält eine Stufe dieses Zustands für jeden Aktionspunkt, den er für eine Reaktion einsetzt.</p>"
    },
    "effects": [],
    "folder": "GL80269429954248",
    "_key": "!items!GL14877167143152"
}
