{
    "_id": "FL81422101862310",
    "name": "Fließende Haltung",
    "type": "combatAbility",
    "img": "systems/tde5e/assets/defaultItems/special_ability_combat.svg",
    "system": {
        "group": "armorStyleExtended",
        "purchase": {
            "cost": [
                8
            ],
            "maxTimeBuyable": 1,
            "levels": 1,
            "description": "8 Abenteuerpunkte"
        },
        "sources": [
            "BOSPARANS_KATAKOMBEN"
        ],
        "cid": "GLEITENDER_KAMPFSTIL",
        "notes": "",
        "gmNotes": "",
        "variant": {
            "level": 1,
            "categories": [],
            "input": false,
            "available": [],
            "selected": null
        },
        "combat": {
            "combatTechniques": {
                "all": true,
                "values": []
            },
            "armorGroups": [
                "fabric",
                "leather"
            ]
        },
        "requirementText": "Kleidung und Stoffrüstung oder Lederrüstung",
        "flavor": "<p>Ob zu Pferd mit Speer, im Nahkampf mit dem Säbel oder mit Bogen: Die tulamidischen Novadis sind in allen Lagen ernstzunehmende Gegner. Diese Flexibilität ist mit schwerer Rüstung unmöglich, weswegen die Reiter oft nur leicht gerüstet sind und sich auf ihre Schnelligkeit verlassen.</p>",
        "parents": [
            "Compendium.tde5e.combat.Item.KL56214131171175",
            "Compendium.tde5e.combat.Item.LE13010535199131"
        ],
        "rule": "<p>Das Manöver @UUID[Compendium.tde5e.combat.Item.WA24813715920169]{Waffenwechsel} (bzw. @UUID[Compendium.tde5e.combat.Item.WA71469266591248]{Waffenwechsel +1}) kostet einen Aktionspunkt weniger.</p>"
    },
    "effects": [],
    "folder": "LE52773500746862",
    "_key": "!items!FL81422101862310"
}
