{
    "folder": "BE50012284630909",
    "name": "Glühender Zorn",
    "type": "reaction",
    "_id": "GL91421974903392",
    "img": "systems/tde5e/assets/defaultItems/reaction.svg",
    "system": {
        "sources": [],
        "notes": "",
        "gmNotes": "",
        "flavor": "",
        "rule": "<p>Der @UUID[Compendium.tde5e.combat.Item.ZO24291419355358]{Zorn} des @UUID[Compendium.tde5e.combat.Item.BE54738246937166]{Berserkers} reduziert sich am Ende dieser Kampfrunde nicht automatisch. Falls er in der KR einen Angriff durchgeführt und durch den Wurf keine weitere Stufe erhalten hat, kann er den Wurf einmal wiederholen.</p>",
        "parents": [
            "Compendium.tde5e.combat.Item.ZO24291419355358"
        ],
        "prerequisites": {
            "combatStyle": [
                "Compendium.tde5e.combat.Item.BE54738246937166"
            ],
            "equipment": [],
            "quality": 0
        },
        "isAttack": false,
        "isRanged": null,
        "cost": {
            "resources": {
                "actionPoints": 1,
                "adrenaline": 0,
                "style": 0
            },
            "description": "1 AkP"
        },
        "purchase": {
            "cost": [
                0
            ],
            "description": "0 Abenteuerpunkte"
        },
        "quality": {},
        "empowerments": [],
        "target": {
            "other": false,
            "category": [
                "damage"
            ]
        },
        "cid": "GLUHENDER_ZORN",
        "ruleShort": "Kein Verfall von Zorn oder W3 wiederholen",
        "requirementText": "Kampfstil <em>Berserker</em>"
    },
    "effects": [],
    "_key": "!items!GL91421974903392"
}
