{
    "_id": "GO73271355721742",
    "name": "Golgaris Schwingen",
    "type": "reaction",
    "img": "systems/tde5e/assets/defaultItems/reaction.svg",
    "system": {
        "sources": [
            "BOSPARANS_KATAKOMBEN"
        ],
        "cid": "GOLGARIS_SCHWINGEN",
        "notes": "",
        "gmNotes": "",
        "prerequisites": {
            "combatStyle": [
                "Compendium.tde5e.combat.Item.SC16224161238165"
            ],
            "equipment": [],
            "quality": 1
        },
        "cost": {
            "resources": {
                "actionPoints": 1,
                "adrenaline": 0,
                "style": 0
            },
            "description": "1 AkP"
        },
        "requirementText": "Kampfstil <em>Scharfrichter</em>",
        "purchase": {
            "cost": [
                0
            ],
            "description": "0 Abenteuerpunkte"
        },
        "quality": {
            "limited": "",
            "disadvantaged": "",
            "advantaged": "",
            "overreached": ""
        },
        "empowerments": [],
        "target": {
            "category": [
                "movement"
            ],
            "other": false
        },
        "flavor": "",
        "isAttack": true,
        "isRanged": false,
        "parents": [
            "Compendium.tde5e.combat.Item.SC16224161238165"
        ],
        "ruleShort": "Gegner verlässt NK: Angriff abbrechen, TP - 2 + (gewirkte AkP x 2)",
        "rule": "<p>Wenn ein Gegner die Reichweite eines derzeit aufladenden Angriffs verlässt, kann die Boronpriesterin ihren Angriff abbrechen und stattdessen sofort Schaden verursachen. Die Trefferpunkte ihrer Waffe werden hierbei um 2 reduziert und um die doppelte Anzahl der bereits gewirkten Aktionspunkte erhöht. Das Ergebnis wird am Gegner angerichtet, bevor die Bewegung stattfindet.</p>"
    },
    "effects": [],
    "folder": "SC89810497808876",
    "_key": "!items!GO73271355721742"
}
