{
    "_id": "HA46223216731211",
    "name": "Härteprüfung",
    "type": "combatAbility",
    "img": "systems/tde5e/assets/defaultItems/special_ability_combat.svg",
    "system": {
        "group": "armorStyleExtended",
        "purchase": {
            "cost": [
                10
            ],
            "maxTimeBuyable": 1,
            "levels": 1,
            "description": "10 Abenteuerpunkte"
        },
        "sources": [
            "BOSPARANS_KATAKOMBEN"
        ],
        "cid": "HARTEPRUFUNG",
        "notes": "",
        "gmNotes": "",
        "variant": {
            "level": 1,
            "categories": [],
            "input": false,
            "available": [],
            "selected": null
        },
        "combat": {
            "combatTechniques": {
                "all": true,
                "values": []
            },
            "armorGroups": [
                "chainOrScale"
            ]
        },
        "requirementText": "Ketten- und Schuppenrüstung",
        "flavor": "<p>Findige Söldner haben festgestellt, dass die Zerstörung des Gegners wesentlich leichter zu bewerkstelligen ist als die Zerstörung einer Kettenrüstung. Die Nutzung einer solchen konzentriert sich deswegen darauf, die eigenen Kettenringe in einem möglichst günstigen Winkel zwischen sich und den Gegner zu bringen.</p>",
        "parents": [
            "Compendium.tde5e.combat.Item.KE19417113316213"
        ],
        "rule": "<p>Angriffe, die Teile des Rüstschutzes ignorieren, ziehen nur die Hälfte des angegebenen Wertes ab. Beim vollständigen Umgehen des Rüstschutzes würde also immernoch der halbe RS gelten, eine Halbierung wird stattdessem zu einem Viertel, etc.</p>"
    },
    "effects": [],
    "folder": "KE59922787836312",
    "_key": "!items!HA46223216731211"
}
