{
    "_id": "HE18922020971513",
    "name": "Hechtsprung",
    "type": "reaction",
    "img": "systems/tde5e/assets/defaultItems/reaction.svg",
    "system": {
        "sources": [],
        "cid": "HECHTSPRUNG",
        "notes": "",
        "gmNotes": "",
        "prerequisites": {
            "combatStyle": [],
            "equipment": [],
            "quality": 3
        },
        "cost": {
            "resources": {
                "actionPoints": 2,
                "adrenaline": 0,
                "style": 0
            },
            "description": "2 AkP"
        },
        "requirementText": "",
        "purchase": {
            "cost": [
                0
            ],
            "description": "0 Abenteuerpunkte"
        },
        "quality": {
            "limited": "",
            "disadvantaged": "",
            "advantaged": "Der Kämpfer kann bis zu 5 Schritt weit springen (statt 3).",
            "overreached": "Der Kämpfer verliert in der nächsten Kampfrunde nur einen Aktionspunkt (statt 2)."
        },
        "empowerments": [],
        "target": {
            "category": [
                "meleeAttack",
                "projectile",
                "zone"
            ],
            "other": false
        },
        "flavor": "<p>Wenig elegant, aber effektiv ist der Sprung aus der Gefahrenzone. Empfehlenswert ist, in Richtung der Verbündeten zu springen, denn neben seinem Gegner zu liegen hat meist unangenehme Konsequenzen.</p>",
        "isAttack": false,
        "isRanged": null,
        "ruleShort": "Volle Abwehr, Status <em>Liegend</em>, AkP - 2 für nächste KR",
        "rule": "<p>Mit dem Hechtsprung kann der Kämpfer einer Attacke vollständig entgehen, allerdings erhält er den Status @UUID[Compendium.tde5e.states.Item.LI27509315183188]{Liegend} und verliert in der nächsten Kampfrunde 2 Aktionspunkte. Er kann dabei bis zu 3 Schritt in eine von ihm gewählte Richtung springen. Das Manöver kann nicht eingesetzt werden, wenn der Kämpfer sich in einer nachteilhaften Position befindet.</p>",
        "parents": []
    },
    "effects": [],
    "folder": "RE98582131741356",
    "_key": "!items!HE18922020971513"
}
