{
    "folder": "SC70842192196242",
    "name": "Hüftschuss",
    "type": "action",
    "system": {
        "cid": "HUFTSCHUSS",
        "sources": [],
        "notes": "",
        "gmNotes": "",
        "flavor": "",
        "rule": "<p>Setzt der Scharfschütze diese Aktion unmittelbar vor einem Angriff ein, erhält dieser sofort 3 Stufen @UUID[Compendium.tde5e.combat.Item.PR34795377105932]{Präzision}, ohne dafür weitere Aktionspunkte auszugeben. Dafür erhöhen sich die Kosten des nächsten @UUID[Compendium.tde5e.combat.Item.NA25271142185352]{Nachladen} oder @UUID[Compendium.tde5e.combat.Item.WA24813715920169]{Waffenwechsel} um 3 Aktionspunkte.</p>",
        "parents": [
            "Compendium.tde5e.combat.Item.SC63195258568305"
        ],
        "prerequisites": {
            "combatStyle": [
                "Compendium.tde5e.combat.Item.SC63195258568305"
            ],
            "equipment": [],
            "quality": 1
        },
        "isAttack": false,
        "isRanged": true,
        "cost": {
            "resources": {
                "actionPoints": 0,
                "adrenaline": 5,
                "style": 0
            },
            "description": "5 Adr"
        },
        "purchase": {
            "cost": [
                3
            ],
            "description": "3 Abenteuerpunkte"
        },
        "quality": {},
        "empowerments": [],
        "ruleShort": "Präzision +3, Nachladezeit +3 AkP",
        "requirementText": "Kampfstil <em>Scharfschütze</em>"
    },
    "_id": "HU81619121515445",
    "img": "systems/tde5e/assets/defaultItems/action.svg",
    "effects": [],
    "_key": "!items!HU81619121515445"
}
