{
    "folder": "HE75385084904909",
    "name": "Anspannung",
    "type": "condition",
    "_id": "AN24797142749917",
    "img": "systems/tde5e/assets/combatStyles/hydra-tension.svg",
    "system": {
        "sources": [],
        "notes": "",
        "gmNotes": "",
        "flavor": "",
        "parents": [
            "Compendium.tde5e.combat.Item.KO06567137440964"
        ],
        "isDefault": false,
        "value": 0,
        "maxLevel": 14,
        "levelEffects": [
            "",
            "",
            "",
            "",
            "",
            "",
            "",
            "",
            "",
            "",
            "",
            "",
            "",
            ""
        ],
        "levelEffectsShort": [
            "",
            "",
            "",
            "",
            "",
            "",
            "",
            "",
            "",
            "",
            "",
            "",
            "",
            ""
        ],
        "duration": "Alle Stufen verfallen zum Ende des Kampfes.",
        "removal": "",
        "cid": "HYDRA_ANSPANNUNG",
        "rule": "<p>Die Hydra erhält 2 Stufen dieses Zustands für jeden Aktionspunkt, den sie in der @UUID[Compendium.tde5e.combat.Item.VI00892853083284]{Hydra: Viper-Haltung} einsetzt.</p>"
    },
    "effects": [],
    "_key": "!items!AN24797142749917"
}
