{
    "folder": "HE75385084904909",
    "name": "Territorium",
    "type": "reaction",
    "_id": "TE38402414327541",
    "img": "systems/tde5e/assets/defaultItems/reaction.svg",
    "system": {
        "sources": [],
        "notes": "",
        "gmNotes": "",
        "flavor": "",
        "prerequisites": {
            "combatStyle": [
                "Compendium.tde5e.combat.Item.KO06567137440964"
            ],
            "equipment": [],
            "quality": 1
        },
        "isAttack": true,
        "isRanged": null,
        "cost": {
            "resources": {
                "actionPoints": 4,
                "adrenaline": 0,
                "style": 6
            },
            "description": "4 AkP + 6 Anspannung"
        },
        "purchase": {
            "cost": [
                3
            ],
            "description": "3 Abenteuerpunkte"
        },
        "quality": {
            "limited": "Die Nahkampfreichweite wird nach der Reaktion um 1 Schritt reduziert (statt um 2 erhöht).",
            "disadvantaged": "Die Nahkampfreichweite wird nach der Reaktion nur um 1 Schritt erhöht (statt 2).",
            "advantaged": "Die Nahkampfreichweite erhöht sich nach der Reaktion um 1 Schritt zusätzlich.",
            "overreached": "Die Nahkampfreichweite erhöht sich um 4 Schritt (statt 2). Dies gilt auch für die Reichweite der Reaktion."
        },
        "empowerments": [],
        "target": {
            "other": false,
            "category": [
                "zone"
            ]
        },
        "cid": "HYDRA_TERRITORIUM",
        "requirementText": "Kampfstil <em>Köpfe der Hydra</em>",
        "parents": [
            "Compendium.tde5e.combat.Item.KO23743042464517"
        ],
        "ruleShort": "Kobra: NK-Reichweite +2; Zentrum der Zone verschieben",
        "rule": "<p>Die Nahkampfreichweite ist für diese Reaktion um 2 Schritt erhöht (zusätzlich zur @UUID[Compendium.tde5e.combat.Item.KO23743042464517]{Hydra: Kobra-Haltung}, d.h. üblicherweise auf 5 Schritt). Die neue Reichweite gilt bis zum Ende der Kampfrunde.</p><p>Die Hydra kann das Zentrum eines Effekts mit der Zielkategorie <em>Zone</em> verschieben. Sowohl das ursprünglich anvisierte als auch das neue Zentrum müssen sich innerhalb der eigenen Nahkampfreichweite befinden.</p><p>Dieses Manöver kann nur in der @UUID[Compendium.tde5e.combat.Item.KO23743042464517]{Hydra: Kobra-Haltung} eingesetzt werden.</p>"
    },
    "effects": [],
    "_key": "!items!TE38402414327541"
}
