{
    "folder": "HE75385084904909",
    "name": "Viper-Haltung",
    "type": "state",
    "_id": "VI00892853083284",
    "img": "systems/tde5e/assets/combatStyles/hydra-viper.svg",
    "system": {
        "sources": [],
        "notes": "",
        "gmNotes": "",
        "flavor": "",
        "parents": [
            "Compendium.tde5e.combat.Item.KO06567137440964"
        ],
        "isDefault": false,
        "active": false,
        "cid": "HYDRA_VIPER_HALTUNG",
        "rule": "<p>Für jeden in dieser Haltung eingesetzten Aktionspunkt erhält die Hydra 2 Stufen @UUID[Compendium.tde5e.combat.Item.AN24797142749917]{Hydra: Anspannung}. Es kann immer nur eine Haltung aktiv sein.</p>"
    },
    "effects": [],
    "_key": "!items!VI00892853083284"
}
