{
    "folder": "HE75385084904909",
    "name": "Rundumschlag",
    "type": "action",
    "_id": "RU61873180908804",
    "img": "systems/tde5e/assets/defaultItems/action.svg",
    "system": {
        "sources": [],
        "notes": "",
        "gmNotes": "",
        "flavor": "",
        "prerequisites": {
            "combatStyle": [
                "Compendium.tde5e.combat.Item.KO06567137440964"
            ],
            "equipment": [],
            "quality": 1
        },
        "isAttack": true,
        "isRanged": false,
        "cost": {
            "resources": {
                "actionPoints": 3,
                "adrenaline": 0,
                "style": 4
            },
            "description": "3 AkP + 4 Anspannung"
        },
        "purchase": {
            "cost": [
                5
            ],
            "description": "5 Abenteuerpunkte"
        },
        "quality": {},
        "empowerments": [
            "Compendium.tde5e.combat.Item.RU90171725297658"
        ],
        "requirementText": "Kampfstil <em>Köpfe der Hydra</em>",
        "cid": "HYDRA_RUNDUMSCHLAG",
        "parents": [
            "Compendium.tde5e.combat.Item.BO50398666923388"
        ],
        "ruleShort": "TP auf 2 Ziele",
        "rule": "<p>Der Angriff trifft 2 unterschiedliche Ziele im Nahkampf und verursacht jeweils die Trefferpunkte der Waffe. Ein Ziel kann nicht mehrfach getroffen werden. Die Treffer gelten als separate Angriffe und können von den Zielen individuell abgewehrt werden.</p><p>Dieses Manöver kann nur in der @UUID[Compendium.tde5e.combat.Item.BO50398666923388]{Hydra: Boa-Haltung} eingesetzt werden.</p>"
    },
    "effects": [],
    "_key": "!items!RU61873180908804"
}
