{
    "folder": "HE75385084904909",
    "name": "Serpentinenschnitt",
    "type": "reaction",
    "_id": "SE53498600602323",
    "img": "systems/tde5e/assets/defaultItems/reaction.svg",
    "system": {
        "sources": [],
        "notes": "",
        "gmNotes": "",
        "flavor": "",
        "prerequisites": {
            "combatStyle": [
                "Compendium.tde5e.combat.Item.KO06567137440964"
            ],
            "equipment": [],
            "quality": 1
        },
        "isAttack": true,
        "isRanged": null,
        "cost": {
            "resources": {
                "actionPoints": 4,
                "adrenaline": 0,
                "style": 6
            },
            "description": "4 AkP + 6 Anspannung"
        },
        "purchase": {
            "cost": [
                5
            ],
            "description": "5 Abenteuerpunkte"
        },
        "quality": {
            "limited": "Der Treffer richtet am Gegner 1 TP weniger und am Verbündeten 1 TP zusätzlich an.",
            "disadvantaged": "Der Treffer richtet am Gegner 1 TP weniger an.",
            "advantaged": "Der Treffer richtet am Verbündeten 1 TP weniger an.",
            "overreached": "Der Treffer richtet am Verbündeten 1 TP weniger und am Gegner 1 TP zusätzlich an."
        },
        "empowerments": [],
        "target": {
            "other": false,
            "category": [
                "projectile"
            ]
        },
        "cid": "HYDRA_SERPENTINENSCHNITT",
        "requirementText": "Kampfstil <em>Köpfe der Hydra</em>",
        "parents": [
            "Compendium.tde5e.combat.Item.KO23743042464517"
        ],
        "ruleShort": "Kobra: NK-Reichweite +2; Gegnerische TP / 2 gegen Verbündeten im NK oder selbst, gegnerische TP / 2 auf anderen Kämpfer im NK",
        "rule": "<p>Die Nahkampfreichweite ist für diese Reaktion um 2 Schritt erhöht (zusätzlich zur @UUID[Compendium.tde5e.combat.Item.KO23743042464517]{Hydra: Kobra-Haltung}, d.h. üblicherweise auf 5 Schritt). Die neue Reichweite gilt bis zum Ende der Kampfrunde.</p><p>Die Hydra spaltet ein Projektil, dass sie selbst oder einen Verbündeten innerhalb der Nahkampfreichweite anvisiert. Die Hälfte der Trefferpunkte werden auf einen beliebigen Verbündeten im Nahkampf (oder die Hydra selbst) umgeleitet. Die verbleibende Hälfte trifft stattdessen den nächstgelegenen Gegner im Nahkampf. Dieser Treffer zählt nicht als Angriff und erlaubt keine Reaktionen. Falls kein Gegner in Reichweite ist, verfällt der Treffer.</p><p>Dieses Manöver kann nur in der @UUID[Compendium.tde5e.combat.Item.KO23743042464517]{Hydra: Kobra-Haltung} eingesetzt werden.</p>"
    },
    "effects": [],
    "_key": "!items!SE53498600602323"
}
