{
    "folder": "HE75385084904909",
    "name": "Windender Ausfall",
    "type": "action",
    "_id": "WI88651144689694",
    "img": "systems/tde5e/assets/defaultItems/action.svg",
    "system": {
        "sources": [],
        "notes": "",
        "gmNotes": "",
        "flavor": "",
        "parents": [
            "Compendium.tde5e.combat.Item.KO23743042464517"
        ],
        "prerequisites": {
            "combatStyle": [
                "Compendium.tde5e.combat.Item.KO06567137440964"
            ],
            "equipment": [],
            "quality": 1
        },
        "isAttack": true,
        "isRanged": false,
        "cost": {
            "resources": {
                "actionPoints": 2,
                "adrenaline": 0,
                "style": 0
            },
            "description": "2 AkP + alle Anspannung"
        },
        "purchase": {
            "cost": [
                0
            ],
            "description": "0 Abenteuerpunkte"
        },
        "quality": {},
        "empowerments": [],
        "cid": "HYDRA_WINDENDER_AUSFALL",
        "requirementText": "Kampfstil <em>Köpfe der Hydra</em>",
        "ruleShort": "Kobra: TP + (1 pro 2 Anspannung) oder 1 Schritt Bewegung pro Anspannung",
        "rule": "<p>Die Kobra verliert alle @UUID[Compendium.tde5e.combat.Item.AN24797142749917]{Hydra: Anspannung} und richtet die Trefferpunkte ihrer Waffe an. Für jeweils 2 verlorene Stufen kann ein Trefferpunkt hinzugefügt werden, wobei nicht alle Stufen verbraucht werden müssen. Für jede verbleibende Stufe wird ein Schritt Bewegung ausgeführt, was sowohl vor als auch nach dem Treffer möglich ist.</p><p>Dieses Manöver kann nur in der @UUID[Compendium.tde5e.combat.Item.KO23743042464517]{Hydra: Kobra-Haltung} eingesetzt werden.</p>"
    },
    "effects": [],
    "_key": "!items!WI88651144689694"
}
