{
    "folder": "HE75385084904909",
    "name": "Tarnung",
    "type": "combatAbility",
    "_id": "TA42679818288853",
    "img": "systems/tde5e/assets/defaultItems/special_ability_combat.svg",
    "system": {
        "sources": [],
        "notes": "",
        "gmNotes": "",
        "flavor": "",
        "parents": [
            "Compendium.tde5e.combat.Item.VI00892853083284"
        ],
        "group": "passive",
        "variant": {
            "level": 1,
            "selected": null,
            "available": null,
            "input": false,
            "categories": null
        },
        "purchase": {
            "maxTimeBuyable": null,
            "levels": 1,
            "cost": [
                10
            ],
            "description": "10 Abenteuerpunkte"
        },
        "combat": {
            "combatTechniques": {
                "all": false,
                "values": [
                    "Compendium.tde5e.skills.Item.ST51512085844735"
                ]
            },
            "armorGroups": []
        },
        "requirementText": "Kampfstil <em>Köpfe der Hydra</em>",
        "cid": "HYDRA_TARNUNG",
        "rule": "<p>Befindet sich die Hydra in der @UUID[Compendium.tde5e.combat.Item.VI00892853083284]{Hydra: Viper-Haltung}, wird die Qualität von gegnerischen Manövern abhängig von der eigenen @UUID[Compendium.tde5e.combat.Item.AN24797142749917]{Hydra: Anspannung} reduziert. Für keine oder 1 Stufe wird die Qualität um 2 Punkte reduziert, für 2 oder 3 Stufen um einen Punkt. Falls das Manöver nicht die Hydra als Ziel hat oder diese mehr als 3 Stufen Anspannung hat, wird es nicht modifiziert.</p>"
    },
    "effects": [],
    "_key": "!items!TA42679818288853"
}
