{
    "_id": "IN17862753910512",
    "name": "Intervention",
    "type": "action",
    "img": "systems/tde5e/assets/defaultItems/combat_application_tactical.svg",
    "system": {
        "sources": [],
        "cid": "INTERVENTION",
        "notes": "",
        "gmNotes": "",
        "prerequisites": {
            "combatStyle": [
                "Compendium.tde5e.combat.Item.BE10024248199514"
            ],
            "equipment": [],
            "quality": 1
        },
        "cost": {
            "resources": {
                "actionPoints": 1,
                "adrenaline": 0,
                "style": 4
            },
            "description": "1 AkP + 4 KaP"
        },
        "requirementText": "Kampfstil <em>Bellum Iustum</em>",
        "purchase": {
            "cost": [
                5
            ],
            "description": "5 Abenteuerpunkte"
        },
        "quality": {
            "limited": "",
            "disadvantaged": "",
            "advantaged": "",
            "overreached": ""
        },
        "empowerments": [],
        "isAttack": false,
        "isRanged": null,
        "flavor": "<p>Durch die Intervation ihrer Göttin kann die Geweihte ihre götterfürchtigen Freunde aus jeder Notsituation befreien. Mit ganzer Kraft springt sie ihnen zur Hilfe und stößt mit einer karmalen Schockwelle die Gegner zurück. Das Manöver kommt jedoch nicht ohne Einsatz: Meist befindet sich die Retterin im Anschluss nämlich selbst in der gefährlichen Position.</p>",
        "parents": [
            "Compendium.tde5e.combat.Item.BE10024248199514"
        ],
        "ruleShort": "Positionstausch mit Verbündetem in 8 Schritt, Übertragung der Bindungen",
        "rule": "<p>Die Geweihte springt zu einem Verbündeten in bis zu 8 Schritt Entfernung und stößt alle Gegner im Nahkampf zurück. Der Verbündete befindet sich damit automatisch außerhalb der Nahkampfreichweite, stattdessen nimmt die Geweihte seinen Platz im Nahkampf ein. Alle @UUID[Compendium.tde5e.states.Item.GE43106981779018]{Bindungen} von oder auf den Verbündeten werden auf die Geweihte übertragen.</p>"
    },
    "effects": [],
    "folder": "BE06785369040561",
    "_key": "!items!IN17862753910512"
}
