{
    "name": "Fokus",
    "type": "condition",
    "_id": "KL21512532168200",
    "img": "systems/tde5e/assets/combatStyles/bladestorm-focus.svg",
    "system": {
        "sources": [],
        "cid": "KLINGENSTURM_FOKUS",
        "notes": "",
        "gmNotes": "",
        "isDefault": false,
        "value": 0,
        "maxLevel": 4,
        "levelEffects": [
            "",
            "",
            "",
            ""
        ],
        "levelEffectsShort": [
            "",
            "",
            "",
            ""
        ],
        "duration": "Alle Stufen verfallen, sobald ein anderes Ziel angegriffen wird oder zum Ende des Kampfes.",
        "removal": "",
        "flavor": "",
        "parents": [
            "Compendium.tde5e.combat.Item.KL12757751982513"
        ],
        "rule": "<p>Der Klingensturm erhält immer dann eine Stufe dieses Zustands, wenn er mit einem Angriff dasselbe Ziel wie mit dem zuletzt durchgeführten Angriff anvisiert.</p>"
    },
    "effects": [],
    "folder": "KL25458525352008",
    "_key": "!items!KL21512532168200"
}
