{
    "name": "Langsam",
    "type": "state",
    "_id": "KN17659203176152",
    "img": "systems/tde5e/assets/combatStyles/bonebreaker-slow.svg",
    "system": {
        "sources": [],
        "cid": "KNOCHENBRECHER_LANGSAM",
        "notes": "",
        "gmNotes": "",
        "isDefault": false,
        "active": false,
        "flavor": "",
        "parents": [
            "Compendium.tde5e.combat.Item.KN18912921362321"
        ],
        "rule": "<p>Die Geschwindigkeit der langsamen Person ist um 4 reduziert. Dies wird vor allen anderem Modifikatoren verrechnet (z.B. @UUID[Compendium.tde5e.conditions.Item.PA39138278624750]{Paralyse}).</p>"
    },
    "effects": [],
    "folder": "KN86079603001614",
    "_key": "!items!KN17659203176152"
}
