{
    "_id": "KO22813754171752",
    "name": "Kopftreffer",
    "type": "action",
    "img": "systems/tde5e/assets/defaultItems/action.svg",
    "system": {
        "sources": [
            "BOSPARANS_KATAKOMBEN"
        ],
        "cid": "KOPFTREFFER",
        "notes": "",
        "gmNotes": "",
        "prerequisites": {
            "combatStyle": [
                "Compendium.tde5e.combat.Item.KN18912921362321"
            ],
            "equipment": [],
            "quality": 1
        },
        "cost": {
            "resources": {
                "actionPoints": 3,
                "adrenaline": 0,
                "style": 0
            },
            "description": "3 AkP"
        },
        "requirementText": "Kampfstil <em>Knochenbrecher</em>",
        "purchase": {
            "cost": [
                5
            ],
            "description": "5 Abenteuerpunkte"
        },
        "quality": {
            "limited": "Die GS des Ziels ist bis zum Ende der nächsten Kampfrunde um 2 erhöht.",
            "disadvantaged": "Die GS des Ziels ist bis zum Ende der Kampfrunde um 2 erhöht.",
            "advantaged": "Die GS des Ziels ist bis zum Ende der Kampfrunde zusätzlich um 1 reduziert.",
            "overreached": "Die GS des Ziels ist bis zum Ende der Kampfrunde zusätzlich um 2 reduziert."
        },
        "empowerments": [
            "Compendium.tde5e.combat.Item.KO22654141249210"
        ],
        "isAttack": true,
        "isRanged": false,
        "flavor": "",
        "parents": [
            "Compendium.tde5e.combat.Item.KN18912921362321"
        ],
        "ruleShort": "1 Stufe Paralyse",
        "rule": "<p>Dieser Angriff richtet keine Trefferpunkte, aber eine Stufe @UUID[Compendium.tde5e.conditions.Item.PA39138278624750]{Paralyse} an.</p><p>Zur Verteidigung können nur Reaktionen verwendet werden, welche immer den gesamten Schaden verhindern (z.B. @UUID[Compendium.tde5e.combat.Item.HE18922020971513]{Hechtsprung}).</p>"
    },
    "effects": [],
    "folder": "KN86079603001614",
    "_key": "!items!KO22813754171752"
}
