{
    "_id": "LU13119149288712",
    "name": "Lungenpresser",
    "type": "combatAbility",
    "img": "systems/tde5e/assets/defaultItems/special_ability_combat.svg",
    "system": {
        "group": "passive",
        "purchase": {
            "cost": [
                8
            ],
            "maxTimeBuyable": 1,
            "levels": 1,
            "description": "8 Abenteuerpunkte"
        },
        "sources": [
            "BOSPARANS_KATAKOMBEN"
        ],
        "cid": "LUNGENPRESSER",
        "notes": "",
        "gmNotes": "",
        "variant": {
            "level": 1,
            "categories": [],
            "input": false,
            "available": [],
            "selected": null
        },
        "combat": {
            "combatTechniques": {
                "all": true,
                "values": []
            },
            "armorGroups": []
        },
        "requirementText": "Kampfstil <em>Knochenbrecher</em>",
        "flavor": "",
        "parents": [
            "Compendium.tde5e.combat.Item.KN18912921362321"
        ],
        "rule": "<p>Wenn ein Gegner während des Kampfes eine Probe wirft, um einen vom Knochenbrecher angerichteten Zustand oder Statuseffekt zu entfernen oder zu ignorieren, dann ist diese Probe um 2 erschwert (zusätzlich zu anderen Modifikatoren).</p><p>Die Erschwerung wird nur angewendet, wenn der Effekt angerichtet wurde, während sich der Kämpfer im @UUID[Compendium.tde5e.combat.Item.KN18912921362321]{Knochenbrecher}-Stil befunden hat.</p>"
    },
    "effects": [],
    "folder": "KN86079603001614",
    "_key": "!items!LU13119149288712"
}
