{
    "_id": "PA34701102252224",
    "name": "Passierschlag",
    "type": "reaction",
    "img": "systems/tde5e/assets/defaultItems/reaction.svg",
    "system": {
        "sources": [],
        "cid": "PASSIERSCHLAG",
        "notes": "",
        "gmNotes": "",
        "prerequisites": {
            "combatStyle": [],
            "equipment": [],
            "quality": 1
        },
        "cost": {
            "resources": {
                "actionPoints": 1,
                "adrenaline": 0,
                "style": 0
            },
            "description": "1 AkP"
        },
        "requirementText": "",
        "purchase": {
            "cost": [
                0
            ],
            "description": "0 Abenteuerpunkte"
        },
        "quality": {
            "limited": "",
            "disadvantaged": "",
            "advantaged": "",
            "overreached": ""
        },
        "empowerments": [],
        "target": {
            "category": [
                "movement"
            ],
            "other": false
        },
        "flavor": "",
        "isAttack": true,
        "isRanged": false,
        "ruleShort": "Gelegenheit: TP - 1",
        "rule": "<p>Der Kämpfer schlägt nach einem Gegner, der sich aus einer unvorteilhaften Position befreien will. Er richtet damit die Trefferpunkte seiner Waffe reduziert um 1 an.</p><p>Dieses Manöver kann nur eingesetzt werden, wenn der Kämpfer durch besondere Umstände eine entsprechende Gelegenheit erhalten hat (z.B. beim @UUID[Compendium.tde5e.combat.Item.AU26791931731443]{Aufstehen/Aufhelfen}).</p>",
        "parents": []
    },
    "effects": [],
    "folder": "RE98582131741356",
    "_key": "!items!PA34701102252224"
}
