{
    "folder": "SC70842192196242",
    "name": "Rüstung brechen",
    "type": "action",
    "system": {
        "cid": "SCHARFSCHUTZE_RUSTUNG_BRECHEN",
        "sources": [],
        "notes": "",
        "gmNotes": "",
        "flavor": "",
        "rule": "<p><span style=\"font-family:Signika, sans-serif\">Diese Aktion kann während eines präzisen Angriffs eingesetzt werden. Beim Treffer wird die Rüstung des Ziels vor der Berechnung des Schadens um 2 reduziert. Dieser Effekt hält an, bis das Ziel einen Aktionspunkt zum Entfernen des Projektils einsetzt.</span></p>",
        "parents": [
            "Compendium.tde5e.combat.Item.PR34795377105932"
        ],
        "prerequisites": {
            "combatStyle": [
                "Compendium.tde5e.combat.Item.SC63195258568305"
            ],
            "equipment": [],
            "quality": 1
        },
        "isAttack": false,
        "isRanged": true,
        "cost": {
            "resources": {
                "actionPoints": 0,
                "adrenaline": 0,
                "style": 2
            },
            "description": "2 Präzision"
        },
        "purchase": {
            "cost": [
                5
            ],
            "description": "5 Abenteuerpunkte"
        },
        "quality": {},
        "empowerments": [],
        "ruleShort": "Gegnerische Rüstung -2 bis Einsatz von 1 AkP",
        "requirementText": "Kampfstil <em>Scharfschütze</em>"
    },
    "_id": "RU31176897125818",
    "img": "systems/tde5e/assets/defaultItems/action.svg",
    "effects": [],
    "_key": "!items!RU31176897125818"
}
