{
    "_id": "SC22311720104182",
    "name": "Schildramme",
    "type": "action",
    "img": "systems/tde5e/assets/defaultItems/action.svg",
    "system": {
        "sources": [],
        "cid": "SCHILDRAMME",
        "notes": "",
        "gmNotes": "",
        "prerequisites": {
            "combatStyle": [
                "Compendium.tde5e.combat.Item.GL24516464187121"
            ],
            "equipment": [],
            "quality": 1
        },
        "cost": {
            "resources": {
                "actionPoints": 4,
                "adrenaline": 0,
                "style": 5
            },
            "description": "4 AkP + 5 Vergeltung"
        },
        "requirementText": "Kampfstil <em>Gladiator</em>",
        "purchase": {
            "cost": [
                8
            ],
            "description": "8 Abenteuerpunkte"
        },
        "quality": {
            "limited": "",
            "disadvantaged": "",
            "advantaged": "",
            "overreached": ""
        },
        "empowerments": [],
        "isAttack": true,
        "isRanged": false,
        "flavor": "",
        "parents": [
            "Compendium.tde5e.combat.Item.GL14877167143152"
        ],
        "ruleShort": "2 Schritt Bewegung pro VE (min. 2, max. 5), Schild-TP, Waffen-TP, 2 Schritt Rückstoß pro ungenutzter VE",
        "rule": "<p>Mit diesem Manöver kann sich die Gladiatorin zunächst um bis zu 10 Schritt auf das Ziel zubewegen. Dabei wird pro 2 Schritt Bewegung eine Stufe der eingesetzten Vergeltung verbraucht. Das Ziel muss mindestens 4 Schritt (2 Stufen) entfernt sein, um genügend Anlauf zu nehmen.</p><p>Im Nahkampf werden dann die Trefferpunkte des Schildes und die Trefferpunkte der Haupthandwaffe angerichtet. Die Treffer gelten als separate Angriffe und erlauben den Einsatz von unabhängigen Reaktionen.</p><p>Nach den Angriffen kann das Ziel für jede nicht verbrauchte Stufe Vergeltung (maximal 3) um 2 Schritt nach hinten geworfen werden. Dieser Stoß ist optional, allerdings kostet das Manöver immer 5 Stufen Vergeltung (auch wenn nicht alle Stufen genutzt wurden).</p><p>Der Einsatz dieses Manövers erfordert das Führen eines Schildes in der Nebenhand.</p>"
    },
    "effects": [],
    "folder": "GL80269429954248",
    "_key": "!items!SC22311720104182"
}
