{
    "folder": "KE14599897762984",
    "name": "Schmerzvolle Trennung",
    "type": "action",
    "system": {
        "cid": "SCHMERZVOLLE_TRENNUNG",
        "sources": [],
        "notes": "",
        "gmNotes": "",
        "flavor": "",
        "rule": "<p>Ein @UUID[Compendium.tde5e.combat.Item.GE95016443060873]{gefangenes} Ziel erleidet die Trefferpunkte der Waffe und wird um bis zu 4 Schritt in eine vom Kettenbinder gewählte Richtung gestoßen. Wenn es dabei auf ein Objekt trifft, erleidet das Ziel Schadenspunkte in Höhe der gestoßenen Distanz x2. Handelt es sich beim Hindernis um einen gegnerischen Kämpfer, erleidet stattdessen dieser den zusätzlichen Schaden.</p>",
        "parents": [
            "Compendium.tde5e.combat.Item.GE95016443060873"
        ],
        "prerequisites": {
            "combatStyle": [
                "Compendium.tde5e.combat.Item.KE83534046051131"
            ],
            "equipment": [],
            "quality": 1
        },
        "isAttack": true,
        "isRanged": false,
        "cost": {
            "resources": {
                "actionPoints": 4,
                "adrenaline": 0,
                "style": 1
            },
            "description": "4 AkP + Gefangen"
        },
        "purchase": {
            "cost": [
                0
            ],
            "description": "0 Abenteuerpunkte"
        },
        "quality": {},
        "empowerments": [],
        "ruleShort": "Gefangen: TP, Bewegung des Gegners um 4 Schritt, Distanz x 2 SP bei Kollision (am Gegner, falls Objekt, sonst am Hindernis)",
        "requirementText": "Kampfstil <em>Kettenbinder</em>"
    },
    "_id": "SC12714080164843",
    "img": "systems/tde5e/assets/defaultItems/action.svg",
    "effects": [],
    "_key": "!items!SC12714080164843"
}
