{
    "_id": "SC12111919723587",
    "name": "Schwitzkasten",
    "type": "action",
    "img": "systems/tde5e/assets/defaultItems/action.svg",
    "system": {
        "sources": [
            "BOSPARANS_KATAKOMBEN"
        ],
        "cid": "SCHWITZKASTEN",
        "notes": "",
        "gmNotes": "",
        "prerequisites": {
            "combatStyle": [
                "Compendium.tde5e.combat.Item.EI13011923221724"
            ],
            "equipment": [],
            "quality": 1
        },
        "cost": {
            "resources": {
                "actionPoints": 2,
                "adrenaline": 0,
                "style": 1
            },
            "description": "2 AkP + Konter"
        },
        "requirementText": "Kampfstil <em>Eisenfaust</em>",
        "purchase": {
            "cost": [
                3
            ],
            "description": "3 Abenteuerpunkte"
        },
        "quality": {
            "limited": "Passierschläge gegen den Angreifer richten einen TP zusätzlich an.",
            "disadvantaged": "Die GS der Bewegung ist um 2 Schritt reduziert.",
            "advantaged": "Die GS der Bewegung ist um 2 Schritt erhöht.",
            "overreached": "Passierschläge gegen das Ziel richten einen TP zusätzlich an."
        },
        "empowerments": [],
        "isAttack": true,
        "isRanged": false,
        "flavor": "",
        "parents": [
            "Compendium.tde5e.combat.Item.EI20062226102701"
        ],
        "ruleShort": "GS Schritt Bewegung mit Gegner im NK (Reaktionen gegen beide)",
        "rule": "<p>Der Ringkämpfer kann sich selbst und einen Gegner im Nahkampf um seine Geschwindigkeit in Schritt zur selben Position bewegen. Reaktionen auf diese Bewegung können sowohl von der eigenen als auch von der gegnerischen Gruppe durchgeführt werden, treffen aber immer beide Beteiligten (z.B. verursacht @UUID[Compendium.tde5e.combat.Item.PA34701102252224]{Passierschlag} dieselben Trefferpunkte am Kämpfer und dem Gegner, den er bewegt).</p>"
    },
    "effects": [],
    "folder": "EI07223845296198",
    "_key": "!items!SC12111919723587"
}
