{
    "_id": "SP21717953732655",
    "name": "Springer",
    "type": "combatAbility",
    "img": "systems/tde5e/assets/defaultItems/special_ability_combat.svg",
    "system": {
        "group": "armorStyleExtended",
        "purchase": {
            "cost": [
                10
            ],
            "maxTimeBuyable": 1,
            "levels": 1,
            "description": "10 Abenteuerpunkte"
        },
        "sources": [
            "BOSPARANS_KATAKOMBEN"
        ],
        "cid": "SPRINGER",
        "notes": "",
        "gmNotes": "",
        "variant": {
            "level": 1,
            "categories": [],
            "input": false,
            "available": [],
            "selected": null
        },
        "combat": {
            "combatTechniques": {
                "all": true,
                "values": []
            },
            "armorGroups": [
                "fabric"
            ]
        },
        "requirementText": "Kleidung und Stoffrüstung",
        "flavor": "<p>Besonders flinke Kämpfer verzichten auf ihren Rüstschutz, um im Gemetzel überall gleichzeitig zu sein. Die Taktik zahlt sich nicht immer aus, schafft aber viele Freiheiten, die eine strenge Formation nicht bietet.</p>",
        "parents": [
            "Compendium.tde5e.combat.Item.KL56214131171175"
        ],
        "rule": "<p>Mit dem ersten Einsatz von @UUID[Compendium.tde5e.combat.Item.BE20238531711282]{Bewegung} pro Kampfrunde kann sich der Träger um 2 Schritt zusätzlich bewegen.</p>"
    },
    "effects": [],
    "folder": "KL41985815884371",
    "_key": "!items!SP21717953732655"
}
