{
    "_id": "VE23013220102172",
    "name": "Verbündete freiblocken",
    "type": "action",
    "img": "systems/tde5e/assets/defaultItems/action.svg",
    "system": {
        "sources": [],
        "cid": "VERBUNDETE_FREIBLOCKEN",
        "notes": "",
        "gmNotes": "",
        "prerequisites": {
            "combatStyle": [],
            "equipment": [],
            "quality": 1
        },
        "cost": {
            "resources": {
                "actionPoints": 3,
                "adrenaline": 0,
                "style": 0
            },
            "description": "3 AkP"
        },
        "requirementText": "Kraftakt 8 oder Kriegskunst 8",
        "purchase": {
            "cost": [
                2
            ],
            "description": "2 Abenteuerpunkte"
        },
        "quality": {
            "limited": "",
            "disadvantaged": "",
            "advantaged": "",
            "overreached": ""
        },
        "empowerments": [],
        "isAttack": false,
        "isRanged": null,
        "flavor": "Manche Kämpfer müssen Opfer bringen, damit andere den Tag retten können. Entscheidende Manöver benötigen Zeit und Platz, um ihre volle Wirkung zu entfalten.",
        "ruleShort": "Verbündete AkP + 2",
        "rule": "Die Kriegerin verschafft einem Verbündeten im Nahkampf zwei Aktionspunkte. Dadurch kann sich die Handlungsreihenfolge im weiteren Verlauf der Kampfrunde ändern. Die Kämpferin selbst kann ihre Handlungen jedoch in jedem Fall beenden, auch wenn der Verbündete nun mehr Aktionspunkte hat als sie selbst.",
        "parents": []
    },
    "effects": [],
    "folder": "TA16785819642176",
    "_key": "!items!VE23013220102172"
}
