{
    "folder": "KE14599897762984",
    "name": "Verführung",
    "type": "action",
    "system": {
        "cid": "VERFUHRUNG",
        "sources": [],
        "notes": "",
        "gmNotes": "",
        "flavor": "",
        "rule": "<p>Ein Gegner in bis zu 6 Schritt Entfernung erleidet die Trefferpunkte der Waffe und wird in Nahkampfreichweite bewegt. Der Kettenbinder wird mit dem Ziel @UUID[Compendium.tde5e.combat.Item.GE95016443060873]{gefangen}.</p>",
        "parents": [
            "Compendium.tde5e.combat.Item.KE83534046051131"
        ],
        "prerequisites": {
            "combatStyle": [
                "Compendium.tde5e.combat.Item.KE83534046051131"
            ],
            "equipment": [],
            "quality": 1
        },
        "isAttack": true,
        "isRanged": null,
        "cost": {
            "resources": {
                "actionPoints": 3,
                "adrenaline": 0,
                "style": 0
            },
            "description": "3 AkP"
        },
        "purchase": {
            "cost": [
                3
            ],
            "description": "3 Abenteuerpunkte"
        },
        "quality": {},
        "empowerments": [],
        "ruleShort": "TP, Gegner 6 Schritt ziehen, Gefangen",
        "requirementText": ""
    },
    "_id": "VE37000415609839",
    "img": "systems/tde5e/assets/defaultItems/action.svg",
    "effects": [],
    "_key": "!items!VE37000415609839"
}
