{
    "_id": "WU23954631441242",
    "name": "Wuchtiger Angriff",
    "type": "action",
    "img": "systems/tde5e/assets/defaultItems/action.svg",
    "system": {
        "sources": [],
        "cid": "WUCHTIGER_ANGRIFF",
        "notes": "",
        "gmNotes": "",
        "prerequisites": {
            "combatStyle": [],
            "equipment": [],
            "quality": 1
        },
        "cost": {
            "resources": {
                "actionPoints": 3,
                "adrenaline": 0,
                "style": 0
            },
            "description": "3 AkP"
        },
        "requirementText": "KK 13",
        "purchase": {
            "cost": [
                5
            ],
            "description": "5 Abenteuerpunkte"
        },
        "quality": {
            "limited": "",
            "disadvantaged": "",
            "advantaged": "",
            "overreached": ""
        },
        "empowerments": [],
        "isAttack": true,
        "isRanged": null,
        "flavor": "<em>\"Und dann schlägst‘ einfach kräftig drauf.\"</em> -- Eberhelm",
        "ruleShort": "TP + 3",
        "rule": "Der Kämpfer verursacht 3 Trefferpunkte zusätzlich zum Schaden der Waffe.",
        "parents": []
    },
    "effects": [],
    "folder": "AN11095721741576",
    "_key": "!items!WU23954631441242"
}
