{
    "folder": "KE14599897762984",
    "name": "Zwischenspiel",
    "type": "action",
    "system": {
        "cid": "ZWISCHENSPIEL",
        "sources": [],
        "notes": "",
        "gmNotes": "",
        "flavor": "",
        "rule": "<p>Der Kettenbinder tauscht die Position mit einem @UUID[Compendium.tde5e.combat.Item.GE95016443060873]{gefangenen} Ziel, wobei sich beide um 2 Schritt zusätzlich in die voneinander entgegengesetzte Richtung bewegen.</p><p>Die Bewegung gibt dem Kettenbinder und allen Verbündeten die Gelegenheit für einen @UUID[Compendium.tde5e.combat.Item.PA34701102252224]{Passierschlag} gegen das Ziel.</p>",
        "parents": [
            "Compendium.tde5e.combat.Item.GE95016443060873"
        ],
        "prerequisites": {
            "combatStyle": [
                "Compendium.tde5e.combat.Item.KE83534046051131"
            ],
            "equipment": [],
            "quality": 1
        },
        "isAttack": false,
        "isRanged": false,
        "cost": {
            "resources": {
                "actionPoints": 2,
                "adrenaline": 0,
                "style": 0
            },
            "description": "2 AkP"
        },
        "purchase": {
            "cost": [
                8
            ],
            "description": "8 Abenteuerpunkte"
        },
        "quality": {
            "limited": "Die zusätzliche Distanz ist um 1 Schritt reduziert. Passierschläge gegen das Ziel richten 1 TP weniger an.",
            "disadvantaged": "Die zusätzliche Distanz ist um 1 Schritt reduziert.",
            "advantaged": "Die zusätzliche Distanz ist um 1 Schritt erhöht.",
            "overreached": "Die zusätzliche Distanz ist um 1 Schritt erhöht. Passierschläge gegen das Ziel richten 1 TP zusätzlich an."
        },
        "empowerments": [
            "Compendium.tde5e.combat.Item.ZW34803406416024"
        ],
        "ruleShort": "Gefangen: Position mit Gegner tauschen (+2 Schritt), Passierschlag",
        "requirementText": "Kampfstil <em>Kettenbinder</em>"
    },
    "_id": "ZW68523691604216",
    "img": "systems/tde5e/assets/defaultItems/action.svg",
    "effects": [],
    "_key": "!items!ZW68523691604216"
}
